{
  "num": "autog_0005-0970_1968_num_5_1",
  "article": "autog_0005-0970_1968_num_5_1_922",
  "page_name": "FMSH_PB188a_05-06_082",
  "questions": [
    "Quand René Lourau parle de la « rationalisation de l'activité communautaire », quels aspects de cette rationalisation est-il intéressé ?",
    "Dans quels termes René Lourau caractérise-t-il le « sauvage » et le « civilisé » ?",
    "Selon René Lourau, en quoi le « sauvage » est-il plus connaissant que le « civilisé » ?",
    "Dans quels termes Max Weber décrit-il l'objectivité de la connaissance ?",
    "Quel est le contexte historique dans lequel émerveille René Lourau l'impression d'un malaise difficilement articulable et rationalisable ?",
    "Quels modes de fonctionnement hiérarchiques et centralisés sont mis en question durant la crise politique de mai 68 ?",
    "Quels sont les alternatives proposées pour remplacer les modes de fonctionnement hiérarchiques et centralisés ?",
    "Comment René Lourau distingue le mouvement social de contestation du projet politique qu'il porte ?",
    "Quels sont les institutions traditionnelles qui ne peuvent plus transmettre les volontés de la base ?",
    "Comment René Lourau explique que le mouvement social a éclaté et que le contrôle des « appareils administratifs » n'a plus suffi pour transmettre aux institutions du pouvoir officiel les revendications habituelles ?"
  ]
}