{
  "num": "autog_0005-0970_1968_num_5_1",
  "article": "autog_0005-0970_1968_num_5_1_922",
  "page_name": "FMSH_PB188a_05-06_091",
  "questions": [
    "Quels sont les conditions supposées et exigées par l'autogestion pour que les moyens de production soient la propriété du travailleur collectif ?",
    "Comment distingue-t-on l'autogestion de la participation dans le contexte des institutions économiques ?",
    "Quel est le rôle de la propriété privée des moyens de production dans le système capitaliste et comment le travail social s'y oppose-t-il ?",
    "En quoi est-il limitatif de considérer l'analyse de l'autogestion à partir du concept du processus de travail ?",
    "Quels sont les changements survenus dans la production depuis l'époque de Marx qui influencent les concepts de travail vivant et travailleur collectif ?",
    "Comment Marx a-t-il voulu penser les rapports entre le travailleur collectif, la matière à transformer et les instruments de production ?",
    "Quels sont les éléments du travailleur collectif et comment se comportent les relations entre eux ?",
    "Quels sont les facteurs peu contrôlables qui influencent les rapports entre le travailleur collectif et les autres termes du processus de travail ?",
    "Comment le travail social est-il impliqué dans la récupération du profit et sa distribution ?",
    "Comment les investissements des capitaux influencent-ils le renouvellement du matériel et l'autofinancement ?",
    "Comment la consommation emballée et le crédit sont-ils impliqués dans la récupération du profit ?"
  ]
}