{
  "num": "autog_0338-7259_1970_num_13_1",
  "article": "autog_0338-7259_1970_num_13_1_1799",
  "page_name": "FMSH_PB188a_13-14_267",
  "questions": [
    {
      "id_qa": "FMSH_PB188a_13-14_267_qa9_v3",
      "id_block": "block_1",
      "question": "Qu'est ce que l'expérience des conseils qui y est faite ?",
      "answer": "une valeur exemplaire",
      "answer_stringIds": [
        "string_105",
        "string_106",
        "string_107"
      ]
    },
    {
      "id_qa": "FMSH_PB188a_13-14_267_qa11_v3",
      "id_block": "block_1",
      "question": "Qu'est-ce que les entreprises industrielles d'un très haut niveau technologique ?",
      "answer": "des explosifs ou des ordinateurs",
      "answer_stringIds": [
        "string_126",
        "string_127",
        "string_128",
        "string_129",
        "string_130"
      ]
    },
    {
      "id_qa": "FMSH_PB188a_13-14_267_qa13_v3",
      "id_block": "block_1",
      "question": "Où la vieille taupe travaille-t-elle ?",
      "answer": "sous terre",
      "answer_stringIds": [
        "string_145",
        "string_146"
      ]
    },
    {
      "id_qa": "FMSH_PB188a_13-14_267_qa14_v3",
      "id_block": "block_1",
      "question": "Qui travaille sous terre ?",
      "answer": "la vieille taupe",
      "answer_stringIds": [
        "string_141",
        "string_142",
        "string_143"
      ]
    },
    {
      "id_qa": "FMSH_PB188a_13-14_267_qa12_v3",
      "id_block": "block_3",
      "question": "Qu'est-ce que la collaboration de classe ?",
      "answer": "un salaire",
      "answer_stringIds": [
        "string_194",
        "string_195"
      ]
    }
  ]
}