{
  "num": "autog_0249-2563_1984_num_17_16",
  "article": "autog_0249-2563_1984_num_17_16_1599",
  "page_name": "autog_0249-2563_1984_num_17_16_T1_0098_0000",
  "questions": [
    "Quels groupes d'agriculteurs sont soumis à des dettes et commencent à mal supporter l'exploitation familiale ?",
    "Comment les agriculteurs réconcilient-ils leur désir d'entrer dans la modernité avec leur aspiration à une culture différente ?",
    "Pourquoi les agriculteurs souhaitent-ils échapper à la course au foncier et aux investissements ?",
    "Quels nouveaux espaces culturels sont-ils à la recherche de pour ouvrir ?",
    "Quels sont les producteurs les moins satisfaits et les plus demandeurs de changement ?",
    "Comment les syndicats formulent-ils et transmettent-ils cette demande contradictoire de développement monolithique et de changement ?",
    "Quel est le point de vue de la FNSEA sur le développement agricole ?",
    "Comment les syndicats issus du mouvement des paysans travailleurs, la CNSTP et la FENSTP, formulent-ils leurs revendications ?"
  ]
}