{
  "num": "autog_0249-2563_1982_num_15_8",
  "article": "autog_0249-2563_1982_num_15_8_1958",
  "page_name": "autog_0249-2563_1982_num_15_8_T1_0002_0000",
  "questions": [
    {
      "id_qa": "autog_0249-2563_1982_num_15_8_T1_0002_0000_qa5_v3",
      "id_block": "block_2",
      "question": "Qui a composé ce numéro ?",
      "answer": "par les TravaElles",
      "answer_stringIds": [
        "string_52",
        "string_53",
        "string_54"
      ]
    },
    {
      "id_qa": "autog_0249-2563_1982_num_15_8_T1_0002_0000_qa0_v3",
      "id_block": "block_3",
      "question": "Quels sont les horaires de la permanence de la rédaction ?",
      "answer": "tous les lundis et mercredis de 14 heures à 17 heures",
      "answer_stringIds": [
        "string_72",
        "string_73",
        "string_74",
        "string_75",
        "string_76",
        "string_77",
        "string_78",
        "string_79",
        "string_80",
        "string_81",
        "string_82"
      ]
    },
    {
      "id_qa": "autog_0249-2563_1982_num_15_8_T1_0002_0000_qa2_v3",
      "id_block": "block_4",
      "question": "Qui est l'auteur de cet article ?",
      "answer": "-nous",
      "answer_stringIds": [
        "string_98"
      ]
    }
  ]
}