{
  "num": "autog_0338-7259_1972_num_18_1",
  "article": "autog_0338-7259_1972_num_18_1_1057",
  "page_name": "FMSH_PB188a_18-19_302",
  "questions": [
    {
      "id_qa": "FMSH_PB188a_18-19_302_qa20_v3",
      "id_block": "block_1",
      "question": "Dans quelle presse s'est développée la moisson ?",
      "answer": "dans les revues autres que la presse anarchiste",
      "answer_stringIds": [
        "string_13",
        "string_14",
        "string_15",
        "string_16",
        "string_17",
        "string_18",
        "string_19",
        "string_20"
      ]
    },
    {
      "id_qa": "FMSH_PB188a_18-19_302_qa0_v3",
      "id_block": "block_2",
      "question": "Qu'est ce qui est publié par la Revue française de science politique ?",
      "answer": "une liste des thèses et mémoires",
      "answer_stringIds": [
        "string_106",
        "string_107",
        "string_108",
        "string_109",
        "string_110",
        "string_111"
      ]
    },
    {
      "id_qa": "FMSH_PB188a_18-19_302_qa5_v3",
      "id_block": "block_2",
      "question": "Qu'est ce que nous avons dépouillé pour les travaux américains ?",
      "answer": "les Dissertational abstracts",
      "answer_stringIds": [
        "string_147",
        "string_148",
        "string_149"
      ]
    },
    {
      "id_qa": "FMSH_PB188a_18-19_302_qa25_v3",
      "id_block": "block_2",
      "question": "Quelle est la part importante des recherches ?",
      "answer": "les travaux universitaires",
      "answer_stringIds": [
        "string_59",
        "string_60",
        "string_61"
      ]
    },
    {
      "id_qa": "FMSH_PB188a_18-19_302_qa13_v3",
      "id_block": "block_3",
      "question": "Qu'est ce que le Bulletin du C.IR.A ?",
      "answer": "une chronique régulière",
      "answer_stringIds": [
        "string_197",
        "string_198",
        "string_199"
      ]
    },
    {
      "id_qa": "FMSH_PB188a_18-19_302_qa27_v3",
      "id_block": "block_3",
      "question": "Qu'est ce que le bulletin de la Society for the study of labour history ?",
      "answer": "une rubrique courte aux travaux en cours",
      "answer_stringIds": [
        "string_313",
        "string_314",
        "string_315",
        "string_316",
        "string_317",
        "string_318",
        "string_319"
      ]
    },
    {
      "id_qa": "FMSH_PB188a_18-19_302_qa30_v3",
      "id_block": "block_3",
      "question": "Quand le Catalogue of work in progress in contemporary history a-t-il été publié ?",
      "answer": "en 1968",
      "answer_stringIds": [
        "string_290",
        "string_291"
      ]
    }
  ]
}