{
  "num": "autog_0249-2563_1982_num_15_10",
  "article": "autog_0249-2563_1982_num_15_10_1498",
  "page_name": "autog_0249-2563_1982_num_15_10_T1_0064_0000",
  "questions": [
    {
      "id_qa": "autog_0249-2563_1982_num_15_10_T1_0064_0000_qa14_v3",
      "id_block": "block_0",
      "question": "Qui a réalisé la gestion directe avec un champ de compétence très étendu ?",
      "answer": "le Collectif",
      "answer_stringIds": [
        "string_13",
        "string_14"
      ]
    },
    {
      "id_qa": "autog_0249-2563_1982_num_15_10_T1_0064_0000_qa16_v3",
      "id_block": "block_0",
      "question": "Qui était chargé de la gestion directe de la formation ?",
      "answer": "le Collectif",
      "answer_stringIds": [
        "string_13",
        "string_14"
      ]
    },
    {
      "id_qa": "autog_0249-2563_1982_num_15_10_T1_0064_0000_qa18_v3",
      "id_block": "block_0",
      "question": "Quelle est la part prépondérante de la représentation ?",
      "answer": "aux enseignants de rang magistral",
      "answer_stringIds": [
        "string_8",
        "string_9",
        "string_10",
        "string_11",
        "string_12"
      ]
    },
    {
      "id_qa": "autog_0249-2563_1982_num_15_10_T1_0064_0000_qa4_v3",
      "id_block": "block_1",
      "question": "Qui était le talon d'Achille de l'autogestion ?",
      "answer": "aux étudiants",
      "answer_stringIds": [
        "string_89",
        "string_90"
      ]
    },
    {
      "id_qa": "autog_0249-2563_1982_num_15_10_T1_0064_0000_qa5_v3",
      "id_block": "block_1",
      "question": "Quel était le talon d'Achille de l'autogestion ?",
      "answer": "la place",
      "answer_stringIds": [
        "string_85",
        "string_86"
      ]
    },
    {
      "id_qa": "autog_0249-2563_1982_num_15_10_T1_0064_0000_qa6_v3",
      "id_block": "block_1",
      "question": "Qu'est-ce qui avait son talon d'Achille ?",
      "answer": "cette autogestion",
      "answer_stringIds": [
        "string_78",
        "string_79"
      ]
    },
    {
      "id_qa": "autog_0249-2563_1982_num_15_10_T1_0064_0000_qa19_v3",
      "id_block": "block_1",
      "question": "Qui ne pouvait pas participer aux réunions du Collectif ?",
      "answer": "les étudiants",
      "answer_stringIds": [
        "string_97",
        "string_98"
      ]
    },
    {
      "id_qa": "autog_0249-2563_1982_num_15_10_T1_0064_0000_qa20_v3",
      "id_block": "block_1",
      "question": "Qui pouvait participer aux réunions du Collectif ?",
      "answer": "les étudiants",
      "answer_stringIds": [
        "string_97",
        "string_98"
      ]
    },
    {
      "id_qa": "autog_0249-2563_1982_num_15_10_T1_0064_0000_qa21_v3",
      "id_block": "block_1",
      "question": "Qu'est-ce que les étudiants n'avaient pas ?",
      "answer": "le droit de vote",
      "answer_stringIds": [
        "string_119",
        "string_120",
        "string_121",
        "string_122"
      ]
    },
    {
      "id_qa": "autog_0249-2563_1982_num_15_10_T1_0064_0000_qa22_v3",
      "id_block": "block_1",
      "question": "A quoi les étudiants n'étaient pas associés ?",
      "answer": "pouvoir",
      "answer_stringIds": [
        "string_114"
      ]
    },
    {
      "id_qa": "autog_0249-2563_1982_num_15_10_T1_0064_0000_qa7_v3",
      "id_block": "block_2",
      "question": "Quel est le point faible de la liste autogestionnaire ?",
      "answer": "notre autogestion",
      "answer_stringIds": [
        "string_129",
        "string_130"
      ]
    },
    {
      "id_qa": "autog_0249-2563_1982_num_15_10_T1_0064_0000_qa10_v3",
      "id_block": "block_2",
      "question": "Qu'est ce qui a remporté 50% des voix à elle seule ?",
      "answer": "les élections",
      "answer_stringIds": [
        "string_153",
        "string_154"
      ]
    },
    {
      "id_qa": "autog_0249-2563_1982_num_15_10_T1_0064_0000_qa2_v3",
      "id_block": "block_3",
      "question": "Qui sont les chevilles ouvrières du PSU ?",
      "answer": "les autogestionnaires étudiants",
      "answer_stringIds": [
        "string_190",
        "string_191",
        "string_192"
      ]
    },
    {
      "id_qa": "autog_0249-2563_1982_num_15_10_T1_0064_0000_qa24_v3",
      "id_block": "block_3",
      "question": "Avec qui les membres du Collectif sont-ils favorables ?",
      "answer": "les étudiants",
      "answer_stringIds": [
        "string_97",
        "string_98"
      ]
    },
    {
      "id_qa": "autog_0249-2563_1982_num_15_10_T1_0064_0000_qa25_v3",
      "id_block": "block_3",
      "question": "Que pratiquent les membres du Collectif ?",
      "answer": "une autogestion",
      "answer_stringIds": [
        "string_50",
        "string_51"
      ]
    },
    {
      "id_qa": "autog_0249-2563_1982_num_15_10_T1_0064_0000_qa11_v3",
      "id_block": "block_4",
      "question": "Quel est le nom de la liste autogestionnaire étudiante ?",
      "answer": "le débat « Conseil ou Collectif ?",
      "answer_stringIds": [
        "string_320",
        "string_321",
        "string_322",
        "string_323",
        "string_324",
        "string_325",
        "string_326"
      ]
    },
    {
      "id_qa": "autog_0249-2563_1982_num_15_10_T1_0064_0000_qa12_v3",
      "id_block": "block_4",
      "question": "Qu'est ce qui a provoqué le débat \"Conseil ou Collectif ?",
      "answer": "La liste autogestionnaire étudiante",
      "answer_stringIds": [
        "string_313",
        "string_314",
        "string_315",
        "string_316"
      ]
    }
  ]
}