{
  "num": "autog_0249-2563_1982_num_15_10",
  "article": "autog_0249-2563_1982_num_15_10_1498",
  "page_name": "autog_0249-2563_1982_num_15_10_T1_0063_0000",
  "questions": [
    {
      "id_qa": "autog_0249-2563_1982_num_15_10_T1_0063_0000_qa5_v3",
      "id_block": "block_0",
      "question": "Qu'annulait Savary ?",
      "answer": "les quorums",
      "answer_stringIds": [
        "string_31",
        "string_32"
      ]
    },
    {
      "id_qa": "autog_0249-2563_1982_num_15_10_T1_0063_0000_qa6_v3",
      "id_block": "block_0",
      "question": "Qui a annulé les quorums ?",
      "answer": "Savary",
      "answer_stringIds": [
        "string_64"
      ]
    },
    {
      "id_qa": "autog_0249-2563_1982_num_15_10_T1_0063_0000_qa7_v3",
      "id_block": "block_1",
      "question": "Qui dirige l'Union Nationale des Étudiants de France ?",
      "answer": "par des communistes",
      "answer_stringIds": [
        "string_147",
        "string_148",
        "string_149"
      ]
    },
    {
      "id_qa": "autog_0249-2563_1982_num_15_10_T1_0063_0000_qa1_v3",
      "id_block": "block_2",
      "question": "A partir de quand doit commencer l'autogestion à l'Université ?",
      "answer": "dès maintenant",
      "answer_stringIds": [
        "string_175",
        "string_176"
      ]
    },
    {
      "id_qa": "autog_0249-2563_1982_num_15_10_T1_0063_0000_qa3_v3",
      "id_block": "block_2",
      "question": "A quand remonte le projet de construire l'autogestion à l'Université ?",
      "answer": "dès maintenant",
      "answer_stringIds": [
        "string_175",
        "string_176"
      ]
    },
    {
      "id_qa": "autog_0249-2563_1982_num_15_10_T1_0063_0000_qa14_v3",
      "id_block": "block_5",
      "question": "Qu'est ce qui a été perdu depuis dix ans ?",
      "answer": "son pouvoir",
      "answer_stringIds": [
        "string_309",
        "string_310"
      ]
    },
    {
      "id_qa": "autog_0249-2563_1982_num_15_10_T1_0063_0000_qa15_v3",
      "id_block": "block_5",
      "question": "Qu'est-ce qui a perdu son pouvoir depuis dix ans ?",
      "answer": "cet organe légal de direction",
      "answer_stringIds": [
        "string_300",
        "string_301",
        "string_302",
        "string_303",
        "string_304"
      ]
    }
  ]
}