{
  "num": "autog_0249-2563_1981_num_14_6",
  "article": "autog_0249-2563_1981_num_14_6_1427",
  "page_name": "FMSH_PB188a_NS_00006_046",
  "questions": [
    "Quels événements sociaux poussent le système à lancer une campagne politique d'explication et de mobilisation ?",
    "Quel est le but principal de ces campagnes ?",
    "Comment ces campagnes tentent-elles de rétablir la situation sociale ?",
    "Quels événements imprévus peuvent survenir en réponse à une campagne politique ?",
    "Comment les campagnes politiques d'explication ont-elles contribué à résoudre les crises de légitimité dans le système jusqu'à présent ?",
    "Quels sont les périodes révolutionnaires que la classe ouvrière et les masses populaires souhaitent revenir vers ?",
    "Comment les grèves et les interruptions de travail ont-elles réagi à des campagnes politiques antérieures ?",
    "Pourquoi les campagnes politiques ont-elles réussi à réduire la tension dans le système jusqu'à présent ?",
    "Est-il possible que les campagnes politiques d'explication et de mobilisation ne soient plus efficaces dans l'avenir ?"
  ]
}