{
  "num": "autog_0338-7259_1976_num_35_1",
  "article": "autog_0338-7259_1976_num_35_1_1177",
  "page_name": "FMSH_PB188a_35-36_084",
  "questions": [
    "Quel est le rôle que Olivier Corpet joue dans le contexte de la relation entre Marx et ses disciples ?",
    "Quel est le premier homme à célébrer un « culte » de Marx et comment contribue-t-il à la formation d'une mythologie autour de Marx ?",
    "Quels sont les principaux documents constitutifs de l'Association Internationale des Travailleurs (AIT) écrits par Marx ?",
    "Quel est le principe de l'autoémancipation placé en tête des préambules des statuts de l'AIT et comment il interdit-il à l'intellectuel un autre rôle que celui de contribuer à la compréhension de la société existante ?",
    "Comment Marx refuse-t-il de transformer l'Internationale en un appareil chargé d'imposer une doctrine de l'émancipation sociale ?",
    "Comment les positions théoriques et pratiques de Marx s'opposent aux futures pratiques politiques léninistes ?",
    "Quels sources sont utilisées par M. Rubel pour démonstrer les positions théoriques et pratiques de Marx ?",
    "Quel est le rôle de l'intellectuel selon Marx ?",
    "Qu'est-ce que l'autoémancipation et comment elle est placée en tête des préambules des statuts de l'AIT ?",
    "Comment la mythologie de Marx risque-t-elle de corrompre la signification profonde de son enseignement ?",
    "Quel est le rôle de Bakounine dans la relation entre Marx et ses disciples ?",
    "Comment Engels prend-t-il position vis-à-vis du « culte » de Marx ?",
    "Quel est le rôle de l'intellectuel selon Bakounine ?",
    "Comment l'Internationale est-elle décrite par Marx et comment elle est supposée fonctionner ?",
    "Quels sont les mouvements spontanés des classes ouvrières que l'Internationale est supposée combiner, généraliser et donner de l'uniformité ?",
    "Qu?"
  ]
}