{
  "num": "autog_0338-7259_1976_num_35_1",
  "article": "autog_0338-7259_1976_num_35_1_1177",
  "page_name": "FMSH_PB188a_35-36_079",
  "questions": [
    "Quels groupes sociaux sont accusés d'opposer non seulement des actions, mais des pensées non conformes ?",
    "Pourquoi les racistes sont-ils considérés comme étant au pouvoir et en haut de l'État, dans le parti et occupant les premiers rangs de la société ?",
    "Quel est le rôle de Soljenitsyne dans la recherche des origines historiques et théoriques de la formation de la pensée et de la pratique staliniennes ?",
    "Pourquoi Soljenitsyne considère-t-il Marx comme étant responsable de l'essence du stalinisme ?",
    "Quel est le dialogue imaginaire entre Soljenitsyne et ses détracteurs sur la question de la responsabilité de Marx dans ce qui s'est édifié en son nom ?",
    "Est-ce que Staline était dans Lénine ?",
    "Est-ce que Lénine était dans Marx ?",
    "Est-ce donc que Staline était dans Marx ?",
    "Quel est le lien entre la responsabilité de Marx dans ce qui s'est édifié en son nom et la question de la « résistance à l'analyse » et de l'abandon des «armes de la critique» lorsque Marx lui-même et ses travaux sont directement visés ?",
    "Qu'est-ce qui fait que certains livres sur ce thème font illusionner ?",
    "Qu'est-ce qui est condamné sans être entendu si on condamne une vérité d'après ses conséquences coupables ?"
  ]
}