{
  "num": "autog_0338-7259_1976_num_35_1",
  "article": "autog_0338-7259_1976_num_35_1_1177",
  "page_name": "FMSH_PB188a_35-36_092",
  "questions": [
    "Quel auteur, A. Glucksmann, fait-il référence pour discuter des contradictions entre le socialisme scientifique et utopique ?",
    "Selon quelle analyse Marx est-il considéré comme ayant jeté les fondements d'une science de la société ?",
    "Quand M. Rubel refuse cette analyse, qu'est-il en faveur de ?",
    "Comment estime M. Rubel que Marx s'est opposé aux utopistes ?",
    "Quels sarcasmes sont-ils réservés dans le Manifeste Communiste à certains précurseurs ?",
    "Quels sont les justes fins que les principaux utopistes proposent et quels moyens préconisent-ils pour les réaliser ?",
    "Comment Marx s'oppose-t-il à ces moyens proposés par les utopistes ?",
    "En quoi Marx est-il redevable à la pensée de Saint-Simon ?",
    "Pourquoi Marx ne s'est-il pas reconnu dans l'élitisme des Saints-Simonniens ?"
  ]
}