{
  "num": "autog_0338-7259_1976_num_35_1",
  "article": "autog_0338-7259_1976_num_35_1_1177",
  "page_name": "FMSH_PB188a_35-36_073",
  "questions": [
    "Quand parle Sartre de la révolution comme un long mouvement de déprise du pouvoir ?",
    "Dans quels termes décrit Lefebvre l'autogestion aujourd'hui ?",
    "Quels sont les mécanismes d'exploitation modernes qui empêchent des millions de personnes de détourner leur regard de la société du spectacle ?",
    "Comment justifie et conserve la classe dominante les rapports de production existants selon la théorie marxienne ?",
    "Quel est le rôle de l'idéologie dans la génèse et la constitution de l'hégémonie d'une classe sur toute une société humaine ?",
    "Selon la théorie marxienne, comment présentent les valeurs de la classe dominante comme désintéressées et universelles ?",
    "Dans quelle revue a été publié l'article d'Olivier Corpet avec quelques modifications ?",
    "Note: The document is in French, so the questions are also in French.?"
  ]
}