{
  "num": "autog_0249-2563_1980_num_13_4",
  "article": "autog_0249-2563_1980_num_13_4_1394",
  "page_name": "autog_0249-2563_1980_num_13_4_T1_0452_0000",
  "questions": [
    "Quelles positions s'opposent-elles dans le débat entre l'autogestion et l'écologie ?",
    "Quels acquis scientifiques et technologiques sont mis en question par cette confrontation ?",
    "Quels sont les enjeux politiques sous-jacents à ce débat ?",
    "Quels sont les aspects philosophiques divergents ou opposés ?",
    "Quels sont les besoins et désirs humains au centre de la recherche ?",
    "Comment les participants au séminaire se sont-ils accordés sur certaines propositions ?",
    "Comment l'énergie nucléaire renforce-t-elle l'hétérogestion des citoyens par l'Etat ?",
    "Quels sont les prérequis de la construction de centrales atomiques ?",
    "Quels dangers justifient-ils l'état de police et la centralisation de pouvoir ?",
    "Comment la perte d'autonomie dans le travail est-elle présentée comme une nécessité de la sécurité ?",
    "Quels sont les équivalents de l'emprisonnement et de la déportation en cas d'accident ?"
  ]
}