{
  "num": "autog_0338-7259_1970_num_13_1",
  "article": "autog_0338-7259_1970_num_13_1_976",
  "page_name": "FMSH_PB188a_13-14_091",
  "questions": [
    "Quel est l'expérience d'autogestion décrite dans le contexte politique donné ?",
    "Est-la science neutre et utilisable par des courants politiques différents ?",
    "Comment les méthodes, techniques ou attitudes du formateur prennent-elles leur signification dans le système institutionnel ?",
    "Quel est le statut du formateur et sa fonction dans les institutions de formation ?",
    "Comment les institutions peuvent-elles être formatrices ?",
    "Quels sont les rapports de domination ou de pouvoir dans la formation ?",
    "Comment les situer par rapport à l'exploitation, aux processus d'influence et aux rapports de pouvoir et de domination ?",
    "Comment distinguer ces rapports ?",
    "Quels liens existe-t-il entre la créativité et l'autogestion ?",
    "Comment éviter que la créativité ne soit simplement le reflet de modèles culturels dominants ?",
    "Quel devient la transmission des connaissances dans un processus d'autogestion pédagogique ?",
    "Comment l'autogestion révèle-t-elle une société à analyser dans ses significations ?"
  ]
}