{
  "num": "autog_0338-7259_1970_num_13_1",
  "article": "autog_0338-7259_1970_num_13_1_976",
  "page_name": "FMSH_PB188a_13-14_063",
  "questions": [
    "Comment l'université est-elle impliquée dans cette dimension politique et relationnelle d'une expérience d'auto-gestion économique et politique ?",
    "Quels canaux de diffusion ont été utilisés pour cette forme de domination économique et politique ?",
    "Quels sont les effets et conséquences de cette forme de domination économique et politique ?",
    "Comment l'université a-t-elle organisé un forum politique pour les participants ?",
    "Quel était le but du forum politique dans la formation de l'université ?",
    "Quel était le second sens de la «politisation» dans les textes de préparation à l'université ?",
    "Quel était le premier objectif de cette «politisation» dans la formation ou la recherche ?",
    "Comment l'on modifie-t-on un milieu en injectant de l'extérieur une masse d'informations ?",
    "Comment la quantité d'informations est-elle liée à la capacité de réaction du milieu ?"
  ]
}