{
  "num": "autog_0338-7259_1970_num_13_1",
  "article": "autog_0338-7259_1970_num_13_1_976",
  "page_name": "FMSH_PB188a_13-14_069",
  "questions": [
    "Quels éléments structurent l'expérience de formation 65 ?",
    "Signifie-t-il que des structures de travail sont proposées ?",
    "N'est-il pas essentiellement une question de faciliter le passage des attentes individuelles à une demande collective ?",
    "Comment aider à structurer les demandes sans les manipuler ?",
    "Quelle est la nature de l'analyse proposée quotidiennement ?",
    "Est-ce une analyse psychosociologique, institutionnelle ou politique ?",
    "Quel est l'objectif de cette analyse ?",
    "Ne réintroduit-elle pas le pouvoir du staff ?",
    "Est-ce une possibilité de limiter des manipulations ?",
    "Les animateurs sont-ils formés à cette fonction ?",
    "Est-ce le seul lieu où les participants peuvent être aidés à lire ce qui se passe ?"
  ]
}