{
  "num": "autog_0338-7259_1970_num_13_1",
  "article": "autog_0338-7259_1970_num_13_1_976",
  "page_name": "FMSH_PB188a_13-14_085",
  "questions": [
    "Quel est le caractère provisoire des connaissances et des techniques enseignées dans la formation 81 ?",
    "Comment les difficultés et interrogations des animateurs doivent-elles être explicitées ?",
    "Quel est le rôle des animateurs face à leurs techniques et connaissances ?",
    "Peut-on développer l'autonomie et l'imagination créatrice par l'analyse de situations et actions novatrices seule ?",
    "Quels moyens doivent être mis en place pour permettre la recherche et la critique des participants sur la formation ?",
    "Comment les séances communes doivent-elles être conçues pour provoquer et faciliter la prise de conscience de la situation du tiers monde dans notre univers actuel et probable ?",
    "Quels sont les objectifs des séances communes en termes d'échanges, de discussion critique, et de initiatives ?",
    "Comment les séances communes doivent-elles être différentes de lieux de réceptivité passive ?"
  ]
}