{
  "num": "autog_0338-7259_1970_num_13_1",
  "article": "autog_0338-7259_1970_num_13_1_976",
  "page_name": "FMSH_PB188a_13-14_088",
  "questions": [
    "Quel modèle de formation humaine propose Guy Le Boterf ?",
    "Cette forme de formation répond-elle à quelle question ?",
    "Quel type de formation politique est décrit dans le texte ?",
    "Quels modèles économiques sont mentionnés ?",
    "Quel rôle a la « réalisation » des modèles joué dans ce processus ?",
    "Comment les participants ont-ils pu constater les significations des structures pré-établies ?",
    "Comment la démarche décrite a-t-elle permis de vivre une démocratie moins restrictive ?",
    "Quel rôle peut avoir le formateur dans une telle formation ?",
    "Quels sont les sens possibles du vote dans ce contexte ?"
  ]
}