{
  "num": "autog_0338-7259_1970_num_13_1",
  "article": "autog_0338-7259_1970_num_13_1_976",
  "page_name": "FMSH_PB188a_13-14_061",
  "questions": [
    "Quels problèmes politiques généraux sont liés aux phénomènes du sous-développement et du développement selon l'Université 1968 ?",
    "Comment l'Université 1968 permet de dégager la signification politique des situations vécues ?",
    "Qu'est l'analyse relationnelle du sous-developpement et comment elle est liée aux indicateurs quantitatifs ?",
    "Comment l'enracinement des conditions dans la situation dépendante des pays sous-développés affecte les domaines économique, militaire, politique, culturel ?",
    "Comment la soumission à des modèles explicatifs importés gêne l'élaboration de changements autonomes dans les pays du tiers monde ?",
    "Est-ce que l'observation faite dans le texte implique que tous les critères extérieurs doivent être rejetés ?"
  ]
}