{
  "num": "autog_0249-2563_1981_num_14_7",
  "article": "autog_0249-2563_1981_num_14_7_1453",
  "page_name": "autog_0249-2563_1981_num_14_7_T1_0345_0000",
  "questions": [
    {
      "id_qa": "autog_0249-2563_1981_num_14_7_T1_0345_0000_qa0_v3",
      "id_block": "block_2",
      "question": "Qui est devenu un « mystique » ?",
      "answer": "A. Ben Bella",
      "answer_stringIds": [
        "string_35",
        "string_36",
        "string_37"
      ]
    },
    {
      "id_qa": "autog_0249-2563_1981_num_14_7_T1_0345_0000_qa2_v3",
      "id_block": "block_2",
      "question": "Qui est le fondateur du courant islamique ?",
      "answer": "A. Ben Bella",
      "answer_stringIds": [
        "string_35",
        "string_36",
        "string_37"
      ]
    },
    {
      "id_qa": "autog_0249-2563_1981_num_14_7_T1_0345_0000_qa3_v3",
      "id_block": "block_2",
      "question": "Qui a été libéré de prison après 15 ans de prison ?",
      "answer": "A. Ben Bella",
      "answer_stringIds": [
        "string_35",
        "string_36",
        "string_37"
      ]
    },
    {
      "id_qa": "autog_0249-2563_1981_num_14_7_T1_0345_0000_qa5_v3",
      "id_block": "block_2",
      "question": "Comment est devenu A. Ben Bella ?",
      "answer": "un « mystique » sublimant sa religiosité renforcée",
      "answer_stringIds": [
        "string_116",
        "string_117",
        "string_118",
        "string_119",
        "string_120",
        "string_121",
        "string_122",
        "string_123",
        "string_124"
      ]
    },
    {
      "id_qa": "autog_0249-2563_1981_num_14_7_T1_0345_0000_qa6_v3",
      "id_block": "block_2",
      "question": "Qui est devenu un mystique ?",
      "answer": "A. Ben Bella",
      "answer_stringIds": [
        "string_35",
        "string_36",
        "string_37"
      ]
    },
    {
      "id_qa": "autog_0249-2563_1981_num_14_7_T1_0345_0000_qa8_v3",
      "id_block": "block_2",
      "question": "Qu'est-ce qui a été rendu à A. Ben Bella ?",
      "answer": "à la liberté",
      "answer_stringIds": [
        "string_99",
        "string_100",
        "string_101"
      ]
    },
    {
      "id_qa": "autog_0249-2563_1981_num_14_7_T1_0345_0000_qa14_v3",
      "id_block": "block_2",
      "question": "Qui soutient la politique néo-colonialiste des pays occidentaux avancés ?",
      "answer": "A. Ben Bella",
      "answer_stringIds": [
        "string_35",
        "string_36",
        "string_37"
      ]
    },
    {
      "id_qa": "autog_0249-2563_1981_num_14_7_T1_0345_0000_qa15_v3",
      "id_block": "block_2",
      "question": "Qu'est-ce que la politique néo-colonialiste des pays occidentaux avancés ?",
      "answer": "des interminables palabres « Nord-Sud",
      "answer_stringIds": [
        "string_43",
        "string_44",
        "string_45",
        "string_46",
        "string_47"
      ]
    },
    {
      "id_qa": "autog_0249-2563_1981_num_14_7_T1_0345_0000_qa9_v3",
      "id_block": "block_3",
      "question": "Qui est profondément marqué par son passé révolutionnaire ?",
      "answer": "A. Ben Bella",
      "answer_stringIds": [
        "string_35",
        "string_36",
        "string_37"
      ]
    },
    {
      "id_qa": "autog_0249-2563_1981_num_14_7_T1_0345_0000_qa10_v3",
      "id_block": "block_3",
      "question": "Quelles sont les aspirations de A. Ben Bella ?",
      "answer": "masses",
      "answer_stringIds": [
        "string_184"
      ]
    },
    {
      "id_qa": "autog_0249-2563_1981_num_14_7_T1_0345_0000_qa11_v3",
      "id_block": "block_3",
      "question": "Qui est plus que jamais sensible aux idées révolutionnaires radicales ?",
      "answer": "A. Ben Bella",
      "answer_stringIds": [
        "string_35",
        "string_36",
        "string_37"
      ]
    }
  ]
}