{
  "num": "autog_0338-7259_1978_num_41_1",
  "article": "autog_0338-7259_1978_num_41_1_1338",
  "page_name": "FMSH_PB188a_41-42_296",
  "questions": [
    {
      "id_qa": "FMSH_PB188a_41-42_296_qa12_v3",
      "id_block": "block_10",
      "question": "Qu'est ce qui est interdit à la frontière ?",
      "answer": "Jeux",
      "answer_stringIds": [
        "string_X"
      ]
    },
    {
      "id_qa": "FMSH_PB188a_41-42_296_qa0_v3",
      "id_block": "block_13",
      "question": "Qui a écrit Du contrat social selon Rousseau ?",
      "answer": "J.P. Siméon",
      "answer_stringIds": [
        "string_X"
      ]
    },
    {
      "id_qa": "FMSH_PB188a_41-42_296_qa6_v3",
      "id_block": "block_18",
      "question": "Par qui sont traduits les textes ?",
      "answer": "par P. Georges et Mona",
      "answer_stringIds": [
        "string_X"
      ]
    },
    {
      "id_qa": "FMSH_PB188a_41-42_296_qa2_v3",
      "id_block": "block_8",
      "question": "Quel est le métier des écologistes ?",
      "answer": "la politique",
      "answer_stringIds": [
        "string_X"
      ]
    },
    {
      "id_qa": "FMSH_PB188a_41-42_296_qa3_v3",
      "id_block": "block_8",
      "question": "Qui fait de la politique ?",
      "answer": "les écologistes",
      "answer_stringIds": [
        "string_X"
      ]
    }
  ]
}