{
  "num": "autog_0338-7259_1976_num_33_1",
  "article": "autog_0338-7259_1976_num_33_1_1152",
  "page_name": "FMSH_PB188a_33-34_013",
  "questions": [
    {
      "id_qa": "FMSH_PB188a_33-34_013_qa14_v3",
      "id_block": "block_1",
      "question": "Qui a écrit la pseudodifférence entre la violence et la violence ?",
      "answer": "le philosophe allemand Walter Benjamin",
      "answer_stringIds": [
        "string_156",
        "string_157",
        "string_158",
        "string_159",
        "string_160"
      ]
    },
    {
      "id_qa": "FMSH_PB188a_33-34_013_qa15_v3",
      "id_block": "block_1",
      "question": "Qu'est-ce qui institue un nouveau droit ?",
      "answer": "la violence",
      "answer_stringIds": [
        "string_167",
        "string_168"
      ]
    },
    {
      "id_qa": "FMSH_PB188a_33-34_013_qa19_v3",
      "id_block": "block_1",
      "question": "Qu'est-ce qui est appelé justice ?",
      "answer": "la fureur des despotes",
      "answer_stringIds": [
        "string_305",
        "string_306",
        "string_307",
        "string_308"
      ]
    },
    {
      "id_qa": "FMSH_PB188a_33-34_013_qa20_v3",
      "id_block": "block_1",
      "question": "Qu'est-ce que Robespierre était bien sensible ?",
      "answer": "cette cécité",
      "answer_stringIds": [
        "string_297",
        "string_298"
      ]
    }
  ]
}