{
  "num": "autog_0338-7259_1976_num_33_1",
  "article": "autog_0338-7259_1976_num_33_1_1152",
  "page_name": "FMSH_PB188a_33-34_016",
  "questions": [
    {
      "id_qa": "FMSH_PB188a_33-34_016_qa0_v3",
      "id_block": "block_1",
      "question": "Qu'est-ce que la démocratie populaire ?",
      "answer": "la critique de la « démocratie bourgeoise",
      "answer_stringIds": [
        "string_56",
        "string_57",
        "string_58",
        "string_59",
        "string_60",
        "string_61",
        "string_62"
      ]
    },
    {
      "id_qa": "FMSH_PB188a_33-34_016_qa2_v3",
      "id_block": "block_1",
      "question": "Qu'est-ce que la critique de la \"démocratie bourgeoise\" ?",
      "answer": "à une option en faveur de la « démocratie populaire",
      "answer_stringIds": [
        "string_71",
        "string_72",
        "string_73",
        "string_74",
        "string_75",
        "string_76",
        "string_77",
        "string_78",
        "string_79",
        "string_80"
      ]
    },
    {
      "id_qa": "FMSH_PB188a_33-34_016_qa6_v3",
      "id_block": "block_1",
      "question": "De quoi vient la critique de la \"démocratie bourgeoise\" ?",
      "answer": "De là",
      "answer_stringIds": [
        "string_52",
        "string_53"
      ]
    },
    {
      "id_qa": "FMSH_PB188a_33-34_016_qa7_v3",
      "id_block": "block_3",
      "question": "Qu'est ce qui a fait l'objet d'une énorme littérature ?",
      "answer": "ce système",
      "answer_stringIds": [
        "string_96",
        "string_97"
      ]
    },
    {
      "id_qa": "FMSH_PB188a_33-34_016_qa8_v3",
      "id_block": "block_3",
      "question": "Où a-t-on tenté de s'implanter le système ?",
      "answer": "au Portugal",
      "answer_stringIds": [
        "string_121",
        "string_122"
      ]
    },
    {
      "id_qa": "FMSH_PB188a_33-34_016_qa12_v3",
      "id_block": "block_4",
      "question": "Quelle est la force électorale des démocraties populaires ?",
      "answer": "la force électorale des P.C. locaux",
      "answer_stringIds": [
        "string_186",
        "string_187",
        "string_188",
        "string_189",
        "string_190",
        "string_191"
      ]
    },
    {
      "id_qa": "FMSH_PB188a_33-34_016_qa19_v3",
      "id_block": "block_5",
      "question": "Quelle était la conséquence de la force électorale du M.R.P. ?",
      "answer": "la disqualification ou",
      "answer_stringIds": [
        "string_276",
        "string_277",
        "string_278"
      ]
    }
  ]
}