{
  "num": "autog_0338-7259_1976_num_33_1",
  "article": "autog_0338-7259_1976_num_33_1_1152",
  "page_name": "FMSH_PB188a_33-34_012",
  "questions": [
    {
      "id_qa": "FMSH_PB188a_33-34_012_qa1_v3",
      "id_block": "block_1",
      "question": "Qu'est ce qui était confirmé par d'autres déclarations ?",
      "answer": "qui.y",
      "answer_stringIds": [
        "string_104"
      ]
    },
    {
      "id_qa": "FMSH_PB188a_33-34_012_qa4_v3",
      "id_block": "block_1",
      "question": "Quelle était la conséquence de la publication de cette interview ?",
      "answer": "inopportune",
      "answer_stringIds": [
        "string_99"
      ]
    },
    {
      "id_qa": "FMSH_PB188a_33-34_012_qa23_v3",
      "id_block": "block_1",
      "question": "Quand le P.C.P. quitta-t-il le gouvernement ?",
      "answer": "la Pravda du 16 juillet 1975",
      "answer_stringIds": [
        "string_127",
        "string_128",
        "string_129",
        "string_130",
        "string_131",
        "string_132"
      ]
    },
    {
      "id_qa": "FMSH_PB188a_33-34_012_qa13_v3",
      "id_block": "block_2",
      "question": "Que mérite cette actualisation de l'opposition entre majorité électorale et volonté révolutionnaire ?",
      "answer": "quelques réflexions",
      "answer_stringIds": [
        "string_324",
        "string_325"
      ]
    },
    {
      "id_qa": "FMSH_PB188a_33-34_012_qa18_v3",
      "id_block": "block_2",
      "question": "Qui s'oppose à la théorie de la révolution ?",
      "answer": "les deux camps opposés",
      "answer_stringIds": [
        "string_351",
        "string_352",
        "string_353",
        "string_354"
      ]
    },
    {
      "id_qa": "FMSH_PB188a_33-34_012_qa19_v3",
      "id_block": "block_2",
      "question": "Qu'est ce qui n'a guère fait de progrès ?",
      "answer": "la théorie de la révolution",
      "answer_stringIds": [
        "string_339",
        "string_340",
        "string_341",
        "string_342",
        "string_343"
      ]
    },
    {
      "id_qa": "FMSH_PB188a_33-34_012_qa29_v3",
      "id_block": "block_2",
      "question": "Qui soutenait la thèse de l'invalidation des élections ?",
      "answer": "par les communistes",
      "answer_stringIds": [
        "string_232",
        "string_233",
        "string_234"
      ]
    }
  ]
}