{
  "num": "autog_0338-7259_1976_num_33_1",
  "article": "autog_0338-7259_1976_num_33_1_1152",
  "page_name": "FMSH_PB188a_33-34_010",
  "questions": [
    {
      "id_qa": "FMSH_PB188a_33-34_010_qa19_v3",
      "id_block": "block_1",
      "question": "Qu'est-ce qui réussit à accélérer le chômage ?",
      "answer": "la démobilisation",
      "answer_stringIds": [
        "string_19",
        "string_20",
        "string_21"
      ]
    },
    {
      "id_qa": "FMSH_PB188a_33-34_010_qa3_v3",
      "id_block": "block_2",
      "question": "Qu'est ce que réussirait un régime militaire de droite ?",
      "answer": "à instaurer « la discipline",
      "answer_stringIds": [
        "string_110",
        "string_111",
        "string_112",
        "string_113",
        "string_114"
      ]
    },
    {
      "id_qa": "FMSH_PB188a_33-34_010_qa4_v3",
      "id_block": "block_2",
      "question": "Qu'est ce qui rend crédible un régime de droite ?",
      "answer": "une promesse de travail",
      "answer_stringIds": [
        "string_120",
        "string_121",
        "string_122",
        "string_123"
      ]
    },
    {
      "id_qa": "FMSH_PB188a_33-34_010_qa5_v3",
      "id_block": "block_2",
      "question": "Quel régime réussirait à instaurer la discipline ?",
      "answer": "un régime militaire de droite",
      "answer_stringIds": [
        "string_104",
        "string_105",
        "string_106",
        "string_107",
        "string_108"
      ]
    },
    {
      "id_qa": "FMSH_PB188a_33-34_010_qa6_v3",
      "id_block": "block_2",
      "question": "Quel régime politique réussirait à instaurer la discipline ?",
      "answer": "un régime militaire de droite",
      "answer_stringIds": [
        "string_104",
        "string_105",
        "string_106",
        "string_107",
        "string_108"
      ]
    },
    {
      "id_qa": "FMSH_PB188a_33-34_010_qa7_v3",
      "id_block": "block_2",
      "question": "Comment un régime de droite réussirait-il à instaurer la discipline ?",
      "answer": "crédible",
      "answer_stringIds": [
        "string_119"
      ]
    },
    {
      "id_qa": "FMSH_PB188a_33-34_010_qa16_v3",
      "id_block": "block_2",
      "question": "Qu'est-ce qui passe avant la question des libertés ?",
      "answer": "du travail",
      "answer_stringIds": [
        "string_158",
        "string_159"
      ]
    },
    {
      "id_qa": "FMSH_PB188a_33-34_010_qa2_v3",
      "id_block": "block_4",
      "question": "Qu'est-ce qui est à l'origine de la crise économique ?",
      "answer": "le médiocre développement des structures capitalistes",
      "answer_stringIds": [
        "string_306",
        "string_307",
        "string_308",
        "string_309",
        "string_310",
        "string_311",
        "string_312"
      ]
    },
    {
      "id_qa": "FMSH_PB188a_33-34_010_qa22_v3",
      "id_block": "block_4",
      "question": "Qu'est-ce qui serait une démocratie ?",
      "answer": "le régime qui",
      "answer_stringIds": [
        "string_286",
        "string_287",
        "string_288"
      ]
    },
    {
      "id_qa": "FMSH_PB188a_33-34_010_qa26_v3",
      "id_block": "block_4",
      "question": "Qu'est ce qui a été subi pendant des décennies en Europe occidentale ?",
      "answer": "un régime autocratique",
      "answer_stringIds": [
        "string_261",
        "string_262",
        "string_263"
      ]
    },
    {
      "id_qa": "FMSH_PB188a_33-34_010_qa28_v3",
      "id_block": "block_4",
      "question": "Par quel moyen la démocratie serait-elle instaurée ?",
      "answer": "par la voie électorale",
      "answer_stringIds": [
        "string_300",
        "string_301",
        "string_302",
        "string_303"
      ]
    }
  ]
}