{
  "num": "autog_0338-7259_1977_num_39_1",
  "article": "autog_0338-7259_1977_num_39_1_1266",
  "page_name": "FMSH_PB188a_00039_143",
  "questions": [
    {
      "id_qa": "FMSH_PB188a_00039_143_qa3_v3",
      "id_block": "block_16",
      "question": "Qui a écrit l'entretien sur l'eurocommunisme ?",
      "answer": "par Henri WEBER",
      "answer_stringIds": [
        "string_304",
        "string_305",
        "string_306"
      ]
    },
    {
      "id_qa": "FMSH_PB188a_00039_143_qa5_v3",
      "id_block": "block_16",
      "question": "Qui a écrit Les sources de l'eurocommunisme ?",
      "answer": "par Henri WEBER",
      "answer_stringIds": [
        "string_304",
        "string_305",
        "string_306"
      ]
    }
  ]
}