{
  "num": "autog_0249-2563_1982_num_15_8",
  "article": "autog_0249-2563_1982_num_15_8_1479",
  "page_name": "autog_0249-2563_1982_num_15_8_T1_0135_0000",
  "questions": [
    "Quel est le but de l'auteur en exécutant un travail individuel ?",
    "Comment l'évolution de la professionnalisation affecte-t-elle la production ?",
    "Quels sont les conséquences de l'évolution de la production dans la sphère de la reproduction ?",
    "Quel est le rôle de la rationalisation dans l'évolution de la professionnalisation ?",
    "Comment la séparation entre vie privée et professionnelle contribue-t-elle au mal ?",
    "Quel est le rôle de la division sexuée du travail dans le mal décrit par l'auteur ?",
    "Comment les femmes abordent-elles les choses par rapport aux hommes ?",
    "Comment les différentes expériences du travail devraient-elles être liées ?",
    "Quel est le rôle des femmes dans la grande transformation décrite par l'auteur ?"
  ]
}