{
  "num": "autog_0338-7259_1974_num_28_1",
  "article": "autog_0338-7259_1974_num_28_1_1192",
  "page_name": "FMSH_PB188a_28-29_072",
  "questions": [
    {
      "id_qa": "FMSH_PB188a_28-29_072_qa9_v3",
      "id_block": "block_1",
      "question": "Où est ce qu'il y a en trop dans ce qui arrive ?",
      "answer": "dans les salles de rédaction",
      "answer_stringIds": [
        "string_64",
        "string_65",
        "string_66",
        "string_67",
        "string_68"
      ]
    },
    {
      "id_qa": "FMSH_PB188a_28-29_072_qa24_v3",
      "id_block": "block_1",
      "question": "Qui a trop d'informations ?",
      "answer": "les journaux",
      "answer_stringIds": [
        "string_45",
        "string_46"
      ]
    },
    {
      "id_qa": "FMSH_PB188a_28-29_072_qa31_v3",
      "id_block": "block_1",
      "question": "Qu'est ce qui constitue l'information instituée ?",
      "answer": "informations",
      "answer_stringIds": [
        "string_3"
      ]
    },
    {
      "id_qa": "FMSH_PB188a_28-29_072_qa2_v3",
      "id_block": "block_2",
      "question": "Qu'est-ce que l'information instituée ?",
      "answer": "celle qui",
      "answer_stringIds": [
        "string_22",
        "string_23"
      ]
    },
    {
      "id_qa": "FMSH_PB188a_28-29_072_qa4_v3",
      "id_block": "block_2",
      "question": "Qu'est ce qui a conquis l'information instituée ?",
      "answer": "ses lettres de noblesse",
      "answer_stringIds": [
        "string_76",
        "string_77",
        "string_78",
        "string_79"
      ]
    },
    {
      "id_qa": "FMSH_PB188a_28-29_072_qa8_v3",
      "id_block": "block_4",
      "question": "Qui a pris l'événement au sérieux ?",
      "answer": "la presse",
      "answer_stringIds": [
        "string_253",
        "string_254"
      ]
    },
    {
      "id_qa": "FMSH_PB188a_28-29_072_qa12_v3",
      "id_block": "block_4",
      "question": "Qu'est ce qui allait donner naissance au mouvement de solidarité ?",
      "answer": "Ce quelque chose",
      "answer_stringIds": [
        "string_269",
        "string_270",
        "string_271"
      ]
    },
    {
      "id_qa": "FMSH_PB188a_28-29_072_qa21_v3",
      "id_block": "block_4",
      "question": "Qui a parlé de LIP à ce moment-là ?",
      "answer": "la presse",
      "answer_stringIds": [
        "string_253",
        "string_254"
      ]
    },
    {
      "id_qa": "FMSH_PB188a_28-29_072_qa22_v3",
      "id_block": "block_4",
      "question": "Quel était le nom de la presse à ce moment-là ?",
      "answer": "LIP",
      "answer_stringIds": [
        "string_197"
      ]
    }
  ]
}