{
  "num": "autog_0338-7259_1970_num_11_1",
  "article": "autog_0338-7259_1970_num_11_1_969",
  "page_name": "FMSH_PB188a_11-12_218",
  "questions": [
    {
      "id_qa": "FMSH_PB188a_11-12_218_qa1_v3",
      "id_block": "block_1",
      "question": "Qu'est ce que chaque entreprise transmet à la bureaucratie centrale ?",
      "answer": "ses chiffres de stocks ou de matières premières",
      "answer_stringIds": [
        "string_84",
        "string_85",
        "string_86",
        "string_87",
        "string_88",
        "string_89",
        "string_90",
        "string_91"
      ]
    },
    {
      "id_qa": "FMSH_PB188a_11-12_218_qa2_v3",
      "id_block": "block_1",
      "question": "Quel est le métier de la bureaucratie ?",
      "answer": "la bureaucratie centrale",
      "answer_stringIds": [
        "string_30",
        "string_31",
        "string_32"
      ]
    },
    {
      "id_qa": "FMSH_PB188a_11-12_218_qa3_v3",
      "id_block": "block_1",
      "question": "Qui transmet ses chiffres de stocks ou de matières premières ?",
      "answer": "chaque entreprise",
      "answer_stringIds": [
        "string_80",
        "string_81"
      ]
    },
    {
      "id_qa": "FMSH_PB188a_11-12_218_qa4_v3",
      "id_block": "block_1",
      "question": "Qui n'a pas les moyens de traiter les données qui lui sont soumises ?",
      "answer": "la bureaucratie centrale",
      "answer_stringIds": [
        "string_30",
        "string_31",
        "string_32"
      ]
    },
    {
      "id_qa": "FMSH_PB188a_11-12_218_qa6_v3",
      "id_block": "block_1",
      "question": "Quel est le défaut de la bureaucratie centrale ?",
      "answer": "les moyens",
      "answer_stringIds": [
        "string_55",
        "string_56"
      ]
    },
    {
      "id_qa": "FMSH_PB188a_11-12_218_qa7_v3",
      "id_block": "block_1",
      "question": "Qui transmet les chiffres de stocks ou de matières premières ?",
      "answer": "chaque entreprise",
      "answer_stringIds": [
        "string_80",
        "string_81"
      ]
    },
    {
      "id_qa": "FMSH_PB188a_11-12_218_qa9_v3",
      "id_block": "block_1",
      "question": "Qu'est-ce que la bureaucratie centrale reçoit en retour ?",
      "answer": "du programme",
      "answer_stringIds": [
        "string_103",
        "string_104"
      ]
    },
    {
      "id_qa": "FMSH_PB188a_11-12_218_qa10_v3",
      "id_block": "block_1",
      "question": "Qui ne peut pas se déterminer en connaissance de çause ?",
      "answer": "la bureaucratie centrale",
      "answer_stringIds": [
        "string_30",
        "string_31",
        "string_32"
      ]
    },
    {
      "id_qa": "FMSH_PB188a_11-12_218_qa12_v3",
      "id_block": "block_1",
      "question": "Qu'est-ce que chaque entreprise reçoit en retour ?",
      "answer": "du programme",
      "answer_stringIds": [
        "string_103",
        "string_104"
      ]
    },
    {
      "id_qa": "FMSH_PB188a_11-12_218_qa17_v3",
      "id_block": "block_1",
      "question": "Qu'est-ce que la bureaucratie centrale ne croit pas ?",
      "answer": "la libération des travailleurs",
      "answer_stringIds": [
        "string_217",
        "string_218",
        "string_219",
        "string_220"
      ]
    },
    {
      "id_qa": "FMSH_PB188a_11-12_218_qa18_v3",
      "id_block": "block_1",
      "question": "Qui ne croit pas que la libération des travailleurs puisse être l'oeuvre des travailleurs euxmêmes ?",
      "answer": "la bureaucratie centrale",
      "answer_stringIds": [
        "string_30",
        "string_31",
        "string_32"
      ]
    },
    {
      "id_qa": "FMSH_PB188a_11-12_218_qa20_v3",
      "id_block": "block_1",
      "question": "Qu'est ce qui mettrait radicalement en question la libération des travailleurs ?",
      "answer": "sa propre existence",
      "answer_stringIds": [
        "string_237",
        "string_238",
        "string_239"
      ]
    },
    {
      "id_qa": "FMSH_PB188a_11-12_218_qa24_v3",
      "id_block": "block_1",
      "question": "Qu'est ce qui est incapable de contenir les dirigeants soviétiques ?",
      "answer": "les forces",
      "answer_stringIds": [
        "string_191",
        "string_192"
      ]
    },
    {
      "id_qa": "FMSH_PB188a_11-12_218_qa25_v3",
      "id_block": "block_1",
      "question": "Qui pensait que les Allemands étaient incapables de contenir les forces qu'ils auraient, comme l'apprenti sorcier, imprudemment libérées ?",
      "answer": "les dirigeants soviétiques",
      "answer_stringIds": [
        "string_166",
        "string_167",
        "string_168",
        "string_169"
      ]
    },
    {
      "id_qa": "FMSH_PB188a_11-12_218_qa26_v3",
      "id_block": "block_1",
      "question": "Qu'est ce qui empêche la bureaucratie centrale de corriger le tir ?",
      "answer": "une énorme bureaucratie de contrôle des contrôleurs",
      "answer_stringIds": [
        "string_142",
        "string_143",
        "string_144",
        "string_145",
        "string_146",
        "string_147",
        "string_148",
        "string_149"
      ]
    },
    {
      "id_qa": "FMSH_PB188a_11-12_218_qa29_v3",
      "id_block": "block_1",
      "question": "Comment peut-on qualifier le phénomène de la bureaucratie centrale ?",
      "answer": "boomerang",
      "answer_stringIds": [
        "string_127"
      ]
    },
    {
      "id_qa": "FMSH_PB188a_11-12_218_qa30_v3",
      "id_block": "block_1",
      "question": "Qui est responsable de ce phénomène ?",
      "answer": "la bureaucratie centrale",
      "answer_stringIds": [
        "string_30",
        "string_31",
        "string_32"
      ]
    },
    {
      "id_qa": "FMSH_PB188a_11-12_218_qa32_v3",
      "id_block": "block_1",
      "question": "Qu'est-ce que la Pindustrialisation ?",
      "answer": "elle sera toujours apte à assurer le développement économique",
      "answer_stringIds": [
        "string_257",
        "string_258",
        "string_259",
        "string_260",
        "string_261",
        "string_262",
        "string_263",
        "string_264",
        "string_265"
      ]
    },
    {
      "id_qa": "FMSH_PB188a_11-12_218_qa34_v3",
      "id_block": "block_1",
      "question": "Qu'est ce qui a permis à la Tunisie d'assurer le développement économique ?",
      "answer": "Pindustrialisation",
      "answer_stringIds": [
        "string_254"
      ]
    },
    {
      "id_qa": "FMSH_PB188a_11-12_218_qa40_v3",
      "id_block": "block_1",
      "question": "Qu'est-ce qui peut avoir un rôle révolutionnaire positif ?",
      "answer": "une classe",
      "answer_stringIds": [
        "string_268",
        "string_269"
      ]
    },
    {
      "id_qa": "FMSH_PB188a_11-12_218_qa15_v3",
      "id_block": "block_2",
      "question": "Comment s'appelle le mouvement social de Milos Barta ?",
      "answer": "Les conseils ouvriers en tant que mouvement social",
      "answer_stringIds": [
        "string_299",
        "string_300",
        "string_301",
        "string_302",
        "string_303",
        "string_304",
        "string_305",
        "string_306"
      ]
    }
  ]
}