{
  "num": "autog_0338-7259_1972_num_18_1",
  "article": "autog_0338-7259_1972_num_18_1_1041",
  "page_name": "FMSH_PB188a_18-19_182",
  "questions": [
    {
      "id_qa": "FMSH_PB188a_18-19_182_qa21_v3",
      "id_block": "block_2",
      "question": "Sur quoi repose la conception de la révolution ?",
      "answer": "cette conception est basée sur une ignorance volontaire des faits historiques",
      "answer_stringIds": [
        "string_59",
        "string_60",
        "string_61",
        "string_62",
        "string_63",
        "string_64",
        "string_65",
        "string_66",
        "string_67",
        "string_68",
        "string_69"
      ]
    },
    {
      "id_qa": "FMSH_PB188a_18-19_182_qa23_v3",
      "id_block": "block_2",
      "question": "Qui a réalisé la révolution ?",
      "answer": "par les paysans et les prolétaires des villes",
      "answer_stringIds": [
        "string_86",
        "string_87",
        "string_88",
        "string_89",
        "string_90",
        "string_91",
        "string_92",
        "string_93"
      ]
    },
    {
      "id_qa": "FMSH_PB188a_18-19_182_qa25_v3",
      "id_block": "block_2",
      "question": "Qui a toujours combattu les innovations radicales ?",
      "answer": "Les Jacobins",
      "answer_stringIds": [
        "string_106",
        "string_107"
      ]
    },
    {
      "id_qa": "FMSH_PB188a_18-19_182_qa28_v3",
      "id_block": "block_2",
      "question": "Qu'a toujours combattu les Jacobins et la Convention ?",
      "answer": "les innovations radicales",
      "answer_stringIds": [
        "string_115",
        "string_116",
        "string_117"
      ]
    },
    {
      "id_qa": "FMSH_PB188a_18-19_182_qa29_v3",
      "id_block": "block_2",
      "question": "Par qui sont persécutées les révoltes paysannes ?",
      "answer": "par les partis politiques",
      "answer_stringIds": [
        "string_151",
        "string_152",
        "string_153",
        "string_154"
      ]
    },
    {
      "id_qa": "FMSH_PB188a_18-19_182_qa2_v3",
      "id_block": "block_3",
      "question": "A quoi les paysans se mirent-ils à oeuvre en 1793 ?",
      "answer": "à conquérir leurs droits",
      "answer_stringIds": [
        "string_175",
        "string_176",
        "string_177",
        "string_178"
      ]
    },
    {
      "id_qa": "FMSH_PB188a_18-19_182_qa4_v3",
      "id_block": "block_3",
      "question": "Quand la Convention \" révolutionnaire\" sanctionnait-elle le système féodal ?",
      "answer": "en 1793",
      "answer_stringIds": [
        "string_167",
        "string_168"
      ]
    },
    {
      "id_qa": "FMSH_PB188a_18-19_182_qa6_v3",
      "id_block": "block_3",
      "question": "Qui a résisté à l'Assemblée Nationale en 1792 ?",
      "answer": "les paysans",
      "answer_stringIds": [
        "string_87",
        "string_88"
      ]
    },
    {
      "id_qa": "FMSH_PB188a_18-19_182_qa17_v3",
      "id_block": "block_5",
      "question": "De qui sont venus les premiers fondateurs d'un mouvement socialiste populaire en France ?",
      "answer": "du camp des Jacobins",
      "answer_stringIds": [
        "string_218",
        "string_219",
        "string_220",
        "string_221"
      ]
    },
    {
      "id_qa": "FMSH_PB188a_18-19_182_qa10_v3",
      "id_block": "block_6",
      "question": "Qu'est ce qui devait être atteint par la grande Révolution ?",
      "answer": "la question économique",
      "answer_stringIds": [
        "string_278",
        "string_279",
        "string_280"
      ]
    },
    {
      "id_qa": "FMSH_PB188a_18-19_182_qa14_v3",
      "id_block": "block_6",
      "question": "Quel était le but de la grande Révolution ?",
      "answer": "résoudre la question économique",
      "answer_stringIds": [
        "string_276",
        "string_277",
        "string_278",
        "string_279",
        "string_280"
      ]
    },
    {
      "id_qa": "FMSH_PB188a_18-19_182_qa31_v3",
      "id_block": "block_6",
      "question": "Qu'est-ce que la France au moyen de la dictature ?",
      "answer": "un Etat agricole communiste",
      "answer_stringIds": [
        "string_257",
        "string_258",
        "string_259",
        "string_260"
      ]
    }
  ]
}