{
  "num": "autog_0005-0970_1969_num_8_1",
  "article": "autog_0005-0970_1969_num_8_1_948",
  "page_name": "FMSH_PB188a_00008_104",
  "questions": [
    {
      "id_qa": "FMSH_PB188a_00008_104_qa12_v3",
      "id_block": "block_1",
      "question": "Qu'est-ce que l'Etat socialiste doit perdre avant de devenir socialiste ?",
      "answer": "une grande partie de son pouvoir",
      "answer_stringIds": [
        "string_38",
        "string_39",
        "string_40",
        "string_41",
        "string_42",
        "string_43"
      ]
    },
    {
      "id_qa": "FMSH_PB188a_00008_104_qa13_v3",
      "id_block": "block_1",
      "question": "Qui se considéraient comme en avance sur les autres démocraties populaires ?",
      "answer": "dirigeants et les théoriciens yougoslaves",
      "answer_stringIds": [
        "string_3",
        "string_4",
        "string_5",
        "string_6",
        "string_7"
      ]
    },
    {
      "id_qa": "FMSH_PB188a_00008_104_qa14_v3",
      "id_block": "block_1",
      "question": "Qui était en avance sur les autres démocraties populaires ?",
      "answer": "dirigeants et les théoriciens yougoslaves",
      "answer_stringIds": [
        "string_3",
        "string_4",
        "string_5",
        "string_6",
        "string_7"
      ]
    },
    {
      "id_qa": "FMSH_PB188a_00008_104_qa15_v3",
      "id_block": "block_1",
      "question": "Qui a pensé que devrait passer l'Etat socialiste avant de perdre une grande partie de son pouvoir ?",
      "answer": "Marx",
      "answer_stringIds": [
        "string_27"
      ]
    },
    {
      "id_qa": "FMSH_PB188a_00008_104_qa4_v3",
      "id_block": "block_2",
      "question": "Qu'exige l'existence même d'un système aussi original que celui de l'autogestion ?",
      "answer": "une grande objectivité",
      "answer_stringIds": [
        "string_58",
        "string_59",
        "string_60"
      ]
    },
    {
      "id_qa": "FMSH_PB188a_00008_104_qa0_v3",
      "id_block": "block_4",
      "question": "Quand l'économie yougoslave a-t-elle réussi à surmonter un ralentissement assez sérieux de son expansion ?",
      "answer": "En 1963",
      "answer_stringIds": [
        "string_267",
        "string_268"
      ]
    },
    {
      "id_qa": "FMSH_PB188a_00008_104_qa1_v3",
      "id_block": "block_4",
      "question": "Qu'est ce qui a permis à l'économie yougoslave de surmonter en 1963 ?",
      "answer": "un ralentissement assez sérieux de son expansion",
      "answer_stringIds": [
        "string_276",
        "string_277",
        "string_278",
        "string_279",
        "string_280",
        "string_281",
        "string_282"
      ]
    },
    {
      "id_qa": "FMSH_PB188a_00008_104_qa2_v3",
      "id_block": "block_4",
      "question": "Qu'a réussi l'économie yougoslave en 1963 ?",
      "answer": "surmonter un ralentissement assez sérieux de son expansion",
      "answer_stringIds": [
        "string_275",
        "string_276",
        "string_277",
        "string_278",
        "string_279",
        "string_280",
        "string_281",
        "string_282"
      ]
    },
    {
      "id_qa": "FMSH_PB188a_00008_104_qa11_v3",
      "id_block": "block_4",
      "question": "En quelle année a eu lieu un fléchissement du rythme de l'expansion ?",
      "answer": "En 1961 et 1962",
      "answer_stringIds": [
        "string_254",
        "string_255",
        "string_256",
        "string_257"
      ]
    }
  ]
}