{
  "num": "autog_0005-0970_1969_num_8_1",
  "article": "autog_0005-0970_1969_num_8_1_948",
  "page_name": "FMSH_PB188a_00008_111",
  "questions": [
    {
      "id_qa": "FMSH_PB188a_00008_111_qa0_v3",
      "id_block": "block_2",
      "question": "Qu'est ce qui réduit l'importance du marché ?",
      "answer": "la planification",
      "answer_stringIds": [
        "string_61",
        "string_62"
      ]
    },
    {
      "id_qa": "FMSH_PB188a_00008_111_qa3_v3",
      "id_block": "block_3",
      "question": "Qu'est ce que le marché sera utilisé pour mettre au point ?",
      "answer": "la répartition du travail social",
      "answer_stringIds": [
        "string_158",
        "string_159",
        "string_160",
        "string_161",
        "string_162"
      ]
    }
  ]
}