{
  "num": "autog_0005-0970_1969_num_8_1",
  "article": "autog_0005-0970_1969_num_8_1_948",
  "page_name": "FMSH_PB188a_00008_110",
  "questions": [
    {
      "id_qa": "FMSH_PB188a_00008_110_qa12_v3",
      "id_block": "block_1",
      "question": "Qu'est ce qui apparut avec l'introduction de l'autogestion ouvrière ?",
      "answer": "la première",
      "answer_stringIds": [
        "string_4",
        "string_5"
      ]
    },
    {
      "id_qa": "FMSH_PB188a_00008_110_qa18_v3",
      "id_block": "block_2",
      "question": "Qu'est ce qui se forme dans l'entreprise ?",
      "answer": "la répartition du revenu",
      "answer_stringIds": [
        "string_23",
        "string_24",
        "string_25",
        "string_26"
      ]
    },
    {
      "id_qa": "FMSH_PB188a_00008_110_qa19_v3",
      "id_block": "block_5",
      "question": "Quand a été remplacé le monopole d'Etat du commerce extérieur ?",
      "answer": "en 1950",
      "answer_stringIds": [
        "string_219",
        "string_220"
      ]
    },
    {
      "id_qa": "FMSH_PB188a_00008_110_qa13_v3",
      "id_block": "block_6",
      "question": "Qu'est ce qui permettait une large initiative aux entreprises autogérées et aux communes ?",
      "answer": "Cette planification",
      "answer_stringIds": [
        "string_270",
        "string_271"
      ]
    },
    {
      "id_qa": "FMSH_PB188a_00008_110_qa14_v3",
      "id_block": "block_6",
      "question": "A qui profite cette planification ?",
      "answer": "entreprises autogérées et",
      "answer_stringIds": [
        "string_277",
        "string_278",
        "string_279"
      ]
    },
    {
      "id_qa": "FMSH_PB188a_00008_110_qa15_v3",
      "id_block": "block_6",
      "question": "Quelle est la particularité de cette planification ?",
      "answer": "entreprises",
      "answer_stringIds": [
        "string_188"
      ]
    }
  ]
}