{
  "num": "autog_0338-7259_1972_num_18_1",
  "article": "autog_0338-7259_1972_num_18_1_1045",
  "page_name": "FMSH_PB188a_18-19_225",
  "questions": [
    {
      "id_qa": "FMSH_PB188a_18-19_225_qa6_v3",
      "id_block": "block_2",
      "question": "Quand les communes s'avérèrent elles vivaces ?",
      "answer": "en 1921",
      "answer_stringIds": [
        "string_32",
        "string_33"
      ]
    },
    {
      "id_qa": "FMSH_PB188a_18-19_225_qa7_v3",
      "id_block": "block_2",
      "question": "Qu'est ce qui s'avérèrent vivaces en 1921.",
      "answer": "Les communes",
      "answer_stringIds": [
        "string_20",
        "string_21"
      ]
    },
    {
      "id_qa": "FMSH_PB188a_18-19_225_qa11_v3",
      "id_block": "block_2",
      "question": "Que défend Kronstadt ?",
      "answer": "son indépendance",
      "answer_stringIds": [
        "string_65",
        "string_66"
      ]
    },
    {
      "id_qa": "FMSH_PB188a_18-19_225_qa13_v3",
      "id_block": "block_2",
      "question": "Qui défendit longtemps son indépendance ?",
      "answer": "Kronstadt",
      "answer_stringIds": [
        "string_54"
      ]
    },
    {
      "id_qa": "FMSH_PB188a_18-19_225_qa3_v3",
      "id_block": "block_3",
      "question": "Qu'est ce qui était assuré par la milice populaire ?",
      "answer": "La surveillance de la ville",
      "answer_stringIds": [
        "string_67",
        "string_68",
        "string_69",
        "string_70",
        "string_71"
      ]
    },
    {
      "id_qa": "FMSH_PB188a_18-19_225_qa15_v3",
      "id_block": "block_3",
      "question": "Qu'est ce qui n'existait qu'à l'état embryonnaire ?",
      "answer": "Les comités de maison",
      "answer_stringIds": [
        "string_89",
        "string_90",
        "string_91",
        "string_92"
      ]
    },
    {
      "id_qa": "FMSH_PB188a_18-19_225_qa33_v3",
      "id_block": "block_3",
      "question": "Qu'est ce qui faisait la propagande ?",
      "answer": "son œuvre",
      "answer_stringIds": [
        "string_111",
        "string_112"
      ]
    },
    {
      "id_qa": "FMSH_PB188a_18-19_225_qa34_v3",
      "id_block": "block_3",
      "question": "Qu'est ce qui faisait son oeuvre ?",
      "answer": "la propagande",
      "answer_stringIds": [
        "string_108",
        "string_109"
      ]
    },
    {
      "id_qa": "FMSH_PB188a_18-19_225_qa29_v3",
      "id_block": "block_4",
      "question": "Qu'est ce qui s'était déjà accompli dans la conscience des masses ?",
      "answer": "un processus préparateur",
      "answer_stringIds": [
        "string_291",
        "string_292",
        "string_293"
      ]
    }
  ]
}