{
  "num": "autog_0338-7259_1972_num_18_1",
  "article": "autog_0338-7259_1972_num_18_1_1045",
  "page_name": "FMSH_PB188a_18-19_229",
  "questions": [
    {
      "id_qa": "FMSH_PB188a_18-19_229_qa17_v3",
      "id_block": "block_2",
      "question": "Qu'est ce qui fut organisé dans chaque comité d'arrondissement ?",
      "answer": "des ateliers",
      "answer_stringIds": [
        "string_119",
        "string_120"
      ]
    },
    {
      "id_qa": "FMSH_PB188a_18-19_229_qa7_v3",
      "id_block": "block_3",
      "question": "Où le soviet national de l'économie fut-il installé ?",
      "answer": "dans chaque maison",
      "answer_stringIds": [
        "string_199",
        "string_200",
        "string_201"
      ]
    },
    {
      "id_qa": "FMSH_PB188a_18-19_229_qa20_v3",
      "id_block": "block_4",
      "question": "Que se mirent à ressusciter les fonctionnaires de l'office des habitations et de la terre ?",
      "answer": "les comités de maison",
      "answer_stringIds": [
        "string_276",
        "string_277",
        "string_278",
        "string_279"
      ]
    }
  ]
}