{
  "num": "autog_0338-7259_1972_num_18_1",
  "article": "autog_0338-7259_1972_num_18_1_1045",
  "page_name": "FMSH_PB188a_18-19_227",
  "questions": [
    {
      "id_qa": "FMSH_PB188a_18-19_227_qa25_v3",
      "id_block": "block_2",
      "question": "Quel projet est déposé à la séance suivante du soviet ?",
      "answer": "un projet de socialisation des maisons",
      "answer_stringIds": [
        "string_59",
        "string_60",
        "string_61",
        "string_62",
        "string_63",
        "string_64"
      ]
    },
    {
      "id_qa": "FMSH_PB188a_18-19_227_qa32_v3",
      "id_block": "block_2",
      "question": "Qu'est ce qui devient la propriété collective de la population ?",
      "answer": "Les habitations",
      "answer_stringIds": [
        "string_165",
        "string_166"
      ]
    },
    {
      "id_qa": "FMSH_PB188a_18-19_227_qa22_v3",
      "id_block": "block_3",
      "question": "Quel est le nom du soviet qui a demandé l'élimination de l'ordre du jour de ce projet ?",
      "answer": "le soviet de Kronstadt",
      "answer_stringIds": [
        "string_272",
        "string_273",
        "string_274",
        "string_275"
      ]
    },
    {
      "id_qa": "FMSH_PB188a_18-19_227_qa23_v3",
      "id_block": "block_3",
      "question": "Qui a écrit un décret dans ce sens ?",
      "answer": "Lénine",
      "answer_stringIds": [
        "string_255"
      ]
    },
    {
      "id_qa": "FMSH_PB188a_18-19_227_qa44_v3",
      "id_block": "block_4",
      "question": "Qu'exigeaient les anarchistes, les S.R. de gauche ?",
      "answer": "le projet",
      "answer_stringIds": [
        "string_295",
        "string_296"
      ]
    }
  ]
}