{
  "num": "autog_0005-0970_1967_num_2_1",
  "article": "autog_0005-0970_1967_num_2_1_900",
  "page_name": "FMSH_PB188a_00002_093",
  "questions": [
    "Quel principe est menacé par les décisions prises au niveau des entreprises selon le texte ?",
    "En quelles conditions l'autogestion yougoslave intéresse-t-elle ?",
    "Est-ce qu'il y a eu une autogestion complètement généralisée en Yougoslavie ?",
    "Quel rôle a joué l'autogestion ouvrière et sociale dans le renversement du gouvernement en Yougoslavie ?",
    "Quel est le statut de la gestion ouvrière dans les pays considérés dans le texte ?",
    "Comment le plan tend à perdre de ses prérogatives en Yougoslavie ?",
    "Quels sont les échanges et investissements qui menacent le monopole du commerce extérieur en Yougoslavie ?"
  ]
}