{
  "num": "autog_0005-0970_1968_num_7_1",
  "article": "autog_0005-0970_1968_num_7_1_942_t1_0171_0000_1",
  "page_name": "FMSH_PB188a_00007_174",
  "questions": [
    "Quelles deux parties distinctes décrit-on dans le texte concernant l'œuvre d'Otto Bauer ?",
    "Comment Otto Bauer perçoit-il la voie du socialisme en Autriche par rapport à celle suivie en URSS. ?",
    "Quels sont les deux principaux objectifs d'Otto Bauer dans son approche du socialisme ?",
    "Comment Otto Bauer juge la violence comme moyen de prendre le pouvoir ?",
    "Quels événements en Autriche influencent-ils les idées d'Otto Bauer sur le socialisme ?",
    "Comment Otto Bauer perçoit-il la révolution russe et ses conséquences sur l'unité ouvrière ?",
    "Comment Otto Bauer distingue la révolution politique et la révolution sociale ?",
    "Comment Otto Bauer perçoit-il la réussite de la révolution en URSS et comment cela influence-t-il ses idées ?"
  ]
}