{
  "num": "autog_0338-7259_1977_num_37_1",
  "article": "autog_0338-7259_1977_num_37_1_1234",
  "page_name": "FMSH_PB188a_37-38_118",
  "questions": [
    "Quels éléments historiques sont mentionnés dans ce passage concernant la révolution hongroise ?",
    "Quel est le premier pas pris par la révolution hongroise selon le texte ?",
    "Quel type de gouvernement est mis en place après la première étape ?",
    "Quel rôle jouent les conseils ouvriers dans le nouveau régime ?",
    "Quels partis sont autorisés dans le nouveau régime ?",
    "Quels sont les principaux points de la révolution hongroise selon le texte ?",
    "Quels sont les différentes tendances politiques dans la classe et comment sont-elles représentées ?",
    "Quels groupes sont exclus des soviets ?"
  ]
}