{
  "num": "autog_0249-2563_1982_num_16_12",
  "article": "autog_0249-2563_1982_num_16_12_1538",
  "page_name": "autog_0249-2563_1982_num_16_12_T1_0131_0000",
  "questions": [
    "Quel est le nom de l'école primaire différente mentionnée dans le texte ?",
    "Quels sont les deux anciens élèves qui ont été consultés pour leur expérience ?",
    "Quel est l'âge des élèves à l'entrée dans l'école ?",
    "Comment était traitée la maîtresse avant l'entrée dans l'école ?",
    "Quels sont les différents objets que les enfants doivent porter avec eux pour sortir de l'école ?",
    "Comment les enfants apprenaient-ils à écrire dans leur jeune âge ?",
    "Combien d'assiettes doivent-il y avoir par table dans la classe verte ?",
    "Comment les enfants téléphonent-ils et comment sont traités lorsqu'ils doivent parler au téléphone ?",
    "Quel est le nom du journal de l'école ?",
    "Comment les enfants sont-ils traités par les adultes lorsqu'ils doivent parler au téléphone ?",
    "Comment les enfants peuvent-ils écrire des choses ?",
    "Quel est le nom donné à l'école par les élèves eux-mêmes ?",
    "Comment les enfants sont-ils traités lorsqu'ils sont des adultes dans l'école ?",
    "Comment les enfants sont-ils transformés après avoir quitté l'école ?",
    "Quel est la raison pour laquelle les enfants sont appelés des gnagnagnas ou des enfants idiots ?",
    "Comment les enfants apprennent-ils à compter et à se débrouiller ?",
    "Comment les enfants sont-ils traités lorsqu'ils sont des enfants dans l'école ?",
    "Comment les enfants sont-ils traités lorsqu'ils sont des adultes dans l'école ?",
    "Comment les enfants sont-ils traités lorsqu'ils téléphonent ?",
    "Comment les enfants sont-ils traités lorsqu'ils sont des adultes en dehors de l'école ?"
  ]
}