{
  "num": "autog_0249-2563_1980_num_13_1",
  "article": "autog_0249-2563_1980_num_13_1_1340",
  "page_name": "autog_0249-2563_1980_num_13_1_T1_0016_0000",
  "questions": [
    "Quels sont les \"cieux sur terre\" (heavens on earth) mentionnés dans le texte ?",
    "Quel est le rôle de l'utopie et de la religion dans ce modèle ?",
    "Comment cette loi s'applique-t-elle à une utopie particulière ?",
    "Quels sont les utopies qui ne contiennent aucune redondance pratiquée ?",
    "Quels sont les utopies qui se pratiquent spontanément sans s'exprimer par écrit ?",
    "Quels sont les utopies qui combinent ces deux exercices ?",
    "Quels sont les traits de ce portrait robot que les utopies sociales ne cumulent pas tous ?",
    "Quels sont les différents types d'anomie (familiale, économique, politique, culturelle) et comment s'énonce-t-elle dans chaque cas ?",
    "Quels sont les extrêmes qui se touchent dans ces variations d'utopies ?",
    "Quels sont les exemples de coalitions ou collusions possibles entre ces variations d'utopies ?"
  ]
}