{
  "num": "autog_0249-2563_1982_num_16_12",
  "article": "autog_0249-2563_1982_num_16_12_1526",
  "page_name": "autog_0249-2563_1982_num_16_12_T1_0044_0000",
  "questions": [
    "Quel est le problème avec l'atmosphère au lycée de Drancy selon Claude Palacios ?",
    "Quels services manquent dans la banlieue du lycée ?",
    "Qu'est-ce qui est nécessaire pour changer l'atmosphère au lycée selon Claude Palacios ?",
    "Qu'est-ce qui empêche les élèves de parler librement au lycée ?",
    "Qu'est-ce qui s'est passé avec le questionnaire des élèves ?",
    "Qu'est-ce qui est bloqué au dehors et au lycée selon un élève ?",
    "Qu'est-ce que l'esprit de responsabilité demandé aux élèves dans leur travail scolaire ?",
    "Comment les élèves ont-ils perçu la consultation du 13 décembre ?",
    "Comment Claude Palacios décrit le rôle de l'administration dans la consultation du 13 décembre ?"
  ]
}