{
  "num": "autog_0338-7259_1972_num_18_1",
  "article": "autog_0338-7259_1972_num_18_1_1045",
  "page_name": "FMSH_PB188a_18-19_229",
  "questions": [
    "Quels sont les gens qui occupaient un grand nombre de chambres à Kronstadt en 1917 ?",
    "Comment les travailleurs logeaient-ils avant l'application du projet d'autogestion ?",
    "Quel était le rôle du directeur de l'École de l'ingénieur dans l'affaire des chambres ?",
    "Quels types de logements avaient les travailleurs avant l'application du projet ?",
    "Quel principe a été mis en œuvre par l'application du projet d'autogestion ?",
    "Quels furent les préparatifs pris pour l'aménagement et la réfection des maisons ?",
    "Quand et par qui a été détruite l'organisation d'autogestion des maisons ?",
    "Quel rôle avait le staroste dans la gestion des logements après la destruction de l'organisation d'autogestion ?",
    "Quand a été aboli l'institution du staroste ?",
    "Comment les fonctionnaires de l'office des habitations et de la terre ont-ils tenté de réanimer l'organisation autonome des comités de maison ?",
    "Pourquoi la réalité a-t-elle montré que l'organisation autonome de la masse n'était pas compatible avec la gestion des logements par les fonctionnaires ?"
  ]
}