{
  "num": "autog_0338-7259_1972_num_18_1",
  "article": "autog_0338-7259_1972_num_18_1_1045",
  "page_name": "FMSH_PB188a_18-19_228",
  "questions": [
    "Quels membres du \"front commun\" ont quitté la salle de l'Assemblée après l'accord sur le projet ?",
    "Qu'a proposé Rivkine dans la discussion ultérieure du projet ?",
    "Comment les bolcheviks se sont-ils rendus compte de leur faux pas ?",
    "Quel point du projet a été adopté à l'unanimité ?",
    "Quand les bolcheviks ont quitté à nouveau la salle de séance, sur quels points du projet était examiné ?",
    "Quels bolcheviks ont resté à la séance du soviet et ont reçu une \"punition sévère\" ?",
    "Quels événements ont suivi la séance agitée du soviet ?",
    "Comment les bolcheviks ont-ils commencé une campagne de dénigrement contre les anarchistes ?",
    "Quels comités ont été créés dans Kronstadt malgré le sabotage des bolcheviks ?"
  ]
}