{
  "num": "autog_0249-2563_1981_num_14_5",
  "article": "autog_0249-2563_1981_num_14_5_1414",
  "page_name": "autog_0249-2563_1981_num_14_5_T1_0078_0000",
  "questions": [
    {
      "id_qa": "autog_0249-2563_1981_num_14_5_T1_0078_0000_qa3_v3",
      "id_block": "block_0",
      "question": "Qu'est ce qui est rendu possible par l'effondrement du syndicat étatique ?",
      "answer": "Le climat libertaire",
      "answer_stringIds": [
        "string_30",
        "string_31",
        "string_32"
      ]
    },
    {
      "id_qa": "autog_0249-2563_1981_num_14_5_T1_0078_0000_qa11_v3",
      "id_block": "block_1",
      "question": "Qu'offre ce mouvement ?",
      "answer": "des prolongements imprévisibles",
      "answer_stringIds": [
        "string_75",
        "string_76",
        "string_77"
      ]
    },
    {
      "id_qa": "autog_0249-2563_1981_num_14_5_T1_0078_0000_qa26_v3",
      "id_block": "block_2",
      "question": "A quand remonte la crise à rebondissements ?",
      "answer": "tôt ou tard",
      "answer_stringIds": [
        "string_221",
        "string_222",
        "string_223"
      ]
    },
    {
      "id_qa": "autog_0249-2563_1981_num_14_5_T1_0078_0000_qa27_v3",
      "id_block": "block_2",
      "question": "Qu'est-ce qui suit la crise à rebondissements ?",
      "answer": "la stabilisation",
      "answer_stringIds": [
        "string_217",
        "string_218"
      ]
    },
    {
      "id_qa": "autog_0249-2563_1981_num_14_5_T1_0078_0000_qa21_v3",
      "id_block": "block_3",
      "question": "Quel est le programme libéral et libertaire des clubs et des A.G ?",
      "answer": "la volonté de transformation des rapports",
      "answer_stringIds": [
        "string_390",
        "string_391",
        "string_392",
        "string_393",
        "string_394",
        "string_395"
      ]
    }
  ]
}