{
  "num": "autog_0249-2563_1983_num_16_14",
  "article": "autog_0249-2563_1983_num_16_14_1561",
  "page_name": "autog_0249-2563_1983_num_16_14_T1_0078_0000",
  "questions": [
    "Quel système instaure-t-il pour permettre à des personnes de se considérer plus aptes que les autres ?",
    "Quels sont les deux types de procédures de promotion mentionnées dans le texte ?",
    "Quel est le modèle institutionnel de l'entreprise qui correspond à cette auto-légitimation ?",
    "Quel est le rôle des règles écrites dans la première procédure de promotion ?",
    "Comment les personnes légitimées par le vote sont-elles différenciées des personnes non légitimées ?",
    "Quelles sont les deux réactions possibles de la nouvelle élite cooptée ou volontaire ?",
    "Quel est le but de la nouvelle élite dans la deuxième réaction ?",
    "Quels sont les effets pervers possibles lorsque les groupes d'expression rassemblent l'ensemble des ouvriers ?"
  ]
}