{
  "num": "autog_0249-2563_1982_num_15_10",
  "article": "autog_0249-2563_1982_num_15_10_1504",
  "page_name": "autog_0249-2563_1982_num_15_10_T1_0114_0000",
  "questions": [
    "Quels sont les problèmes à étudier dans des recherches futures selon l'auteur?",
    "Pourquoi est-il important d'inclure la société japonaise dans une comparaison internationale de ces problèmes?",
    "Comment le développement des institutions de participation diffère-t-il au Japon des pays avancés européens et français en particulier?",
    "Quel est le rôle de la loi dans le développement de ces institutions au Japon?",
    "En quelle mesure cette différence structurelle profonde entre les pays libéraux et social-démocrates ou socialistes peut-elle être considérée comme une différence historique à long terme?",
    "Quels sont les sources d'informations utilisées par l'auteur pour écrire son article?",
    "Dans quels lieux le numéro du journal CFDT Aujourd'hui est-il disponible en vente?",
    "Quel est le coût du numéro et comment s'abonner?"
  ]
}