{
  "num": "autog_0249-2563_1980_num_13_2",
  "article": "autog_0249-2563_1980_num_13_2_1362",
  "page_name": "autog_0249-2563_1980_num_13_2_T1_0203_0000",
  "questions": [
    "Quel contrat a été conclu entre la personne concernée et l'entreprise de Berlin-Ouest ?",
    "En quoi consiste l'aspect « alternatif » de l'école Werkschule ?",
    "Comment a été financé le projet initialement ?",
    "Comment le gouvernement régional de Berlin (le Sénat) s'est engagé dans le financement de l'école Werkschule ?",
    "Quels sont les objectifs des collectifs autogérés locaux, régionaux et nationaux ?",
    "Quels ont été les résultats du séminaire organisé par le comité de chômeurs de Nuremberg ?",
    "Quels sont les différentes conceptions des collectifs autogérés quant à leur rôle dans la société ?",
    "Quels ont été les résultats du congrès international des collectifs autogérés ?",
    "Comment s'est faite la décision de coopération entre les différents groupes ?",
    "Quels ont été les premiers pas vers la création d'une caisse de solidarité ?"
  ]
}