{
  "num": "autog_0249-2563_1980_num_13_2",
  "article": "autog_0249-2563_1980_num_13_2_1362",
  "page_name": "autog_0249-2563_1980_num_13_2_T1_0205_0000",
  "questions": [
    "Quel est le nom du groupe Projets Adresses Werkschule Berlin e.V. ?",
    "Dans quelle rue se trouve l'atelier de formation des jeunes de Jugendwerkstatt Neukôlin ?",
    "Quelles professions sont enseignées à Jugendwerkstatt Neukôlin ?",
    "Dans quelle rue se trouve le siège du réseau Selbsthilfe e.V. ?",
    "Quels types de projets sont financés par le Fonds du réseau Selbsthilfe e.V. ?",
    "Dans quelle rue se trouve le centre de jeunes Glocksee e.V. à Hannover ?",
    "Quel type de centre est Glocksee e.V. ?",
    "Dans quelle rue se trouve le centre de jeunes récupération-brocante de Kornstrafie à Hannover ?",
    "Quel type de centre est Kornstrafie à Hannover ?",
    "Dans quelle ville se trouve le centre de jeunes Arbeiterselbsthilfe à Frankfurt ?",
    "Quels types d'activités sont proposés par Arbeiterselbsthilfe à Frankfurt ?",
    "Dans quelle ville se trouve le centre de récupération-brocante Dortmunder Selbsthilfe e.V. ?",
    "Quels types d'objets sont vendus par Dortmunder Selbsthilfe e.V. ?",
    "Dans quelle rue se trouve le centre de formation professionnelle Schildstrafe Bremen e.V. ?",
    "Quel type de bâtiment abrite Schildstrafe Bremen e.V. ?"
  ]
}