{
  "num": "autog_0005-0970_1968_num_5_1",
  "article": "autog_0005-0970_1968_num_5_1_1970",
  "page_name": "FMSH_PB188a_05-06_044",
  "questions": [
    "Quels sont les sujets discutés lors de la table ronde ?",
    "Est-il possible de revendiquer l'autogestion avec un certain pourcentage de crédits ?",
    "Quel est l'opinion de l'étudiant X sur le budget global de la Sorbonne et sa répartition ?",
    "Est-il raisonnable de penser que le régime accorde des crédits à un mouvement politique orienté comme celui-ci ?",
    "Quels étudiants seraient sensibilisés à une action semblable ?",
    "Quel serait l'impact de cette affaire sur la sociologie du milieu étudiant ?",
    "Qu'en pense le corps professoral à propos de cette initiative ?",
    "Quels sont les raisons des étudiants pour se lancer dans cette affaire ?",
    "Quels sont les deux catégories d'enseignants et quels sont leurs positions ?",
    "Comment seront les érudits éminents et les professeurs distingués impliqués dans la réforme de l'Université ?"
  ]
}