{
  "num": "autog_0249-2563_1980_num_13_2",
  "article": "autog_0249-2563_1980_num_13_2_1358",
  "page_name": "autog_0249-2563_1980_num_13_2_T1_0163_0000",
  "questions": [
    "Quels sont les nouveaux modes de vie alternatifs qui ont abouti à de nouvelles formes et structures politiques ?",
    "Quels sont les domaines de la vie quotidienne qui peuvent être concernés par les initiatives civiques ?",
    "Quels groupes d'extrême gauche ont critiqué les initiatives civiques et pour quels raisons ?",
    "Comment les membres des initiatives civiques se sont-ils opposés aux groupes organisés ?",
    "Quel est l'exemple le plus notable des initiatives civiques et pourquoi ?",
    "Quels événements ont été traumatisants pour la gauche allemande en 1977 ?",
    "Comment l'atmosphère a-t-elle été allégée après ces événements ?",
    "Quels débats se posent actuellement entre la Nouvelle gauche et les mouvements alternatifs ?",
    "Quels efforts sont faits pour implanter les deux courants sur le terrain parlementaire ?"
  ]
}