{
  "num": "autog_0249-2563_1982_num_15_8",
  "article": "autog_0249-2563_1982_num_15_8_1489_t1_0225_0000_1",
  "page_name": "autog_0249-2563_1982_num_15_8_T1_0225_0000",
  "questions": [
    {
      "id_qa": "autog_0249-2563_1982_num_15_8_T1_0225_0000_qa20_v3",
      "id_block": "block_2",
      "question": "Qu'est ce qui doit changer ?",
      "answer": "tout ça",
      "answer_stringIds": [
        "string_15",
        "string_16"
      ]
    },
    {
      "id_qa": "autog_0249-2563_1982_num_15_8_T1_0225_0000_qa4_v3",
      "id_block": "block_6",
      "question": "Qu'utilise-t-il dans sa démarche ?",
      "answer": "usage de la lan",
      "answer_stringIds": [
        "string_144",
        "string_145",
        "string_146",
        "string_147"
      ]
    },
    {
      "id_qa": "autog_0249-2563_1982_num_15_8_T1_0225_0000_qa5_v3",
      "id_block": "block_6",
      "question": "Qu'est-ce qui est décrit dans le texte ?",
      "answer": "sa démarche",
      "answer_stringIds": [
        "string_141",
        "string_142"
      ]
    },
    {
      "id_qa": "autog_0249-2563_1982_num_15_8_T1_0225_0000_qa18_v3",
      "id_block": "block_8",
      "question": "Qu'est-ce que les mouvements sociaux ?",
      "answer": "mouvements alternatifs",
      "answer_stringIds": [
        "string_75",
        "string_76",
        "string_77"
      ]
    }
  ]
}