{
  "num": "autog_0338-7259_1979_num_43_1",
  "article": "autog_0338-7259_1979_num_43_1_1302_t1_0111_0000_2",
  "page_name": "FMSH_PB188a_00043_116",
  "questions": [
    "Quels sont les facteurs sociaux et politiques qui déterminent l'autogestion selon l'auteur ?",
    "Qu'est-ce que l'auteur soupçonne de l'autogestion ?",
    "Qu'est-ce que l'auteur compare l'autogestion à ?",
    "Quels sont les exemples d'autogestion mentionnés par l'auteur ?",
    "Qu'est-ce que l'auteur entend par \"collectivités espagnoles\" ?",
    "Quels sont les limites des expériences d'autogestion et de coopération selon l'auteur ?",
    "Comment l'auteur voit le rapport entre autogestion et coopération ?",
    "Qu'est-ce que l'auteur entend par \"pierres de touche\" ?",
    "Qu'est-ce que l'auteur entend par \"principe de la vie individuelle\" ?",
    "Quels sont les conditions matérielles et morales selon lesquelles les sociétés pré-humaines pourraient devenir des communautés humaines ?"
  ]
}