{
  "num": "autog_0338-7259_1970_num_13_1",
  "article": "autog_0338-7259_1970_num_13_1_1797",
  "page_name": "FMSH_PB188a_13-14_260",
  "questions": [
    "Quels sont les revendications salariales des personnes mentionnées dans le texte qui ont attiré l'attention des journaux ?",
    "Pourquoi l'application des règlements est impossible selon le texte ?",
    "Comment la bureaucratie justifie le fonctionnement global du système malgré l'impossibilité d'application des règlements ?",
    "Quels sont les deux exercices d'ingéniosité que les personnes doivent réaliser pour que le système fonctionne ?",
    "Quel est le rôle de la dissimulation dans la perception de la responsabilité de ceux qui commandent par rapport à ceux qui réalisent ?",
    "Qu'est-ce qui est postulé par ce texte quant à la relation entre spontanéités isolées et l'organisation globale ?",
    "Quel est le rôle de la coordination et de la créativité des exécutants dans le fonctionnement de l'organisation globale ?",
    "Quel est le justificatif social de l'inégalité de salaire entre le « directeur » et les contrôleurs de la navigation aérienne ?",
    "Pourquoi les règlements ne peuvent pas être violés par les «exécutants» selon le texte ?",
    "Quel est le lien entre la responsabilité du service et la violation des règlements par les «exécutants» ?"
  ]
}