{
  "num": "autog_0338-7259_1970_num_13_1",
  "article": "autog_0338-7259_1970_num_13_1_1797",
  "page_name": "FMSH_PB188a_13-14_265",
  "questions": [
    "Pourquoi les salaires ne sont-ils pas tous égaux selon les chroniques de l'auto-gestion ?",
    "Quels sont les deux contradictoires constatations concernant les conseils d'unité ?",
    "En faveur de quels intérêts la direction aime-t-elle les conseils d'unité ?",
    "Quels avantages ont les chefs de recevoir des conseils d'unité ?",
    "Comment les conseils d'unité peuvent-ils servir de moyen de résistance aux directives des chefs intermédiaires ?",
    "Comment la direction supérieure peut-elle influencer les conseils de département ou de sous-direction ?",
    "Quel est le rôle des conseils d'unité selon l'article 78 de la Convention du Travail ?",
    "Combien de conseillers élus il y a environ par rapport au nombre total d'agents ?"
  ]
}