{
  "num": "autog_0005-0970_1966_num_1_1",
  "article": "autog_0005-0970_1966_num_1_1_887",
  "page_name": "FMSH_PB188a_00001_075",
  "questions": [
    {
      "id_qa": "FMSH_PB188a_00001_075_qa29_v3",
      "id_block": "block_2",
      "question": "A quoi les groupes qui effectuent la production sont-ils privés ?",
      "answer": "à la répartition des produits dont ils sont créateurs",
      "answer_stringIds": [
        "string_117",
        "string_118",
        "string_119",
        "string_120",
        "string_121",
        "string_122",
        "string_123",
        "string_124",
        "string_125"
      ]
    },
    {
      "id_qa": "FMSH_PB188a_00001_075_qa0_v3",
      "id_block": "block_3",
      "question": "Que provoque une telle situation dans chaque pays ?",
      "answer": "une tension et des conflits",
      "answer_stringIds": [
        "string_132",
        "string_133",
        "string_134",
        "string_135",
        "string_136"
      ]
    },
    {
      "id_qa": "FMSH_PB188a_00001_075_qa47_v3",
      "id_block": "block_4",
      "question": "Qu'est-ce que la conscience de soi ne permet pas de résoudre ?",
      "answer": "les problèmes internationaux les plus divers",
      "answer_stringIds": [
        "string_183",
        "string_184",
        "string_185",
        "string_186",
        "string_187",
        "string_188"
      ]
    },
    {
      "id_qa": "FMSH_PB188a_00001_075_qa44_v3",
      "id_block": "block_5",
      "question": "Qu'est-ce qui n'est pas possible de résoudre ?",
      "answer": "les conflits de caractère international",
      "answer_stringIds": [
        "string_245",
        "string_246",
        "string_247",
        "string_248",
        "string_249"
      ]
    },
    {
      "id_qa": "FMSH_PB188a_00001_075_qa7_v3",
      "id_block": "block_6",
      "question": "Qu'est ce qui n'est pas à même d'appliquer les principes de démocratie dans ses rapports avec d'autres nations ?",
      "answer": "une nation",
      "answer_stringIds": [
        "string_286",
        "string_287"
      ]
    },
    {
      "id_qa": "FMSH_PB188a_00001_075_qa8_v3",
      "id_block": "block_6",
      "question": "Qu'est ce qui permet à une nation d'appliquer dans ses rapports avec d'autres nations ?",
      "answer": "le principe de démocratie",
      "answer_stringIds": [
        "string_354",
        "string_355",
        "string_356",
        "string_357"
      ]
    },
    {
      "id_qa": "FMSH_PB188a_00001_075_qa9_v3",
      "id_block": "block_6",
      "question": "Qu'est-ce que la démocratie dans son propre pays ?",
      "answer": "une forme évoluée de gestion",
      "answer_stringIds": [
        "string_320",
        "string_321",
        "string_322",
        "string_323",
        "string_324"
      ]
    },
    {
      "id_qa": "FMSH_PB188a_00001_075_qa10_v3",
      "id_block": "block_6",
      "question": "Où est-ce que la nation a su développer le principe de démocratie ?",
      "answer": "dans son propre pays",
      "answer_stringIds": [
        "string_316",
        "string_317",
        "string_318",
        "string_319"
      ]
    },
    {
      "id_qa": "FMSH_PB188a_00001_075_qa11_v3",
      "id_block": "block_6",
      "question": "Qu'est ce qui n'est pas à même d'appliquer les principes de démocratie dans son propre pays ?",
      "answer": "une nation",
      "answer_stringIds": [
        "string_286",
        "string_287"
      ]
    },
    {
      "id_qa": "FMSH_PB188a_00001_075_qa12_v3",
      "id_block": "block_6",
      "question": "Qu'est ce qui ne sera pas à même d'appliquer les principes de démocratie dans ses rapports avec d'autres nations ?",
      "answer": "une nation",
      "answer_stringIds": [
        "string_286",
        "string_287"
      ]
    },
    {
      "id_qa": "FMSH_PB188a_00001_075_qa41_v3",
      "id_block": "block_6",
      "question": "Qu'est ce que les pays ayant développé à l'intérieur de leurs frontières peuvent être en méme temps des pays appliquant peu de principes démocratiques ?",
      "answer": "la démocratie",
      "answer_stringIds": [
        "string_394",
        "string_395",
        "string_396"
      ]
    },
    {
      "id_qa": "FMSH_PB188a_00001_075_qa42_v3",
      "id_block": "block_6",
      "question": "Qui a développé la démocratie à l'intérieur de ses frontières ?",
      "answer": "les pays",
      "answer_stringIds": [
        "string_390",
        "string_391"
      ]
    }
  ]
}