{
  "num": "autog_0005-0970_1966_num_1_1",
  "article": "autog_0005-0970_1966_num_1_1_887",
  "page_name": "FMSH_PB188a_00001_074",
  "questions": [
    {
      "id_qa": "FMSH_PB188a_00001_074_qa3_v3",
      "id_block": "block_1",
      "question": "Qu'est-ce qui ne veut pas se laisser aller ?",
      "answer": "sa propre extermination physique",
      "answer_stringIds": [
        "string_26",
        "string_27",
        "string_28",
        "string_29"
      ]
    },
    {
      "id_qa": "FMSH_PB188a_00001_074_qa20_v3",
      "id_block": "block_1",
      "question": "Quelle est la conséquence de l'autogestion ?",
      "answer": "la destinée du monde",
      "answer_stringIds": [
        "string_85",
        "string_86",
        "string_87",
        "string_88"
      ]
    },
    {
      "id_qa": "FMSH_PB188a_00001_074_qa6_v3",
      "id_block": "block_2",
      "question": "Dans quelle région le développement des rapports internationaux est-il favorisé ?",
      "answer": "des régions arriérées",
      "answer_stringIds": [
        "string_190",
        "string_191",
        "string_192"
      ]
    },
    {
      "id_qa": "FMSH_PB188a_00001_074_qa10_v3",
      "id_block": "block_2",
      "question": "Où se situent les tendances à l'hégémonie ?",
      "answer": "chez certaines nations",
      "answer_stringIds": [
        "string_245",
        "string_246",
        "string_247"
      ]
    },
    {
      "id_qa": "FMSH_PB188a_00001_074_qa19_v3",
      "id_block": "block_3",
      "question": "Qu'est-ce que l'établissement d'un critère valable et humain ?",
      "answer": "les rapports sociaux et internationaux",
      "answer_stringIds": [
        "string_258",
        "string_259",
        "string_260",
        "string_261",
        "string_262"
      ]
    },
    {
      "id_qa": "FMSH_PB188a_00001_074_qa16_v3",
      "id_block": "block_4",
      "question": "Quel est le but de l'Organisation des Nations Unies ?",
      "answer": "dans le but de surmonter les différends et les conflits entre les nations",
      "answer_stringIds": [
        "string_316",
        "string_317",
        "string_318",
        "string_319",
        "string_320",
        "string_321",
        "string_322",
        "string_323",
        "string_324",
        "string_325",
        "string_326",
        "string_327",
        "string_328",
        "string_329"
      ]
    },
    {
      "id_qa": "FMSH_PB188a_00001_074_qa21_v3",
      "id_block": "block_4",
      "question": "Qu'est-ce qui a été particulièrement important après la seconde guerre mondiale ?",
      "answer": "aux rapports internationaux",
      "answer_stringIds": [
        "string_363",
        "string_364",
        "string_365"
      ]
    }
  ]
}