{
  "num": "autog_0338-7259_1970_num_13_1",
  "article": "autog_0338-7259_1970_num_13_1_977",
  "page_name": "FMSH_PB188a_13-14_100",
  "questions": [
    {
      "id_qa": "FMSH_PB188a_13-14_100_qa33_v3",
      "id_block": "block_1",
      "question": "Qu'est ce qui doit être considéré comme définitivement terminé ?",
      "answer": "son travail",
      "answer_stringIds": [
        "string_19",
        "string_20"
      ]
    },
    {
      "id_qa": "FMSH_PB188a_13-14_100_qa36_v3",
      "id_block": "block_3",
      "question": "Par qui a été effectué le travail d'explication ?",
      "answer": "par le groupe de préparation et de réflexion et",
      "answer_stringIds": [
        "string_111",
        "string_112",
        "string_113",
        "string_114",
        "string_115",
        "string_116",
        "string_117",
        "string_118",
        "string_119"
      ]
    },
    {
      "id_qa": "FMSH_PB188a_13-14_100_qa19_v3",
      "id_block": "block_4",
      "question": "Qu'est ce qui s'y fait jour ?",
      "answer": "des pouvoirs",
      "answer_stringIds": [
        "string_158",
        "string_159",
        "string_160"
      ]
    },
    {
      "id_qa": "FMSH_PB188a_13-14_100_qa0_v3",
      "id_block": "block_5",
      "question": "Qu'est-ce qu'une des dominantes de la société ?",
      "answer": "une « organisation de la séparation",
      "answer_stringIds": [
        "string_199",
        "string_200",
        "string_201",
        "string_202",
        "string_203",
        "string_204",
        "string_205"
      ]
    }
  ]
}