{
  "num": "autog_0338-7259_1970_num_13_1",
  "article": "autog_0338-7259_1970_num_13_1_977",
  "page_name": "FMSH_PB188a_13-14_093",
  "questions": [
    {
      "id_qa": "FMSH_PB188a_13-14_093_qa0_v3",
      "id_block": "block_3",
      "question": "Qu'est-ce qui risque d'être long, lexplication tortueuse ?",
      "answer": "le côté descriptif",
      "answer_stringIds": [
        "string_54",
        "string_55",
        "string_56"
      ]
    },
    {
      "id_qa": "FMSH_PB188a_13-14_093_qa12_v3",
      "id_block": "block_3",
      "question": "Qu'est-ce que la génèse et le déroulement de l'expérience ?",
      "answer": "décrire",
      "answer_stringIds": [
        "string_73"
      ]
    },
    {
      "id_qa": "FMSH_PB188a_13-14_093_qa4_v3",
      "id_block": "block_4",
      "question": "Quand a eu lieu l'université d'été autogestion ?",
      "answer": "du 24 juillet au 2 août 1969",
      "answer_stringIds": [
        "string_119",
        "string_120",
        "string_121",
        "string_122",
        "string_123",
        "string_124",
        "string_125"
      ]
    },
    {
      "id_qa": "FMSH_PB188a_13-14_093_qa7_v3",
      "id_block": "block_4",
      "question": "Où a eu lieu l'université d'été autogestion ?",
      "answer": "au Mans",
      "answer_stringIds": [
        "string_117",
        "string_118"
      ]
    },
    {
      "id_qa": "FMSH_PB188a_13-14_093_qa8_v3",
      "id_block": "block_6",
      "question": "Par qui est organisée l'université d'été en juillet 1968 ?",
      "answer": "par Culture et Développement",
      "answer_stringIds": [
        "string_170",
        "string_171",
        "string_172",
        "string_173"
      ]
    }
  ]
}