{
  "num": "autog_0338-7259_1970_num_13_1",
  "article": "autog_0338-7259_1970_num_13_1_977",
  "page_name": "FMSH_PB188a_13-14_097",
  "questions": [
    {
      "id_qa": "FMSH_PB188a_13-14_097_qa6_v3",
      "id_block": "block_1",
      "question": "A quoi a-t-on contribué l'expérience d'autogestion ?",
      "answer": "à poser un certain nombre de problèmes",
      "answer_stringIds": [
        "string_53",
        "string_54",
        "string_55",
        "string_56",
        "string_57",
        "string_58",
        "string_59",
        "string_60"
      ]
    },
    {
      "id_qa": "FMSH_PB188a_13-14_097_qa1_v3",
      "id_block": "block_3",
      "question": "Où se situent les expériences d'autogestion ?",
      "answer": "au Mans",
      "answer_stringIds": [
        "string_92",
        "string_93"
      ]
    },
    {
      "id_qa": "FMSH_PB188a_13-14_097_qa11_v3",
      "id_block": "block_6",
      "question": "Qui ne voulaient pas l'être trop ?",
      "answer": "les membres du groupe de préparation",
      "answer_stringIds": [
        "string_200",
        "string_201",
        "string_202",
        "string_203",
        "string_204",
        "string_205",
        "string_206"
      ]
    },
    {
      "id_qa": "FMSH_PB188a_13-14_097_qa12_v3",
      "id_block": "block_6",
      "question": "Où les membres du groupe de préparation ne voulaient pas l'être trop ?",
      "answer": "Au Mans",
      "answer_stringIds": [
        "string_193",
        "string_194"
      ]
    },
    {
      "id_qa": "FMSH_PB188a_13-14_097_qa13_v3",
      "id_block": "block_7",
      "question": "Quel est le modèle traditionnel d'organisation et de fonctionnement de sessions de formation ?",
      "answer": "un programme",
      "answer_stringIds": [
        "string_269",
        "string_270"
      ]
    }
  ]
}