{
  "num": "autog_0249-2563_1980_num_13_1",
  "article": "autog_0249-2563_1980_num_13_1_1340",
  "page_name": "autog_0249-2563_1980_num_13_1_T1_0015_0000",
  "questions": [
    {
      "id_qa": "autog_0249-2563_1980_num_13_1_T1_0015_0000_qa2_v3",
      "id_block": "block_2",
      "question": "Quelle est la cible des aliénations ?",
      "answer": "alternatives",
      "answer_stringIds": [
        "string_156"
      ]
    },
    {
      "id_qa": "autog_0249-2563_1980_num_13_1_T1_0015_0000_qa6_v3",
      "id_block": "block_2",
      "question": "Qu'est ce qui est la cible des alternatives ?",
      "answer": "les aliénations",
      "answer_stringIds": [
        "string_147",
        "string_148"
      ]
    },
    {
      "id_qa": "autog_0249-2563_1980_num_13_1_T1_0015_0000_qa10_v3",
      "id_block": "block_3",
      "question": "Qu'est ce qui rapproche les nostalgies d'un royaume du dieu ?",
      "answer": "la surréalité de sa présence",
      "answer_stringIds": [
        "string_199",
        "string_200",
        "string_201",
        "string_202",
        "string_203"
      ]
    },
    {
      "id_qa": "autog_0249-2563_1980_num_13_1_T1_0015_0000_qa12_v3",
      "id_block": "block_3",
      "question": "Qu'est-ce qui préside à sa fabulation ?",
      "answer": "ce paradoxe",
      "answer_stringIds": [
        "string_332",
        "string_333"
      ]
    }
  ]
}