{
  "num": "autog_0249-2563_1980_num_13_2",
  "article": "autog_0249-2563_1980_num_13_2_1857",
  "page_name": "autog_0249-2563_1980_num_13_2_T1_0250_0000",
  "questions": [
    {
      "id_qa": "autog_0249-2563_1980_num_13_2_T1_0250_0000_qa14_v3",
      "id_block": "block_0",
      "question": "Quand est-ce qu'on lit, écrit, travaille autrement ?",
      "answer": "chaque année",
      "answer_stringIds": [
        "string_55",
        "string_56"
      ]
    },
    {
      "id_qa": "autog_0249-2563_1980_num_13_2_T1_0250_0000_qa3_v3",
      "id_block": "block_1",
      "question": "Quel est le nom de l'association qui s'occupe des luttes des femmes ?",
      "answer": "le Werkkreis",
      "answer_stringIds": [
        "string_77",
        "string_78"
      ]
    },
    {
      "id_qa": "autog_0249-2563_1980_num_13_2_T1_0250_0000_qa4_v3",
      "id_block": "block_1",
      "question": "Quel parti politique est impliqué dans les luttes des femmes ?",
      "answer": "le Werkkreis",
      "answer_stringIds": [
        "string_77",
        "string_78"
      ]
    },
    {
      "id_qa": "autog_0249-2563_1980_num_13_2_T1_0250_0000_qa34_v3",
      "id_block": "block_3",
      "question": "Qu'est ce qui consiste essentiellement en un travail de production de textes ?",
      "answer": "le travail du Werkkreis",
      "answer_stringIds": [
        "string_178",
        "string_179",
        "string_180",
        "string_181"
      ]
    },
    {
      "id_qa": "autog_0249-2563_1980_num_13_2_T1_0250_0000_qa20_v3",
      "id_block": "block_5",
      "question": "Qui adhèrent au Werkkreis ?",
      "answer": "ses militants",
      "answer_stringIds": [
        "string_382",
        "string_383"
      ]
    },
    {
      "id_qa": "autog_0249-2563_1980_num_13_2_T1_0250_0000_qa22_v3",
      "id_block": "block_5",
      "question": "Que rencontrent les militants qui adhèrent au Werkkreis ?",
      "answer": "des difficultés au sein de leur propre parti du fait même des pratiques autogestionnaires",
      "answer_stringIds": [
        "string_390",
        "string_391",
        "string_392",
        "string_393",
        "string_394",
        "string_395",
        "string_396",
        "string_397",
        "string_398",
        "string_399",
        "string_400",
        "string_401",
        "string_402",
        "string_403",
        "string_404"
      ]
    },
    {
      "id_qa": "autog_0249-2563_1980_num_13_2_T1_0250_0000_qa23_v3",
      "id_block": "block_5",
      "question": "Qui entretient des rapports avec les partis d'extrême-gauche ?",
      "answer": "le Werkkreis",
      "answer_stringIds": [
        "string_77",
        "string_78"
      ]
    }
  ]
}