{
  "num": "autog_0338-7259_1972_num_18_1",
  "article": "autog_0338-7259_1972_num_18_1_1053",
  "page_name": "FMSH_PB188a_18-19_271",
  "questions": [
    "Quels groupes ont perdu leur pouvoir dans les coopératives de production des travailleurs ?",
    "Pourquoi les travailleurs ont-ils perdu leur droit à l'indépendance sociale ?",
    "Quels principes les travailleurs auraient préféré si cela était possible ?",
    "Quels partis politiques sont impliqués dans la situation décrite ?",
    "Quels « succès » ont captivé ces partis politiques ?",
    "Comment les masses de travailleurs sont-elles influencées par ces partis politiques ?",
    "Quels événements pouvaient être observés en juin 1918 en Russie ?",
    "Quels groupes dans la coalition des bolcheviks et des socialistes révolutionnaires de gauche avaient des désaccords ?",
    "Quels crimes ont été commis par ce bloc envers les travailleurs ?",
    "Quels événements se produiront plus tard ?",
    "Quels groupes sont les « grandes masses » mentionnés en fin de paragraph ?"
  ]
}