{
  "num": "autog_0249-2563_1980_num_13_2",
  "article": "autog_0249-2563_1980_num_13_2_1358",
  "page_name": "autog_0249-2563_1980_num_13_2_T1_0164_0000",
  "questions": [
    {
      "id_qa": "autog_0249-2563_1980_num_13_2_T1_0164_0000_qa0_v3",
      "id_block": "block_0",
      "question": "A quoi doit se présenter le candidat ?",
      "answer": "se présenter aux élections fédérales",
      "answer_stringIds": [
        "string_1",
        "string_2",
        "string_3",
        "string_4",
        "string_5"
      ]
    },
    {
      "id_qa": "autog_0249-2563_1980_num_13_2_T1_0164_0000_qa1_v3",
      "id_block": "block_0",
      "question": "Où doit se présenter la personne devant se présenter ?",
      "answer": "aux élections fédérales",
      "answer_stringIds": [
        "string_3",
        "string_4",
        "string_5"
      ]
    },
    {
      "id_qa": "autog_0249-2563_1980_num_13_2_T1_0164_0000_qa5_v3",
      "id_block": "block_0",
      "question": "Qu'est ce qui a tendance à se dissiper de part et d'autre ?",
      "answer": "les cloisonnements",
      "answer_stringIds": [
        "string_34",
        "string_35"
      ]
    }
  ]
}