{
  "num": "autog_0249-2563_1982_num_16_12",
  "article": "autog_0249-2563_1982_num_16_12_1529",
  "page_name": "autog_0249-2563_1982_num_16_12_T1_0059_0000",
  "questions": [
    {
      "id_qa": "autog_0249-2563_1982_num_16_12_T1_0059_0000_qa9_v3",
      "id_block": "block_1",
      "question": "Qu'a-t-on pu faire au Centre ?",
      "answer": "des débats",
      "answer_stringIds": [
        "string_64",
        "string_65"
      ]
    },
    {
      "id_qa": "autog_0249-2563_1982_num_16_12_T1_0059_0000_qa19_v3",
      "id_block": "block_3",
      "question": "Qu'est ce qui a été observé à la suite de l'année écoulée ?",
      "answer": "une certaine dérive du projet initial",
      "answer_stringIds": [
        "string_112",
        "string_113",
        "string_114",
        "string_115",
        "string_116",
        "string_117"
      ]
    },
    {
      "id_qa": "autog_0249-2563_1982_num_16_12_T1_0059_0000_qa20_v3",
      "id_block": "block_3",
      "question": "Qui a observé une dérive du projet initial ?",
      "answer": "par tous",
      "answer_stringIds": [
        "string_122",
        "string_123"
      ]
    },
    {
      "id_qa": "autog_0249-2563_1982_num_16_12_T1_0059_0000_qa21_v3",
      "id_block": "block_3",
      "question": "Qu'est-ce qui est nécessaire à la suite de l'année écoulée ?",
      "answer": "les objectifs",
      "answer_stringIds": [
        "string_135",
        "string_136"
      ]
    },
    {
      "id_qa": "autog_0249-2563_1982_num_16_12_T1_0059_0000_qa24_v3",
      "id_block": "block_4",
      "question": "Par qui sont laissés pour compte les jeunes ?",
      "answer": "les lycées",
      "answer_stringIds": [
        "string_219",
        "string_220"
      ]
    },
    {
      "id_qa": "autog_0249-2563_1982_num_16_12_T1_0059_0000_qa25_v3",
      "id_block": "block_4",
      "question": "Qu'est ce qui n'apparaît pas comme prioritaire ?",
      "answer": "le grand nombre de jeunes laissés pour compte par les lycées et que le chômage rejette hors de cette vie active où on les avait envoyés",
      "answer_stringIds": [
        "string_210",
        "string_211",
        "string_212",
        "string_213",
        "string_214",
        "string_215",
        "string_216",
        "string_217",
        "string_218",
        "string_219",
        "string_220",
        "string_221",
        "string_222",
        "string_223",
        "string_224",
        "string_225",
        "string_226",
        "string_227",
        "string_228",
        "string_229",
        "string_230",
        "string_231",
        "string_232",
        "string_233",
        "string_234",
        "string_235"
      ]
    },
    {
      "id_qa": "autog_0249-2563_1982_num_16_12_T1_0059_0000_qa28_v3",
      "id_block": "block_4",
      "question": "Qu'est ce qui rejette les jeunes laissés pour compte par les lycées ?",
      "answer": "le chômage",
      "answer_stringIds": [
        "string_223",
        "string_224"
      ]
    },
    {
      "id_qa": "autog_0249-2563_1982_num_16_12_T1_0059_0000_qa34_v3",
      "id_block": "block_4",
      "question": "Que doit considérer cette formation ?",
      "answer": "la culture comme une fin",
      "answer_stringIds": [
        "string_170",
        "string_171",
        "string_172",
        "string_173",
        "string_174"
      ]
    },
    {
      "id_qa": "autog_0249-2563_1982_num_16_12_T1_0059_0000_qa14_v3",
      "id_block": "block_5",
      "question": "Où a eu lieu la création du Centre ?",
      "answer": "en France",
      "answer_stringIds": [
        "string_301",
        "string_302"
      ]
    },
    {
      "id_qa": "autog_0249-2563_1982_num_16_12_T1_0059_0000_qa16_v3",
      "id_block": "block_5",
      "question": "Qu'est ce qui a fait naître très loin en France ?",
      "answer": "la création du Centre",
      "answer_stringIds": [
        "string_292",
        "string_293",
        "string_294",
        "string_295"
      ]
    },
    {
      "id_qa": "autog_0249-2563_1982_num_16_12_T1_0059_0000_qa2_v3",
      "id_block": "block_8",
      "question": "Qu'est-ce qui permet une participation réelle sans qu'il y ait de sanctions ?",
      "answer": "des contrats de types différents",
      "answer_stringIds": [
        "string_390",
        "string_391",
        "string_392",
        "string_393",
        "string_394"
      ]
    },
    {
      "id_qa": "autog_0249-2563_1982_num_16_12_T1_0059_0000_qa3_v3",
      "id_block": "block_8",
      "question": "Qu'est-ce que l'autogestion collective ?",
      "answer": "une institution modèle",
      "answer_stringIds": [
        "string_353",
        "string_354",
        "string_355"
      ]
    },
    {
      "id_qa": "autog_0249-2563_1982_num_16_12_T1_0059_0000_qa4_v3",
      "id_block": "block_8",
      "question": "Qu'est-ce qui suscite une participation réelle ?",
      "answer": "des structures",
      "answer_stringIds": [
        "string_375",
        "string_376"
      ]
    }
  ]
}