{
  "num": "autog_0249-2563_1984_num_17_15",
  "article": "autog_0249-2563_1984_num_17_15_1575",
  "page_name": "autog_0249-2563_1984_num_17_15_T1_0034_0000",
  "questions": [
    "Quel est le sujet de cette phrase ?",
    "Quel est le verbe au début de la phrase ?",
    "Quel pays est mentionné ici ?",
    "Quel est le rôle de \"us\" dans cette phrase ?",
    "Quel est le mot qui signifie \"professeur\" en anglais ?",
    "Quel est mon rôle dans ce contexte ?",
    "Quel est le domaine de mes connaissances en tant que professeur d'histoire ?",
    "Quel est le genre de la phrase ?",
    "Quel est le sens global de cette phrase ?",
    "Y a-t-il des mots clés dans cette phrase ?",
    "Quels sont les verbes dans cette phrase ?",
    "Quels sont les noms dans cette phrase ?",
    "Quels sont les déterminants dans cette phrase ?",
    "Quels sont les pronoms dans cette phrase ?",
    "Quels sont les articles dans cette phrase ?",
    "Quels sont les adverbes dans cette phrase ?",
    "Quels sont les adjectifs dans cette phrase ?",
    "Quels sont les prépositions dans cette phrase ?",
    "Quels sont les conjonctions dans cette phrase ?",
    "Quels sont les interjections dans cette phrase ?",
    "Quels sont les noms propres dans cette phrase ?",
    "Quels sont les noms communs dans cette phrase ?",
    "Quels sont les verbes aux infinitifs dans cette phrase ?",
    "Quels sont les verbes aux particules dans cette phrase ?",
    "Quels sont les verbes aux passé composé dans cette phrase ?",
    "Quels sont les verbes aux passé simple dans cette phrase ?",
    "Quels sont les verbes aux impératif dans cette phrase ?",
    "Quels sont les verbes aux conditionnel dans cette phrase ?",
    "Quels sont les verbes aux subjonctif dans cette phrase ?",
    "Quels sont les verbes aux infinitif progressif dans cette phrase ?",
    "Quels sont les verbes aux participe passé dans cette phrase ?",
    "Quels sont les verbes aux participe présent dans cette phrase ?",
    "Quels sont?"
  ]
}