{
  "num": "autog_0338-7259_1975_num_30_1",
  "article": "autog_0338-7259_1975_num_30_1_1125",
  "page_name": "FMSH_PB188a_30-31_097",
  "questions": [
    "Quel titre a Chevènement donné à la troisième partie de son livre sur l'autogestion ?",
    "Comment Chevènement décrit le passage du PS vers l'autogestion ?",
    "Quels mots utilise-t-il pour différencier le socialisme autogestionnaire du socialisme démocratique ?",
    "Quel est le risque de confusion entre ces deux concepts selon Chevènement ?",
    "Quel est le rôle de l'adjectif « démocratique » dans la formulation de Chevènement ?",
    "Qu'est-ce que Chevènement entend par « scotomiser » ?",
    "Qu'est-ce que Chevènement reconnaît comme la remise en cause fondamentale de la gestion ?",
    "Qu'est-ce que Chevènement pense de la « gestion démocratique » ?",
    "Qu'est-ce que signifie la « tautologie redondante » dans le contexte de Chevènement ?",
    "Qu'est-ce que Chevènement entend par « nouveau mode de production asiatique » ?",
    "Qu'est-ce que signifie la « litote plurielle » dans le contexte de Chevènement ?"
  ]
}