{
  "num": "autog_0338-7259_1975_num_30_1",
  "article": "autog_0338-7259_1975_num_30_1_1125",
  "page_name": "FMSH_PB188a_30-31_102",
  "questions": [
    "Quel est le rôle critique de Yvon Bourdet envers les partis et les syndicats ?",
    "Quel est le doute de Chevènement quant à l'opposition aux partis et syndicats au nom de l'autogestion ?",
    "Quels sont les risques de manipulation dans les assemblées générales et dans les conseils ouvriers ?",
    "Quels sont les avantages d'une organisation plus structurée en termes de démocratie ?",
    "Quel livre de Anton Pannekoek est-il possible de lire à la place des remarques de Chevènement ?",
    "Quels auteurs sont cités comme alternatives à Anton Pannekoek ?",
    "Quels sont les naïvetés spontanées critiquées par Chevènement ?",
    "Quel est le livre de Max Adler sur la démocratie et les conseils ouvriers ?"
  ]
}