{
  "num": "autog_0338-7259_1975_num_30_1",
  "article": "autog_0338-7259_1975_num_30_1_1125",
  "page_name": "FMSH_PB188a_30-31_104",
  "questions": [
    "Quel est le résultat clair que Yvon Bourdet tire de la logomachie sur le rapport \"dirigeants-dirigés\" dans le PSU ?",
    "Quel était la proposition de Serge Mallet pour transformer les structures et le mode de fonctionnement du PSU ?",
    "Pourquoi Chevènement considère que faire l'ange en gardant une basse-laine est une mauvaise idée ?",
    "Qu'avait reconnu Chevènement auparavant sur le rapport \"dirigeants-dirigés\" dans le Parti Socialiste ?",
    "Qu'avait affirmé Karl Korsch sur Bernstein et le but final ?"
  ]
}