{
  "num": "autog_0338-7259_1975_num_30_1",
  "article": "autog_0338-7259_1975_num_30_1_1122",
  "page_name": "FMSH_PB188a_30-31_053",
  "questions": [
    "Quels sont les conseils nationaux qui revendiquent la socialisation des usines et des mines et remplacent la gendarmerie par le peuple en armes ?",
    "Quels conseils nationaux ont été contrôlés par des propriétaires et quels sont leurs positions politiques ?",
    "En quelle mesure l'évolution internationale et l'influence du parti communiste contribuent-elles à la clarification de la situation ?",
    "Comment les conseils d'ouvriers, de paysans et de soldats absorbent-ils les conseils populaires locaux et s'opposent-ils au gouvernement ?",
    "Quel rôle décisif jouent les paysans pauvres dans cette évolution politique ?",
    "Dans quelles régions la structure de la propriété est la plus contrastée et comment les paysans pauvres dominent-ils les conseils populaires ou nationaux ?",
    "Quels sont les petits fermiers et les petits propriétaires paysans et quels sont leurs attentes envers la révolution ?",
    "Comment les paysans pauvres s'appuient-ils sur les couches plus aisées et quels sont leurs motifs ?",
    "Quels sont les paysans qui expriment clairement leur défiance à l'égard des ouvriers agricoles et des domestiques ?"
  ]
}