{
  "num": "autog_0338-7259_1975_num_30_1",
  "article": "autog_0338-7259_1975_num_30_1_1122",
  "page_name": "FMSH_PB188a_30-31_034",
  "questions": [
    "Quel est le rôle que M. Karolyi attribue aux soldats dans la fondation de la république hongroise ?",
    "Quels groupes politiques prennent contact avec le conseil de soldats et pourquoi ?",
    "Quel est le premier objectif du conseil de la jeunesse étudiante ?",
    "Quand se réunit-il pour la première fois le Conseil Ouvrier de Budapest ?",
    "Quel est le rôle de l'archiduc Joseph dans l'échec de la formation d'un gouvernement légal par M. Karolyi ?",
    "Pourquoi M. Karolyi a-t-il eu des doutes sur les soldats et quels éléments du parti socialiste ont influencé le conseil de soldats ?"
  ]
}