{
  "num": "autog_0338-7259_1972_num_18_1",
  "article": "autog_0338-7259_1972_num_18_1_1036",
  "page_name": "FMSH_PB188a_18-19_129",
  "questions": [
    "Quelle période de la révolution est décrite dans le texte ?",
    "Quel rôle prend le Conseil Général de l'Industrie dans le contrôle de l'industrie catalane ?",
    "Quels sont les représentants du Conseil Général de l'Industrie ?",
    "Comment est nommé le représentant du Conseil Economique de Catalogne qui préside l'assemblée ?",
    "Comment la représentation directe des ouvriers a-t-elle évolué dans le gouvernement ?",
    "Quels termes capitalistes sont peu à peu vidés de leur sens ?",
    "Quel est l'impact de l'avance des troupes du gouvernement de Burgos sur la distribution ?",
    "Quels produits sont concernés par le blocage ?",
    "Quand disparaissent les matières premières textiles ?",
    "Quels produits chimiques sont concernés par le blocage ?",
    "Quand se produit la quasi-disparition du charbon ?",
    "Comment aggrave-t-on la crise latente ?"
  ]
}