{
  "num": "autog_0338-7259_1972_num_18_1",
  "article": "autog_0338-7259_1972_num_18_1_1036",
  "page_name": "FMSH_PB188a_18-19_131",
  "questions": [
    "Quelle est la crise économique et financière pendant la révolution (1936-1939) et comment elle empêche l'application de solutions radicales pour les salaires ?",
    "Quel est le monopole gouvernemental sur le commerce extérieur et comment il oblige les collectivités à envisager une distribution autogestionnaire ?",
    "Comment le contrôle des banques par le gouvernement permet de bloquer les crédits aux collectivités et pousse celles-ci à trouver des moyens d'autofinancement ?",
    "Quel est le dualisme croissant entre l'autogestion et le gouvernement Caballero ?",
    "En quelles conditions la formule « à chacun selon ses besoins » peut-elle être appliquée dans les collectivités ?",
    "Quel est l'instrument de l'exploitation capitaliste que les collectivistes tentent de supprimer et où cela s'est le plus approché des finalités communistes libertaires ?",
    "Quel est le système de rémunération dans la région d'Aragon et comment il prend-il la forme d'un salaire familial uniforme ?",
    "Quel est le montant du salaire familial uniforme dans la région d'Aragon et comment il varie en fonction du nombre d'enfants à charge ?"
  ]
}