{
  "num": "autog_0338-7259_1972_num_18_1",
  "article": "autog_0338-7259_1972_num_18_1_1036",
  "page_name": "FMSH_PB188a_18-19_133",
  "questions": [
    "Quels événements marquent la période révolutionnaire (1936-1939) en matière de destruction des églises et de présence du christianisme ?",
    "En quelle mesure la situation en Catalogne est-elle différente de celle d'autres régions en matière de suppression de la monnaie et de durée du travail ?",
    "Quels événements marquent la période révolutionnaire (1936-1939) en matière de scolarisation et de charge de l'enfant ?",
    "Comment les travailleurs collectivistes abandonnent-ils les pratiques individualistes du travail à domicile et à la tâche ?",
    "Quelles tendances s'affirment dans l'industrie face aux contraintes d'une économie de guerre en matière de nivellement des salaires et de collaboration des techniciens ?",
    "En quelle mesure et comment les salaires des techniciens sont-ils modifiés dans les collectivités catalanes ?"
  ]
}