{
  "num": "autog_0338-7259_1972_num_18_1",
  "article": "autog_0338-7259_1972_num_18_1_1036",
  "page_name": "FMSH_PB188a_18-19_124",
  "questions": [
    "Quels événements ont entraîné l'enthousiasme délirant des collectivités espagnoles envers le décret d'« Incantacion » ?",
    "Quel rôle continuent à jouer les Comités de Contrôle dans les usines après l'approbation du décret ?",
    "Quel pourcentage des usines en Catalogne et dans la région de Madrid ont été « incautadas » ou « intervenidas » ?",
    "Quels méthodes sont utilisées pour confisquer les propriétés agricoles dans les régions de petite propriété ?",
    "Quel fut le propos du Congrès de Saragosse quant à l'expropriation des propriétés agricoles ?",
    "Quels types de terres sont concernées par l'expropriation après 1936 ?",
    "Comment la superficie des terres désormais « libres » peut être élevée, compte tenu de l'extension du territoire contrôlé par les troupes rebelles ?",
    "Quels comités sont élus dans les usines à partir du début ?",
    "Existe-t-il une politique d'encouragement à la collectivisation de la terre par la force ?",
    "Quels sont les conséquences pour les paysans de l'interdiction d'employer des salariés ?",
    "Comment les terres inexploitées sont gérées par les collectivités ?"
  ]
}