{
  "num": "autog_0338-7259_1972_num_18_1",
  "article": "autog_0338-7259_1972_num_18_1_1036",
  "page_name": "FMSH_PB188a_18-19_125",
  "questions": [
    "Quels événements historiques sont désignés par le terme \"la révolution\" (1936-1939) ?",
    "Quels types de comités sont-ils en question dans le texte ?",
    "Quel est le rôle des comités dans la gestion des entreprises ?",
    "Quel est le rôle des responsables élus dans chaque équipe ?",
    "Comment se réunissent les comités et quels sont leurs responsabilités périodiques ?",
    "Comment est évitée la naissance d'une bureaucratie dans les comités ?",
    "Comment les comités sont-ils organisés au niveau supérieur ?",
    "Quels sont les conséquences de l'économie de guerre sur les structures des comités ?"
  ]
}