{
  "num": "autog_0338-7259_1972_num_18_1",
  "article": "autog_0338-7259_1972_num_18_1_1036",
  "page_name": "FMSH_PB188a_18-19_144",
  "questions": [
    "Quel rôle a joué la guerre dans le blocage économique et l'accroissement de la crise en Espagne ?",
    "En quoi ont contribué les positions prises sur la non-intervention à ces événements ?",
    "Quels avantages ont pu obtenir les puissances fascistes de cette pratique ?",
    "Quels aspects essentiels des réalisations révolutionnaires sont présentés dans le texte ?",
    "Pourquoi le prolétariat a-t-il voulu faire la révolution, selon l'auteur ?",
    "Comment les méthodes employées dans la révolution correspondaient-elles à ce but ?",
    "Comment les régimes bourgeois, fascistes et le capitalisme d'Etat se sont opposés aux thèmes révolutionnaires ?",
    "Dans quelles périodes révolutionnaires apparaissent-ils et comment l'histoire de la lutte des classes les donne-t-elle vie et vérité ?"
  ]
}