{
  "num": "autog_0338-7259_1972_num_18_1",
  "article": "autog_0338-7259_1972_num_18_1_1036",
  "page_name": "FMSH_PB188a_18-19_122",
  "questions": [
    "Quel est le nom du congrès tenu par les collectivités espagnoles et à quel endroit s'est-il déroulé ?",
    "Quels principes de base du communisme libertaire ont été adoptés au Congrès de Saragosse ?",
    "Quel rôle a-t-on exclu de l'U.G.T. dans la transformation économique et sociale ?",
    "Comment les données théoriques du Congrès de Saragosse ont-elles contribué à la prise en main rapide du processus économique et politique espagnol ?",
    "Quel rôle prend la CNT dans la prise en main des terres et des usines ?",
    "Quel est le sort des régions telles que l'Andalousie dans la lutte contre le soulèvement factieux ?",
    "Quelles régions ont été les premières à raisonner les troupes insurrectionnelles ?",
    "Quels secteurs clés de l'économie catalane a-t-on mis sous le contrôle de la CNT-F.A.I. ?",
    "Quel est le rôle des milices dans cette situation ?",
    "Quel livre a développé les principes de base du communisme libertaire ?"
  ]
}