{
  "num": "autog_0249-2563_1980_num_13_4",
  "article": "autog_0249-2563_1980_num_13_4_1394",
  "page_name": "autog_0249-2563_1980_num_13_4_T1_0458_0000",
  "questions": [
    {
      "id_qa": "autog_0249-2563_1980_num_13_4_T1_0458_0000_qa18_v3",
      "id_block": "block_0",
      "question": "Qu'est-ce que la foule en fusion ?",
      "answer": "la Bastille une instance révélatrice",
      "answer_stringIds": [
        "string_29",
        "string_30",
        "string_31",
        "string_32",
        "string_33"
      ]
    },
    {
      "id_qa": "autog_0249-2563_1980_num_13_4_T1_0458_0000_qa20_v3",
      "id_block": "block_0",
      "question": "Quelle est l'instance révélatrice du \"Que faire\"?",
      "answer": "dans « la foule en fusion » qui prend la Bastille une instance révélatrice du « Que faire",
      "answer_stringIds": [
        "string_20",
        "string_21",
        "string_22",
        "string_23",
        "string_24",
        "string_25",
        "string_26",
        "string_27",
        "string_28",
        "string_29",
        "string_30",
        "string_31",
        "string_32",
        "string_33",
        "string_34",
        "string_35",
        "string_36",
        "string_37"
      ]
    },
    {
      "id_qa": "autog_0249-2563_1980_num_13_4_T1_0458_0000_qa0_v3",
      "id_block": "block_1",
      "question": "De qui s'inspire le combat pour l'écologie ?",
      "answer": "Une relecture de Freud et surtout de Reich",
      "answer_stringIds": [
        "string_93",
        "string_94",
        "string_95",
        "string_96",
        "string_97",
        "string_98",
        "string_99",
        "string_100"
      ]
    },
    {
      "id_qa": "autog_0249-2563_1980_num_13_4_T1_0458_0000_qa2_v3",
      "id_block": "block_1",
      "question": "Que devrait constituer une relecture de Freud et surtout de Reich ?",
      "answer": "un travail",
      "answer_stringIds": [
        "string_72",
        "string_73"
      ]
    },
    {
      "id_qa": "autog_0249-2563_1980_num_13_4_T1_0458_0000_qa3_v3",
      "id_block": "block_1",
      "question": "À quels besoins correspond l'autogestion ?",
      "answer": "le combat",
      "answer_stringIds": [
        "string_87",
        "string_88"
      ]
    }
  ]
}