{
  "num": "autog_0249-2563_1980_num_13_4",
  "article": "autog_0249-2563_1980_num_13_4_1394",
  "page_name": "autog_0249-2563_1980_num_13_4_T1_0456_0000",
  "questions": [
    {
      "id_qa": "autog_0249-2563_1980_num_13_4_T1_0456_0000_qa1_v3",
      "id_block": "block_0",
      "question": "Où se situe la centrale ?",
      "answer": "plus loin de leur résidence",
      "answer_stringIds": [
        "string_95",
        "string_96",
        "string_97",
        "string_98",
        "string_99"
      ]
    },
    {
      "id_qa": "autog_0249-2563_1980_num_13_4_T1_0456_0000_qa10_v3",
      "id_block": "block_0",
      "question": "Dans quel pays l'insurrection de tout un peuple est-elle possible ?",
      "answer": "en Iran",
      "answer_stringIds": [
        "string_192",
        "string_193"
      ]
    },
    {
      "id_qa": "autog_0249-2563_1980_num_13_4_T1_0456_0000_qa19_v3",
      "id_block": "block_0",
      "question": "Qu'est ce qui deviendrait à proprement parler \"utopique\"?",
      "answer": "la centrale qui",
      "answer_stringIds": [
        "string_135",
        "string_136",
        "string_137"
      ]
    },
    {
      "id_qa": "autog_0249-2563_1980_num_13_4_T1_0456_0000_qa34_v3",
      "id_block": "block_2",
      "question": "Qu'est ce qui devient refuge dans la niche ?",
      "answer": "Le refus",
      "answer_stringIds": [
        "string_335",
        "string_336"
      ]
    }
  ]
}