{
  "num": "autog_0249-2563_1980_num_13_4",
  "article": "autog_0249-2563_1980_num_13_4_1394",
  "page_name": "autog_0249-2563_1980_num_13_4_T1_0457_0000",
  "questions": [
    {
      "id_qa": "autog_0249-2563_1980_num_13_4_T1_0457_0000_qa23_v3",
      "id_block": "block_0",
      "question": "Quel est l'impact de ce qui apparaît dans un premier temps ?",
      "answer": "comme marginal",
      "answer_stringIds": [
        "string_13",
        "string_14"
      ]
    },
    {
      "id_qa": "autog_0249-2563_1980_num_13_4_T1_0457_0000_qa28_v3",
      "id_block": "block_2",
      "question": "Qu'est-ce que le travail groupé autogéré ?",
      "answer": "une telle « récupération",
      "answer_stringIds": [
        "string_73",
        "string_74",
        "string_75",
        "string_76"
      ]
    },
    {
      "id_qa": "autog_0249-2563_1980_num_13_4_T1_0457_0000_qa26_v3",
      "id_block": "block_2",
      "question": "Quel type de travail est voué à une telle « récupération » ?",
      "answer": "le travail groupé",
      "answer_stringIds": [
        "string_66",
        "string_67",
        "string_68"
      ]
    },
    {
      "id_qa": "autog_0249-2563_1980_num_13_4_T1_0457_0000_qa27_v3",
      "id_block": "block_2",
      "question": "Qui pense que le travail groupé autogéré est voué à une telle « récupération » ?",
      "answer": "les entrepreneurs capitalistes",
      "answer_stringIds": [
        "string_39",
        "string_40",
        "string_41"
      ]
    },
    {
      "id_qa": "autog_0249-2563_1980_num_13_4_T1_0457_0000_qa1_v3",
      "id_block": "block_3",
      "question": "Qu'est ce qui intéresse le système des longues chaînes taylorisées ?",
      "answer": "le fait que la mise en facteur de la créativité collective de quelques personnes soit plus efficace que le système des longues chaînes taylorisées",
      "answer_stringIds": [
        "string_87",
        "string_88",
        "string_89",
        "string_90",
        "string_91",
        "string_92",
        "string_93",
        "string_94",
        "string_95",
        "string_96",
        "string_97",
        "string_98",
        "string_99",
        "string_100",
        "string_101",
        "string_102",
        "string_103",
        "string_104",
        "string_105",
        "string_106",
        "string_107",
        "string_108",
        "string_109",
        "string_110"
      ]
    },
    {
      "id_qa": "autog_0249-2563_1980_num_13_4_T1_0457_0000_qa6_v3",
      "id_block": "block_3",
      "question": "Qu'est-ce que l'autogestion écologique ?",
      "answer": "un enrichissement de la fin et des moyens",
      "answer_stringIds": [
        "string_190",
        "string_191",
        "string_192",
        "string_193",
        "string_194",
        "string_195",
        "string_196",
        "string_197"
      ]
    },
    {
      "id_qa": "autog_0249-2563_1980_num_13_4_T1_0457_0000_qa5_v3",
      "id_block": "block_3",
      "question": "Qui a développé l'autogestion écologique ?",
      "answer": "par Ignacy Sachs",
      "answer_stringIds": [
        "string_171",
        "string_172",
        "string_173"
      ]
    },
    {
      "id_qa": "autog_0249-2563_1980_num_13_4_T1_0457_0000_qa7_v3",
      "id_block": "block_3",
      "question": "Qu'est ce qui rend possible l'autogestion écologique ?",
      "answer": "un enrichissement de la fin et des moyens",
      "answer_stringIds": [
        "string_190",
        "string_191",
        "string_192",
        "string_193",
        "string_194",
        "string_195",
        "string_196",
        "string_197"
      ]
    },
    {
      "id_qa": "autog_0249-2563_1980_num_13_4_T1_0457_0000_qa9_v3",
      "id_block": "block_5",
      "question": "Qui parle au nom du Parti ?",
      "answer": "le prolétariat",
      "answer_stringIds": [
        "string_278",
        "string_279"
      ]
    },
    {
      "id_qa": "autog_0249-2563_1980_num_13_4_T1_0457_0000_qa10_v3",
      "id_block": "block_5",
      "question": "Qu'est ce que le prolétariat a semblé pouvoir \"réaliser\" pendant un siècle ?",
      "answer": "la philosophie fondamentale",
      "answer_stringIds": [
        "string_284",
        "string_285",
        "string_286"
      ]
    },
    {
      "id_qa": "autog_0249-2563_1980_num_13_4_T1_0457_0000_qa11_v3",
      "id_block": "block_5",
      "question": "Quel est le nom de la philosophie fondamentale ?",
      "answer": "le prolétariat",
      "answer_stringIds": [
        "string_278",
        "string_279"
      ]
    },
    {
      "id_qa": "autog_0249-2563_1980_num_13_4_T1_0457_0000_qa13_v3",
      "id_block": "block_5",
      "question": "Qu'est ce que le prolétariat a semblé pouvoir faire pendant un siècle ?",
      "answer": "la philosophie fondamentale",
      "answer_stringIds": [
        "string_284",
        "string_285",
        "string_286"
      ]
    },
    {
      "id_qa": "autog_0249-2563_1980_num_13_4_T1_0457_0000_qa15_v3",
      "id_block": "block_5",
      "question": "Qu'est ce qui a semblé pouvoir \"réaliser\" pendant un siècle ?",
      "answer": "la philosophie fondamentale",
      "answer_stringIds": [
        "string_284",
        "string_285",
        "string_286"
      ]
    },
    {
      "id_qa": "autog_0249-2563_1980_num_13_4_T1_0457_0000_qa34_v3",
      "id_block": "block_5",
      "question": "Qui nous raillaient de croire à limmaculée conception du prolétariat ?",
      "answer": "ceux qui",
      "answer_stringIds": [
        "string_318",
        "string_319"
      ]
    },
    {
      "id_qa": "autog_0249-2563_1980_num_13_4_T1_0457_0000_qa35_v3",
      "id_block": "block_5",
      "question": "Qu'est-ce que le prolétariat ?",
      "answer": "à limmaculée conception du prolétariat",
      "answer_stringIds": [
        "string_324",
        "string_325",
        "string_326",
        "string_327",
        "string_328"
      ]
    },
    {
      "id_qa": "autog_0249-2563_1980_num_13_4_T1_0457_0000_qa38_v3",
      "id_block": "block_5",
      "question": "Qu'est ce qui est contesté par l'écologie ?",
      "answer": "la science",
      "answer_stringIds": [
        "string_242",
        "string_243"
      ]
    }
  ]
}