{
  "num": "autog_0338-7259_1975_num_32_1",
  "article": "autog_0338-7259_1975_num_32_1_1139",
  "page_name": "FMSH_PB188a_00032_027",
  "questions": [
    {
      "id_qa": "FMSH_PB188a_00032_027_qa6_v3",
      "id_block": "block_1",
      "question": "Pour qui les travailleurs doivent-ils vivre et travailler ?",
      "answer": "le capital",
      "answer_stringIds": [
        "string_26",
        "string_27"
      ]
    },
    {
      "id_qa": "FMSH_PB188a_00032_027_qa8_v3",
      "id_block": "block_1",
      "question": "Pour qui les travailleurs ne doivent pas vivre et travailler ?",
      "answer": "pour le capital et pour le possesseur du capital",
      "answer_stringIds": [
        "string_25",
        "string_26",
        "string_27",
        "string_28",
        "string_29",
        "string_30",
        "string_31",
        "string_32",
        "string_33"
      ]
    },
    {
      "id_qa": "FMSH_PB188a_00032_027_qa9_v3",
      "id_block": "block_1",
      "question": "Pour qui le capital est-il fait pour servir ?",
      "answer": "les travailleurs",
      "answer_stringIds": [
        "string_16",
        "string_17",
        "string_18"
      ]
    },
    {
      "id_qa": "FMSH_PB188a_00032_027_qa11_v3",
      "id_block": "block_1",
      "question": "Qui est fait pour servir le capital ?",
      "answer": "les travailleurs",
      "answer_stringIds": [
        "string_16",
        "string_17",
        "string_18"
      ]
    },
    {
      "id_qa": "FMSH_PB188a_00032_027_qa16_v3",
      "id_block": "block_2",
      "question": "Quelle est la particularité du mouvement People for selfmanagement ?",
      "answer": "toutes les disciplines ayant trait à la participation",
      "answer_stringIds": [
        "string_235",
        "string_236",
        "string_237",
        "string_238",
        "string_239",
        "string_240",
        "string_241",
        "string_242"
      ]
    },
    {
      "id_qa": "FMSH_PB188a_00032_027_qa17_v3",
      "id_block": "block_2",
      "question": "Qui est à l'origine du mouvement People for selfmanagement ?",
      "answer": "des ouvriers",
      "answer_stringIds": [
        "string_220",
        "string_221"
      ]
    },
    {
      "id_qa": "FMSH_PB188a_00032_027_qa3_v3",
      "id_block": "block_3",
      "question": "Qu'est ce qui se développe dans différentes parties du monde ?",
      "answer": "la participation",
      "answer_stringIds": [
        "string_241",
        "string_242"
      ]
    },
    {
      "id_qa": "FMSH_PB188a_00032_027_qa14_v3",
      "id_block": "block_3",
      "question": "Quand a eu lieu la première conférence générale sur l'autogestion ?",
      "answer": "en janvier 1974",
      "answer_stringIds": [
        "string_277",
        "string_278",
        "string_279"
      ]
    }
  ]
}