{
  "num": "autog_0249-2563_1982_num_15_11",
  "article": "autog_0249-2563_1982_num_15_11_1513",
  "page_name": "autog_0249-2563_1982_num_15_11_T1_0007_0000",
  "questions": [
    {
      "id_qa": "autog_0249-2563_1982_num_15_11_T1_0007_0000_qa6_v3",
      "id_block": "block_3",
      "question": "Qu'est-ce qui est nécessaire pour comprendre la naissance des grands ensembles ?",
      "answer": "des analyses historiques",
      "answer_stringIds": [
        "string_44",
        "string_45",
        "string_46"
      ]
    },
    {
      "id_qa": "autog_0249-2563_1982_num_15_11_T1_0007_0000_qa7_v3",
      "id_block": "block_3",
      "question": "Qu'est-ce que l'habitat autogéré actuel ?",
      "answer": "sa dimension profonde",
      "answer_stringIds": [
        "string_20",
        "string_21",
        "string_22"
      ]
    },
    {
      "id_qa": "autog_0249-2563_1982_num_15_11_T1_0007_0000_qa9_v3",
      "id_block": "block_5",
      "question": "Qu'est-ce que l'habitat communautaire ?",
      "answer": "à l'habitat, à « la sécheresse fonctionnelle de l'habitat », ni même à l'« habiter",
      "answer_stringIds": [
        "string_219"
      ]
    }
  ]
}