{
  "num": "autog_0249-2563_1982_num_15_11",
  "article": "autog_0249-2563_1982_num_15_11_1513",
  "page_name": "autog_0249-2563_1982_num_15_11_T1_0017_0000",
  "questions": [
    {
      "id_qa": "autog_0249-2563_1982_num_15_11_T1_0017_0000_qa0_v3",
      "id_block": "block_0",
      "question": "A quoi échappaient les héritiers ?",
      "answer": "à cet impôt de succession particulièrement dur",
      "answer_stringIds": [
        "string_17",
        "string_18",
        "string_19",
        "string_20",
        "string_21",
        "string_22",
        "string_23"
      ]
    },
    {
      "id_qa": "autog_0249-2563_1982_num_15_11_T1_0017_0000_qa6_v3",
      "id_block": "block_0",
      "question": "Qu'est ce qui ne retournait pas au seigneur ?",
      "answer": "les biens",
      "answer_stringIds": [
        "string_58",
        "string_59"
      ]
    },
    {
      "id_qa": "autog_0249-2563_1982_num_15_11_T1_0017_0000_qa8_v3",
      "id_block": "block_0",
      "question": "Quand les serves retournaient-ils au seigneur'' ?",
      "answer": "au moment de leur mort",
      "answer_stringIds": [
        "string_3",
        "string_4",
        "string_5",
        "string_6",
        "string_7"
      ]
    },
    {
      "id_qa": "autog_0249-2563_1982_num_15_11_T1_0017_0000_qa4_v3",
      "id_block": "block_1",
      "question": "Pour qui le pouvoir féodal est-il une menace ?",
      "answer": "les serfs",
      "answer_stringIds": [
        "string_103",
        "string_104"
      ]
    }
  ]
}