{
  "num": "autog_0249-2563_1982_num_15_11",
  "article": "autog_0249-2563_1982_num_15_11_1513",
  "page_name": "autog_0249-2563_1982_num_15_11_T1_0008_0000",
  "questions": [
    {
      "id_qa": "autog_0249-2563_1982_num_15_11_T1_0008_0000_qa17_v3",
      "id_block": "block_0",
      "question": "A quoi renvoie l'idée d'habitat communautaire ?",
      "answer": "à toute une expérience sociale",
      "answer_stringIds": [
        "string_75",
        "string_76",
        "string_77",
        "string_78",
        "string_79"
      ]
    },
    {
      "id_qa": "autog_0249-2563_1982_num_15_11_T1_0008_0000_qa2_v3",
      "id_block": "block_3",
      "question": "Combien y a t-il de périodes d'habitat communautaire ou de communautés d'habitants ?",
      "answer": "trois grandes",
      "answer_stringIds": [
        "string_128",
        "string_129"
      ]
    },
    {
      "id_qa": "autog_0249-2563_1982_num_15_11_T1_0008_0000_qa3_v3",
      "id_block": "block_3",
      "question": "Qu'est ce qui caractérise les formes d'habitat communautaire ou de communautés d'habitants ?",
      "answer": "habitat et travail",
      "answer_stringIds": [
        "string_145",
        "string_146",
        "string_147"
      ]
    },
    {
      "id_qa": "autog_0249-2563_1982_num_15_11_T1_0008_0000_qa12_v3",
      "id_block": "block_3",
      "question": "Qu'est ce qui se passe au XIXème siècle ?",
      "answer": "le développement des communautés taisibles",
      "answer_stringIds": [
        "string_161",
        "string_162",
        "string_163",
        "string_164",
        "string_165",
        "string_166"
      ]
    },
    {
      "id_qa": "autog_0249-2563_1982_num_15_11_T1_0008_0000_qa18_v3",
      "id_block": "block_5",
      "question": "Qu'est ce qui est disponible au CEREBE ?",
      "answer": "Document",
      "answer_stringIds": [
        "string_310"
      ]
    }
  ]
}