{
  "num": "autog_0249-2563_1984_num_17_17",
  "article": "autog_0249-2563_1984_num_17_17_1917",
  "page_name": "autog_0249-2563_1984_num_17_17_T1_0002_0000",
  "questions": [
    "Quels sujets seront abordés dans les prochaines publications d'Autogestions ?",
    "Quels auteurs seront interviewés dans Autogestions ?",
    "Quels articles seront publiés sur les kibbutz ?",
    "Quels mouvements sociaux seront abordés au Brésil ?",
    "Quels moyens de communication la rédaction d'Autogestions souhaite utiliser pour réaliser les rubriques d'Actualités ?",
    "Quel est le dépôt légal de la publication ?",
    "Quel est le numéro de C.P.P.P. de la publication ?",
    "Qui est responsable de la composition et du montage de la publication ?",
    "Quel est le nom de l'imprimerie qui a produit la publication ?",
    "Dans quelle ville est située l'imprimerie ?",
    "Quels droits sont réservés sur les articles publiés dans Autogestions ?",
    "Quels auteurs sont responsables des articles publiés dans Autogestions ?",
    "Quels sont les titres des articles non publiés qui ne seront pas retournés ?",
    "Comment peut-on devenir membre de la revue Autogestions ?",
    "Quels sont les membres de la rédaction d'Autogestions ?"
  ]
}