{
  "num": "autog_0249-2563_1980_num_13_2",
  "article": "autog_0249-2563_1980_num_13_2_1382",
  "page_name": "autog_0249-2563_1980_num_13_2_T1_0362_0000",
  "questions": [
    {
      "id_qa": "autog_0249-2563_1980_num_13_2_T1_0362_0000_qa4_v3",
      "id_block": "block_1",
      "question": "Qui a du mal à faire inclure dans le programme de son parti l'égalité entre hommes et femmes ?",
      "answer": "les militantes",
      "answer_stringIds": [
        "string_267",
        "string_268"
      ]
    },
    {
      "id_qa": "autog_0249-2563_1980_num_13_2_T1_0362_0000_qa11_v3",
      "id_block": "block_1",
      "question": "Où se développe la propagande néo-malthusianniste ?",
      "answer": "dans les milieux anarchistes",
      "answer_stringIds": [
        "string_56",
        "string_57",
        "string_58",
        "string_59"
      ]
    },
    {
      "id_qa": "autog_0249-2563_1980_num_13_2_T1_0362_0000_qa12_v3",
      "id_block": "block_1",
      "question": "Quel est le nom de la propagande néo-malthusienne ?",
      "answer": "la propagande néo-malthusianniste",
      "answer_stringIds": [
        "string_50",
        "string_51",
        "string_52"
      ]
    },
    {
      "id_qa": "autog_0249-2563_1980_num_13_2_T1_0362_0000_qa13_v3",
      "id_block": "block_1",
      "question": "Qu'est-ce que la prévention des naissances ?",
      "answer": "des revendications proprement féminines",
      "answer_stringIds": [
        "string_13",
        "string_14",
        "string_15",
        "string_16"
      ]
    },
    {
      "id_qa": "autog_0249-2563_1980_num_13_2_T1_0362_0000_qa7_v3",
      "id_block": "block_3",
      "question": "Avec qui s'oppose-t-on après l'explosion de 1848 ?",
      "answer": "avec les féministes bourgeoises",
      "answer_stringIds": [
        "string_320",
        "string_321",
        "string_322",
        "string_323"
      ]
    },
    {
      "id_qa": "autog_0249-2563_1980_num_13_2_T1_0362_0000_qa8_v3",
      "id_block": "block_3",
      "question": "Qui écrit après l'explosion de 1848 ?",
      "answer": "Laure",
      "answer_stringIds": [
        "string_332"
      ]
    }
  ]
}