{
  "num": "autog_0249-2563_1982_num_15_8",
  "article": "autog_0249-2563_1982_num_15_8_1489_t1_0227_0000_2",
  "page_name": "autog_0249-2563_1982_num_15_8_T1_0227_0000",
  "questions": [
    "Quel est le sujet de l'auteur Danica Purg dans son livre sur l'autogestion en France ?",
    "Quels sont les premiers lieux d'apparition des idées d'autogestion en France ?",
    "Quels sont les premiers efforts historiques de réalisation de l'autogestion en France ?",
    "Quels sont les groupes politiques français qui se positionnent en faveur de l'autogestion depuis 1968 ?",
    "Quels sont les efforts de théorisation de l'autogestion en France ?",
    "Quels sont les mécanismes concrets de la participation dans les formes d'autogestion en France ?",
    "Quels sont les domaines des décisions importantes dans lesquels les ouvriers ne participent pas ?",
    "Pourquoi le Parti communiste français (PCF) était-il jadis hostile à l'idée d'autogestion ?",
    "Quels sont les liens entre l'autogestion et les idées politiques telles que le contrat social de Rousseau, le socialisme utopique, et le syndicalisme révolutionnaire ?",
    "Quel est le rôle de l'autogestion dans les combats politiques français depuis 1968 ?",
    "Quel est le statut actuel de l'autogestion en France ?",
    "Quels sont les influences yougoslaves sur la théorisation de l'autogestion en France ?"
  ]
}