{
  "num": "autog_0005-0970_1968_num_7_1",
  "article": "autog_0005-0970_1968_num_7_1_936",
  "page_name": "FMSH_PB188a_00007_073",
  "questions": [
    "Quels intérêts sont-ils en jeu dans le débat sur l'auto-gestion ?",
    "Quels sacrifices sont acceptables pour les ouvriers selon Mallet ?",
    "Comment le niveau de vie influence la prise en compte de l'auto-gestion ?",
    "Quels sont les tâches principales des syndicats dans une société autogérée selon Mallet ?",
    "Quels sont les différences objectives à l'intérieur de la classe ouvrière selon Mallet ?",
    "Quel est le sentiment de possibilité de gérer qui existe chez quelle fraction de la classe ouvrière ?",
    "Quel est le rôle des techniciens et des cadres dans la volonté de gestion ?",
    "Quel est le problème posé par cette séparation entre les différentes fractions de la classe ouvrière ?",
    "En quelle société Mallet parle-t-il lorsqu'il évoque l'auto-gestion ?",
    "Quels sont les industries d'avant-garde selon Mallet ?"
  ]
}