{
  "num": "autog_0005-0970_1968_num_7_1",
  "article": "autog_0005-0970_1968_num_7_1_936",
  "page_name": "FMSH_PB188a_00007_068",
  "questions": [
    "Quels auteurs discutent-ils de la décentralisation et de l'autogestion dans le contexte yougoslave ?",
    "Quel est le rôle de l'autogestion dans l'administration courante selon Serge Mallet ?",
    "Quel est le stade atteint par l'autogestion dans une économie de marché selon le texte ?",
    "Est-ce qu'une autogestion radicale implique la suppression de l'État ?",
    "Quel est le rôle de la planification centrale dans une économie socialiste selon le texte ?",
    "Quel est le minimum de centralisation indispensable pour assurer le progrès technique et l'efficacité ?",
    "Comment peut-on obtenir l'assentiment réel des citoyens aux mesures centrales d'intérêt général dans un pays plus avancé ?",
    "Quels sont les aspects importants du problème de l'autogestion selon le texte ?"
  ]
}