{
  "num": "autog_0005-0970_1968_num_7_1",
  "article": "autog_0005-0970_1968_num_7_1_936",
  "page_name": "FMSH_PB188a_00007_070",
  "questions": [
    "Quels sont les deux personnes mentionnées dans le premier envoi ?",
    "Quel est le rôle des Lucien Goldmann et Serge Mallet dans le contrôle post-gestion ?",
    "Pourquoi certaines décisions des dirigeants peuvent-elles être incompréhensibles pour le personnel ?",
    "Quel est le risque pour le comité directeur si ses décisions sont erronées ?",
    "Qu'est-ce finalement que le texte veut mettre en évidence ?",
    "Comment les actionnaires ont-ils perdu leur contrôle sur les entreprises ?",
    "Comment l'éloignement des actionnaires, la constitution de gros paquets d'actions et leur intérêt principal pour les bénéfices ont-ils contribué à cette évolution ?",
    "Comment l'introduction du contrôle des ouvriers éviterait les inconvénients de l'absence de contrôle des actionnaires ?",
    "Qu'est-ce que le texte veut par \"substitution des ouvriers aux actionnaires\" ?",
    "Quels sont les avantages pour l'entreprise de donner aux ouvriers les droits des actionnaires ?"
  ]
}