{
  "num": "autog_0338-7259_1978_num_40_1",
  "article": "autog_0338-7259_1978_num_40_1_1273",
  "page_name": "FMSH_PB188a_00040_040",
  "questions": [
    "Quel rôle semble avoir joué Mai 68 dans la récupération des membres du mouvement social par le Mouvement socialiste et le Parti communiste ?",
    "En quoi consiste la stratégie du Parti communiste pour relier les différentes luttes et les différents secteurs en conservant sa spécificité ?",
    "Quels efforts unitaires du Parti communiste n'ont pas été récompensés par les électeurs ?",
    "Comment le Parti communiste s'est efforcé de tenir compte du mouvement social ?",
    "Quel était le point de vue initial du Parti communiste sur l'autogestion ?",
    "Comment le Parti communiste s'est opposé à l'autogestion proposée par le Parti socialiste ?",
    "Comment le Parti communiste a-t-il poursuivi sa politique autonome après les élections municipales ?",
    "Quel est le rôle du Parti communiste dans la défense des intérêts de la classe ouvrière ?",
    "Quel est le rôle du Parti communiste dans la défense des intérêts nationaux ?",
    "Comment le Parti communiste prend-il en charge les principales aspirations autogestionnaires ?"
  ]
}