{
  "num": "autog_0338-7259_1978_num_40_1",
  "article": "autog_0338-7259_1978_num_40_1_1273",
  "page_name": "FMSH_PB188a_00040_043",
  "questions": [
    "Quels sont les refus et les révoltes qui sont le ferment révolutionnaire dans nos sociétés ?",
    "En quoi les partis de gauche doivent-ils répondre aux questions posées par ces refus et révoltes ?",
    "Quels sont les enjeux de la réorganisation générale des pouvoirs dans les régions, les entreprises et les grands secteurs de la vie sociale ?",
    "Quelle stratégie internationale devrait être mise en œuvre ?",
    "Quels modes de développement et choix technologiques peuvent constituer une alternative au système actuel de production ?",
    "Comment les rapports pédagogiques et les rapports d'autorité doivent-ils être transformés dans notre société ?",
    "Quels sont les réponses du Parti socialiste à ces questions ?",
    "Comment le Parti communiste réagit-il à la référence autogestionnaire du Parti socialiste ?",
    "Quel est le degré de qualité de l'union entre les deux partis à cette occasion ?",
    "Comment ces questions peuvent-elles nourrir une nouvelle dynamique politique ?"
  ]
}