{
  "num": "autog_0338-7259_1978_num_40_1",
  "article": "autog_0338-7259_1978_num_40_1_1273",
  "page_name": "FMSH_PB188a_00040_039",
  "questions": [
    "Quel est le sort potentiel de l'autogestion selon les auteurs cités ?",
    "Quels sont les forces politiques issues du mouvement social qui ne peuvent rester longtemps extérieures aux courants de fond ?",
    "Quel est le rôle de l'autogestion dans les luttes ouvrières et populaires depuis dix ans ?",
    "Quel a été le rôle du Mouvement de Mai 68 dans la contestation fondamentale de la société ?",
    "Quels substituts à la lutte des classes et à la classe ouvrière ont été recherchés après Mai 68 ?",
    "Quel rôle a joué le Parti communiste dans la contestation fondamentale de Mai 68 ?",
    "Quels efforts a fait le Parti communiste pour manifester sa propre ouverture ?",
    "Comment la façon de \"diriger\" l'ouverture du Parti communiste contredisait-elle les aspirations les plus profondes du mouvement ?"
  ]
}