{
  "num": "autog_0249-2563_1981_num_14_7",
  "article": "autog_0249-2563_1981_num_14_7_1452",
  "page_name": "autog_0249-2563_1981_num_14_7_T1_0325_0000",
  "questions": [
    {
      "id_qa": "autog_0249-2563_1981_num_14_7_T1_0325_0000_qa55_v3",
      "id_block": "block_0",
      "question": "Qui a mené une grève générale en janvier 1919 ?",
      "answer": "les ouvriers nationalistes et unionistes de cette ville",
      "answer_stringIds": [
        "string_33",
        "string_34",
        "string_35",
        "string_36",
        "string_37",
        "string_38",
        "string_39",
        "string_40"
      ]
    },
    {
      "id_qa": "autog_0249-2563_1981_num_14_7_T1_0325_0000_qa56_v3",
      "id_block": "block_0",
      "question": "Qu'ont mené les ouvriers nationalistes et unionistes en janvier et février 1919 ?",
      "answer": "une grève générale",
      "answer_stringIds": [
        "string_43",
        "string_44",
        "string_45"
      ]
    },
    {
      "id_qa": "autog_0249-2563_1981_num_14_7_T1_0325_0000_qa51_v3",
      "id_block": "block_1",
      "question": "Qu'est ce que nous faisons ?",
      "answer": "du beurre",
      "answer_stringIds": [
        "string_49",
        "string_50"
      ]
    },
    {
      "id_qa": "autog_0249-2563_1981_num_14_7_T1_0325_0000_qa0_v3",
      "id_block": "block_2",
      "question": "Quelle grève a eu lieu le 1er mai ?",
      "answer": "la grève générale nationale",
      "answer_stringIds": [
        "string_148",
        "string_149",
        "string_150",
        "string_151"
      ]
    },
    {
      "id_qa": "autog_0249-2563_1981_num_14_7_T1_0325_0000_qa1_v3",
      "id_block": "block_2",
      "question": "Qui est à l'origine de la grève générale nationale ?",
      "answer": "La tentative de la Condensed Milk Compagny",
      "answer_stringIds": [
        "string_97",
        "string_98",
        "string_99",
        "string_100",
        "string_101",
        "string_102",
        "string_103"
      ]
    },
    {
      "id_qa": "autog_0249-2563_1981_num_14_7_T1_0325_0000_qa5_v3",
      "id_block": "block_2",
      "question": "Qu'est ce qui a eu lieu à Limerick ?",
      "answer": "par deux nouvelles grèves générales",
      "answer_stringIds": [
        "string_122",
        "string_123",
        "string_124",
        "string_125",
        "string_126"
      ]
    },
    {
      "id_qa": "autog_0249-2563_1981_num_14_7_T1_0325_0000_qa6_v3",
      "id_block": "block_2",
      "question": "Pour quelle raison la grève générale nationale a-t-elle été déclenchée ?",
      "answer": "pour célébrer",
      "answer_stringIds": [
        "string_154",
        "string_155"
      ]
    },
    {
      "id_qa": "autog_0249-2563_1981_num_14_7_T1_0325_0000_qa29_v3",
      "id_block": "block_2",
      "question": "Quand fut créé le Conseil d'Action ?",
      "answer": "En avril 1919",
      "answer_stringIds": [
        "string_55",
        "string_56",
        "string_57"
      ]
    },
    {
      "id_qa": "autog_0249-2563_1981_num_14_7_T1_0325_0000_qa31_v3",
      "id_block": "block_2",
      "question": "Qu'est-ce que le Conseil d'Action ?",
      "answer": "le trust familial",
      "answer_stringIds": [
        "string_75",
        "string_76",
        "string_77"
      ]
    },
    {
      "id_qa": "autog_0249-2563_1981_num_14_7_T1_0325_0000_qa46_v3",
      "id_block": "block_2",
      "question": "Pourquoi le nouvel organisme menaça-t-il de lancer une grève des ouvriers des laiteries ?",
      "answer": "pour de meilleures conditions de travail",
      "answer_stringIds": [
        "string_90",
        "string_91",
        "string_92",
        "string_93",
        "string_94",
        "string_95"
      ]
    },
    {
      "id_qa": "autog_0249-2563_1981_num_14_7_T1_0325_0000_qa47_v3",
      "id_block": "block_2",
      "question": "Qui mena une grève des ouvriers des laiteries ?",
      "answer": "Le nouvel organisme",
      "answer_stringIds": [
        "string_78",
        "string_79",
        "string_80"
      ]
    },
    {
      "id_qa": "autog_0249-2563_1981_num_14_7_T1_0325_0000_qa48_v3",
      "id_block": "block_2",
      "question": "Qu'est ce qui menaça le nouvel organisme ?",
      "answer": "une grève des ouvriers des laiteries",
      "answer_stringIds": [
        "string_84",
        "string_85",
        "string_86",
        "string_87",
        "string_88",
        "string_89"
      ]
    },
    {
      "id_qa": "autog_0249-2563_1981_num_14_7_T1_0325_0000_qa49_v3",
      "id_block": "block_2",
      "question": "Que mena le nouvel organisme ?",
      "answer": "de lancer une grève des ouvriers des laiteries pour de meilleures conditions de travail",
      "answer_stringIds": [
        "string_82",
        "string_83",
        "string_84",
        "string_85",
        "string_86",
        "string_87",
        "string_88",
        "string_89",
        "string_90",
        "string_91",
        "string_92",
        "string_93",
        "string_94",
        "string_95"
      ]
    },
    {
      "id_qa": "autog_0249-2563_1981_num_14_7_T1_0325_0000_qa50_v3",
      "id_block": "block_2",
      "question": "Qui menaça de lancer une grève des ouvriers des laiteries ?",
      "answer": "Le nouvel organisme",
      "answer_stringIds": [
        "string_78",
        "string_79",
        "string_80"
      ]
    },
    {
      "id_qa": "autog_0249-2563_1981_num_14_7_T1_0325_0000_qa22_v3",
      "id_block": "block_3",
      "question": "Qui a essayé de diviser la compagnie ?",
      "answer": "les travailleurs",
      "answer_stringIds": [
        "string_165",
        "string_166"
      ]
    },
    {
      "id_qa": "autog_0249-2563_1981_num_14_7_T1_0325_0000_qa23_v3",
      "id_block": "block_3",
      "question": "Qui a essayé de diviser les travailleurs ?",
      "answer": "La compagnie",
      "answer_stringIds": [
        "string_159",
        "string_160"
      ]
    },
    {
      "id_qa": "autog_0249-2563_1981_num_14_7_T1_0325_0000_qa45_v3",
      "id_block": "block_3",
      "question": "Qui obtinrent 45 sh ?",
      "answer": "Les travailleurs de Limerick",
      "answer_stringIds": [
        "string_174",
        "string_175",
        "string_176",
        "string_177"
      ]
    },
    {
      "id_qa": "autog_0249-2563_1981_num_14_7_T1_0325_0000_qa13_v3",
      "id_block": "block_4",
      "question": "Que voulaient faire les grévistes de la laiterie coopérative de Clounreagh ?",
      "answer": "leur production",
      "answer_stringIds": [
        "string_249",
        "string_250"
      ]
    },
    {
      "id_qa": "autog_0249-2563_1981_num_14_7_T1_0325_0000_qa14_v3",
      "id_block": "block_4",
      "question": "Qu'est-ce que les grévistes ont essayé de répandre le lait des fournisseurs ?",
      "answer": "de faire traiter leur production ailleurs",
      "answer_stringIds": [
        "string_246",
        "string_247",
        "string_248",
        "string_249",
        "string_250",
        "string_251"
      ]
    },
    {
      "id_qa": "autog_0249-2563_1981_num_14_7_T1_0325_0000_qa16_v3",
      "id_block": "block_4",
      "question": "Qui a lancé la pratique de répandre le lait des fournisseurs ?",
      "answer": "les grévistes",
      "answer_stringIds": [
        "string_232",
        "string_233"
      ]
    },
    {
      "id_qa": "autog_0249-2563_1981_num_14_7_T1_0325_0000_qa17_v3",
      "id_block": "block_4",
      "question": "Qui inaugura la pratique de répandre le lait des fournisseurs qui essayaient de faire traiter leur production ailleurs ?",
      "answer": "les grévistes",
      "answer_stringIds": [
        "string_232",
        "string_233"
      ]
    },
    {
      "id_qa": "autog_0249-2563_1981_num_14_7_T1_0325_0000_qa18_v3",
      "id_block": "block_4",
      "question": "Qu'est ce que les grévistes inaugurèrent ?",
      "answer": "la pratique de répandre le lait des fournisseurs qui essayaient de faire traiter leur production ailleurs",
      "answer_stringIds": [
        "string_235",
        "string_236",
        "string_237",
        "string_238",
        "string_239",
        "string_240",
        "string_241",
        "string_242",
        "string_243",
        "string_244",
        "string_245",
        "string_246",
        "string_247",
        "string_248",
        "string_249",
        "string_250",
        "string_251"
      ]
    },
    {
      "id_qa": "autog_0249-2563_1981_num_14_7_T1_0325_0000_qa39_v3",
      "id_block": "block_4",
      "question": "Qu'est ce qui a duré sept semaines ?",
      "answer": "une dure grève",
      "answer_stringIds": [
        "string_213",
        "string_214",
        "string_215"
      ]
    },
    {
      "id_qa": "autog_0249-2563_1981_num_14_7_T1_0325_0000_qa52_v3",
      "id_block": "block_4",
      "question": "Où se trouvaient les ouvriers au milieu de mai ?",
      "answer": "les ouvriers de Knocklong",
      "answer_stringIds": [
        "string_201",
        "string_202",
        "string_203",
        "string_204"
      ]
    },
    {
      "id_qa": "autog_0249-2563_1981_num_14_7_T1_0325_0000_qa54_v3",
      "id_block": "block_4",
      "question": "Quand les ouvriers de Knocklong se trouvaient ils isolés ?",
      "answer": "Au milieu de mai",
      "answer_stringIds": [
        "string_197",
        "string_198",
        "string_199",
        "string_200"
      ]
    },
    {
      "id_qa": "autog_0249-2563_1981_num_14_7_T1_0325_0000_qa8_v3",
      "id_block": "block_5",
      "question": "Quel était le résultat du travail des ouvriers de Knocklong ?",
      "answer": "les plus mal payés",
      "answer_stringIds": [
        "string_363",
        "string_364",
        "string_365",
        "string_366"
      ]
    },
    {
      "id_qa": "autog_0249-2563_1981_num_14_7_T1_0325_0000_qa9_v3",
      "id_block": "block_5",
      "question": "Qui était le plus mal payé de la compagnie ?",
      "answer": "les ouvriers de Knocklong",
      "answer_stringIds": [
        "string_201",
        "string_202",
        "string_203",
        "string_204"
      ]
    },
    {
      "id_qa": "autog_0249-2563_1981_num_14_7_T1_0325_0000_qa44_v3",
      "id_block": "block_5",
      "question": "Qu'est ce qui a eu lieu au début de 1920 ?",
      "answer": "de nouvelles grèves",
      "answer_stringIds": [
        "string_339",
        "string_340",
        "string_341"
      ]
    }
  ]
}