{
  "num": "autog_0249-2563_1981_num_14_7",
  "article": "autog_0249-2563_1981_num_14_7_1452",
  "page_name": "autog_0249-2563_1981_num_14_7_T1_0332_0000",
  "questions": [
    {
      "id_qa": "autog_0249-2563_1981_num_14_7_T1_0332_0000_qa16_v3",
      "id_block": "block_1",
      "question": "De quoi était composée la société ?",
      "answer": "de gros et moyens fermiers",
      "answer_stringIds": [
        "string_16",
        "string_17",
        "string_18",
        "string_19",
        "string_20"
      ]
    },
    {
      "id_qa": "autog_0249-2563_1981_num_14_7_T1_0332_0000_qa3_v3",
      "id_block": "block_4",
      "question": "Qui décréta qu'il s'agissait de lait noir ?",
      "answer": "les travailleurs",
      "answer_stringIds": [
        "string_149",
        "string_150"
      ]
    },
    {
      "id_qa": "autog_0249-2563_1981_num_14_7_T1_0332_0000_qa30_v3",
      "id_block": "block_4",
      "question": "Qui confisqua les écrémeuses ?",
      "answer": "les travailleurs",
      "answer_stringIds": [
        "string_149",
        "string_150"
      ]
    },
    {
      "id_qa": "autog_0249-2563_1981_num_14_7_T1_0332_0000_qa32_v3",
      "id_block": "block_4",
      "question": "Que confisquèrent les travailleurs pendant un certain temps ?",
      "answer": "les écrémeuses",
      "answer_stringIds": [
        "string_152",
        "string_153"
      ]
    },
    {
      "id_qa": "autog_0249-2563_1981_num_14_7_T1_0332_0000_qa25_v3",
      "id_block": "block_5",
      "question": "Où le beurre soviétique fut-il transporté ?",
      "answer": "le transporter en Ecosse et au Pays de Galles",
      "answer_stringIds": [
        "string_396",
        "string_397",
        "string_398",
        "string_399",
        "string_400",
        "string_401",
        "string_402",
        "string_403",
        "string_404"
      ]
    },
    {
      "id_qa": "autog_0249-2563_1981_num_14_7_T1_0332_0000_qa27_v3",
      "id_block": "block_5",
      "question": "Qu'a affrété Churchill pour transporter le beurre « soviétique » ?",
      "answer": "des bâteaux",
      "answer_stringIds": [
        "string_393",
        "string_394"
      ]
    },
    {
      "id_qa": "autog_0249-2563_1981_num_14_7_T1_0332_0000_qa29_v3",
      "id_block": "block_5",
      "question": "Qui ordonna à la centrale de l'/rish Clerical and Allied Workers' Union d'abandonner l'occupation ?",
      "answer": "ses membres de la laiterie de Carrick",
      "answer_stringIds": [
        "string_306",
        "string_307",
        "string_308",
        "string_309",
        "string_310",
        "string_311",
        "string_312"
      ]
    },
    {
      "id_qa": "autog_0249-2563_1981_num_14_7_T1_0332_0000_qa44_v3",
      "id_block": "block_5",
      "question": "Pour qui l'exécutif de PI.T.G.W.U. a-t-il joué un rôle actif ?",
      "answer": "aider ses adhérents",
      "answer_stringIds": [
        "string_374",
        "string_375",
        "string_376"
      ]
    },
    {
      "id_qa": "autog_0249-2563_1981_num_14_7_T1_0332_0000_qa46_v3",
      "id_block": "block_5",
      "question": "Qui aida l'exécutif de PI.T.G.W.U. ?",
      "answer": "ses adhérents",
      "answer_stringIds": [
        "string_375",
        "string_376"
      ]
    },
    {
      "id_qa": "autog_0249-2563_1981_num_14_7_T1_0332_0000_qa49_v3",
      "id_block": "block_5",
      "question": "Qu'ont subi les femmes ?",
      "answer": "actes incendiaires",
      "answer_stringIds": [
        "string_270",
        "string_271"
      ]
    },
    {
      "id_qa": "autog_0249-2563_1981_num_14_7_T1_0332_0000_qa52_v3",
      "id_block": "block_5",
      "question": "Qu'est-ce qui a été vendu aux commerçants ?",
      "answer": "du beurre",
      "answer_stringIds": [
        "string_159",
        "string_160"
      ]
    },
    {
      "id_qa": "autog_0249-2563_1981_num_14_7_T1_0332_0000_qa53_v3",
      "id_block": "block_5",
      "question": "Qui a payé du beurre « soviétique » ?",
      "answer": "un des commerçants",
      "answer_stringIds": [
        "string_356",
        "string_357",
        "string_358"
      ]
    },
    {
      "id_qa": "autog_0249-2563_1981_num_14_7_T1_0332_0000_qa54_v3",
      "id_block": "block_5",
      "question": "Qui a empêché le paiement d'au moins un des commerçants qui vendirent du beurre « soviétique » ?",
      "answer": "La Compagnie",
      "answer_stringIds": [
        "string_347",
        "string_348"
      ]
    }
  ]
}