{
  "num": "autog_0338-7259_1971_num_16_1",
  "article": "autog_0338-7259_1971_num_16_1_1023_t1_0214_0000_1",
  "page_name": "FMSH_PB188a_16-17_216",
  "questions": [
    {
      "id_qa": "FMSH_PB188a_16-17_216_qa0_v3",
      "id_block": "block_1",
      "question": "Qui parle de l'autogestion espagnole ?",
      "answer": "D.G.",
      "answer_stringIds": [
        "string_14"
      ]
    },
    {
      "id_qa": "FMSH_PB188a_16-17_216_qa1_v3",
      "id_block": "block_1",
      "question": "Qu'est-ce que l'autogestion espagnole ?",
      "answer": "une foule de variantes",
      "answer_stringIds": [
        "string_42",
        "string_43",
        "string_44",
        "string_45"
      ]
    },
    {
      "id_qa": "FMSH_PB188a_16-17_216_qa2_v3",
      "id_block": "block_1",
      "question": "Dans quel ouvrage D.G., déclare-t-il à propos de l'autogestion espagnole ?",
      "answer": "dans son livre « Anarchisme",
      "answer_stringIds": [
        "string_15",
        "string_16",
        "string_17",
        "string_18",
        "string_19"
      ]
    },
    {
      "id_qa": "FMSH_PB188a_16-17_216_qa12_v3",
      "id_block": "block_3",
      "question": "Qui a écrit « Frente Libertario » de mars ?",
      "answer": "Peirats",
      "answer_stringIds": [
        "string_30"
      ]
    },
    {
      "id_qa": "FMSH_PB188a_16-17_216_qa15_v3",
      "id_block": "block_3",
      "question": "Quand Peirats a-t-il écrit « Frente Libertario » ?",
      "answer": "de mars",
      "answer_stringIds": [
        "string_87",
        "string_88"
      ]
    },
    {
      "id_qa": "FMSH_PB188a_16-17_216_qa3_v3",
      "id_block": "block_4",
      "question": "A qui Souchy reproche-t-il son puritanisme ?",
      "answer": "à certains collectivistes",
      "answer_stringIds": [
        "string_164",
        "string_165",
        "string_166"
      ]
    },
    {
      "id_qa": "FMSH_PB188a_16-17_216_qa5_v3",
      "id_block": "block_4",
      "question": "De qui s'accuse-t-il ?",
      "answer": "de Souchy",
      "answer_stringIds": [
        "string_172",
        "string_173"
      ]
    },
    {
      "id_qa": "FMSH_PB188a_16-17_216_qa7_v3",
      "id_block": "block_4",
      "question": "Qu'accuse-t-il de faire ?",
      "answer": "un leader de la CNT",
      "answer_stringIds": [
        "string_180",
        "string_181",
        "string_182",
        "string_183",
        "string_184"
      ]
    },
    {
      "id_qa": "FMSH_PB188a_16-17_216_qa8_v3",
      "id_block": "block_4",
      "question": "Qu'est-ce que publier si on ne veut pas lire ?",
      "answer": "des comptes",
      "answer_stringIds": [
        "string_206",
        "string_207"
      ]
    },
    {
      "id_qa": "FMSH_PB188a_16-17_216_qa17_v3",
      "id_block": "block_4",
      "question": "Qui lit synthèse trop tardive ?",
      "answer": "à D.G.",
      "answer_stringIds": [
        "string_142",
        "string_143"
      ]
    }
  ]
}