{
  "num": "autog_0338-7259_1973_num_22_1",
  "article": "autog_0338-7259_1973_num_22_1_1079",
  "page_name": "FMSH_PB188a_22-23_056",
  "questions": [
    "Quels sont les priorités de transformation sociale prévues dans le plan d'autogestion ?",
    "Comment le plan d'autogestion devrait-il réduire la hiérarchie des revenus ?",
    "Quels sont les domaines où le plan d'autogestion devrait réduire le secteur marchand ?",
    "Comment le plan d'autogestion devrait-il renforcer la liberté effective des collectivités des travailleurs dans la gestion de leurs entreprises ?",
    "Quels sont les grands équilibres économiques prévus dans le plan d'autogestion ?",
    "Comment le plan d'autogestion devrait-il gérer les finances extérieures ?",
    "Comment le plan d'autogestion devrait-il assurer le plein emploi ?",
    "Comment le plan d'autogestion devrait-il financer les investissements ?",
    "Comment le plan d'autogestion devrait-il gérer les contraintes du système productif sur la société ?",
    "Comment le plan d'autogestion devrait-il être limité aux choix nationaux ?",
    "Comment le plan d'autogestion peut-il garantir à la fois l'imprévisibilité et l'autonomie des décisions des unités de base ?",
    "Comment le plan d'autogestion peut-il éviter que les travailleurs soient réduits à intérioriser les lois du profit ?",
    "Comment le plan d'autogestion peut-il être contradictoire avec l'exigence d'une autonomie réelle de décision des unités de base ?",
    "Comment le plan d'autogestion peut-il être le seul garant de l'absence de réduction des décisions de base à intérioriser les lois du profit ?"
  ]
}