{
  "num": "autog_0338-7259_1976_num_33_1",
  "article": "autog_0338-7259_1976_num_33_1_1156",
  "page_name": "FMSH_PB188a_33-34_070",
  "questions": [
    "Quel est le contexte historique de ce document ?",
    "Qui est l'auteur de ce document ?",
    "Quels sont les principaux mots clés de ce document ?",
    "Quels sont les principaux noms mentionnés dans ce document ?",
    "Quel est le but de ce document ?",
    "Quels sont les principaux événements décrits dans ce document ?",
    "Quels sont les principaux lieux mentionnés dans ce document ?",
    "Quels sont les principaux termes techniques ou symboliques utilisés dans ce document ?",
    "Quels sont les principaux arguments ou raisons avancées dans ce document ?",
    "Quels sont les principaux objets ou choses mentionnés dans ce document ?",
    "Quels sont les principaux événements antérieurs ou postérieurs mentionnés dans ce document ?",
    "Quels sont les principaux groupes sociaux ou communautés mentionnés dans ce document ?",
    "Quels sont les principaux textes ou documents cités dans ce document ?",
    "Quels sont les principaux événements ou situations contemporaines mentionnés dans ce document ?",
    "Quels sont les principaux termes ou expressions ambiguës ou incompletes dans ce document ?",
    "Quels sont les principaux défis de la traduction ou de l'interprétation de ce document ?",
    "Quels sont les principaux points de comparaison ou de contrastes avec d'autres documents ou sources historiques ?",
    "Quels sont les principaux enjeux ou implications politiques, économiques, culturelles ou religieuses de ce document ?",
    "Quels sont les principaux enjeux ou implications théoriques ou méthodologiques de l'étude de ce document ?",
    "Quels sont les principaux enjeux ou implications pour l'histoire globale ou universelle de ce document ?",
    "Quels sont les principaux enjeux ou implications pour l'histoire régionale ou locale de ce document ?",
    "Quels sont les principaux enjeux ou implications pour l'histoire de la langue ou de la culture de ce document ?",
    "Quels sont les?"
  ]
}