{
  "num": "autog_0338-7259_1976_num_33_1",
  "article": "autog_0338-7259_1976_num_33_1_1156",
  "page_name": "FMSH_PB188a_33-34_068",
  "questions": [
    "Quand auraient eu lieu les événements décrits dans le document, à quelle date exacte ?",
    "Quels sont les deux gérants et pourquoi ils ont été licenciés ?",
    "Comment les travailleurs ont-ils répondu au licenciement des gérants ?",
    "Quels types d'entreprises sont concernées par le document ?",
    "Quels sont les principaux objectifs des travailleurs dans chaque entreprise ?",
    "Comment les travailleurs de Nutripol ont-ils généré des revenus ?",
    "Comment les travailleurs d'Ornitex ont-ils tenté de trouver de nouveaux clients ?",
    "Comment les travailleurs de Servilimpe ont-ils tenté de se faire embaucher auprès de leur principal client ?",
    "Comment les travailleurs de Sousabreu ont-ils réagi à la fermeture de l'entreprise ?",
    "Comment les travailleurs ont-ils pu continuer à travailler dans l'entreprise Sousabreu pendant trois mois ?"
  ]
}