{
  "num": "autog_0338-7259_1970_num_13_1",
  "article": "autog_0338-7259_1970_num_13_1_983",
  "page_name": "FMSH_PB188a_13-14_162",
  "questions": [
    "Quels sont les tensions mentionnées dans le texte ?",
    "Quel est le rôle de la direction du C.U.C.E.S. dans l'affaire Kravetz ?",
    "Quel est le rôle des clients industriels dans l'affaire Kravetz ?",
    "Qu'est-ce que le disjoncteur dans ce contexte ?",
    "Comment fonctionne le disjoncteur dans l'institution ?",
    "Quels sont les plombs mentionnés dans le texte ?",
    "Comment les formateurs sont-ils impliqués dans les contradictions de l'institution ?",
    "Comment les formateurs doivent-ils se comporter envers l'entreprise qui les emploie ?",
    "Quel est la nature de la violence symbolique et institutionnelle mentionnées dans le texte ?"
  ]
}