{
  "num": "autog_0338-7259_1970_num_13_1",
  "article": "autog_0338-7259_1970_num_13_1_983",
  "page_name": "FMSH_PB188a_13-14_158",
  "questions": [
    "Quand parle-t-on de la commande de formation-information dans ce passage ?",
    "Quels sont les publications connues des formateurs sur l'analyse institutionnelle des systèmes éducatifs ?",
    "Quel est le rôle de la pédagogie critique dans l'approche de l'A.I selon les formateurs ?",
    "Comment l'objectif de l'A.I opère-t-il une critique radicale des rapports sociaux impliqués dans l'institution éducative ?",
    "Qu'implique la violence symbolique dans l'imposition de la demande de formation-information ?",
    "En quoi la demande de formation-information pose un problème méthodologique ?",
    "Quels moyens sont nécessaires à l'élucidation de la demande de formation-information ?",
    "Comment les techniques de la sociologie positiviste ne sont-elles pas adaptées à la découverte de la symbolique institutionnelle ?",
    "Comment la demande est-elle dissimulée et déplacée par rapport au discours des formateurs ?"
  ]
}