{
  "num": "autog_0249-2563_1984_num_17_17",
  "article": "autog_0249-2563_1984_num_17_17_1612",
  "page_name": "autog_0249-2563_1984_num_17_17_T1_0053_0000",
  "questions": [
    {
      "id_qa": "autog_0249-2563_1984_num_17_17_T1_0053_0000_qa18_v3",
      "id_block": "block_0",
      "question": "Où a-t-on reçu les textes qu'on va lire dans ce dossier ?",
      "answer": "à Santiago à",
      "answer_stringIds": [
        "string_10",
        "string_11",
        "string_12"
      ]
    },
    {
      "id_qa": "autog_0249-2563_1984_num_17_17_T1_0053_0000_qa20_v3",
      "id_block": "block_0",
      "question": "Qu'est ce qu'on va lire à Santiago ?",
      "answer": "les textes",
      "answer_stringIds": [
        "string_2",
        "string_3"
      ]
    },
    {
      "id_qa": "autog_0249-2563_1984_num_17_17_T1_0053_0000_qa13_v3",
      "id_block": "block_2",
      "question": "Qu'est-ce qui permet au régime de se renforcer ?",
      "answer": "le dialogue et toutes formes de négociation",
      "answer_stringIds": [
        "string_106",
        "string_107",
        "string_108",
        "string_109",
        "string_110",
        "string_111",
        "string_112"
      ]
    },
    {
      "id_qa": "autog_0249-2563_1984_num_17_17_T1_0053_0000_qa14_v3",
      "id_block": "block_2",
      "question": "Qu'est ce qui se renforce dans la scène publique ?",
      "answer": "le régime",
      "answer_stringIds": [
        "string_94",
        "string_95"
      ]
    },
    {
      "id_qa": "autog_0249-2563_1984_num_17_17_T1_0053_0000_qa15_v3",
      "id_block": "block_2",
      "question": "Qu'est-ce qui est en train de se renforcer ?",
      "answer": "le régime",
      "answer_stringIds": [
        "string_94",
        "string_95"
      ]
    },
    {
      "id_qa": "autog_0249-2563_1984_num_17_17_T1_0053_0000_qa17_v3",
      "id_block": "block_2",
      "question": "Qu'est ce qui permettait au régime de se renforcer ?",
      "answer": "rompre le dialogue et toutes formes de négociation",
      "answer_stringIds": [
        "string_105",
        "string_106",
        "string_107",
        "string_108",
        "string_109",
        "string_110",
        "string_111",
        "string_112"
      ]
    },
    {
      "id_qa": "autog_0249-2563_1984_num_17_17_T1_0053_0000_qa7_v3",
      "id_block": "block_3",
      "question": "Qu'a apporté l'Unité Populaire lors des dernières grandes manifestations de l'unité Populaire ?",
      "answer": "le soutien de la foule",
      "answer_stringIds": [
        "string_216",
        "string_217",
        "string_218",
        "string_219",
        "string_220"
      ]
    }
  ]
}