{
  "num": "autog_0338-7259_1974_num_28_1",
  "article": "autog_0338-7259_1974_num_28_1_1199",
  "page_name": "FMSH_PB188a_28-29_151",
  "questions": [
    {
      "id_qa": "FMSH_PB188a_28-29_151_qa25_v3",
      "id_block": "block_3",
      "question": "Qu'est ce qui s'arrétait après un secteur ?",
      "answer": "les revendications",
      "answer_stringIds": [
        "string_58",
        "string_59"
      ]
    },
    {
      "id_qa": "FMSH_PB188a_28-29_151_qa6_v3",
      "id_block": "block_4",
      "question": "Qu'est ce qui a été mis en avant par ceux qui voulaient au nom du rassemblement des forces anti-monopolistes ?",
      "answer": "des pourcentages",
      "answer_stringIds": [
        "string_94",
        "string_95"
      ]
    },
    {
      "id_qa": "FMSH_PB188a_28-29_151_qa9_v3",
      "id_block": "block_4",
      "question": "Quel était le but des forces anti-monopolistes ?",
      "answer": "mettre en avant des pourcentages durent vite faire retraite",
      "answer_stringIds": [
        "string_91",
        "string_92",
        "string_93",
        "string_94",
        "string_95",
        "string_96",
        "string_97",
        "string_98",
        "string_99"
      ]
    },
    {
      "id_qa": "FMSH_PB188a_28-29_151_qa0_v3",
      "id_block": "block_5",
      "question": "Qui a fait grève ?",
      "answer": "les employés",
      "answer_stringIds": [
        "string_146",
        "string_147"
      ]
    },
    {
      "id_qa": "FMSH_PB188a_28-29_151_qa21_v3",
      "id_block": "block_6",
      "question": "Qui était ressenti comme une injustice flagrante ?",
      "answer": "les employés",
      "answer_stringIds": [
        "string_146",
        "string_147"
      ]
    },
    {
      "id_qa": "FMSH_PB188a_28-29_151_qa5_v3",
      "id_block": "block_7",
      "question": "Quand les prêts aux fascistes chiliens ont-ils été évoqués ?",
      "answer": "au cours de la grève",
      "answer_stringIds": [
        "string_297",
        "string_298",
        "string_299",
        "string_300",
        "string_301"
      ]
    },
    {
      "id_qa": "FMSH_PB188a_28-29_151_qa18_v3",
      "id_block": "block_8",
      "question": "Qu'est ce qui n'a pas eu de succès ?",
      "answer": "les revendications",
      "answer_stringIds": [
        "string_58",
        "string_59"
      ]
    }
  ]
}