{
  "num": "autog_0338-7259_1974_num_28_1",
  "article": "autog_0338-7259_1974_num_28_1_1199",
  "page_name": "FMSH_PB188a_28-29_146",
  "questions": [
    {
      "id_qa": "FMSH_PB188a_28-29_146_qa5_v3",
      "id_block": "block_1",
      "question": "Quelle est la proportion de grévistes à la Générale ?",
      "answer": "à 200",
      "answer_stringIds": [
        "string_68",
        "string_69"
      ]
    },
    {
      "id_qa": "FMSH_PB188a_28-29_146_qa7_v3",
      "id_block": "block_1",
      "question": "Qu'est ce qui se propage depuis le 6ème étage ?",
      "answer": "une grève",
      "answer_stringIds": [
        "string_70",
        "string_71"
      ]
    },
    {
      "id_qa": "FMSH_PB188a_28-29_146_qa8_v3",
      "id_block": "block_1",
      "question": "Quelle est la date de l'assemblée générale ?",
      "answer": "une assemblée générale le lendemain matin",
      "answer_stringIds": [
        "string_60",
        "string_61",
        "string_62",
        "string_63",
        "string_64",
        "string_65"
      ]
    },
    {
      "id_qa": "FMSH_PB188a_28-29_146_qa25_v3",
      "id_block": "block_1",
      "question": "Qu'est ce qui s'étend à la surprise générale ?",
      "answer": "le mouvement de grève",
      "answer_stringIds": [
        "string_108",
        "string_109",
        "string_110",
        "string_111"
      ]
    },
    {
      "id_qa": "FMSH_PB188a_28-29_146_qa26_v3",
      "id_block": "block_1",
      "question": "Qu'est ce qui cède à la direction ?",
      "answer": "tout le centre",
      "answer_stringIds": [
        "string_15",
        "string_16",
        "string_17"
      ]
    },
    {
      "id_qa": "FMSH_PB188a_28-29_146_qa27_v3",
      "id_block": "block_1",
      "question": "Qui cède encore et tout le centre débraye ?",
      "answer": "La direction",
      "answer_stringIds": [
        "string_10",
        "string_11"
      ]
    },
    {
      "id_qa": "FMSH_PB188a_28-29_146_qa28_v3",
      "id_block": "block_1",
      "question": "Qui est décidé à garder la parole ?",
      "answer": "Les travailleurs",
      "answer_stringIds": [
        "string_113",
        "string_114"
      ]
    },
    {
      "id_qa": "FMSH_PB188a_28-29_146_qa30_v3",
      "id_block": "block_1",
      "question": "Que reprennent les travailleurs ?",
      "answer": "la parole",
      "answer_stringIds": [
        "string_116",
        "string_117"
      ]
    },
    {
      "id_qa": "FMSH_PB188a_28-29_146_qa31_v3",
      "id_block": "block_1",
      "question": "Qui reprend la parole ?",
      "answer": "Les travailleurs",
      "answer_stringIds": [
        "string_113",
        "string_114"
      ]
    },
    {
      "id_qa": "FMSH_PB188a_28-29_146_qa33_v3",
      "id_block": "block_1",
      "question": "Qui refuse alors le mouvement des banques ?",
      "answer": "Le patron",
      "answer_stringIds": [
        "string_19",
        "string_20"
      ]
    },
    {
      "id_qa": "FMSH_PB188a_28-29_146_qa4_v3",
      "id_block": "block_5",
      "question": "Qu'est ce qui n'a pas réussi à empêcher les syndicats de contrôler ?",
      "answer": "les divergences syndicales",
      "answer_stringIds": [
        "string_280",
        "string_281",
        "string_282"
      ]
    },
    {
      "id_qa": "FMSH_PB188a_28-29_146_qa10_v3",
      "id_block": "block_5",
      "question": "Qui contrôle les élus et diriger leur lutte ?",
      "answer": "Les grévistes",
      "answer_stringIds": [
        "string_194",
        "string_195"
      ]
    },
    {
      "id_qa": "FMSH_PB188a_28-29_146_qa11_v3",
      "id_block": "block_5",
      "question": "Qui décide de fixer ses objectifs ?",
      "answer": "Les grévistes",
      "answer_stringIds": [
        "string_194",
        "string_195"
      ]
    },
    {
      "id_qa": "FMSH_PB188a_28-29_146_qa12_v3",
      "id_block": "block_5",
      "question": "Qu'est ce qui motive les grévistes ?",
      "answer": "fixer leurs objectifs",
      "answer_stringIds": [
        "string_207",
        "string_208",
        "string_209"
      ]
    },
    {
      "id_qa": "FMSH_PB188a_28-29_146_qa14_v3",
      "id_block": "block_5",
      "question": "Qui vient tous les jours en grande majorité ?",
      "answer": "Les grévistes",
      "answer_stringIds": [
        "string_194",
        "string_195"
      ]
    },
    {
      "id_qa": "FMSH_PB188a_28-29_146_qa15_v3",
      "id_block": "block_5",
      "question": "Qui viennent tous les jours pour fixer leurs objectifs ?",
      "answer": "Les grévistes",
      "answer_stringIds": [
        "string_194",
        "string_195"
      ]
    },
    {
      "id_qa": "FMSH_PB188a_28-29_146_qa17_v3",
      "id_block": "block_5",
      "question": "Qui contrôle les grévistes ?",
      "answer": "leurs élus",
      "answer_stringIds": [
        "string_217",
        "string_218"
      ]
    },
    {
      "id_qa": "FMSH_PB188a_28-29_146_qa18_v3",
      "id_block": "block_5",
      "question": "Qui contrôle les élus ?",
      "answer": "Les grévistes",
      "answer_stringIds": [
        "string_194",
        "string_195"
      ]
    },
    {
      "id_qa": "FMSH_PB188a_28-29_146_qa21_v3",
      "id_block": "block_5",
      "question": "Qui a voulu récupérer les aspirations autogestionnaires ?",
      "answer": "le patronat",
      "answer_stringIds": [
        "string_315",
        "string_316"
      ]
    },
    {
      "id_qa": "FMSH_PB188a_28-29_146_qa34_v3",
      "id_block": "block_5",
      "question": "Qui était en droit et de fait capable de diriger la grève ?",
      "answer": "les grévistes d'",
      "answer_stringIds": [
        "string_336",
        "string_337",
        "string_338"
      ]
    },
    {
      "id_qa": "FMSH_PB188a_28-29_146_qa36_v3",
      "id_block": "block_5",
      "question": "Qui était capable de diriger la grève ?",
      "answer": "les grévistes d'",
      "answer_stringIds": [
        "string_336",
        "string_337",
        "string_338"
      ]
    }
  ]
}