{
  "num": "autog_0249-2563_1984_num_17_17",
  "article": "autog_0249-2563_1984_num_17_17_1903_t1_0108_0000_1",
  "page_name": "autog_0249-2563_1984_num_17_17_T1_0108_0000",
  "questions": [
    {
      "id_qa": "autog_0249-2563_1984_num_17_17_T1_0108_0000_qa4_v3",
      "id_block": "block_11",
      "question": "A qui est destiné le colloque sur \" Développement social local et décentralisation ?",
      "answer": "aux décideurs politiques",
      "answer_stringIds": [
        "string_213",
        "string_214",
        "string_215"
      ]
    },
    {
      "id_qa": "autog_0249-2563_1984_num_17_17_T1_0108_0000_qa5_v3",
      "id_block": "block_11",
      "question": "A qui est destiné le colloque sur \" Développement social local et décentralisation\" ?",
      "answer": "aux décideurs politiques",
      "answer_stringIds": [
        "string_213",
        "string_214",
        "string_215"
      ]
    },
    {
      "id_qa": "autog_0249-2563_1984_num_17_17_T1_0108_0000_qa0_v3",
      "id_block": "block_2",
      "question": "Où se déroule la série de rencontres-diagonales ?",
      "answer": "dans différentes régions de France",
      "answer_stringIds": [
        "string_33",
        "string_34",
        "string_35",
        "string_36",
        "string_37"
      ]
    },
    {
      "id_qa": "autog_0249-2563_1984_num_17_17_T1_0108_0000_qa40_v3",
      "id_block": "block_5",
      "question": "Où a eu lieu l'exposition \"Planter avant de bâtir\" ?",
      "answer": "à Paris",
      "answer_stringIds": [
        "string_83",
        "string_84"
      ]
    },
    {
      "id_qa": "autog_0249-2563_1984_num_17_17_T1_0108_0000_qa41_v3",
      "id_block": "block_5",
      "question": "Quand est-ce que le 4 octobre 1984 a eu lieu à Paris ?",
      "answer": "avant de bâtir",
      "answer_stringIds": [
        "string_74",
        "string_75",
        "string_76"
      ]
    }
  ]
}