{
  "num": "autog_0249-2563_1982_num_16_12",
  "article": "autog_0249-2563_1982_num_16_12_1537",
  "page_name": "autog_0249-2563_1982_num_16_12_T1_0126_0000",
  "questions": [
    {
      "id_qa": "autog_0249-2563_1982_num_16_12_T1_0126_0000_qa1_v3",
      "id_block": "block_0",
      "question": "Où se déroulent les ateliers de dessin, peinture, pyrogravure ?",
      "answer": "dans notre salle 2",
      "answer_stringIds": [
        "string_4",
        "string_5",
        "string_6",
        "string_7"
      ]
    },
    {
      "id_qa": "autog_0249-2563_1982_num_16_12_T1_0126_0000_qa2_v3",
      "id_block": "block_0",
      "question": "Où se déroulent les ateliers de dessin ?",
      "answer": "dans notre salle 2",
      "answer_stringIds": [
        "string_4",
        "string_5",
        "string_6",
        "string_7"
      ]
    },
    {
      "id_qa": "autog_0249-2563_1982_num_16_12_T1_0126_0000_qa32_v3",
      "id_block": "block_1",
      "question": "Qu'apporte un adulte pour un conseil, une aide ?",
      "answer": "du matériel",
      "answer_stringIds": [
        "string_70",
        "string_71"
      ]
    },
    {
      "id_qa": "autog_0249-2563_1982_num_16_12_T1_0126_0000_qa39_v3",
      "id_block": "block_1",
      "question": "Qu'est ce qui a été déterminé au cours des conseils ?",
      "answer": "Son rôle et les limites de son pouvoir",
      "answer_stringIds": [
        "string_79",
        "string_80",
        "string_81",
        "string_82",
        "string_83",
        "string_84",
        "string_85",
        "string_86"
      ]
    },
    {
      "id_qa": "autog_0249-2563_1982_num_16_12_T1_0126_0000_qa50_v3",
      "id_block": "block_2",
      "question": "Qu'est ce qui a été décidé à la rentrée de novembre ?",
      "answer": "contrat",
      "answer_stringIds": [
        "string_119"
      ]
    },
    {
      "id_qa": "autog_0249-2563_1982_num_16_12_T1_0126_0000_qa44_v3",
      "id_block": "block_3",
      "question": "Quand a eu lieu le conseil ?",
      "answer": "le conseil du 13 novembre",
      "answer_stringIds": [
        "string_245",
        "string_246",
        "string_247",
        "string_248",
        "string_249"
      ]
    },
    {
      "id_qa": "autog_0249-2563_1982_num_16_12_T1_0126_0000_qa14_v3",
      "id_block": "block_4",
      "question": "Qui accepte les cartes ?",
      "answer": "conseil",
      "answer_stringIds": [
        "string_66"
      ]
    },
    {
      "id_qa": "autog_0249-2563_1982_num_16_12_T1_0126_0000_qa17_v3",
      "id_block": "block_4",
      "question": "Qu'est ce qui a été pris par le conseil ?",
      "answer": "des décisions",
      "answer_stringIds": [
        "string_285",
        "string_286"
      ]
    },
    {
      "id_qa": "autog_0249-2563_1982_num_16_12_T1_0126_0000_qa23_v3",
      "id_block": "block_4",
      "question": "Qui acceptera les cartes ?",
      "answer": "conseil",
      "answer_stringIds": [
        "string_66"
      ]
    },
    {
      "id_qa": "autog_0249-2563_1982_num_16_12_T1_0126_0000_qa26_v3",
      "id_block": "block_4",
      "question": "Qu'est ce qui est proposé au conseil ?",
      "answer": "les cartes",
      "answer_stringIds": [
        "string_288",
        "string_289"
      ]
    },
    {
      "id_qa": "autog_0249-2563_1982_num_16_12_T1_0126_0000_qa48_v3",
      "id_block": "block_5",
      "question": "Quand l'institution a-t-elle été créée ?",
      "answer": "en 1960",
      "answer_stringIds": [
        "string_411",
        "string_412"
      ]
    },
    {
      "id_qa": "autog_0249-2563_1982_num_16_12_T1_0126_0000_qa49_v3",
      "id_block": "block_5",
      "question": "Qu'est ce qui a été introduit en 1960 ?",
      "answer": "une institution que",
      "answer_stringIds": [
        "string_406",
        "string_407",
        "string_408"
      ]
    },
    {
      "id_qa": "autog_0249-2563_1982_num_16_12_T1_0126_0000_qa57_v3",
      "id_block": "block_5",
      "question": "Dans quoi le responsable de jour tient-il une grande place ?",
      "answer": "dans notre organisation",
      "answer_stringIds": [
        "string_399",
        "string_400",
        "string_401"
      ]
    },
    {
      "id_qa": "autog_0249-2563_1982_num_16_12_T1_0126_0000_qa58_v3",
      "id_block": "block_5",
      "question": "Que tient le responsable de jour dans notre organisation des activités personnelles ?",
      "answer": "une grande place",
      "answer_stringIds": [
        "string_396",
        "string_397",
        "string_398"
      ]
    },
    {
      "id_qa": "autog_0249-2563_1982_num_16_12_T1_0126_0000_qa59_v3",
      "id_block": "block_5",
      "question": "Qui tient une grande place dans notre organisation des activités personnelles ?",
      "answer": "Le responsable de jour",
      "answer_stringIds": [
        "string_391",
        "string_392",
        "string_393",
        "string_394"
      ]
    }
  ]
}