{
  "num": "autog_0338-7259_1978_num_40_1",
  "article": "autog_0338-7259_1978_num_40_1_1275",
  "page_name": "FMSH_PB188a_00040_067",
  "questions": [
    {
      "id_qa": "FMSH_PB188a_00040_067_qa11_v3",
      "id_block": "block_1",
      "question": "Qui est chargé de cours à l'Université de Paris XIII ?",
      "answer": "Anicet Le Pors",
      "answer_stringIds": [
        "string_2",
        "string_3",
        "string_4"
      ]
    },
    {
      "id_qa": "FMSH_PB188a_00040_067_qa12_v3",
      "id_block": "block_1",
      "question": "De quoi est chargé Anicet Le Pors ?",
      "answer": "de cours",
      "answer_stringIds": [
        "string_11",
        "string_12"
      ]
    },
    {
      "id_qa": "FMSH_PB188a_00040_067_qa7_v3",
      "id_block": "block_2",
      "question": "Où se situe le dernier chapitre de l'ouvrage ?",
      "answer": "les pages 226 à 251",
      "answer_stringIds": [
        "string_119",
        "string_120",
        "string_121",
        "string_122",
        "string_123"
      ]
    },
    {
      "id_qa": "FMSH_PB188a_00040_067_qa22_v3",
      "id_block": "block_3",
      "question": "Qui a écrit Les communistes et l'Etat ?",
      "answer": "Fabre",
      "answer_stringIds": [
        "string_139"
      ]
    },
    {
      "id_qa": "FMSH_PB188a_00040_067_qa24_v3",
      "id_block": "block_3",
      "question": "Pour quelle raison l'appareil d'Etat doit être purement et simplement détruit ?",
      "answer": "pour abolir démocratiquement le pouvoir politique du grand capital",
      "answer_stringIds": [
        "string_146",
        "string_147",
        "string_148",
        "string_149",
        "string_150",
        "string_151",
        "string_152",
        "string_153",
        "string_154",
        "string_155"
      ]
    },
    {
      "id_qa": "FMSH_PB188a_00040_067_qa1_v3",
      "id_block": "block_4",
      "question": "Qu'est-ce qui porte la marque de leur auteur ?",
      "answer": "ce livre",
      "answer_stringIds": [
        "string_231",
        "string_232"
      ]
    },
    {
      "id_qa": "FMSH_PB188a_00040_067_qa28_v3",
      "id_block": "block_4",
      "question": "Quel est le métier de Marchais ?",
      "answer": "un typographe",
      "answer_stringIds": [
        "string_241",
        "string_242"
      ]
    },
    {
      "id_qa": "FMSH_PB188a_00040_067_qa31_v3",
      "id_block": "block_4",
      "question": "Qui est l'auteur des positions communistes ?",
      "answer": "à Marchais",
      "answer_stringIds": [
        "string_259",
        "string_260"
      ]
    },
    {
      "id_qa": "FMSH_PB188a_00040_067_qa15_v3",
      "id_block": "block_6",
      "question": "Qu'est ce qui ne serait pas proposé par les syndicats ?",
      "answer": "des candidats",
      "answer_stringIds": [
        "string_322",
        "string_323"
      ]
    },
    {
      "id_qa": "FMSH_PB188a_00040_067_qa17_v3",
      "id_block": "block_6",
      "question": "Qui est choqué à l'idée qu'il pourrait y avoir des candidats ?",
      "answer": "les syndicats",
      "answer_stringIds": [
        "string_330",
        "string_331"
      ]
    }
  ]
}