{
  "num": "autog_0338-7259_1978_num_40_1",
  "article": "autog_0338-7259_1978_num_40_1_1275",
  "page_name": "FMSH_PB188a_00040_060",
  "questions": [
    {
      "id_qa": "FMSH_PB188a_00040_060_qa25_v3",
      "id_block": "block_1",
      "question": "Qui est à l'origine de l'autogestion ?",
      "answer": "la CFDT",
      "answer_stringIds": [
        "string_37",
        "string_38"
      ]
    },
    {
      "id_qa": "FMSH_PB188a_00040_060_qa26_v3",
      "id_block": "block_1",
      "question": "Quel journal a écrit sur l'autogestion ?",
      "answer": "le journal Libération",
      "answer_stringIds": [
        "string_27",
        "string_28",
        "string_29"
      ]
    },
    {
      "id_qa": "FMSH_PB188a_00040_060_qa27_v3",
      "id_block": "block_1",
      "question": "Quand est-ce que Libération a écrit sur l'autogestion ?",
      "answer": "Le 2 août 1977",
      "answer_stringIds": [
        "string_23",
        "string_24",
        "string_25",
        "string_26"
      ]
    },
    {
      "id_qa": "FMSH_PB188a_00040_060_qa33_v3",
      "id_block": "block_1",
      "question": "Qui a rencontré la CFDT le 7 novembre 1977 ?",
      "answer": "une délégation du PCF présidée par Georges Marchais",
      "answer_stringIds": [
        "string_139",
        "string_140",
        "string_141",
        "string_142",
        "string_143",
        "string_144",
        "string_145",
        "string_146"
      ]
    },
    {
      "id_qa": "FMSH_PB188a_00040_060_qa42_v3",
      "id_block": "block_1",
      "question": "Quel était le métier du rédacteur de Libération ?",
      "answer": "moins de lecture que le dirigeant cégétiste",
      "answer_stringIds": [
        "string_68",
        "string_69",
        "string_70",
        "string_71",
        "string_72",
        "string_73",
        "string_74"
      ]
    },
    {
      "id_qa": "FMSH_PB188a_00040_060_qa44_v3",
      "id_block": "block_1",
      "question": "Qui a moins de lecture que Fiterman ?",
      "answer": "le rédacteur de Libération",
      "answer_stringIds": [
        "string_63",
        "string_64",
        "string_65",
        "string_66"
      ]
    },
    {
      "id_qa": "FMSH_PB188a_00040_060_qa54_v3",
      "id_block": "block_2",
      "question": "Pour qui est faite la société ?",
      "answer": "pour les travailleurs",
      "answer_stringIds": [
        "string_198",
        "string_199",
        "string_200"
      ]
    },
    {
      "id_qa": "FMSH_PB188a_00040_060_qa3_v3",
      "id_block": "block_3",
      "question": "Qui s'est récemment étonné que certains formulent le projet de former un parti de l'autogestion ?",
      "answer": "Marchais",
      "answer_stringIds": [
        "string_146"
      ]
    },
    {
      "id_qa": "FMSH_PB188a_00040_060_qa6_v3",
      "id_block": "block_3",
      "question": "Qui a dit que le PCF existe déjà ?",
      "answer": "Marchais",
      "answer_stringIds": [
        "string_146"
      ]
    },
    {
      "id_qa": "FMSH_PB188a_00040_060_qa8_v3",
      "id_block": "block_3",
      "question": "Quel parti est reconnu et adopté par Marchais ?",
      "answer": "Le PCF",
      "answer_stringIds": [
        "string_216",
        "string_217"
      ]
    },
    {
      "id_qa": "FMSH_PB188a_00040_060_qa9_v3",
      "id_block": "block_4",
      "question": "Contre quoi se déclarent les communistes en France ?",
      "answer": "le centralisme traditionnel",
      "answer_stringIds": [
        "string_302",
        "string_303",
        "string_304"
      ]
    },
    {
      "id_qa": "FMSH_PB188a_00040_060_qa10_v3",
      "id_block": "block_4",
      "question": "Qui se déclare contre le centralisme traditionnel en France ?",
      "answer": "les communistes",
      "answer_stringIds": [
        "string_296",
        "string_297"
      ]
    },
    {
      "id_qa": "FMSH_PB188a_00040_060_qa12_v3",
      "id_block": "block_4",
      "question": "Où se situe le centralisme traditionnel ?",
      "answer": "en France",
      "answer_stringIds": [
        "string_305",
        "string_306"
      ]
    },
    {
      "id_qa": "FMSH_PB188a_00040_060_qa50_v3",
      "id_block": "block_4",
      "question": "Quand Mitterrand a-t-il annoncé que les premières mesures autogestionnaires d'un gouvernement de gauche concerneraient la régionalisation ?",
      "answer": "son discours au congrès de Nantes",
      "answer_stringIds": [
        "string_268",
        "string_269",
        "string_270",
        "string_271",
        "string_272",
        "string_273"
      ]
    },
    {
      "id_qa": "FMSH_PB188a_00040_060_qa51_v3",
      "id_block": "block_4",
      "question": "Qui a annoncé les premières mesures autogestionnaires d'un gouvernement de gauche ?",
      "answer": "Mitterrand",
      "answer_stringIds": [
        "string_274"
      ]
    },
    {
      "id_qa": "FMSH_PB188a_00040_060_qa52_v3",
      "id_block": "block_4",
      "question": "Quelle est la conséquence des premières mesures autogestionnaires de Mitterrand ?",
      "answer": "la régionalisation",
      "answer_stringIds": [
        "string_288",
        "string_289"
      ]
    },
    {
      "id_qa": "FMSH_PB188a_00040_060_qa18_v3",
      "id_block": "block_5",
      "question": "Qu'est-ce qui peut être entreprise à courte échéance ?",
      "answer": "une manoeuvre en sens inverse",
      "answer_stringIds": [
        "string_376",
        "string_377",
        "string_378",
        "string_379",
        "string_380"
      ]
    },
    {
      "id_qa": "FMSH_PB188a_00040_060_qa45_v3",
      "id_block": "block_5",
      "question": "Qu'est ce qui va se multiplier ?",
      "answer": "les déclarations « autogestionnaires",
      "answer_stringIds": [
        "string_355",
        "string_356",
        "string_357",
        "string_358"
      ]
    },
    {
      "id_qa": "FMSH_PB188a_00040_060_qa46_v3",
      "id_block": "block_5",
      "question": "Qui est à l'origine des déclarations autogestionnaires ?",
      "answer": "du PCF",
      "answer_stringIds": [
        "string_141",
        "string_142"
      ]
    }
  ]
}