{
  "num": "autog_0338-7259_1972_num_18_1",
  "article": "autog_0338-7259_1972_num_18_1_1048",
  "page_name": "FMSH_PB188a_18-19_248",
  "questions": [
    {
      "id_qa": "FMSH_PB188a_18-19_248_qa0_v3",
      "id_block": "block_1",
      "question": "Qui a appliqué le mot d'ordre ?",
      "answer": "les paysans",
      "answer_stringIds": [
        "string_16",
        "string_17"
      ]
    },
    {
      "id_qa": "FMSH_PB188a_18-19_248_qa13_v3",
      "id_block": "block_2",
      "question": "Qui a envoyé des délégués au prolétariat des villes ?",
      "answer": "les paysans",
      "answer_stringIds": [
        "string_16",
        "string_17"
      ]
    },
    {
      "id_qa": "FMSH_PB188a_18-19_248_qa16_v3",
      "id_block": "block_2",
      "question": "A qui les paysans ont-ils envoyé des délégués ?",
      "answer": "au prolétariat des villes",
      "answer_stringIds": [
        "string_82",
        "string_83",
        "string_84",
        "string_85",
        "string_86"
      ]
    },
    {
      "id_qa": "FMSH_PB188a_18-19_248_qa26_v3",
      "id_block": "block_2",
      "question": "Qu'est-ce que les paysans voulaient construire ensemble ?",
      "answer": "la nouvelle société libre des travailleurs",
      "answer_stringIds": [
        "string_109",
        "string_110",
        "string_111",
        "string_112",
        "string_113",
        "string_114",
        "string_115"
      ]
    },
    {
      "id_qa": "FMSH_PB188a_18-19_248_qa5_v3",
      "id_block": "block_4",
      "question": "Depuis quand la paysannerie révolutionnaire de nombreuses régions d'Ukraine a-t-elle commencé à lutter ?",
      "answer": "à lutter activement depuis déjà",
      "answer_stringIds": [
        "string_229",
        "string_230",
        "string_231",
        "string_232",
        "string_233"
      ]
    },
    {
      "id_qa": "FMSH_PB188a_18-19_248_qa30_v3",
      "id_block": "block_5",
      "question": "Qui n'a pas participé à sa désignation ?",
      "answer": "les paysans ukrainiens",
      "answer_stringIds": [
        "string_293",
        "string_294",
        "string_295"
      ]
    },
    {
      "id_qa": "FMSH_PB188a_18-19_248_qa31_v3",
      "id_block": "block_5",
      "question": "Qui se conduisirent avec méfiance envers le Soviet des Commissaires du Peuple ?",
      "answer": "les paysans ukrainiens",
      "answer_stringIds": [
        "string_293",
        "string_294",
        "string_295"
      ]
    }
  ]
}