{
  "num": "autog_0338-7259_1970_num_11_1",
  "article": "autog_0338-7259_1970_num_11_1_1788",
  "page_name": "FMSH_PB188a_11-12_257",
  "questions": [
    {
      "id_qa": "FMSH_PB188a_11-12_257_qa3_v3",
      "id_block": "block_10",
      "question": "Qui a écrit le numéro sur L'autogestion en Italie ?",
      "answer": "aux anarchistes espagnols",
      "answer_stringIds": [
        "string_122",
        "string_123",
        "string_124"
      ]
    },
    {
      "id_qa": "FMSH_PB188a_11-12_257_qa2_v3",
      "id_block": "block_2",
      "question": "Qui a préparé le N.13 ?",
      "answer": "par René Lourau",
      "answer_stringIds": [
        "string_12",
        "string_13",
        "string_14"
      ]
    }
  ]
}