{
  "num": "autog_0338-7259_1978_num_40_1",
  "article": "autog_0338-7259_1978_num_40_1_1284",
  "page_name": "FMSH_PB188a_00040_123",
  "questions": [
    {
      "id_qa": "FMSH_PB188a_00040_123_qa2_v3",
      "id_block": "block_1",
      "question": "Pour qui les soldats étaient-ils là ?",
      "answer": "pour dialoguer avec le peuple",
      "answer_stringIds": [
        "string_61",
        "string_62",
        "string_63",
        "string_64",
        "string_65"
      ]
    },
    {
      "id_qa": "FMSH_PB188a_00040_123_qa4_v3",
      "id_block": "block_1",
      "question": "Qui est l'ennemi des travailleurs ?",
      "answer": "le MFA",
      "answer_stringIds": [
        "string_126",
        "string_127"
      ]
    },
    {
      "id_qa": "FMSH_PB188a_00040_123_qa15_v3",
      "id_block": "block_1",
      "question": "Qui est l'ennemi du MFA ?",
      "answer": "Les travailleurs portugais",
      "answer_stringIds": [
        "string_88",
        "string_89",
        "string_90"
      ]
    },
    {
      "id_qa": "FMSH_PB188a_00040_123_qa7_v3",
      "id_block": "block_1",
      "question": "Qui étaient là pour dialoguer avec le peuple ?",
      "answer": "les soldats",
      "answer_stringIds": [
        "string_22",
        "string_23"
      ]
    },
    {
      "id_qa": "FMSH_PB188a_00040_123_qa9_v3",
      "id_block": "block_1",
      "question": "Avec qui les militaires étaient-ils là ?",
      "answer": "avec le peuple",
      "answer_stringIds": [
        "string_63",
        "string_64",
        "string_65"
      ]
    },
    {
      "id_qa": "FMSH_PB188a_00040_123_qa11_v3",
      "id_block": "block_1",
      "question": "Que prenaient les militaires lors de l'occupation d'une maison ?",
      "answer": "la défense des masses",
      "answer_stringIds": [
        "string_84",
        "string_85",
        "string_86",
        "string_87"
      ]
    },
    {
      "id_qa": "FMSH_PB188a_00040_123_qa21_v3",
      "id_block": "block_1",
      "question": "Avec qui les militaires travaillaient-ils côte à côte ?",
      "answer": "avec les populations",
      "answer_stringIds": [
        "string_45",
        "string_46",
        "string_47"
      ]
    },
    {
      "id_qa": "FMSH_PB188a_00040_123_qa32_v3",
      "id_block": "block_3",
      "question": "Qu'est ce qui met en difficulté la classe ouvrière ?",
      "answer": "les pratiques",
      "answer_stringIds": [
        "string_184",
        "string_185"
      ]
    },
    {
      "id_qa": "FMSH_PB188a_00040_123_qa40_v3",
      "id_block": "block_3",
      "question": "Qu'est ce qui est encore utopique à la majorité des travailleurs portugais ?",
      "answer": "le projet socialiste autogestionnaire",
      "answer_stringIds": [
        "string_213",
        "string_214",
        "string_215",
        "string_216"
      ]
    },
    {
      "id_qa": "FMSH_PB188a_00040_123_qa39_v3",
      "id_block": "block_4",
      "question": "Où se situe la Base-F.U.T. ?",
      "answer": "dans ce contexte",
      "answer_stringIds": [
        "string_249",
        "string_250",
        "string_251"
      ]
    },
    {
      "id_qa": "FMSH_PB188a_00040_123_qa23_v3",
      "id_block": "block_5",
      "question": "Qui intervient dans la vie syndicale, culturelle et politique ?",
      "answer": "ses militants",
      "answer_stringIds": [
        "string_310",
        "string_311"
      ]
    },
    {
      "id_qa": "FMSH_PB188a_00040_123_qa24_v3",
      "id_block": "block_5",
      "question": "Quel est le projet de ses militants ?",
      "answer": "le projet autogestionnaire",
      "answer_stringIds": [
        "string_327",
        "string_328",
        "string_329",
        "string_330"
      ]
    },
    {
      "id_qa": "FMSH_PB188a_00040_123_qa36_v3",
      "id_block": "block_5",
      "question": "Où est-ce qu'aucun parti ou mouvement n'occupe un espace ?",
      "answer": "au Portugal",
      "answer_stringIds": [
        "string_346",
        "string_347"
      ]
    },
    {
      "id_qa": "FMSH_PB188a_00040_123_qa38_v3",
      "id_block": "block_5",
      "question": "Qu'est-ce qu'aucun parti ou mouvement n'occupe au Portugal ?",
      "answer": "un espace",
      "answer_stringIds": [
        "string_339",
        "string_340"
      ]
    },
    {
      "id_qa": "FMSH_PB188a_00040_123_qa45_v3",
      "id_block": "block_5",
      "question": "Qu'est-ce que les travailleurs prennent eux-mêmes en main ?",
      "answer": "leur destin",
      "answer_stringIds": [
        "string_303",
        "string_304"
      ]
    },
    {
      "id_qa": "FMSH_PB188a_00040_123_qa46_v3",
      "id_block": "block_5",
      "question": "Qui prend en main leur destin ?",
      "answer": "les travailleurs",
      "answer_stringIds": [
        "string_122",
        "string_123"
      ]
    },
    {
      "id_qa": "FMSH_PB188a_00040_123_qa47_v3",
      "id_block": "block_5",
      "question": "Qu'est ce qui se bat dans tous les domaines ?",
      "answer": "un mouvement",
      "answer_stringIds": [
        "string_286",
        "string_287"
      ]
    },
    {
      "id_qa": "FMSH_PB188a_00040_123_qa43_v3",
      "id_block": "block_6",
      "question": "Qu'est ce que nous essayons de construire avec d'autres à l'étranger ?",
      "answer": "bâtir une société socialiste autogestionnaire",
      "answer_stringIds": [
        "string_393",
        "string_394",
        "string_395",
        "string_396",
        "string_397"
      ]
    },
    {
      "id_qa": "FMSH_PB188a_00040_123_qa44_v3",
      "id_block": "block_6",
      "question": "Qu'est ce que nous essayons de bâtir avec eux et avec d'autres à l'étranger ?",
      "answer": "une société socialiste autogestionnaire",
      "answer_stringIds": [
        "string_273",
        "string_274",
        "string_275",
        "string_276"
      ]
    }
  ]
}