{
  "num": "autog_0005-0970_1969_num_8_1",
  "article": "autog_0005-0970_1969_num_8_1_944",
  "page_name": "FMSH_PB188a_00008_005",
  "questions": [
    "Quel est le contexte historique de la réforme économique et sociale yougoslave initiée en 1965 ?",
    "Quels objectifs poursuivent les autorités yougoslaves à travers cette réforme ?",
    "Comment la réforme économique et sociale yougoslave s'inscrit-elle dans la logique de l'économie de marché ?",
    "En quelles mains sont placées les ressources d'investissements selon le Plan général pour le quinquennat 1966-1970 ?",
    "Quels secteurs bénéficient de mesures favorables dans le cadre de cette réforme ?",
    "Quel rôle jouent les entreprises et les banques dans la gestion des investissements ?",
    "Comment les salariés sont-ils impliqués dans la gestion des résultats financiers de leur entreprise ?",
    "Quels domaines sont prioritaires dans les investissements financés par les fonds fédéraux ?",
    "Quels sont les objectifs prioritaires de ces investissements ?",
    "Comment la réforme économique et sociale yougoslave affecte-t-elle la tutelle administrative sur les centres de production ?",
    "Comment la réforme économique et sociale yougoslave contribue-t-elle à la pénétration sur le marché mondial et à la convertibilité du dinar ?"
  ]
}