{
  "num": "autog_0005-0970_1969_num_8_1",
  "article": "autog_0005-0970_1969_num_8_1_944",
  "page_name": "FMSH_PB188a_00008_010",
  "questions": [
    "Quels sont les analyses critiques de l'autogestion qui sont plus largement retenues que les tendances à l'autosatisfaction selon J. Dru ?",
    "En quelles circonstances les interventions des gens de notre pays à l'étranger se réduisent-elles à une présentation apologétique et superficielle de notre système ?",
    "Quels sont les raisons pour lesquelles nous avons dû lutter contre les attaques de l'étranger et les adversaires intérieurs de l'autogestion pendant de longues années ?",
    "Quels sont les conséquences de l'autogestion sur l'innovation technologique ?",
    "Comment l'expérience yougoslave peut-elle nous enseigner sur les conséquences de l'autogestion en matière d'innovation technologique ?",
    "Quels sont les procédures de fabrication relativement classiques que l'on utilise en Yougoslavie ?",
    "Quels sont les points faibles de l'action concertée sur le plan national en matière de recherches et du développement technologique ?"
  ]
}