{
  "num": "autog_0005-0970_1969_num_8_1",
  "article": "autog_0005-0970_1969_num_8_1_944",
  "page_name": "FMSH_PB188a_00008_029",
  "questions": [
    "Quel rôle a la presse joué dans la perception de la criminalité économique par l'opinion publique ?",
    "En quelles conditions le développement du système d'autogestion a-t-il réprimé les formes de corruption et de criminalité ?",
    "Quelles sont les nouvelles formes de corruption et de phénomènes sociaux nocifs qui apparaissent dans les conditions nouvelles ?",
    "Quels sont les moyens proposés pour surmonter ces déformations ?",
    "Quels sont les objectifs prioritaires pour renforcer le contrôle intérieur dans les organisations de travail ?",
    "Comment les tentatives d'accréditer l'idée que le pays est en proie à la corruption contribuent-elles à discréditer le système d'autogestion ?",
    "Qui sont les ennemis intérieurs du régime et de l'autogestion qui profitent des rumeurs délétères ?",
    "Quels sont les motivations des bureaucrates impénitents qui colportent ces rumeurs ?",
    "Quels sont les groupes qui critiquent le nouveau système social et pourquoi ?",
    "Quels sont les succès enregistrés par l'autogestion ?",
    "En quels termes le locuteur évalue le développement de l'autogestion ?"
  ]
}