{
  "num": "autog_0338-7259_1977_num_39_1",
  "article": "autog_0338-7259_1977_num_39_1_1255",
  "page_name": "FMSH_PB188a_00039_103",
  "questions": [
    "Quel est le rôle de l'État dans la spécialisation agricole jusqu'au stade du marché international ?",
    "Quel intérêt défend l'État dans ce processus ?",
    "Comment l'État gère la couverture financière des campagnes pour éviter le boycott des banques privées ?",
    "Quel est l'objectif de la nouvelle politique de promotion des responsabilités paysannes ?",
    "Quel effort est nécessaire pour les paysans pour exercer efficacement le pouvoir auto-gestionnaire proposé ?",
    "Quel est l'objet des « Centres d'Animation Rurale » ?",
    "Dans quelle perspective les cadres de l'appareil d'Etat sont associés ?",
    "Comment Mamadou Dia décrit le nouveau type de rapport entre les communautés de base et l'encadrement externe ?",
    "Quel est le sens du terme « socialisme contractuel » dans ce contexte ?",
    "Quel est la nouvelle finalité de la coopération selon Mamadou Dia ?"
  ]
}