{
  "num": "autog_0338-7259_1977_num_39_1",
  "article": "autog_0338-7259_1977_num_39_1_1255",
  "page_name": "FMSH_PB188a_00039_104",
  "questions": [
    "Quel est le rôle fondamental de la dialectique du développement dans l'organisation du travail humain ?",
    "Comment la coopération ne peut être qu'un lieu de prise de responsabilité des hommes ?",
    "Quels sont les solidarités et instances de regroupement du système coopératif à l'échelon régional et sous-régional ?",
    "Quel est le rôle des Centres d'Expansion Rurale dans le système coopératif ?",
    "Quel est le résultat de la politique de coopérativisation en 1960-61 ?",
    "Quel est l'échelle d'intervention en 1961-62 ?",
    "Quel est le but attendu pour la troisième année de l'application de cette politique ?",
    "Quel est le conflit institutionnel entre le chef du gouvernement et les députés en décembre 1962 ?",
    "Quel est le résultat de ce conflit institutionnel pour Mamadou Dia ?",
    "Quel est le rôle de Mamadou Dia dans le mouvement coopératif ?",
    "Quel est la production globale d'arachide en 1961-62 ?",
    "Quel est le rôle des Centres d'Expansion Rurale dans la production et la commercialisation d'arachide ?",
    "Quel est la signification de la libération de Mamadou Dia en 1974 après 12 ans de prison ?"
  ]
}