{
  "num": "autog_0005-0970_1967_num_4_1",
  "article": "autog_0005-0970_1967_num_4_1_912",
  "page_name": "FMSH_PB188a_00004_129",
  "questions": [
    "Quels témoignages plus éloquents que ceux des mencheviks et des socialistes-révolutionnaires pourraient-on imaginer pour démontrer l'échec de leur politique ?",
    "Quels engagements prit le gouvernement lorsque les mencheviks et les socialistes-révolutionnaires entrèrent en coalition ?",
    "Quels procédés de contrôle connaissait le tsarisme et quelle raison avait-il à les éviter ?",
    "Quelles mesures de contrôle pouvait décider un gouvernement démocratique-révolutionnaire pour mettre en œuvre dès son arrivée au pouvoir ?",
    "Quelles sont les cinq principales mesures de lutte contre la catastrophe et la famine décrites dans le texte ?",
    "Dans quelle direction poussent ces mesures décrites pour lutter contre la catastrophe et la famine ?",
    "Comment les classes opprimées, ouvriers et paysans, peuvent-elles s'engager spontanément pour lutter contre les difficultés, les charges et les calamités de la guerre ?",
    "Comment l'application de ces mesures démocratiques révolutionnaires est-elle un pas vers le socialisme ?",
    "Quels groupes doivent passer entre les mains du prolétariat pour que l'État puisse le faire ?"
  ]
}