{
  "num": "autog_0005-0970_1967_num_4_1",
  "article": "autog_0005-0970_1967_num_4_1_912",
  "page_name": "FMSH_PB188a_00004_136",
  "questions": [
    "Quels liens économiques et politiques existent entre la famine et le chômage d'une part et le laisser-aller de tous et chacun en matière d'organisation et de discipline d'autre part ?",
    "Quel est le rôle de l'esprit démocratique des masses laborieuses dans la discipline pendant le travail et la soumission pendant le travail à la volonté d'un seul, du dirigeant soviétique ?",
    "Quels sont les caractéristiques socialistes de la démocratie soviétique, c'est-à-dire prolétarienne, dans sa application concrète ?",
    "Quels sont les électeurs dans le système soviétique et quelles sont les formalités et restrictions bureaucratiques supprimées ?",
    "Comment se forme la meilleure organisation de masse des travailleurs dans le système soviétique et quelles sont ses fonctions ?",
    "Quel est le but de faire participer pratiquement tous les pauvres sans exception au gouvernement du pays ?",
    "Quel est le but de faire remplir gratuitement les fonctions d'Etat par tous les travailleurs ?",
    "Comment garantit-on la lutte contre la déformation bureaucratique de l'organisation soviétique ?",
    "Quel est le contact des Soviets avec le « peuple » des travailleurs et quelles sont les formes particulières de contrôle par en bas créées par ce contact ?"
  ]
}