{
  "num": "autog_0005-0970_1967_num_3_1",
  "article": "autog_0005-0970_1967_num_3_1_908",
  "page_name": "FMSH_PB188a_00003_079",
  "questions": [
    {
      "id_qa": "FMSH_PB188a_00003_079_qa12_v3",
      "id_block": "block_1",
      "question": "Qu'est ce qui garantirait une rémunération décente et équilibrée des travail ?",
      "answer": "une réglementation",
      "answer_stringIds": [
        "string_10",
        "string_11"
      ]
    },
    {
      "id_qa": "FMSH_PB188a_00003_079_qa29_v3",
      "id_block": "block_4",
      "question": "Qui est l'interlocuteur populaire qualifié des organismes de l'Etat ?",
      "answer": "La commune",
      "answer_stringIds": [
        "string_142",
        "string_143"
      ]
    },
    {
      "id_qa": "FMSH_PB188a_00003_079_qa7_v3",
      "id_block": "block_6",
      "question": "A qui incombe la faute en premier la situation de l'autogestion ?",
      "answer": "la carence manifestée par le pouvoir",
      "answer_stringIds": [
        "string_193",
        "string_194",
        "string_195",
        "string_196",
        "string_197",
        "string_198"
      ]
    },
    {
      "id_qa": "FMSH_PB188a_00003_079_qa11_v3",
      "id_block": "block_6",
      "question": "Par qui la situation commençait-elle à stagner ?",
      "answer": "le pouvoir",
      "answer_stringIds": [
        "string_197",
        "string_198"
      ]
    },
    {
      "id_qa": "FMSH_PB188a_00003_079_qa25_v3",
      "id_block": "block_7",
      "question": "Quel organisme ne voyait pas le jour depuis la dissolution du B.N.A.SS ?",
      "answer": "aucun organisme",
      "answer_stringIds": [
        "string_286",
        "string_287"
      ]
    },
    {
      "id_qa": "FMSH_PB188a_00003_079_qa26_v3",
      "id_block": "block_7",
      "question": "Qui ne connaissait pas l'histoire intérieure du régime ?",
      "answer": "tout observateur extérieur",
      "answer_stringIds": [
        "string_248",
        "string_249",
        "string_250"
      ]
    },
    {
      "id_qa": "FMSH_PB188a_00003_079_qa27_v3",
      "id_block": "block_7",
      "question": "Quel organisme avait pour tâche d'élaborer les dispositions législatives appropriées ?",
      "answer": "aucun organisme",
      "answer_stringIds": [
        "string_286",
        "string_287"
      ]
    },
    {
      "id_qa": "FMSH_PB188a_00003_079_qa1_v3",
      "id_block": "block_8",
      "question": "Qu'est ce qui permettrait de résoudre les problèmes du crédit, de la comptabilité et du contrôle financier ?",
      "answer": "un organisme bancaire",
      "answer_stringIds": [
        "string_320",
        "string_321",
        "string_322"
      ]
    },
    {
      "id_qa": "FMSH_PB188a_00003_079_qa4_v3",
      "id_block": "block_8",
      "question": "Quand a été créé le fonds national d'équilibre de l'emploi ?",
      "answer": "le décret du 28 mars 1953",
      "answer_stringIds": [
        "string_437",
        "string_438",
        "string_439",
        "string_440",
        "string_441",
        "string_442"
      ]
    }
  ]
}