{
  "num": "autog_0005-0970_1967_num_3_1",
  "article": "autog_0005-0970_1967_num_3_1_908",
  "page_name": "FMSH_PB188a_00003_076",
  "questions": [
    {
      "id_qa": "FMSH_PB188a_00003_076_qa20_v3",
      "id_block": "block_3",
      "question": "Quelle est la particularité des coopératives de la réforme agraire ?",
      "answer": "leurs opérations",
      "answer_stringIds": [
        "string_102",
        "string_103"
      ]
    },
    {
      "id_qa": "FMSH_PB188a_00003_076_qa21_v3",
      "id_block": "block_3",
      "question": "Quelle est la fonction des coopératives de la réforme agraire ?",
      "answer": "gestion",
      "answer_stringIds": [
        "string_83"
      ]
    },
    {
      "id_qa": "FMSH_PB188a_00003_076_qa24_v3",
      "id_block": "block_3",
      "question": "Qu'est ce qui n'a pas été réalisé par les travailleurs ?",
      "answer": "la commercialisation de leur produit",
      "answer_stringIds": [
        "string_149",
        "string_150",
        "string_151",
        "string_152",
        "string_153"
      ]
    },
    {
      "id_qa": "FMSH_PB188a_00003_076_qa25_v3",
      "id_block": "block_3",
      "question": "Qu'est-ce que la revendication des travailleurs ?",
      "answer": "la commercialisation de leur produit",
      "answer_stringIds": [
        "string_149",
        "string_150",
        "string_151",
        "string_152",
        "string_153"
      ]
    },
    {
      "id_qa": "FMSH_PB188a_00003_076_qa30_v3",
      "id_block": "block_3",
      "question": "Qui a demandé la formation d'un réseau de coopératives de vente ?",
      "answer": "les travailleurs",
      "answer_stringIds": [
        "string_189",
        "string_190"
      ]
    },
    {
      "id_qa": "FMSH_PB188a_00003_076_qa31_v3",
      "id_block": "block_3",
      "question": "Dans quel type de structure sont représentés les présidents de comités de gestion ?",
      "answer": "les « coopératives",
      "answer_stringIds": [
        "string_119",
        "string_120",
        "string_121"
      ]
    },
    {
      "id_qa": "FMSH_PB188a_00003_076_qa10_v3",
      "id_block": "block_4",
      "question": "Par qui sont élus les organismes démocratiques de l'autogestion ?",
      "answer": "les travailleurs",
      "answer_stringIds": [
        "string_189",
        "string_190"
      ]
    },
    {
      "id_qa": "FMSH_PB188a_00003_076_qa16_v3",
      "id_block": "block_4",
      "question": "Dans quel secteur est passé sous la tutelle de la direction de l'industrialisation ?",
      "answer": "le secteur industriel",
      "answer_stringIds": [
        "string_276",
        "string_277",
        "string_278"
      ]
    },
    {
      "id_qa": "FMSH_PB188a_00003_076_qa26_v3",
      "id_block": "block_4",
      "question": "Quelles entreprises ont fait l'objet d'un regroupement horizontal ?",
      "answer": "diverses entreprises de faible",
      "answer_stringIds": [
        "string_221",
        "string_222",
        "string_223",
        "string_224"
      ]
    },
    {
      "id_qa": "FMSH_PB188a_00003_076_qa11_v3",
      "id_block": "block_5",
      "question": "Qui a écrit l'étude sur l'autogestion ?",
      "answer": "Grigori Lazarev",
      "answer_stringIds": [
        "string_374",
        "string_375"
      ]
    },
    {
      "id_qa": "FMSH_PB188a_00003_076_qa12_v3",
      "id_block": "block_5",
      "question": "Qu'est ce qui a conduit à un contrôle croissant de l'autogestion par l'Etat ?",
      "answer": "La place essentielle",
      "answer_stringIds": [
        "string_341",
        "string_342",
        "string_343"
      ]
    },
    {
      "id_qa": "FMSH_PB188a_00003_076_qa28_v3",
      "id_block": "block_6",
      "question": "Quel congrès s'est tenu en décembre 1964 ?",
      "answer": "congrès des travailleurs de Îa",
      "answer_stringIds": [
        "string_445",
        "string_446",
        "string_447",
        "string_448",
        "string_449"
      ]
    },
    {
      "id_qa": "FMSH_PB188a_00003_076_qa6_v3",
      "id_block": "block_7",
      "question": "Qui a organisé son propre réseau de distribution ?",
      "answer": "La COBISCAL",
      "answer_stringIds": [
        "string_547",
        "string_548"
      ]
    },
    {
      "id_qa": "FMSH_PB188a_00003_076_qa7_v3",
      "id_block": "block_7",
      "question": "Que facilite le réseau de distribution de la COBISCAL ?",
      "answer": "la commercialisation de sa production accrue",
      "answer_stringIds": [
        "string_560",
        "string_561",
        "string_562",
        "string_563",
        "string_564",
        "string_565"
      ]
    },
    {
      "id_qa": "FMSH_PB188a_00003_076_qa33_v3",
      "id_block": "block_7",
      "question": "Quel est l'objet d'une politique commune ?",
      "answer": "Les prix de vente",
      "answer_stringIds": [
        "string_531",
        "string_532",
        "string_533",
        "string_534"
      ]
    },
    {
      "id_qa": "FMSH_PB188a_00003_076_qa34_v3",
      "id_block": "block_7",
      "question": "Qu'est ce qui est considérablement réduit par la politique commune ?",
      "answer": "les frais généraux",
      "answer_stringIds": [
        "string_541",
        "string_542",
        "string_543"
      ]
    },
    {
      "id_qa": "FMSH_PB188a_00003_076_qa4_v3",
      "id_block": "block_8",
      "question": "Qu'est ce qui contrôle l'activité de l'union ?",
      "answer": "sa comptabilité",
      "answer_stringIds": [
        "string_603",
        "string_604"
      ]
    }
  ]
}