{
  "num": "autog_0005-0970_1967_num_3_1",
  "article": "autog_0005-0970_1967_num_3_1_908",
  "page_name": "FMSH_PB188a_00003_146",
  "questions": [
    {
      "id_qa": "FMSH_PB188a_00003_146_qa22_v3",
      "id_block": "block_10",
      "question": "Quelle est la propriété des ouvriers agricoles et khammès ?",
      "answer": "la terre",
      "answer_stringIds": [
        "string_120",
        "string_121"
      ]
    },
    {
      "id_qa": "FMSH_PB188a_00003_146_qa17_v3",
      "id_block": "block_12",
      "question": "Quel organisme financera la réforme agraire ?",
      "answer": "Le Fonds",
      "answer_stringIds": [
        "string_168",
        "string_169"
      ]
    },
    {
      "id_qa": "FMSH_PB188a_00003_146_qa12_v3",
      "id_block": "block_13",
      "question": "Qu'est ce qui laissera subsister environ 630.000 exploitations agricoles privées ?",
      "answer": "La réalisation de la réforme agraire",
      "answer_stringIds": [
        "string_326",
        "string_327",
        "string_328",
        "string_329",
        "string_330",
        "string_331"
      ]
    },
    {
      "id_qa": "FMSH_PB188a_00003_146_qa18_v3",
      "id_block": "block_13",
      "question": "Qu'est ce qui favorisera le développement industriel et économique générai du pays ?",
      "answer": "la réforme agraire",
      "answer_stringIds": [
        "string_30",
        "string_31",
        "string_32"
      ]
    },
    {
      "id_qa": "FMSH_PB188a_00003_146_qa27_v3",
      "id_block": "block_3",
      "question": "Qu'est ce qui est mis sous autogestion ?",
      "answer": "des terres",
      "answer_stringIds": [
        "string_21",
        "string_22"
      ]
    },
    {
      "id_qa": "FMSH_PB188a_00003_146_qa28_v3",
      "id_block": "block_3",
      "question": "Que permettrait l'application de la présente loi ?",
      "answer": "de constituer à côté des terres de la colonisation déjà nationalisées",
      "answer_stringIds": [
        "string_74",
        "string_75",
        "string_76",
        "string_77",
        "string_78",
        "string_79",
        "string_80",
        "string_81",
        "string_82",
        "string_83",
        "string_84",
        "string_85"
      ]
    },
    {
      "id_qa": "FMSH_PB188a_00003_146_qa30_v3",
      "id_block": "block_3",
      "question": "Qu'est ce qui touche environ 25.000 exploitations agricoles appartenant à des propriétaires algériens ?",
      "answer": "la présente loi",
      "answer_stringIds": [
        "string_26",
        "string_27",
        "string_28"
      ]
    },
    {
      "id_qa": "FMSH_PB188a_00003_146_qa33_v3",
      "id_block": "block_3",
      "question": "A qui appartient environ 25.000 exploitations agricoles ?",
      "answer": "à des propriétaires algériens",
      "answer_stringIds": [
        "string_50",
        "string_51",
        "string_52",
        "string_53"
      ]
    },
    {
      "id_qa": "FMSH_PB188a_00003_146_qa43_v3",
      "id_block": "block_3",
      "question": "Quelle loi étend la réforme agraire sur les terres algériennes cultivables ?",
      "answer": "la présente loi",
      "answer_stringIds": [
        "string_26",
        "string_27",
        "string_28"
      ]
    },
    {
      "id_qa": "FMSH_PB188a_00003_146_qa2_v3",
      "id_block": "block_4",
      "question": "Qu'est ce qui prévoit que le Fonds sera attribué à des collectivités de travailleurs ou à des travailleurs de la terre individuels dans l'ordre d3 priorité suivant :",
      "answer": "La loi",
      "answer_stringIds": [
        "string_102",
        "string_103"
      ]
    },
    {
      "id_qa": "FMSH_PB188a_00003_146_qa37_v3",
      "id_block": "block_5",
      "question": "Qu'est ce qui n'est pas touché par la loi ?",
      "answer": "de la propriété",
      "answer_stringIds": [
        "string_130",
        "string_131",
        "string_132"
      ]
    },
    {
      "id_qa": "FMSH_PB188a_00003_146_qa38_v3",
      "id_block": "block_5",
      "question": "Par quoi les travailleurs de la propriété sont-ils touchés ?",
      "answer": "par la loi ne possédant pas de terre",
      "answer_stringIds": [
        "string_134",
        "string_135",
        "string_136",
        "string_137",
        "string_138",
        "string_139",
        "string_140",
        "string_141"
      ]
    },
    {
      "id_qa": "FMSH_PB188a_00003_146_qa40_v3",
      "id_block": "block_5",
      "question": "Que possèdent les travailleurs de la propriété touchée par la loi ?",
      "answer": "de terre",
      "answer_stringIds": [
        "string_140",
        "string_141"
      ]
    }
  ]
}