{
  "num": "autog_0005-0970_1967_num_3_1",
  "article": "autog_0005-0970_1967_num_3_1_908",
  "page_name": "FMSH_PB188a_00003_149",
  "questions": [
    {
      "id_qa": "FMSH_PB188a_00003_149_qa15_v3",
      "id_block": "block_10",
      "question": "Qui a le droit de recours auprès de la commis ?",
      "answer": "les demandeurs",
      "answer_stringIds": [
        "string_484",
        "string_485"
      ]
    },
    {
      "id_qa": "FMSH_PB188a_00003_149_qa16_v3",
      "id_block": "block_10",
      "question": "Qu'est ce qui est laissé en exploitation provisoire au ?",
      "answer": "La terre",
      "answer_stringIds": [
        "string_253",
        "string_254"
      ]
    },
    {
      "id_qa": "FMSH_PB188a_00003_149_qa44_v3",
      "id_block": "block_11",
      "question": "Où le tribunal départemental enregistre-t-il les droits d'exploitation sur la terre attribuée ?",
      "answer": "dans les livres fonciers",
      "answer_stringIds": [
        "string_545",
        "string_546",
        "string_547",
        "string_548"
      ]
    },
    {
      "id_qa": "FMSH_PB188a_00003_149_qa34_v3",
      "id_block": "block_12",
      "question": "Qui peut retirer la terre attribuée à une collectivité de travail ?",
      "answer": "comité communal",
      "answer_stringIds": [
        "string_25",
        "string_26"
      ]
    },
    {
      "id_qa": "FMSH_PB188a_00003_149_qa37_v3",
      "id_block": "block_12",
      "question": "A qui la terre peut-elle être retirée ?",
      "answer": "une collectivité de travail",
      "answer_stringIds": [
        "string_575",
        "string_576",
        "string_577",
        "string_578"
      ]
    },
    {
      "id_qa": "FMSH_PB188a_00003_149_qa1_v3",
      "id_block": "block_2",
      "question": "Qu'adopte le comité communal de la réforme agraire ?",
      "answer": "la résolution par laquelle il détermine la terre cultivable qui sera détachée et incorporée au Fonds foncier national",
      "answer_stringIds": [
        "string_32",
        "string_33",
        "string_34",
        "string_35",
        "string_36",
        "string_37",
        "string_38",
        "string_39",
        "string_40",
        "string_41",
        "string_42",
        "string_43",
        "string_44",
        "string_45",
        "string_46",
        "string_47",
        "string_48",
        "string_49"
      ]
    },
    {
      "id_qa": "FMSH_PB188a_00003_149_qa3_v3",
      "id_block": "block_2",
      "question": "Qu'est ce qui sera transféré au Fonds foncier national ?",
      "answer": "la terre cultivable",
      "answer_stringIds": [
        "string_38",
        "string_39",
        "string_40"
      ]
    },
    {
      "id_qa": "FMSH_PB188a_00003_149_qa39_v3",
      "id_block": "block_2",
      "question": "Qui est chargé de gérer le Fonds foncier national par priorité ?",
      "answer": "Le comité communal",
      "answer_stringIds": [
        "string_66",
        "string_67",
        "string_68"
      ]
    },
    {
      "id_qa": "FMSH_PB188a_00003_149_qa40_v3",
      "id_block": "block_2",
      "question": "Dans quel fonds le comité communal veillera-t-il à incorporer l'excédent de terre ?",
      "answer": "dans le Fonds foncier national",
      "answer_stringIds": [
        "string_72",
        "string_73",
        "string_74",
        "string_75",
        "string_76"
      ]
    },
    {
      "id_qa": "FMSH_PB188a_00003_149_qa9_v3",
      "id_block": "block_8",
      "question": "Quel groupe de travailleurs a l'intention de former une telle collectivité ?",
      "answer": "travailleurs de la terre",
      "answer_stringIds": [
        "string_379",
        "string_380",
        "string_381",
        "string_382"
      ]
    },
    {
      "id_qa": "FMSH_PB188a_00003_149_qa50_v3",
      "id_block": "block_8",
      "question": "A qui est présentée la demande motivée de l'attribution de la terre ?",
      "answer": "comité communal de réforme agraire",
      "answer_stringIds": [
        "string_183",
        "string_184",
        "string_185",
        "string_186",
        "string_187"
      ]
    },
    {
      "id_qa": "FMSH_PB188a_00003_149_qa52_v3",
      "id_block": "block_9",
      "question": "Qu'est ce que le comité vérifie ?",
      "answer": "les motifs de la demande",
      "answer_stringIds": [
        "string_448",
        "string_449",
        "string_450",
        "string_451",
        "string_452"
      ]
    },
    {
      "id_qa": "FMSH_PB188a_00003_149_qa53_v3",
      "id_block": "block_9",
      "question": "Qui vérifie les motifs de la demande ?",
      "answer": "Le comité",
      "answer_stringIds": [
        "string_66",
        "string_67"
      ]
    }
  ]
}