{
  "num": "autog_0005-0970_1967_num_3_1",
  "article": "autog_0005-0970_1967_num_3_1_908",
  "page_name": "FMSH_PB188a_00003_082",
  "questions": [
    {
      "id_qa": "FMSH_PB188a_00003_082_qa10_v3",
      "id_block": "block_1",
      "question": "Qui contrôle l'Etat et la gestion de l'agriculture ?",
      "answer": "les travailleurs",
      "answer_stringIds": [
        "string_41",
        "string_42"
      ]
    },
    {
      "id_qa": "FMSH_PB188a_00003_082_qa17_v3",
      "id_block": "block_2",
      "question": "Qu'est-ce qui détermine le développement économique du pays ?",
      "answer": "un impératif économique et social",
      "answer_stringIds": [
        "string_150",
        "string_151",
        "string_152",
        "string_153",
        "string_154"
      ]
    },
    {
      "id_qa": "FMSH_PB188a_00003_082_qa21_v3",
      "id_block": "block_6",
      "question": "Qu'est-ce qui n'est pas possible sans création d'un marché intérieur ?",
      "answer": "développement économique",
      "answer_stringIds": [
        "string_161",
        "string_162"
      ]
    }
  ]
}