{
  "num": "autog_0005-0970_1967_num_3_1",
  "article": "autog_0005-0970_1967_num_3_1_908",
  "page_name": "FMSH_PB188a_00003_045",
  "questions": [
    {
      "id_qa": "FMSH_PB188a_00003_045_qa2_v3",
      "id_block": "block_1",
      "question": "Qui dirige l'aile gauche du pouvoir ?",
      "answer": "par Ahmed Ben Bella",
      "answer_stringIds": [
        "string_76",
        "string_77",
        "string_78",
        "string_79"
      ]
    },
    {
      "id_qa": "FMSH_PB188a_00003_045_qa5_v3",
      "id_block": "block_1",
      "question": "Par qui est géré le secteur économique du pays ?",
      "answer": "les collectifs des travailleurs",
      "answer_stringIds": [
        "string_158",
        "string_159",
        "string_160",
        "string_161"
      ]
    },
    {
      "id_qa": "FMSH_PB188a_00003_045_qa14_v3",
      "id_block": "block_2",
      "question": "Comment s'appelle l'intervention du président Ben Bella ?",
      "answer": "son allocution",
      "answer_stringIds": [
        "string_195",
        "string_196"
      ]
    },
    {
      "id_qa": "FMSH_PB188a_00003_045_qa15_v3",
      "id_block": "block_2",
      "question": "Quand le président Ben Bella a-t-il prononcé son allocution radiotélévisée ?",
      "answer": "Le 29 mars 1963",
      "answer_stringIds": [
        "string_190",
        "string_191",
        "string_192",
        "string_193"
      ]
    },
    {
      "id_qa": "FMSH_PB188a_00003_045_qa16_v3",
      "id_block": "block_2",
      "question": "Comment le président Ben Bella a-t-il commenté la décision prise ?",
      "answer": "dans son allocution radiotélévisée",
      "answer_stringIds": [
        "string_194",
        "string_195",
        "string_196",
        "string_197"
      ]
    },
    {
      "id_qa": "FMSH_PB188a_00003_045_qa17_v3",
      "id_block": "block_2",
      "question": "Qui a prononcé son allocution radiotélévisée le 29 mars 1963 ?",
      "answer": "le président Ahmed Ben Bella",
      "answer_stringIds": [
        "string_198",
        "string_199",
        "string_200",
        "string_201",
        "string_202",
        "string_203"
      ]
    },
    {
      "id_qa": "FMSH_PB188a_00003_045_qa18_v3",
      "id_block": "block_2",
      "question": "Quand le président Ben Bella a-t-il prononcé son allocution ?",
      "answer": "Le 29 mars 1963",
      "answer_stringIds": [
        "string_190",
        "string_191",
        "string_192",
        "string_193"
      ]
    },
    {
      "id_qa": "FMSH_PB188a_00003_045_qa7_v3",
      "id_block": "block_3",
      "question": "Qui est responsable de la gestion des biens vacants ?",
      "answer": "travailleurs algériens",
      "answer_stringIds": [
        "string_280",
        "string_281"
      ]
    },
    {
      "id_qa": "FMSH_PB188a_00003_045_qa8_v3",
      "id_block": "block_3",
      "question": "Quel est le métier des travailleurs algériens ?",
      "answer": "leur gestion",
      "answer_stringIds": [
        "string_271",
        "string_272"
      ]
    }
  ]
}