{
  "num": "autog_0005-0970_1967_num_3_1",
  "article": "autog_0005-0970_1967_num_3_1_908",
  "page_name": "FMSH_PB188a_00003_137",
  "questions": [
    {
      "id_qa": "FMSH_PB188a_00003_137_qa13_v3",
      "id_block": "block_1",
      "question": "Qu'est ce qui pourra être installé dans le pays de manière systématique ?",
      "answer": "La comptabilité",
      "answer_stringIds": [
        "string_24",
        "string_25"
      ]
    },
    {
      "id_qa": "FMSH_PB188a_00003_137_qa55_v3",
      "id_block": "block_1",
      "question": "Qu'est ce qu'elle fait ou lire par les autres ?",
      "answer": "des documents",
      "answer_stringIds": [
        "string_11",
        "string_12"
      ]
    },
    {
      "id_qa": "FMSH_PB188a_00003_137_qa56_v3",
      "id_block": "block_1",
      "question": "Qu'est ce qu'elle fait ou lire ?",
      "answer": "des documents rédigés par les autres",
      "answer_stringIds": [
        "string_11",
        "string_12",
        "string_13",
        "string_14",
        "string_15",
        "string_16"
      ]
    },
    {
      "id_qa": "FMSH_PB188a_00003_137_qa57_v3",
      "id_block": "block_1",
      "question": "Qu'est ce qui est impossible d'introduire ia comptabilite ?",
      "answer": "des documents rédigés par les autres",
      "answer_stringIds": [
        "string_11",
        "string_12",
        "string_13",
        "string_14",
        "string_15",
        "string_16"
      ]
    },
    {
      "id_qa": "FMSH_PB188a_00003_137_qa58_v3",
      "id_block": "block_1",
      "question": "Qui fait ou lire des documents ?",
      "answer": "les autres",
      "answer_stringIds": [
        "string_15",
        "string_16"
      ]
    },
    {
      "id_qa": "FMSH_PB188a_00003_137_qa37_v3",
      "id_block": "block_2",
      "question": "Qu'est ce qui est inscrit dans la colonne de gauche ?",
      "answer": "la somme disponible",
      "answer_stringIds": [
        "string_307",
        "string_308",
        "string_309"
      ]
    },
    {
      "id_qa": "FMSH_PB188a_00003_137_qa49_v3",
      "id_block": "block_3",
      "question": "Qu'est ce qui ne peut pas tenir une comptabilité ?",
      "answer": "une personne",
      "answer_stringIds": [
        "string_139",
        "string_140"
      ]
    },
    {
      "id_qa": "FMSH_PB188a_00003_137_qa50_v3",
      "id_block": "block_3",
      "question": "Qu'est ce qui ne soit pas capable de tenir une comptabilité ?",
      "answer": "une personne",
      "answer_stringIds": [
        "string_139",
        "string_140"
      ]
    },
    {
      "id_qa": "FMSH_PB188a_00003_137_qa53_v3",
      "id_block": "block_3",
      "question": "Que doit faire une personne sachant lire, écrire et compter ?",
      "answer": "des comptes",
      "answer_stringIds": [
        "string_463",
        "string_464"
      ]
    },
    {
      "id_qa": "FMSH_PB188a_00003_137_qa68_v3",
      "id_block": "block_3",
      "question": "Qu'est-ce qui oblige à une certaine complexité dans l'établissement des comptes ?",
      "answer": "Les nécessités de la vie moderne",
      "answer_stringIds": [
        "string_450",
        "string_451",
        "string_452",
        "string_453",
        "string_454",
        "string_455"
      ]
    },
    {
      "id_qa": "FMSH_PB188a_00003_137_qa3_v3",
      "id_block": "block_5",
      "question": "Qui reçoit des revenus ?",
      "answer": "chaque famille",
      "answer_stringIds": [
        "string_605",
        "string_606"
      ]
    },
    {
      "id_qa": "FMSH_PB188a_00003_137_qa6_v3",
      "id_block": "block_5",
      "question": "Qu'est ce que chaque famille reçoit en monnaie ?",
      "answer": "des revenus",
      "answer_stringIds": [
        "string_609",
        "string_610"
      ]
    },
    {
      "id_qa": "FMSH_PB188a_00003_137_qa40_v3",
      "id_block": "block_5",
      "question": "Qu'est ce qui a une valeur d'être chiffrée ?",
      "answer": "toute opération",
      "answer_stringIds": [
        "string_534",
        "string_535"
      ]
    }
  ]
}