{
  "num": "autog_0005-0970_1967_num_3_1",
  "article": "autog_0005-0970_1967_num_3_1_908",
  "page_name": "FMSH_PB188a_00003_126",
  "questions": [
    {
      "id_qa": "FMSH_PB188a_00003_126_qa28_v3",
      "id_block": "block_1",
      "question": "Où seront présentés les interventions de l'auteur ?",
      "answer": "au congrès",
      "answer_stringIds": [
        "string_10",
        "string_11"
      ]
    },
    {
      "id_qa": "FMSH_PB188a_00003_126_qa29_v3",
      "id_block": "block_1",
      "question": "Qu'est ce qui sera présenté au congrès ?",
      "answer": "leurs interventions",
      "answer_stringIds": [
        "string_14",
        "string_15"
      ]
    },
    {
      "id_qa": "FMSH_PB188a_00003_126_qa37_v3",
      "id_block": "block_1",
      "question": "De quelle organisation nationale s'agit-il ?",
      "answer": "Des délégations également de toutes les organisations nationales",
      "answer_stringIds": [
        "string_20",
        "string_21",
        "string_22",
        "string_23",
        "string_24",
        "string_25",
        "string_26",
        "string_27"
      ]
    },
    {
      "id_qa": "FMSH_PB188a_00003_126_qa1_v3",
      "id_block": "block_2",
      "question": "Qu'est-ce qui est venu le temps de dégager ?",
      "answer": "une doctrine plus précise",
      "answer_stringIds": [
        "string_63",
        "string_64",
        "string_65",
        "string_66"
      ]
    },
    {
      "id_qa": "FMSH_PB188a_00003_126_qa17_v3",
      "id_block": "block_2",
      "question": "Qu'est ce qui menace l'autogestion ?",
      "answer": "difficultés",
      "answer_stringIds": [
        "string_130"
      ]
    },
    {
      "id_qa": "FMSH_PB188a_00003_126_qa32_v3",
      "id_block": "block_2",
      "question": "Qui est à l'origine de la loi fondamentale de la réforme agraire ?",
      "answer": "Le gouvernement",
      "answer_stringIds": [
        "string_114",
        "string_115"
      ]
    },
    {
      "id_qa": "FMSH_PB188a_00003_126_qa34_v3",
      "id_block": "block_4",
      "question": "Qui profite de l'autogestion ?",
      "answer": "les travailleurs",
      "answer_stringIds": [
        "string_401",
        "string_402"
      ]
    },
    {
      "id_qa": "FMSH_PB188a_00003_126_qa36_v3",
      "id_block": "block_4",
      "question": "Qui a fertilisé la terre et fait tourner les usines ?",
      "answer": "des ouvriers",
      "answer_stringIds": [
        "string_358",
        "string_359"
      ]
    },
    {
      "id_qa": "FMSH_PB188a_00003_126_qa8_v3",
      "id_block": "block_5",
      "question": "Où l'Etat révolutionnaire populaire est-il construit ?",
      "answer": "en Algérie",
      "answer_stringIds": [
        "string_557",
        "string_558"
      ]
    },
    {
      "id_qa": "FMSH_PB188a_00003_126_qa20_v3",
      "id_block": "block_5",
      "question": "Qu'est-ce que le frère Ben Bella ?",
      "answer": "le pouvoir révolutionnaire",
      "answer_stringIds": [
        "string_423",
        "string_424",
        "string_425"
      ]
    },
    {
      "id_qa": "FMSH_PB188a_00003_126_qa23_v3",
      "id_block": "block_5",
      "question": "Qui a la conviction ferme que le pouvoir révolutionnaire que préside le frère Ben Bella est sincèrement décidé, contre vents et marées ?",
      "answer": "Les travailleurs",
      "answer_stringIds": [
        "string_415",
        "string_416"
      ]
    },
    {
      "id_qa": "FMSH_PB188a_00003_126_qa24_v3",
      "id_block": "block_5",
      "question": "Qui dirige le pouvoir révolutionnaire ?",
      "answer": "le frère Ben Bella",
      "answer_stringIds": [
        "string_428",
        "string_429",
        "string_430",
        "string_431"
      ]
    }
  ]
}