{
  "num": "autog_0005-0970_1967_num_3_1",
  "article": "autog_0005-0970_1967_num_3_1_908",
  "page_name": "FMSH_PB188a_00003_043",
  "questions": [
    {
      "id_qa": "FMSH_PB188a_00003_043_qa33_v3",
      "id_block": "block_1",
      "question": "Qui est le président du comité de gestion ?",
      "answer": "les travailleurs",
      "answer_stringIds": [
        "string_62",
        "string_63"
      ]
    },
    {
      "id_qa": "FMSH_PB188a_00003_043_qa10_v3",
      "id_block": "block_3",
      "question": "Quand les pouvoirs du directeur ont-ils été renforcés ?",
      "answer": "les projets de décembre 1962",
      "answer_stringIds": [
        "string_111",
        "string_112",
        "string_113",
        "string_114",
        "string_115"
      ]
    },
    {
      "id_qa": "FMSH_PB188a_00003_043_qa11_v3",
      "id_block": "block_3",
      "question": "Qu'est ce qui était renforcé dans les projets de décembre 1962 ?",
      "answer": "les pouvoirs du directeur",
      "answer_stringIds": [
        "string_205",
        "string_206",
        "string_207",
        "string_208"
      ]
    },
    {
      "id_qa": "FMSH_PB188a_00003_043_qa20_v3",
      "id_block": "block_3",
      "question": "Qu'est-ce que l'autogestion ?",
      "answer": "anarchie",
      "answer_stringIds": [
        "string_304"
      ]
    },
    {
      "id_qa": "FMSH_PB188a_00003_043_qa38_v3",
      "id_block": "block_3",
      "question": "Qui était placé sous l'autorité du président ?",
      "answer": "Le directeur",
      "answer_stringIds": [
        "string_227",
        "string_228"
      ]
    },
    {
      "id_qa": "FMSH_PB188a_00003_043_qa43_v3",
      "id_block": "block_3",
      "question": "Sur quoi nous reviendrons plus loin ?",
      "answer": "ces questions",
      "answer_stringIds": [
        "string_320",
        "string_321"
      ]
    },
    {
      "id_qa": "FMSH_PB188a_00003_043_qa9_v3",
      "id_block": "block_4",
      "question": "Quand a eu lieu les débats à l'Assemblée nationale ?",
      "answer": "en décembre 1962 et janvier 1963",
      "answer_stringIds": [
        "string_404",
        "string_405",
        "string_406",
        "string_407",
        "string_408",
        "string_409"
      ]
    },
    {
      "id_qa": "FMSH_PB188a_00003_043_qa15_v3",
      "id_block": "block_4",
      "question": "Quand commence l'attente angoissée de tous les militants ?",
      "answer": "Depuis fin décembre 1962",
      "answer_stringIds": [
        "string_322",
        "string_323",
        "string_324",
        "string_325"
      ]
    },
    {
      "id_qa": "FMSH_PB188a_00003_043_qa40_v3",
      "id_block": "block_4",
      "question": "Qu'est ce qui se trouve paralvsé ?",
      "answer": "le pouvoir",
      "answer_stringIds": [
        "string_374",
        "string_375"
      ]
    },
    {
      "id_qa": "FMSH_PB188a_00003_043_qa41_v3",
      "id_block": "block_4",
      "question": "Qu'est ce qui se trouve en quelque sorte paralvsé ?",
      "answer": "le pouvoir",
      "answer_stringIds": [
        "string_374",
        "string_375"
      ]
    },
    {
      "id_qa": "FMSH_PB188a_00003_043_qa42_v3",
      "id_block": "block_4",
      "question": "Que se passe-t-il au sein du pouvoir ?",
      "answer": "des dissensions",
      "answer_stringIds": [
        "string_386",
        "string_387"
      ]
    },
    {
      "id_qa": "FMSH_PB188a_00003_043_qa26_v3",
      "id_block": "block_5",
      "question": "Où sont installés les comités de gestion ?",
      "answer": "sur les terres abandonnées des colons européens",
      "answer_stringIds": [
        "string_482",
        "string_483",
        "string_484",
        "string_485",
        "string_486",
        "string_487",
        "string_488"
      ]
    },
    {
      "id_qa": "FMSH_PB188a_00003_043_qa29_v3",
      "id_block": "block_5",
      "question": "Sur quoi sont installés les comités de gestion ?",
      "answer": "les terres",
      "answer_stringIds": [
        "string_483",
        "string_484"
      ]
    }
  ]
}