{
  "num": "autog_0005-0970_1967_num_3_1",
  "article": "autog_0005-0970_1967_num_3_1_908",
  "page_name": "FMSH_PB188a_00003_060",
  "questions": [
    {
      "id_qa": "FMSH_PB188a_00003_060_qa16_v3",
      "id_block": "block_1",
      "question": "Qui finance les investissements de l'entreprise d'autogestion ?",
      "answer": "la banque du secteur socialiste",
      "answer_stringIds": [
        "string_96",
        "string_97",
        "string_98",
        "string_99",
        "string_100"
      ]
    },
    {
      "id_qa": "FMSH_PB188a_00003_060_qa19_v3",
      "id_block": "block_1",
      "question": "Quelle entreprise adopte son propre plan ?",
      "answer": "chaque entreprise",
      "answer_stringIds": [
        "string_6",
        "string_7"
      ]
    },
    {
      "id_qa": "FMSH_PB188a_00003_060_qa20_v3",
      "id_block": "block_1",
      "question": "Qui décide du volume et de l'assortissement de sa production ?",
      "answer": "chaque entreprise",
      "answer_stringIds": [
        "string_6",
        "string_7"
      ]
    },
    {
      "id_qa": "FMSH_PB188a_00003_060_qa21_v3",
      "id_block": "block_1",
      "question": "Qui décide librement du volume et de l'assortissement de sa production ?",
      "answer": "chaque entreprise",
      "answer_stringIds": [
        "string_6",
        "string_7"
      ]
    },
    {
      "id_qa": "FMSH_PB188a_00003_060_qa22_v3",
      "id_block": "block_1",
      "question": "Qu'impose l'Etat en matière de prix ?",
      "answer": "les niveaux minima et maxima des prix des produits agricoles",
      "answer_stringIds": [
        "string_68",
        "string_69",
        "string_70",
        "string_71",
        "string_72",
        "string_73",
        "string_74",
        "string_75",
        "string_76",
        "string_77",
        "string_78"
      ]
    },
    {
      "id_qa": "FMSH_PB188a_00003_060_qa10_v3",
      "id_block": "block_2",
      "question": "Que provoque la division entre entreprises d'autogestion \" riches\" et entreprises \" pauvres ?",
      "answer": "des inégalités marquées",
      "answer_stringIds": [
        "string_130",
        "string_131",
        "string_132"
      ]
    },
    {
      "id_qa": "FMSH_PB188a_00003_060_qa11_v3",
      "id_block": "block_2",
      "question": "Par quoi l'Etat éponge-t-il une partie inégale d'une entreprise à l'autre ?",
      "answer": "le truchement de différents postes du budget des entreprises et au moyen de la banque du secteur socialiste",
      "answer_stringIds": [
        "string_151",
        "string_152",
        "string_153",
        "string_154",
        "string_155",
        "string_156",
        "string_157",
        "string_158",
        "string_159",
        "string_160",
        "string_161",
        "string_162",
        "string_163",
        "string_164",
        "string_165",
        "string_166",
        "string_167",
        "string_168"
      ]
    },
    {
      "id_qa": "FMSH_PB188a_00003_060_qa1_v3",
      "id_block": "block_4",
      "question": "Qu'est-ce qui ne s'intéressait qu'à agir efficacement ?",
      "answer": "La bureaucratie administrative",
      "answer_stringIds": [
        "string_277",
        "string_278",
        "string_279"
      ]
    },
    {
      "id_qa": "FMSH_PB188a_00003_060_qa2_v3",
      "id_block": "block_4",
      "question": "Quelle était la fonction de la bureaucratie administrative ?",
      "answer": "à agir « efficacement » et à justifier son existence",
      "answer_stringIds": [
        "string_289",
        "string_290",
        "string_291",
        "string_292",
        "string_293",
        "string_294",
        "string_295",
        "string_296",
        "string_297",
        "string_298"
      ]
    },
    {
      "id_qa": "FMSH_PB188a_00003_060_qa7_v3",
      "id_block": "block_4",
      "question": "Qu'est-ce qui s'intéressait à agir efficacement ?",
      "answer": "La bureaucratie administrative",
      "answer_stringIds": [
        "string_277",
        "string_278",
        "string_279"
      ]
    }
  ]
}