{
  "num": "autog_0005-0970_1967_num_3_1",
  "article": "autog_0005-0970_1967_num_3_1_908",
  "page_name": "FMSH_PB188a_00003_152",
  "questions": [
    {
      "id_qa": "FMSH_PB188a_00003_152_qa27_v3",
      "id_block": "block_1",
      "question": "Quel est le rôle des syndicats ?",
      "answer": "dans le combat",
      "answer_stringIds": [
        "string_133",
        "string_134",
        "string_135"
      ]
    },
    {
      "id_qa": "FMSH_PB188a_00003_152_qa12_v3",
      "id_block": "block_3",
      "question": "Qu'est ce qui menace le président du congrès ?",
      "answer": "les séances à huisclos",
      "answer_stringIds": [
        "string_263",
        "string_264",
        "string_265",
        "string_266",
        "string_267"
      ]
    },
    {
      "id_qa": "FMSH_PB188a_00003_152_qa13_v3",
      "id_block": "block_3",
      "question": "Qui menace de tenir les séances à huisclos ?",
      "answer": "Le président du congrès",
      "answer_stringIds": [
        "string_253",
        "string_254",
        "string_255",
        "string_256"
      ]
    },
    {
      "id_qa": "FMSH_PB188a_00003_152_qa15_v3",
      "id_block": "block_3",
      "question": "Que menace le président du congrès ?",
      "answer": "tenir les séances à huisclos",
      "answer_stringIds": [
        "string_262",
        "string_263",
        "string_264",
        "string_265",
        "string_266",
        "string_267"
      ]
    },
    {
      "id_qa": "FMSH_PB188a_00003_152_qa17_v3",
      "id_block": "block_3",
      "question": "Que cesse le président du congrès ?",
      "answer": "de menacer de tenir les séances à huisclos",
      "answer_stringIds": [
        "string_259",
        "string_260",
        "string_261",
        "string_262",
        "string_263",
        "string_264",
        "string_265",
        "string_266",
        "string_267"
      ]
    },
    {
      "id_qa": "FMSH_PB188a_00003_152_qa18_v3",
      "id_block": "block_3",
      "question": "Qu'interdit à la presse de se mêler aux congressistes ?",
      "answer": "ce qui se passe",
      "answer_stringIds": [
        "string_249",
        "string_250",
        "string_251",
        "string_252"
      ]
    },
    {
      "id_qa": "FMSH_PB188a_00003_152_qa22_v3",
      "id_block": "block_3",
      "question": "A qui la presse interdit-elle de se mêler ?",
      "answer": "congressistes",
      "answer_stringIds": [
        "string_246"
      ]
    },
    {
      "id_qa": "FMSH_PB188a_00003_152_qa37_v3",
      "id_block": "block_3",
      "question": "Qu'est ce qui prend les deux-tiers du temps du congrès ?",
      "answer": "la lecture des rapports et des télégrammes",
      "answer_stringIds": [
        "string_149",
        "string_150",
        "string_151",
        "string_152",
        "string_153",
        "string_154",
        "string_155",
        "string_156"
      ]
    },
    {
      "id_qa": "FMSH_PB188a_00003_152_qa41_v3",
      "id_block": "block_3",
      "question": "Qui se lèvent à 10 heures du matin ?",
      "answer": "des ouvriers",
      "answer_stringIds": [
        "string_175",
        "string_176"
      ]
    },
    {
      "id_qa": "FMSH_PB188a_00003_152_qa43_v3",
      "id_block": "block_3",
      "question": "Pourquoi les ouvriers se lèvent-ils à 10 heures du matin ?",
      "answer": "de quitter le congrès en protestation contre la présence de délégués non élus",
      "answer_stringIds": [
        "string_184",
        "string_185",
        "string_186",
        "string_187",
        "string_188",
        "string_189",
        "string_190",
        "string_191",
        "string_192",
        "string_193",
        "string_194",
        "string_195",
        "string_196"
      ]
    },
    {
      "id_qa": "FMSH_PB188a_00003_152_qa44_v3",
      "id_block": "block_3",
      "question": "Qui demande à leurs collègues de quitter le congrès ?",
      "answer": "des ouvriers",
      "answer_stringIds": [
        "string_175",
        "string_176"
      ]
    },
    {
      "id_qa": "FMSH_PB188a_00003_152_qa59_v3",
      "id_block": "block_3",
      "question": "Qui arrive à calmer le bureau du congrès ?",
      "answer": "les délégués",
      "answer_stringIds": [
        "string_219",
        "string_220"
      ]
    },
    {
      "id_qa": "FMSH_PB188a_00003_152_qa60_v3",
      "id_block": "block_3",
      "question": "Qui arrive à calmer les délégués ?",
      "answer": "le bureau du congrès",
      "answer_stringIds": [
        "string_212",
        "string_213",
        "string_214",
        "string_215"
      ]
    },
    {
      "id_qa": "FMSH_PB188a_00003_152_qa61_v3",
      "id_block": "block_3",
      "question": "Que parvient à faire le bureau du congrès ?",
      "answer": "à calmer les délégués",
      "answer_stringIds": [
        "string_217",
        "string_218",
        "string_219",
        "string_220"
      ]
    },
    {
      "id_qa": "FMSH_PB188a_00003_152_qa69_v3",
      "id_block": "block_3",
      "question": "Qu'est ce qui se répète tout au long du congrès ?",
      "answer": "les accusations",
      "answer_stringIds": [
        "string_230",
        "string_231"
      ]
    },
    {
      "id_qa": "FMSH_PB188a_00003_152_qa10_v3",
      "id_block": "block_4",
      "question": "Qui ne paye pas l'assurance sociale ?",
      "answer": "nos ouvriers",
      "answer_stringIds": [
        "string_306",
        "string_307"
      ]
    },
    {
      "id_qa": "FMSH_PB188a_00003_152_qa2_v3",
      "id_block": "block_5",
      "question": "Qui a pris d'eux-mêmes l'initiative de créer des comités d'épuration ?",
      "answer": "les ouvriers",
      "answer_stringIds": [
        "string_360",
        "string_361"
      ]
    },
    {
      "id_qa": "FMSH_PB188a_00003_152_qa3_v3",
      "id_block": "block_5",
      "question": "Qui a créé des comités d'épuration ?",
      "answer": "les ouvriers",
      "answer_stringIds": [
        "string_360",
        "string_361"
      ]
    },
    {
      "id_qa": "FMSH_PB188a_00003_152_qa6_v3",
      "id_block": "block_5",
      "question": "Qui a pris l'initiative de créer des comités d'épuration ?",
      "answer": "les ouvriers",
      "answer_stringIds": [
        "string_360",
        "string_361"
      ]
    },
    {
      "id_qa": "FMSH_PB188a_00003_152_qa7_v3",
      "id_block": "block_5",
      "question": "Que dénonce ABDEL MALIK à propos des comités d'épuration ?",
      "answer": "ces initiatives mêèneraient au chaos",
      "answer_stringIds": [
        "string_383",
        "string_384",
        "string_385",
        "string_386",
        "string_387"
      ]
    },
    {
      "id_qa": "FMSH_PB188a_00003_152_qa9_v3",
      "id_block": "block_5",
      "question": "Pour quelle raison les ouvriers ont-ils créé des comités d'épuration ?",
      "answer": "épurer les harkis et les traitres des fermes",
      "answer_stringIds": [
        "string_372",
        "string_373",
        "string_374",
        "string_375",
        "string_376",
        "string_377",
        "string_378",
        "string_379"
      ]
    },
    {
      "id_qa": "FMSH_PB188a_00003_152_qa54_v3",
      "id_block": "block_5",
      "question": "Qu'est ce qui a été appliqué lors du premier congrès ?",
      "answer": "en disant : « Nous avons appliqué certaines résolutions du premier congrès : nous avons créé 42 coopératives pour la commercialisation des produits du secteur autogéré et nous avons créé 180 stations de légumes",
      "answer_stringIds": [
        "string_408",
        "string_409",
        "string_410",
        "string_411",
        "string_412",
        "string_413",
        "string_414",
        "string_415",
        "string_416",
        "string_417",
        "string_418",
        "string_419",
        "string_420",
        "string_421",
        "string_422",
        "string_423",
        "string_424",
        "string_425",
        "string_426",
        "string_427",
        "string_428",
        "string_429",
        "string_430",
        "string_431",
        "string_432",
        "string_433",
        "string_434",
        "string_435",
        "string_436",
        "string_437",
        "string_438",
        "string_439",
        "string_440",
        "string_441"
      ]
    },
    {
      "id_qa": "FMSH_PB188a_00003_152_qa52_v3",
      "id_block": "block_5",
      "question": "Pour quelle activité les coopératives ont-elles été créées ?",
      "answer": "pour la commercialisation des produits du secteur autogéré",
      "answer_stringIds": [
        "string_426",
        "string_427",
        "string_428",
        "string_429",
        "string_430",
        "string_431",
        "string_432",
        "string_433"
      ]
    },
    {
      "id_qa": "FMSH_PB188a_00003_152_qa64_v3",
      "id_block": "block_5",
      "question": "Qui conseille de ne pas demander les allocations familiales ?",
      "answer": "aux ouvriers",
      "answer_stringIds": [
        "string_390",
        "string_391"
      ]
    },
    {
      "id_qa": "FMSH_PB188a_00003_152_qa66_v3",
      "id_block": "block_5",
      "question": "Combien coûte les allocations familiales aux ouvriers ?",
      "answer": "120 milliards",
      "answer_stringIds": [
        "string_403",
        "string_404"
      ]
    },
    {
      "id_qa": "FMSH_PB188a_00003_152_qa67_v3",
      "id_block": "block_5",
      "question": "Que conseille-t-il aux ouvriers ?",
      "answer": "ne pas demander les allocations familiales",
      "answer_stringIds": [
        "string_393",
        "string_394",
        "string_395",
        "string_396",
        "string_397",
        "string_398"
      ]
    },
    {
      "id_qa": "FMSH_PB188a_00003_152_qa68_v3",
      "id_block": "block_5",
      "question": "Que conseille aux ouvriers de ne pas demander aux ouvriers ?",
      "answer": "les allocations familiales",
      "answer_stringIds": [
        "string_396",
        "string_397",
        "string_398"
      ]
    },
    {
      "id_qa": "FMSH_PB188a_00003_152_qa31_v3",
      "id_block": "block_6",
      "question": "Qu'est ce qui a été retiré de la majorité ?",
      "answer": "Ce statut",
      "answer_stringIds": [
        "string_484",
        "string_485"
      ]
    },
    {
      "id_qa": "FMSH_PB188a_00003_152_qa32_v3",
      "id_block": "block_6",
      "question": "Qu'est ce qui a été retiré à la majorité ?",
      "answer": "Ce statut",
      "answer_stringIds": [
        "string_484",
        "string_485"
      ]
    },
    {
      "id_qa": "FMSH_PB188a_00003_152_qa63_v3",
      "id_block": "block_6",
      "question": "Que prend le délégué d'Annaba ?",
      "answer": "la parole",
      "answer_stringIds": [
        "string_448",
        "string_449"
      ]
    },
    {
      "id_qa": "FMSH_PB188a_00003_152_qa70_v3",
      "id_block": "block_7",
      "question": "Qu'est-ce que nous refusons ?",
      "answer": "tout paternalisme bureaucratique",
      "answer_stringIds": [
        "string_519",
        "string_520",
        "string_521"
      ]
    }
  ]
}