{
  "num": "autog_0005-0970_1967_num_3_1",
  "article": "autog_0005-0970_1967_num_3_1_908",
  "page_name": "FMSH_PB188a_00003_138",
  "questions": [
    {
      "id_qa": "FMSH_PB188a_00003_138_qa19_v3",
      "id_block": "block_1",
      "question": "Qu'est-ce que l'exploitation est rentable ?",
      "answer": "savoir si son exploitation est rentable",
      "answer_stringIds": [
        "string_122",
        "string_123",
        "string_124",
        "string_125",
        "string_126",
        "string_127"
      ]
    },
    {
      "id_qa": "FMSH_PB188a_00003_138_qa31_v3",
      "id_block": "block_1",
      "question": "Qu'est-ce qui est impensable si une entreprise n'a pas de comptabilité ?",
      "answer": "une entreprise quelconque",
      "answer_stringIds": [
        "string_24",
        "string_25",
        "string_26"
      ]
    },
    {
      "id_qa": "FMSH_PB188a_00003_138_qa32_v3",
      "id_block": "block_1",
      "question": "Qui ne dispose pas de renseignements sur la marche de l'entreprise ?",
      "answer": "le comité de gestion et le directeur",
      "answer_stringIds": [
        "string_133",
        "string_134",
        "string_135",
        "string_136",
        "string_137",
        "string_138",
        "string_139"
      ]
    },
    {
      "id_qa": "FMSH_PB188a_00003_138_qa0_v3",
      "id_block": "block_2",
      "question": "Quel est le montant des créances de l'entreprise ?",
      "answer": "des sommes",
      "answer_stringIds": [
        "string_204",
        "string_205"
      ]
    },
    {
      "id_qa": "FMSH_PB188a_00003_138_qa21_v3",
      "id_block": "block_4",
      "question": "Qui peut consentir un crédit aux entreprises ?",
      "answer": "la banque",
      "answer_stringIds": [
        "string_348",
        "string_349"
      ]
    },
    {
      "id_qa": "FMSH_PB188a_00003_138_qa23_v3",
      "id_block": "block_4",
      "question": "Qui peut accorder un crédit aux entreprises ?",
      "answer": "la banque",
      "answer_stringIds": [
        "string_348",
        "string_349"
      ]
    },
    {
      "id_qa": "FMSH_PB188a_00003_138_qa35_v3",
      "id_block": "block_5",
      "question": "Qu'est ce qui est bien organisé ?",
      "answer": "une production",
      "answer_stringIds": [
        "string_371",
        "string_372"
      ]
    },
    {
      "id_qa": "FMSH_PB188a_00003_138_qa6_v3",
      "id_block": "block_6",
      "question": "Que gèrent les travailleurs eux-mêmes ?",
      "answer": "les « biens du peuple",
      "answer_stringIds": [
        "string_434",
        "string_435",
        "string_436",
        "string_437"
      ]
    }
  ]
}