{
  "num": "autog_0249-2563_1982_num_16_12",
  "article": "autog_0249-2563_1982_num_16_12_1543",
  "page_name": "autog_0249-2563_1982_num_16_12_T1_0161_0000",
  "questions": [
    {
      "id_qa": "autog_0249-2563_1982_num_16_12_T1_0161_0000_qa0_v3",
      "id_block": "block_3",
      "question": "Avec quoi l'autogestion n'a rien à voir ?",
      "answer": "avec de la recherche appliquée",
      "answer_stringIds": [
        "string_100",
        "string_101",
        "string_102",
        "string_103",
        "string_104"
      ]
    },
    {
      "id_qa": "autog_0249-2563_1982_num_16_12_T1_0161_0000_qa8_v3",
      "id_block": "block_5",
      "question": "Qu'appelle-t-on autogestion de la recherche ?",
      "answer": "Cette question",
      "answer_stringIds": [
        "string_120",
        "string_121"
      ]
    },
    {
      "id_qa": "autog_0249-2563_1982_num_16_12_T1_0161_0000_qa10_v3",
      "id_block": "block_6",
      "question": "Sur quoi doit s'expliquer l'explication ?",
      "answer": "cette question préalable",
      "answer_stringIds": [
        "string_139",
        "string_140",
        "string_141"
      ]
    },
    {
      "id_qa": "autog_0249-2563_1982_num_16_12_T1_0161_0000_qa11_v3",
      "id_block": "block_6",
      "question": "Quand a eu lieu l'éruption du mont saint helens ?",
      "answer": "depuis le 10 mai 81",
      "answer_stringIds": [
        "string_144",
        "string_145",
        "string_146",
        "string_147",
        "string_148"
      ]
    }
  ]
}