{
  "num": "autog_0249-2563_1982_num_16_12",
  "article": "autog_0249-2563_1982_num_16_12_1543",
  "page_name": "autog_0249-2563_1982_num_16_12_T1_0167_0000",
  "questions": [
    {
      "id_qa": "autog_0249-2563_1982_num_16_12_T1_0167_0000_qa1_v3",
      "id_block": "block_1",
      "question": "De quoi découle le processus de collectivisation ?",
      "answer": "cette lente élaboration",
      "answer_stringIds": [
        "string_79",
        "string_80",
        "string_81"
      ]
    },
    {
      "id_qa": "autog_0249-2563_1982_num_16_12_T1_0167_0000_qa6_v3",
      "id_block": "block_1",
      "question": "Par quoi est remplacé le capital ?",
      "answer": "par « État",
      "answer_stringIds": [
        "string_154",
        "string_155",
        "string_156"
      ]
    },
    {
      "id_qa": "autog_0249-2563_1982_num_16_12_T1_0167_0000_qa4_v3",
      "id_block": "block_1",
      "question": "Qu'est-ce qui est prioritaire par rapport à des typologies formelles ?",
      "answer": "le processus de collectivisation",
      "answer_stringIds": [
        "string_83",
        "string_84",
        "string_85",
        "string_86",
        "string_87"
      ]
    },
    {
      "id_qa": "autog_0249-2563_1982_num_16_12_T1_0167_0000_qa7_v3",
      "id_block": "block_2",
      "question": "Qui parle du travail de dissolution ?",
      "answer": "les lacaniens",
      "answer_stringIds": [
        "string_276",
        "string_277"
      ]
    },
    {
      "id_qa": "autog_0249-2563_1982_num_16_12_T1_0167_0000_qa17_v3",
      "id_block": "block_3",
      "question": "Qui a dirigé la recherche sur Des femmes abandonnent ?",
      "answer": "par Françoise Gavarini",
      "answer_stringIds": [
        "string_335",
        "string_336",
        "string_337"
      ]
    }
  ]
}