{
  "num": "autog_0338-7259_1975_num_30_1",
  "article": "autog_0338-7259_1975_num_30_1_1136_t1_0192_0000_2",
  "page_name": "FMSH_PB188a_30-31_197",
  "questions": [
    {
      "id_qa": "FMSH_PB188a_30-31_197_qa30_v3",
      "id_block": "block_1",
      "question": "Qui est à l'origine de l'autocensure ?",
      "answer": "Desroche",
      "answer_stringIds": [
        "string_137"
      ]
    },
    {
      "id_qa": "FMSH_PB188a_30-31_197_qa16_v3",
      "id_block": "block_1",
      "question": "Où se retrouve le passage jugé scabreux d'un livre ?",
      "answer": "dans un",
      "answer_stringIds": [
        "string_68",
        "string_69"
      ]
    },
    {
      "id_qa": "FMSH_PB188a_30-31_197_qa18_v3",
      "id_block": "block_1",
      "question": "Qu'est ce que les plus responsables ne cacheront pas à tous les diables ?",
      "answer": "leur soulagement",
      "answer_stringIds": [
        "string_96",
        "string_97"
      ]
    },
    {
      "id_qa": "FMSH_PB188a_30-31_197_qa21_v3",
      "id_block": "block_1",
      "question": "Qu'est-ce que les bourgeois ?",
      "answer": "ses audaces",
      "answer_stringIds": [
        "string_32",
        "string_33"
      ]
    },
    {
      "id_qa": "FMSH_PB188a_30-31_197_qa22_v3",
      "id_block": "block_1",
      "question": "Qu'est-ce qui est supprimé d'un livre ?",
      "answer": "un passage",
      "answer_stringIds": [
        "string_58",
        "string_59"
      ]
    },
    {
      "id_qa": "FMSH_PB188a_30-31_197_qa32_v3",
      "id_block": "block_1",
      "question": "Qui pense que l'amour est à son service ?",
      "answer": "Desroche",
      "answer_stringIds": [
        "string_137"
      ]
    },
    {
      "id_qa": "FMSH_PB188a_30-31_197_qa43_v3",
      "id_block": "block_1",
      "question": "De quand date le Nouveau Monde Amoureux ?",
      "answer": "à publier cet ouvrage de son vivant",
      "answer_stringIds": [
        "string_262",
        "string_263",
        "string_264",
        "string_265",
        "string_266",
        "string_267",
        "string_268"
      ]
    },
    {
      "id_qa": "FMSH_PB188a_30-31_197_qa45_v3",
      "id_block": "block_1",
      "question": "Qui a écrit le Nouveau Monde Amoureux ?",
      "answer": "Fourier",
      "answer_stringIds": [
        "string_23"
      ]
    },
    {
      "id_qa": "FMSH_PB188a_30-31_197_qa47_v3",
      "id_block": "block_1",
      "question": "De quoi s'agit-il dans la perspective de Desroche ?",
      "answer": "du modèle refoulé au modèle rêvé",
      "answer_stringIds": [
        "string_232",
        "string_233",
        "string_234",
        "string_235",
        "string_236",
        "string_237"
      ]
    },
    {
      "id_qa": "FMSH_PB188a_30-31_197_qa48_v3",
      "id_block": "block_1",
      "question": "De quand date l'ouvrage de Fourier ?",
      "answer": "cet ouvrage de son vivant",
      "answer_stringIds": [
        "string_264",
        "string_265",
        "string_266",
        "string_267",
        "string_268"
      ]
    },
    {
      "id_qa": "FMSH_PB188a_30-31_197_qa53_v3",
      "id_block": "block_1",
      "question": "Qu'est-ce qui occupe le quart du volume ?",
      "answer": "exposé des théories sexuelles de Fourier",
      "answer_stringIds": [
        "string_328",
        "string_329",
        "string_330",
        "string_331",
        "string_332",
        "string_333"
      ]
    },
    {
      "id_qa": "FMSH_PB188a_30-31_197_qa57_v3",
      "id_block": "block_1",
      "question": "Quelle est la taille du livre de Fourier ?",
      "answer": "le quart du volume",
      "answer_stringIds": [
        "string_338",
        "string_339",
        "string_340",
        "string_341"
      ]
    },
    {
      "id_qa": "FMSH_PB188a_30-31_197_qa5_v3",
      "id_block": "block_2",
      "question": "De quoi s'occupe l'exposé de Fourier ?",
      "answer": "du Phalanstère",
      "answer_stringIds": [
        "string_394",
        "string_395"
      ]
    }
  ]
}