{
  "num": "autog_0249-2563_1980_num_13_2",
  "article": "autog_0249-2563_1980_num_13_2_1850",
  "page_name": "autog_0249-2563_1980_num_13_2_T1_0237_0000",
  "questions": [
    {
      "id_qa": "autog_0249-2563_1980_num_13_2_T1_0237_0000_qa2_v3",
      "id_block": "block_0",
      "question": "Où se situe la gauche autonome ?",
      "answer": "à Brême",
      "answer_stringIds": [
        "string_7",
        "string_8"
      ]
    },
    {
      "id_qa": "autog_0249-2563_1980_num_13_2_T1_0237_0000_qa10_v3",
      "id_block": "block_1",
      "question": "Qu'est ce qui est parfois complété par des gens qui écrivent des articles ?",
      "answer": "une rédaction fixe",
      "answer_stringIds": [
        "string_29",
        "string_30",
        "string_31"
      ]
    },
    {
      "id_qa": "autog_0249-2563_1980_num_13_2_T1_0237_0000_qa11_v3",
      "id_block": "block_1",
      "question": "Qui rédige les articles ?",
      "answer": "des gens",
      "answer_stringIds": [
        "string_38",
        "string_39"
      ]
    },
    {
      "id_qa": "autog_0249-2563_1980_num_13_2_T1_0237_0000_qa13_v3",
      "id_block": "block_1",
      "question": "Par qui est faite la rédaction fixe ?",
      "answer": "par des gens qui écrivent des articles",
      "answer_stringIds": [
        "string_37",
        "string_38",
        "string_39",
        "string_40",
        "string_41",
        "string_42",
        "string_43"
      ]
    },
    {
      "id_qa": "autog_0249-2563_1980_num_13_2_T1_0237_0000_qa14_v3",
      "id_block": "block_1",
      "question": "Qu'est ce qui est publié dans le journal ?",
      "answer": "des informations de et sur les initiatives civiques et leurs actions",
      "answer_stringIds": [
        "string_47",
        "string_48",
        "string_49",
        "string_50",
        "string_51",
        "string_52",
        "string_53",
        "string_54",
        "string_55",
        "string_56",
        "string_57"
      ]
    },
    {
      "id_qa": "autog_0249-2563_1980_num_13_2_T1_0237_0000_qa27_v3",
      "id_block": "block_1",
      "question": "Quelle est la caractéristique du milieu des lecteurs (trices) concernés ?",
      "answer": "la « scène",
      "answer_stringIds": [
        "string_67",
        "string_68",
        "string_69"
      ]
    },
    {
      "id_qa": "autog_0249-2563_1980_num_13_2_T1_0237_0000_qa5_v3",
      "id_block": "block_3",
      "question": "Qui a connu une grande crise ?",
      "answer": "I.D.",
      "answer_stringIds": [
        "string_184"
      ]
    },
    {
      "id_qa": "autog_0249-2563_1980_num_13_2_T1_0237_0000_qa15_v3",
      "id_block": "block_3",
      "question": "Que donnent les articles de fond au journal ?",
      "answer": "son profil",
      "answer_stringIds": [
        "string_226",
        "string_227"
      ]
    },
    {
      "id_qa": "autog_0249-2563_1980_num_13_2_T1_0237_0000_qa16_v3",
      "id_block": "block_3",
      "question": "Qu'est ce qui donne son profil au journal ?",
      "answer": "des articles de fond bien documentés",
      "answer_stringIds": [
        "string_218",
        "string_219",
        "string_220",
        "string_221",
        "string_222",
        "string_223"
      ]
    },
    {
      "id_qa": "autog_0249-2563_1980_num_13_2_T1_0237_0000_qa19_v3",
      "id_block": "block_3",
      "question": "Quand fut créé le Service d'information pour les nouvelles \"oubliées\" ?",
      "answer": "En 1973",
      "answer_stringIds": [
        "string_93",
        "string_94"
      ]
    },
    {
      "id_qa": "autog_0249-2563_1980_num_13_2_T1_0237_0000_qa21_v3",
      "id_block": "block_3",
      "question": "Qu'est ce qui a permis la diffusion des papiers ?",
      "answer": "nombreux journaux alternatifs régionaux",
      "answer_stringIds": [
        "string_146",
        "string_147",
        "string_148",
        "string_149"
      ]
    },
    {
      "id_qa": "autog_0249-2563_1980_num_13_2_T1_0237_0000_qa22_v3",
      "id_block": "block_3",
      "question": "Qu'est ce qui est ensuite publié ?",
      "answer": "des papiers",
      "answer_stringIds": [
        "string_134",
        "string_135"
      ]
    },
    {
      "id_qa": "autog_0249-2563_1980_num_13_2_T1_0237_0000_qa23_v3",
      "id_block": "block_3",
      "question": "Que peuvent écrire des personnes, des groupes, des initiatives civiques ?",
      "answer": "des papiers",
      "answer_stringIds": [
        "string_134",
        "string_135"
      ]
    },
    {
      "id_qa": "autog_0249-2563_1980_num_13_2_T1_0237_0000_qa26_v3",
      "id_block": "block_6",
      "question": "Qu'est ce qui a été présenté au congrès de Tunix ?",
      "answer": "les résultats et les questions",
      "answer_stringIds": [
        "string_307",
        "string_308",
        "string_309",
        "string_310",
        "string_311"
      ]
    }
  ]
}