{
  "num": "autog_0249-2563_1980_num_13_2",
  "article": "autog_0249-2563_1980_num_13_2_1850",
  "page_name": "autog_0249-2563_1980_num_13_2_T1_0234_0000",
  "questions": [
    {
      "id_qa": "autog_0249-2563_1980_num_13_2_T1_0234_0000_qa44_v3",
      "id_block": "block_1",
      "question": "Qui a écrit le texte ?",
      "answer": "par Josie Mély",
      "answer_stringIds": [
        "string_56",
        "string_57",
        "string_58"
      ]
    },
    {
      "id_qa": "autog_0249-2563_1980_num_13_2_T1_0234_0000_qa24_v3",
      "id_block": "block_10",
      "question": "Dans quel journal travaille-t-il ?",
      "answer": "au journal alternatif de Hambourg Grosse Freiheit",
      "answer_stringIds": [
        "string_187",
        "string_188",
        "string_189",
        "string_190",
        "string_191",
        "string_192",
        "string_193"
      ]
    },
    {
      "id_qa": "autog_0249-2563_1980_num_13_2_T1_0234_0000_qa30_v3",
      "id_block": "block_8",
      "question": "Où le rêve d'un quotidien de gauche appartiendrait-il dès l'époque ?",
      "answer": "dans la tête de la gauche",
      "answer_stringIds": [
        "string_104",
        "string_105",
        "string_106",
        "string_107",
        "string_108",
        "string_109"
      ]
    }
  ]
}