{
  "num": "autog_0249-2563_1982_num_16_12",
  "article": "autog_0249-2563_1982_num_16_12_1522",
  "page_name": "autog_0249-2563_1982_num_16_12_T1_0009_0000",
  "questions": [
    "Quel est le sentiment de Nadine envers les permanences ?",
    "Quel est le choix limité pour les élèves pendant les récréations ?",
    "Quels sont les différents types de professeurs décrits ?",
    "Qu'est-il dit sur l'importance de l'école et de l'enseignement pour les élèves ?",
    "Quel est l'opinion des élèves sur le fait de rester à l'école jusqu'à seize ans ?",
    "Les élèves sont-ils heureux quand ils manquent l'école ?",
    "Pourquoi les élèves trouvent-ils difficiles à supporter certaines permanences ?",
    "Quel est le rôle des parents dans cette situation ?",
    "Quel est le rôle des professeurs dans cette situation ?",
    "Quel est le rôle de l'école dans la vie des élèves ?",
    "Quel est le rôle de l'enseignement dans la vie des élèves ?",
    "Quel est le rôle de la liberté dans l'éducation des élèves ?",
    "Quel est le rôle des distractions dans l'éducation des élèves ?",
    "Quel est le rôle des règles dans l'éducation des élèves ?",
    "Quel est le rôle des heures de perm dans l'éducation des élèves ?",
    "Quel est le rôle des choix limités dans l'éducation des élèves ?",
    "Quel est le rôle des sentiments des élèves envers leur éducation ?",
    "Quel est le rôle des sentiments des élèves envers leurs professeurs ?",
    "Quel est le rôle des sentiments des élèves envers l'école ?",
    "Quel est le rôle des sentiments des élèves envers l'enseignement ?",
    "Quel est le rôle des sentiments des élèves envers leurs camarades de classe ?",
    "Quel est le rôle des sentiments des élèves envers leurs parents ?",
    "Quel est le rôle des?"
  ]
}