{
  "num": "autog_0338-7259_1974_num_28_1",
  "article": "autog_0338-7259_1974_num_28_1_1199",
  "page_name": "FMSH_PB188a_28-29_141",
  "questions": [
    "Quels travaux pénibles et déqualifiés ont été favorisés par l'ordinateur ?",
    "En quoi la parcellisation du travail des employés est-elle croissante ?",
    "Quels événements ont contribué à mettre en évidence les contradictions du travail salarié ?",
    "Comment la hiérarchie est-elle décrite dans le texte ?",
    "Quel est le nombre d'échelons dans la convention collective ?",
    "Comment le temps nécessaire pour atteindre le sommet de la hiérarchie varie-t-il ?",
    "Quels sont les revenus réels dans la banque avant impôts ?",
    "Comment la hiérarchie est-elle vécue quotidiennement par les employés ?"
  ]
}