{
  "num": "autog_0338-7259_1977_num_37_1",
  "article": "autog_0338-7259_1977_num_37_1_1220",
  "page_name": "FMSH_PB188a_37-38_049",
  "questions": [
    "Quand a-t-on expédié démocratiquement la circulation de dissolution de Socialisme ou Barbarie en juin 1967 ?",
    "Quel était le but des petits groupes, y compris le groupe de l'auteur, à la rentrée de l'année 1967-68 ?",
    "Qu'est-ce que l'auteur regrette de ne pas avoir fait à l'époque ?",
    "Quand a-t-il connu l'existence et l'intérêt de la revue Autogestion ?",
    "Quels sont les concepts de Castoriadis que l'auteur critique ?",
    "Qu'est-ce qui a empêché l'évolution différente dans la production et la transformation des ouvriers en employés selon Castoriadis ?",
    "Quels sont les deux « qualités » des OS que Castoriadis condamne ?",
    "Quels ont été les effets pratiques de la militance en 1967-68 et après ?",
    "Quels intellectuels ont subi la même pression que l'auteur à cette époque ?"
  ]
}