{
  "num": "autog_0338-7259_1977_num_37_1",
  "article": "autog_0338-7259_1977_num_37_1_1220",
  "page_name": "FMSH_PB188a_37-38_046",
  "questions": [
    "Quels sont les groupes et personnalités qui ont contribué décisivement à l'émergence des idées d'autogestion en France ?",
    "Quels sont les premiers courants intellectuels qui ont développé les thèses de l'autogestion avec la plus grande précision ?",
    "Quels sont les marxistes en rupture de ban avec le Parti communiste qui ont contribué au développement des idées d'autogestion ?",
    "Quels sont les principaux groupes anarchistes qui ont contribué au développement des idées d'autogestion ?",
    "Quels sont les « pablistes» et comment ont-ils influencé la diffusion des idées d'autogestion en France ?",
    "Quel rôle a joué la C.F.D.T. dans l'émergence des idées d'autogestion en France ?",
    "Comment l'évolution de la C.F.D.T. s'est-elle faite ?",
    "Quels sont les liens entre les différents courants intellectuels et les groupes cités ?",
    "Comment les idées d'autogestion ont-elles été perçues par les cadres politiques français d'extrême-gauche ?",
    "Quels sont les raisons pour lesquelles les ouvriers et étudiants ont souhaité prendre le pouvoir et autogérer les usines et l'État ?",
    "Quel rôle a joué l'Union de la gauche dans l'émergence des idées d'autogestion ?",
    "Comment les idées d'autogestion ont-elles été perçues par le pouvoir en place ?",
    "Quels sont les conséquences de l'émergence des idées d'autogestion en France ?",
    "Comment les idées d'autogestion ont-elles été perçues par les différents groupes sociaux (ouvriers, étudiants, intellectuels, etc.) ?",
    "Quels sont les liens entre les événements de Mai 68 et les?"
  ]
}