{
  "num": "autog_0338-7259_1974_num_26_1",
  "article": "autog_0338-7259_1974_num_26_1_1116",
  "page_name": "FMSH_PB188a_26-27_168",
  "questions": [
    {
      "id_qa": "FMSH_PB188a_26-27_168_qa23_v3",
      "id_block": "block_1",
      "question": "Qu'est-ce que la conscience a donné ?",
      "answer": "velle conscience et à quelles conquêtes",
      "answer_stringIds": [
        "string_6",
        "string_7",
        "string_8",
        "string_9",
        "string_10",
        "string_11"
      ]
    },
    {
      "id_qa": "FMSH_PB188a_26-27_168_qa17_v3",
      "id_block": "block_4",
      "question": "Qu'est-ce que l'institut de Médecine du Travail de l'Université de Pavie ?",
      "answer": "pour effectuer des contrôles directs",
      "answer_stringIds": [
        "string_110",
        "string_111",
        "string_112",
        "string_113",
        "string_114"
      ]
    },
    {
      "id_qa": "FMSH_PB188a_26-27_168_qa19_v3",
      "id_block": "block_4",
      "question": "Combien de travailleurs sont morts à cause de l'amiante ?",
      "answer": "quelques travailleurs",
      "answer_stringIds": [
        "string_87",
        "string_88"
      ]
    },
    {
      "id_qa": "FMSH_PB188a_26-27_168_qa22_v3",
      "id_block": "block_4",
      "question": "Qu'est ce qui est nocif dans le cycle de production ?",
      "answer": "de quelques substances chimiques",
      "answer_stringIds": [
        "string_55",
        "string_56",
        "string_57",
        "string_58"
      ]
    },
    {
      "id_qa": "FMSH_PB188a_26-27_168_qa0_v3",
      "id_block": "block_5",
      "question": "Qui a participé à la lutte ?",
      "answer": "La base",
      "answer_stringIds": [
        "string_231",
        "string_232"
      ]
    },
    {
      "id_qa": "FMSH_PB188a_26-27_168_qa4_v3",
      "id_block": "block_5",
      "question": "A quoi la base participa-t-elle de manière massive ?",
      "answer": "la lutte",
      "answer_stringIds": [
        "string_238",
        "string_239"
      ]
    },
    {
      "id_qa": "FMSH_PB188a_26-27_168_qa6_v3",
      "id_block": "block_5",
      "question": "Qui a accepté les demandes des travailleurs ?",
      "answer": "la direction",
      "answer_stringIds": [
        "string_167",
        "string_168"
      ]
    },
    {
      "id_qa": "FMSH_PB188a_26-27_168_qa11_v3",
      "id_block": "block_5",
      "question": "Qu'a apporté la direction de l'entreprise à l'application du MAC ?",
      "answer": "des modifications techniques au cycle de travail",
      "answer_stringIds": [
        "string_217",
        "string_218",
        "string_219",
        "string_220",
        "string_221",
        "string_222",
        "string_223",
        "string_224"
      ]
    }
  ]
}