{
  "num": "autog_0338-7259_1974_num_26_1",
  "article": "autog_0338-7259_1974_num_26_1_1116",
  "page_name": "FMSH_PB188a_26-27_172",
  "questions": [
    {
      "id_qa": "FMSH_PB188a_26-27_172_qa1_v3",
      "id_block": "block_1",
      "question": "Qui prend conscience des risques auxquels il est soumis ?",
      "answer": "le groupe ouvrier",
      "answer_stringIds": [
        "string_112",
        "string_113",
        "string_114"
      ]
    },
    {
      "id_qa": "FMSH_PB188a_26-27_172_qa17_v3",
      "id_block": "block_1",
      "question": "Qui enregistre les éléments dangereux pour sa santé ?",
      "answer": "chaque ouvrier",
      "answer_stringIds": [
        "string_28",
        "string_29"
      ]
    },
    {
      "id_qa": "FMSH_PB188a_26-27_172_qa12_v3",
      "id_block": "block_2",
      "question": "Qu'est ce qui a été mis en surveillance pendant trop longtemps ?",
      "answer": "la santé des ouvriers",
      "answer_stringIds": [
        "string_146",
        "string_147",
        "string_148",
        "string_149"
      ]
    },
    {
      "id_qa": "FMSH_PB188a_26-27_172_qa18_v3",
      "id_block": "block_2",
      "question": "Qu'est-ce qui met en discussion la ligne patronale ?",
      "answer": "une lutte",
      "answer_stringIds": [
        "string_248",
        "string_249"
      ]
    },
    {
      "id_qa": "FMSH_PB188a_26-27_172_qa19_v3",
      "id_block": "block_2",
      "question": "Qui s'oppose à la discussion à l'intérieur du groupe homogène ?",
      "answer": "les travailleurs",
      "answer_stringIds": [
        "string_239",
        "string_240"
      ]
    },
    {
      "id_qa": "FMSH_PB188a_26-27_172_qa22_v3",
      "id_block": "block_4",
      "question": "Qu'est ce qui a augmenté de 1968 à maintenant ?",
      "answer": "le niveau de conscience",
      "answer_stringIds": [
        "string_271",
        "string_272",
        "string_273",
        "string_274"
      ]
    },
    {
      "id_qa": "FMSH_PB188a_26-27_172_qa23_v3",
      "id_block": "block_4",
      "question": "Qu'est ce qui s'est développé de 1968 à maintenant ?",
      "answer": "le niveau de conscience",
      "answer_stringIds": [
        "string_271",
        "string_272",
        "string_273",
        "string_274"
      ]
    },
    {
      "id_qa": "FMSH_PB188a_26-27_172_qa24_v3",
      "id_block": "block_4",
      "question": "Qu'est ce qui est désormais un fait acquis ?",
      "answer": "la lutte contre la nuisance",
      "answer_stringIds": [
        "string_283",
        "string_284",
        "string_285",
        "string_286",
        "string_287"
      ]
    }
  ]
}