{
  "num": "autog_0338-7259_1974_num_26_1",
  "article": "autog_0338-7259_1974_num_26_1_1116",
  "page_name": "FMSH_PB188a_26-27_177",
  "questions": [
    {
      "id_qa": "FMSH_PB188a_26-27_177_qa6_v3",
      "id_block": "block_1",
      "question": "Qu'est ce qui ne soit pas comprimée et vidée de son contenu par l'action des syndicats et des partis ?",
      "answer": "une volonté de lutte",
      "answer_stringIds": [
        "string_11",
        "string_12",
        "string_13",
        "string_14"
      ]
    },
    {
      "id_qa": "FMSH_PB188a_26-27_177_qa1_v3",
      "id_block": "block_2",
      "question": "Quel est le but de l'attaque frontale du capital ?",
      "answer": "renverser les rapports de forces existants",
      "answer_stringIds": [
        "string_139",
        "string_140",
        "string_141",
        "string_142",
        "string_143",
        "string_144"
      ]
    },
    {
      "id_qa": "FMSH_PB188a_26-27_177_qa4_v3",
      "id_block": "block_2",
      "question": "A quoi vise l'attaque frontale du capital ?",
      "answer": "les rapports de forces existants",
      "answer_stringIds": [
        "string_140",
        "string_141",
        "string_142",
        "string_143",
        "string_144"
      ]
    }
  ]
}