{
  "num": "autog_0249-2563_1981_num_14_6",
  "article": "autog_0249-2563_1981_num_14_6_1425",
  "page_name": "autog_0249-2563_1981_num_14_6_T1_0163_0000",
  "questions": [
    "Quel est le lien entre le pouvoir et l'autogestion selon le texte ?",
    "Pourquoi se sentent-ils impuissants face à l'organisation perçue comme immuable ?",
    "Quels sont les principes qui guident les deux groupes cités (féministe de Zagreb et les partisans de l'action directe) ?",
    "En quelle mesure les jeunes sont-ils désillusionnés par la société socialiste ?",
    "Quel est le pourcentage de travailleurs bosniens qui gagnent moins de 5 000 dinars ?",
    "Quel est le pourcentage des chômeurs à Belgrade qui ont moins de 30 ans ?",
    "Quand a-t-on annoncé ces chiffres dans la télévision yougoslave ?",
    "Comment les jeunes se comportent-ils face aux problèmes qui touchent leur public ?",
    "Comment les ouvriers perçoivent-ils un travail salarié ?",
    "Quel est l'origine de la classe ouvrière selon le texte ?",
    "Quel est le rendement des ouvriers selon le texte ?",
    "Quel est le lien entre l'exode rural et la naissance de la classe ouvrière ?",
    "Quel est le lien entre la télévision yougoslave et les chiffres donnés dans le texte ?",
    "Quel est le lien entre les groupes rock et punk et l'ironie et le scepticisme ?",
    "Quels sont les problèmes qui touchent le plus le public de ces groupes ?",
    "Quels sont les valeurs partagées par les jeunes dans ces groupes ?",
    "Quels sont les valeurs totalement étrangères aux valeurs censées guider la société selon le texte ?",
    "Quels sont les principes que la société socialiste s'est donnée selon le texte ?",
    "Comment les groupes cités (féministe de Zagreb et les partisans de l'action directe) s'app?"
  ]
}