{
  "num": "autog_0249-2563_1981_num_14_6",
  "article": "autog_0249-2563_1981_num_14_6_1425",
  "page_name": "FMSH_PB188a_NS_00006_027",
  "questions": [
    "Quels intellectuels sont-ils en question et quels sont leurs idées controversées ?",
    "Quels moyens utilisent-ils pour empêcher la diffusion de leurs idées ?",
    "Comment les universitaires « loyaux » sont-ils utilisés pour isoler les intellectuels critiques des étudiants ?",
    "Comment les divisions entre professeurs sont-elles accentuées par les sanctions et les récompenses ?",
    "Quels événements ont entraîné l'exclusion des intellectuels de la Ligue des Communistes ?",
    "Comment sont affectées les sociétés professionnelles dominées par les intellectuels de gauche ?",
    "Comment les intellectuels critiques tentent-ils de renouveler leur audience sans s'enfermer dans la répétition et les querelles intestines ?",
    "Quels sont deux exemples de la confrontation entre ces intellectuels et l'État ?",
    "Quels sont les nouveaux mesures répressives contre le groupe Praxis à Belgrade ?",
    "En quelle année ont été exclu définitivement les professeurs de Belgrade ?",
    "Quels événements ont entraîné l'exclusion des revues Praxis et Filosofija ?",
    "Quel montant a reçu la Société Sociologique de Croatie pour toutes ses activités en 1980 ?",
    "Quels sont les pressions multiples auxquelles font face les intellectuels critiques ?"
  ]
}