{
  "num": "autog_0249-2563_1984_num_17_16",
  "article": "autog_0249-2563_1984_num_17_16_1892_t1_0103_0000_2",
  "page_name": "autog_0249-2563_1984_num_17_16_T1_0103_0000",
  "questions": [
    "Quels lieux sont écartés par l'auteur pour ne pas y porter son rocher de Sisyphe ?",
    "Quels événements ont eu lieu à Paris les 30-31 mars 1984 ?",
    "Qu'est-il arrivé au terme « entreprises intermédiaires » ?",
    "Quels sont les raisons de la création de ces entreprises ?",
    "Quel rôle ont ces entreprises pris au fil du temps ?",
    "Quels sont les deux catégories d'entreprises intermédiaires ?",
    "Qu'est l'objectif des entreprises-relais ?",
    "Les entreprises-relais, sont-elles une découverte de la gauche ?",
    "Quel rôle peuvent les lieux de transition jouer dans le cadre d'une gestion généralisée du chômage ?",
    "Qu'est l'objectif des entreprises alternatives ?",
    "Quel document a été réalisé pour le Ministère de l'Emploi en 1983 sur la création d'activités visant la réinsertion des personnes socialement handicapées ?"
  ]
}