{
  "num": "autog_0249-2563_1982_num_16_12",
  "article": "autog_0249-2563_1982_num_16_12_1548_t1_0210_0000_2",
  "page_name": "autog_0249-2563_1982_num_16_12_T1_0212_0000",
  "questions": [
    {
      "id_qa": "autog_0249-2563_1982_num_16_12_T1_0212_0000_qa1_v3",
      "id_block": "block_0",
      "question": "Pour quoi les ouvriers se sentent-ils importants ?",
      "answer": "pour quelque chose",
      "answer_stringIds": [
        "string_150",
        "string_151",
        "string_152"
      ]
    },
    {
      "id_qa": "autog_0249-2563_1982_num_16_12_T1_0212_0000_qa2_v3",
      "id_block": "block_0",
      "question": "Pourquoi les ouvriers se sentent importants ?",
      "answer": "parce que nous comptons pour quelque chose",
      "answer_stringIds": [
        "string_146",
        "string_147",
        "string_148",
        "string_149",
        "string_150",
        "string_151",
        "string_152"
      ]
    },
    {
      "id_qa": "autog_0249-2563_1982_num_16_12_T1_0212_0000_qa5_v3",
      "id_block": "block_0",
      "question": "Qui ne sait plus imaginer d'autre société globale ?",
      "answer": "nos intelligentsias fatiguées",
      "answer_stringIds": [
        "string_157",
        "string_158",
        "string_159"
      ]
    },
    {
      "id_qa": "autog_0249-2563_1982_num_16_12_T1_0212_0000_qa6_v3",
      "id_block": "block_0",
      "question": "Qui est obscurément parcouru par une violente espérance ?",
      "answer": "notre ouvrier",
      "answer_stringIds": [
        "string_183",
        "string_184"
      ]
    },
    {
      "id_qa": "autog_0249-2563_1982_num_16_12_T1_0212_0000_qa11_v3",
      "id_block": "block_0",
      "question": "Qu'est-ce que les ouvriers doivent inventer pour leur travail ?",
      "answer": "les « petits trucs",
      "answer_stringIds": [
        "string_7",
        "string_8",
        "string_9",
        "string_10"
      ]
    },
    {
      "id_qa": "autog_0249-2563_1982_num_16_12_T1_0212_0000_qa12_v3",
      "id_block": "block_0",
      "question": "Qui est seul à pouvoir inventer pour son travail ?",
      "answer": "les ouvriers",
      "answer_stringIds": [
        "string_13",
        "string_14"
      ]
    },
    {
      "id_qa": "autog_0249-2563_1982_num_16_12_T1_0212_0000_qa13_v3",
      "id_block": "block_0",
      "question": "Qui sont les seuls à pouvoir inventer pour leur travail ?",
      "answer": "les ouvriers",
      "answer_stringIds": [
        "string_13",
        "string_14"
      ]
    },
    {
      "id_qa": "autog_0249-2563_1982_num_16_12_T1_0212_0000_qa15_v3",
      "id_block": "block_0",
      "question": "Pour quoi les ouvriers sont seuls à pouvoir inventer les petits trucs ?",
      "answer": "pour leur travail",
      "answer_stringIds": [
        "string_20",
        "string_21",
        "string_22",
        "string_23"
      ]
    },
    {
      "id_qa": "autog_0249-2563_1982_num_16_12_T1_0212_0000_qa30_v3",
      "id_block": "block_0",
      "question": "A qui l'entreprise donne des chaises ?",
      "answer": "de ceux",
      "answer_stringIds": [
        "string_37",
        "string_38"
      ]
    },
    {
      "id_qa": "autog_0249-2563_1982_num_16_12_T1_0212_0000_qa10_v3",
      "id_block": "block_2",
      "question": "Qu'est-ce que les machinations ?",
      "answer": "aux machinations les plus horribles et les plus monstrueuses",
      "answer_stringIds": [
        "string_284",
        "string_285",
        "string_286",
        "string_287",
        "string_288",
        "string_289",
        "string_290",
        "string_291",
        "string_292",
        "string_293"
      ]
    },
    {
      "id_qa": "autog_0249-2563_1982_num_16_12_T1_0212_0000_qa28_v3",
      "id_block": "block_2",
      "question": "A quoi se prête le terme d'utopie selon moi ?",
      "answer": "à quelques mystifications",
      "answer_stringIds": [
        "string_252",
        "string_253",
        "string_254"
      ]
    },
    {
      "id_qa": "autog_0249-2563_1982_num_16_12_T1_0212_0000_qa32_v3",
      "id_block": "block_2",
      "question": "Qui vole ?",
      "answer": "Les ouvriers",
      "answer_stringIds": [
        "string_328",
        "string_329"
      ]
    },
    {
      "id_qa": "autog_0249-2563_1982_num_16_12_T1_0212_0000_qa33_v3",
      "id_block": "block_3",
      "question": "Par qui est disqualifiée l'option alternative ?",
      "answer": "les bieninstallés",
      "answer_stringIds": [
        "string_366",
        "string_367",
        "string_368"
      ]
    }
  ]
}