{
  "num": "autog_0249-2563_1980_num_13_1",
  "article": "autog_0249-2563_1980_num_13_1_1347",
  "page_name": "autog_0249-2563_1980_num_13_1_T1_0080_0000",
  "questions": [
    "Quels mouvements syndicaux ont cherché à opposer la rationalisation des entreprises dans les années 1960 ?",
    "Pourquoi les syndicats ont-ils échoué dans leur combat contre la rationalisation ?",
    "Quels sentiments ressenttaient les travailleurs à l'égard de leurs syndicats durant cette période ?",
    "Quel type de mouvement syndical a émergé dans les années 1960, différent des mouvements existants ?",
    "Quels étaient les influences extérieures sur le mouvement autogestionnaire japonais ?",
    "Quel était le problème principal sur lequel les promoteurs d'autogestion ont porté leur attention et leur espoir ?",
    "Comment les dirigeants des entreprises japonaises ont-ils réagis à cette situation de croissance économique rapide ?",
    "Quels phénomènes ont les entreprises japonaises dû faire face dans la seconde moitié des années 50 et dans les années 60-70 ?"
  ]
}