{
  "num": "autog_0005-0970_1966_num_1_1",
  "article": "autog_0005-0970_1966_num_1_1_893_t1_0100_0000_1",
  "page_name": "FMSH_PB188a_00001_102",
  "questions": [
    {
      "id_qa": "FMSH_PB188a_00001_102_qa18_v3",
      "id_block": "block_2",
      "question": "Dans quel ouvrage l'auteur situe-t-il la colonisation et la décolonisation ?",
      "answer": "Dans le premier tome",
      "answer_stringIds": [
        "string_27",
        "string_28",
        "string_29",
        "string_30"
      ]
    },
    {
      "id_qa": "FMSH_PB188a_00001_102_qa4_v3",
      "id_block": "block_3",
      "question": "Qu'est-ce que l'agriculture au moment de la colonisation ?",
      "answer": "une industrie",
      "answer_stringIds": [
        "string_104",
        "string_105"
      ]
    },
    {
      "id_qa": "FMSH_PB188a_00001_102_qa20_v3",
      "id_block": "block_3",
      "question": "Qu'est-ce que l'auteur analyse ?",
      "answer": "de la société coloniale",
      "answer_stringIds": [
        "string_133",
        "string_134",
        "string_135",
        "string_136"
      ]
    },
    {
      "id_qa": "FMSH_PB188a_00001_102_qa11_v3",
      "id_block": "block_4",
      "question": "Qu'est ce qui a opposé les travailleurs de l'autogestion et fonctionnaires ?",
      "answer": "les conflits",
      "answer_stringIds": [
        "string_223",
        "string_224"
      ]
    }
  ]
}