{
  "num": "autog_0249-2563_1984_num_17_15",
  "article": "autog_0249-2563_1984_num_17_15_1574",
  "page_name": "autog_0249-2563_1984_num_17_15_T1_0020_0000",
  "questions": [
    "Quel est le lien entre l'image de l'État et celle des collectivités territoriales dans leurs fonctionnements bureaucratiques ?",
    "Est-ce que la décentralisation permettrait un déploiement de initiatives locales et de formes de développement locales ?",
    "Qu'est-ce qui se profile à travers les chartes intercommunales en termes d'expérimentation sociale ?",
    "Comment les schémas sectoriels influencent les actions et les programmes des collectivités territoriales ?",
    "Quel est le rôle des politiques dans le contrôle de l'espace et l'intégration ou la neutralisation des formes antérieures de contre-pouvoir ?",
    "Quels sont les éléments de la réforme visant à renforcer la capacité des citoyens à intervenir dans la vie locale et leur état actuel ?",
    "Qu'en sera-t-il du refoulé de la démocratie et de l'« astre mort-né » de la nouvelle citoyenneté dans l'absence de débat général sur la décentralisation et de mouvements sociaux produisant autre chose qu'une stratégie défensive ?"
  ]
}