{
  "num": "autog_0338-7259_1970_num_13_1",
  "article": "autog_0338-7259_1970_num_13_1_974",
  "page_name": "FMSH_PB188a_13-14_015",
  "questions": [
    {
      "id_qa": "FMSH_PB188a_13-14_015_qa15_v3",
      "id_block": "block_2",
      "question": "Qu'est-ce qui nous paraîtront souhaïitables ?",
      "answer": "les changements qui",
      "answer_stringIds": [
        "string_88",
        "string_89",
        "string_90"
      ]
    },
    {
      "id_qa": "FMSH_PB188a_13-14_015_qa16_v3",
      "id_block": "block_2",
      "question": "Qu'est-ce qui nous permet de réaliser ensemble ?",
      "answer": "les changements",
      "answer_stringIds": [
        "string_88",
        "string_89"
      ]
    },
    {
      "id_qa": "FMSH_PB188a_13-14_015_qa1_v3",
      "id_block": "block_3",
      "question": "Qu'est ce qui fait partie du bilan ?",
      "answer": "Ces obstacles",
      "answer_stringIds": [
        "string_162",
        "string_163"
      ]
    },
    {
      "id_qa": "FMSH_PB188a_13-14_015_qa18_v3",
      "id_block": "block_3",
      "question": "Quelle est la règle fondamentale ?",
      "answer": "tout dire tous ensemble",
      "answer_stringIds": [
        "string_135",
        "string_136",
        "string_137",
        "string_138"
      ]
    },
    {
      "id_qa": "FMSH_PB188a_13-14_015_qa7_v3",
      "id_block": "block_4",
      "question": "A qui s'adresse le projet de faire le bilan ?",
      "answer": "la collectivité",
      "answer_stringIds": [
        "string_191",
        "string_192"
      ]
    },
    {
      "id_qa": "FMSH_PB188a_13-14_015_qa8_v3",
      "id_block": "block_4",
      "question": "Qu'est-ce que faire collectivement ?",
      "answer": "le bilan",
      "answer_stringIds": [
        "string_174",
        "string_175"
      ]
    },
    {
      "id_qa": "FMSH_PB188a_13-14_015_qa9_v3",
      "id_block": "block_4",
      "question": "Qu'est-ce qui fonctionne dans sa progression ?",
      "answer": "le projet de « faire le bilan",
      "answer_stringIds": [
        "string_169",
        "string_170",
        "string_171",
        "string_172",
        "string_173",
        "string_174",
        "string_175"
      ]
    },
    {
      "id_qa": "FMSH_PB188a_13-14_015_qa11_v3",
      "id_block": "block_4",
      "question": "Qui teste l'analyseur ?",
      "answer": "la collectivité",
      "answer_stringIds": [
        "string_191",
        "string_192"
      ]
    },
    {
      "id_qa": "FMSH_PB188a_13-14_015_qa12_v3",
      "id_block": "block_4",
      "question": "Qu'est ce qui interroge la collectivité ?",
      "answer": "Cet analyseur",
      "answer_stringIds": [
        "string_216",
        "string_217"
      ]
    }
  ]
}