{
  "num": "autog_0338-7259_1970_num_13_1",
  "article": "autog_0338-7259_1970_num_13_1_974",
  "page_name": "FMSH_PB188a_13-14_048",
  "questions": [
    {
      "id_qa": "FMSH_PB188a_13-14_048_qa0_v3",
      "id_block": "block_1",
      "question": "Qu'est ce qui produit le système ?",
      "answer": "la déscolarisation",
      "answer_stringIds": [
        "string_124",
        "string_125"
      ]
    },
    {
      "id_qa": "FMSH_PB188a_13-14_048_qa2_v3",
      "id_block": "block_1",
      "question": "Qu'est ce qui semble ouvert sur une certaine autogestion ?",
      "answer": "les structures",
      "answer_stringIds": [
        "string_74",
        "string_75"
      ]
    },
    {
      "id_qa": "FMSH_PB188a_13-14_048_qa4_v3",
      "id_block": "block_2",
      "question": "Qu'est ce que nous proposons ici ?",
      "answer": "le faire fonctionner",
      "answer_stringIds": [
        "string_283",
        "string_284",
        "string_285"
      ]
    }
  ]
}