{
  "num": "autog_0249-2563_1980_num_13_1",
  "article": "autog_0249-2563_1980_num_13_1_1351",
  "page_name": "autog_0249-2563_1980_num_13_1_T1_0112_0000",
  "questions": [
    "Quels sont les deux constantes du contexte global du système yougoslave qui limitent la participation dans l'autogestion ?",
    "Comment le parti se sent-il menacé dans ce contexte ?",
    "Quels groupes sont sources de pression centrifuge sur l'économie et la politique ?",
    "Comment les leaders du parti décrivent la démocratisation des rapports politiques ?",
    "Quels intérêts politiques sont reconnus par Kardelj ?",
    "Comment Kardelj décrit les intérêts des individus ?",
    "Quel est l'intérêt fondamental de tous les Yougoslaves selon Kardelj ?",
    "Comment Kardelj perçoit les luttes de classe et l'unité des intérêts des personnes dans les mêmes conditions ?"
  ]
}