{
  "num": "autog_0249-2563_1980_num_13_1",
  "article": "autog_0249-2563_1980_num_13_1_1351",
  "page_name": "autog_0249-2563_1980_num_13_1_T1_0121_0000",
  "questions": [
    "Quel est le sort des cinq professeurs de l'Université de Belgrade sortis de prison ?",
    "Quels sont les différents types de répression préventive observés dans ce contexte ?",
    "Quels sont les moyens de censure post-facto et indirecte mentionnés dans le texte ?",
    "Quel est l'impact de l'autocensure dans ce contexte ?",
    "Quels sont les risques associés à prendre des initiatives en dehors des organisations officielles ?",
    "Quels sont les avantages et les inconvénients de la co-optation dans ce contexte ?",
    "Quel est l'objectif de l'effort de réorganisation de l'éducation supérieure mentionné dans le texte ?",
    "Est-ce que l'élimination du lycée représente vraiment une attaque à la base de la reproduction sociale de l'intelligentsia ?",
    "Quels sont les sources d'informations complémentaires sur ce sujet ?"
  ]
}