{
  "num": "autog_0249-2563_1984_num_17_16",
  "article": "autog_0249-2563_1984_num_17_16_1893_t1_0107_0000_4",
  "page_name": "autog_0249-2563_1984_num_17_16_T1_0107_0000",
  "questions": [
    "Quel est le lieu de la première rencontre d'automne 1983 ?",
    "Quels types de personnes sont prioritairement invitées à cette rencontre ?",
    "Quel est le but de cette rencontre ?",
    "Quel pays est le lieu de voyage de trois à quatre semaines en automne 1983 ?",
    "Quels sont les objectifs de la conférence sur l'autogestion en Amérique latine et aux Caraïbes ?",
    "Quels sont les moyens de travail de la conférence ?",
    "Quels sont les thèmes de discussion prévus à la conférence ?",
    "Quels sont les pays représentés par des spécialistes dans chaque atelier ?",
    "Quels sont les lieux de visite prévus en Catalogne durant l'hiver ?",
    "Quels sont les organisateurs de la conférence sur l'autogestion en Amérique latine et aux Caraïbes ?",
    "Quels sont les organisateurs de la réunion des 33 anti-autoritaires ?",
    "Dans quel pays a eu lieu la dernière conférence mentionnée dans le texte ?",
    "Quels sont les types de personnes attendues à la conférence des 33 anti-autoritaires ?"
  ]
}