{
  "num": "autog_0249-2563_1982_num_16_12",
  "article": "autog_0249-2563_1982_num_16_12_1531",
  "page_name": "autog_0249-2563_1982_num_16_12_T1_0081_0000",
  "questions": [
    {
      "id_qa": "autog_0249-2563_1982_num_16_12_T1_0081_0000_qa23_v3",
      "id_block": "block_0",
      "question": "Qui est à l'origine des documents recueillis ou établis par l'Administration ?",
      "answer": "les évaluateurs",
      "answer_stringIds": [
        "string_37",
        "string_38"
      ]
    },
    {
      "id_qa": "autog_0249-2563_1982_num_16_12_T1_0081_0000_qa24_v3",
      "id_block": "block_0",
      "question": "Qu'est ce qui pourrait être utilisé pour justifier l'arrêt de l'expérience ?",
      "answer": "les documents",
      "answer_stringIds": [
        "string_30",
        "string_31"
      ]
    },
    {
      "id_qa": "autog_0249-2563_1982_num_16_12_T1_0081_0000_qa32_v3",
      "id_block": "block_0",
      "question": "Qu'est ce qui ne peut pas être offert à des personnes qui n'en seraient pas dignes ?",
      "answer": "un champ de pratique scientifique",
      "answer_stringIds": [
        "string_13",
        "string_14",
        "string_15",
        "string_16",
        "string_17"
      ]
    },
    {
      "id_qa": "autog_0249-2563_1982_num_16_12_T1_0081_0000_qa35_v3",
      "id_block": "block_1",
      "question": "Qu'est-ce qui s'éloigne de tout esprit d'inspection ?",
      "answer": "Cette conception",
      "answer_stringIds": [
        "string_105",
        "string_106"
      ]
    },
    {
      "id_qa": "autog_0249-2563_1982_num_16_12_T1_0081_0000_qa9_v3",
      "id_block": "block_2",
      "question": "Qui peut nous protéger contre bon nombre d'attaques ?",
      "answer": "les évaluateurs",
      "answer_stringIds": [
        "string_37",
        "string_38"
      ]
    },
    {
      "id_qa": "autog_0249-2563_1982_num_16_12_T1_0081_0000_qa14_v3",
      "id_block": "block_2",
      "question": "Que permettent les évaluateurs ?",
      "answer": "gagner du temps pour « apprendre",
      "answer_stringIds": [
        "string_164",
        "string_165",
        "string_166",
        "string_167",
        "string_168",
        "string_169"
      ]
    },
    {
      "id_qa": "autog_0249-2563_1982_num_16_12_T1_0081_0000_qa15_v3",
      "id_block": "block_2",
      "question": "Qu'est ce que les évaluateurs peuvent nous protéger contre bon nombre d'attaques ?",
      "answer": "du temps",
      "answer_stringIds": [
        "string_165",
        "string_166"
      ]
    },
    {
      "id_qa": "autog_0249-2563_1982_num_16_12_T1_0081_0000_qa33_v3",
      "id_block": "block_2",
      "question": "Qu'est ce qui peut être mis à profit d'une manière tactique ?",
      "answer": "les idées",
      "answer_stringIds": [
        "string_128",
        "string_129"
      ]
    },
    {
      "id_qa": "autog_0249-2563_1982_num_16_12_T1_0081_0000_qa34_v3",
      "id_block": "block_2",
      "question": "Qui pense que les idées les plus couramment admises sur la Science peuvent être mises à profit d'une manière tactique ?",
      "answer": "certains",
      "answer_stringIds": [
        "string_125"
      ]
    },
    {
      "id_qa": "autog_0249-2563_1982_num_16_12_T1_0081_0000_qa28_v3",
      "id_block": "block_4",
      "question": "Qui rêvent de nous prendre comme sujet de thèse ou de maîtrise ?",
      "answer": "les intellectuels",
      "answer_stringIds": [
        "string_355",
        "string_356"
      ]
    },
    {
      "id_qa": "autog_0249-2563_1982_num_16_12_T1_0081_0000_qa30_v3",
      "id_block": "block_4",
      "question": "Que rêvent les intellectuels ?",
      "answer": "nous prendre comme sujet de thèse ou de maîtrise",
      "answer_stringIds": [
        "string_360",
        "string_361",
        "string_362",
        "string_363",
        "string_364",
        "string_365",
        "string_366",
        "string_367",
        "string_368"
      ]
    }
  ]
}