{
  "num": "autog_0249-2563_1982_num_16_12",
  "article": "autog_0249-2563_1982_num_16_12_1531",
  "page_name": "autog_0249-2563_1982_num_16_12_T1_0084_0000",
  "questions": [
    {
      "id_qa": "autog_0249-2563_1982_num_16_12_T1_0084_0000_qa1_v3",
      "id_block": "block_1",
      "question": "Qu'est-ce qui concourt à la vie ?",
      "answer": "tout ce",
      "answer_stringIds": [
        "string_38",
        "string_39"
      ]
    },
    {
      "id_qa": "autog_0249-2563_1982_num_16_12_T1_0084_0000_qa2_v3",
      "id_block": "block_1",
      "question": "Qu'est-ce qui est important dans l'autogéré ?",
      "answer": "tout ce qui concourt à la vie",
      "answer_stringIds": [
        "string_38",
        "string_39",
        "string_40",
        "string_41",
        "string_42",
        "string_43",
        "string_44",
        "string_45"
      ]
    },
    {
      "id_qa": "autog_0249-2563_1982_num_16_12_T1_0084_0000_qa4_v3",
      "id_block": "block_1",
      "question": "Comment s'auto-proclamer \"autogéré\" ?",
      "answer": "chercheur",
      "answer_stringIds": [
        "string_28"
      ]
    },
    {
      "id_qa": "autog_0249-2563_1982_num_16_12_T1_0084_0000_qa17_v3",
      "id_block": "block_1",
      "question": "A quoi ne pas réagir violemment ?",
      "answer": "à la lecture de ces lignes",
      "answer_stringIds": [
        "string_52",
        "string_53",
        "string_54",
        "string_55",
        "string_56",
        "string_57"
      ]
    },
    {
      "id_qa": "autog_0249-2563_1982_num_16_12_T1_0084_0000_qa6_v3",
      "id_block": "block_2",
      "question": "Qu'est ce qu'ils ont à transmettre ?",
      "answer": "le savoir",
      "answer_stringIds": [
        "string_104",
        "string_105"
      ]
    },
    {
      "id_qa": "autog_0249-2563_1982_num_16_12_T1_0084_0000_qa11_v3",
      "id_block": "block_2",
      "question": "Qui doit avoir une estime raisonnable ?",
      "answer": "les enseignants",
      "answer_stringIds": [
        "string_81",
        "string_82"
      ]
    }
  ]
}