{
  "num": "autog_0338-7259_1973_num_24_1",
  "article": "autog_0338-7259_1973_num_24_1_1103",
  "page_name": "FMSH_PB188a_24-25_157",
  "questions": [
    {
      "id_qa": "FMSH_PB188a_24-25_157_qa0_v3",
      "id_block": "block_2",
      "question": "Que donna le Neuvième Congrès à l'Orgbureau ?",
      "answer": "le droit de transférer et de nommer des membres du Parti occupant des postes responsables",
      "answer_stringIds": [
        "string_66",
        "string_67",
        "string_68",
        "string_69",
        "string_70",
        "string_71",
        "string_72",
        "string_73",
        "string_74",
        "string_75",
        "string_76",
        "string_77",
        "string_78",
        "string_79",
        "string_80"
      ]
    },
    {
      "id_qa": "FMSH_PB188a_24-25_157_qa4_v3",
      "id_block": "block_2",
      "question": "Qui donna à l'Orgbureau le droit de transférer et de nommer des membres du Parti occupant des postes responsables ?",
      "answer": "le Neuvième Congrès",
      "answer_stringIds": [
        "string_46",
        "string_47",
        "string_48"
      ]
    },
    {
      "id_qa": "FMSH_PB188a_24-25_157_qa15_v3",
      "id_block": "block_2",
      "question": "Qu'est ce qui devait encore arriver dans les années à venir ?",
      "answer": "les changements réactionnaires dans la politique industrielle",
      "answer_stringIds": [
        "string_105",
        "string_106",
        "string_107",
        "string_108",
        "string_109",
        "string_110",
        "string_111",
        "string_112"
      ]
    },
    {
      "id_qa": "FMSH_PB188a_24-25_157_qa18_v3",
      "id_block": "block_2",
      "question": "Qu'est ce qui allait de pair avec des changements réactionnaires dans la structure interne du Parti ?",
      "answer": "les changements réactionnaires dans la politique industrielle",
      "answer_stringIds": [
        "string_105",
        "string_106",
        "string_107",
        "string_108",
        "string_109",
        "string_110",
        "string_111",
        "string_112"
      ]
    },
    {
      "id_qa": "FMSH_PB188a_24-25_157_qa19_v3",
      "id_block": "block_2",
      "question": "Quand les changements réactionnaires dans la politique industrielle ont-ils eu lieu ?",
      "answer": "avant",
      "answer_stringIds": [
        "string_91"
      ]
    },
    {
      "id_qa": "FMSH_PB188a_24-25_157_qa25_v3",
      "id_block": "block_4",
      "question": "Qui est à la tête du Commissariat aux transports ?",
      "answer": "Trotsky",
      "answer_stringIds": [
        "string_127"
      ]
    }
  ]
}