{
  "num": "autog_0338-7259_1973_num_24_1",
  "article": "autog_0338-7259_1973_num_24_1_1103",
  "page_name": "FMSH_PB188a_24-25_043",
  "questions": [
    {
      "id_qa": "FMSH_PB188a_24-25_043_qa0_v3",
      "id_block": "block_2",
      "question": "Quand la Russie abandonnait-elle le vieux calendrier Julien ?",
      "answer": "Le 14 février 1918",
      "answer_stringIds": [
        "string_6",
        "string_7",
        "string_8",
        "string_9"
      ]
    },
    {
      "id_qa": "FMSH_PB188a_24-25_043_qa2_v3",
      "id_block": "block_2",
      "question": "Quel pays abandonna le vieux calendrier Julien ?",
      "answer": "la Russie",
      "answer_stringIds": [
        "string_10",
        "string_11"
      ]
    },
    {
      "id_qa": "FMSH_PB188a_24-25_043_qa3_v3",
      "id_block": "block_2",
      "question": "Quand la Russie abandonnaïit-elle le vieux calendrier Julien ?",
      "answer": "Le 14 février 1918",
      "answer_stringIds": [
        "string_6",
        "string_7",
        "string_8",
        "string_9"
      ]
    },
    {
      "id_qa": "FMSH_PB188a_24-25_043_qa5_v3",
      "id_block": "block_2",
      "question": "Qui a abandonné le vieux calendrier Julien ?",
      "answer": "la Russie",
      "answer_stringIds": [
        "string_10",
        "string_11"
      ]
    },
    {
      "id_qa": "FMSH_PB188a_24-25_043_qa6_v3",
      "id_block": "block_2",
      "question": "Quelle est la date du ler Février ?",
      "answer": "le 14",
      "answer_stringIds": [
        "string_31",
        "string_32"
      ]
    }
  ]
}