{
  "num": "autog_0338-7259_1973_num_24_1",
  "article": "autog_0338-7259_1973_num_24_1_1103",
  "page_name": "FMSH_PB188a_24-25_163",
  "questions": [
    {
      "id_qa": "FMSH_PB188a_24-25_163_qa0_v3",
      "id_block": "block_1",
      "question": "Qui fut Commissaire aux Fransports ?",
      "answer": "Trotsky",
      "answer_stringIds": [
        "string_2"
      ]
    },
    {
      "id_qa": "FMSH_PB188a_24-25_163_qa2_v3",
      "id_block": "block_1",
      "question": "Qu'obtient Trotsky ?",
      "answer": "des pouvoirs exceptionnels",
      "answer_stringIds": [
        "string_7",
        "string_8",
        "string_9",
        "string_10"
      ]
    },
    {
      "id_qa": "FMSH_PB188a_24-25_163_qa5_v3",
      "id_block": "block_1",
      "question": "Qui était le chef du syndicat des cheminots ?",
      "answer": "Trotsky",
      "answer_stringIds": [
        "string_2"
      ]
    },
    {
      "id_qa": "FMSH_PB188a_24-25_163_qa8_v3",
      "id_block": "block_1",
      "question": "Qui désigna les chefs du syndicat des cheminots ?",
      "answer": "Trotsky",
      "answer_stringIds": [
        "string_2"
      ]
    },
    {
      "id_qa": "FMSH_PB188a_24-25_163_qa14_v3",
      "id_block": "block_1",
      "question": "Qui a mis sous le régime de la loi martiale ?",
      "answer": "tout le personnel des chemins de fer et des ateliers de réparation",
      "answer_stringIds": [
        "string_28",
        "string_29",
        "string_30",
        "string_31",
        "string_32",
        "string_33",
        "string_34",
        "string_35",
        "string_36",
        "string_37",
        "string_38",
        "string_39"
      ]
    },
    {
      "id_qa": "FMSH_PB188a_24-25_163_qa15_v3",
      "id_block": "block_1",
      "question": "Quel était le rôle de la loi martiale ?",
      "answer": "à mettre tout le personnel des chemins de fer et des ateliers de réparation",
      "answer_stringIds": [
        "string_26",
        "string_27",
        "string_28",
        "string_29",
        "string_30",
        "string_31",
        "string_32",
        "string_33",
        "string_34",
        "string_35",
        "string_36",
        "string_37",
        "string_38",
        "string_39"
      ]
    },
    {
      "id_qa": "FMSH_PB188a_24-25_163_qa26_v3",
      "id_block": "block_1",
      "question": "Dans quel syndicat il répéta-t-il cette mesure ?",
      "answer": "cette mesure dans les autres syndicats ouvriers des transports",
      "answer_stringIds": [
        "string_80",
        "string_81",
        "string_82",
        "string_83",
        "string_84",
        "string_85",
        "string_86",
        "string_87",
        "string_88"
      ]
    },
    {
      "id_qa": "FMSH_PB188a_24-25_163_qa10_v3",
      "id_block": "block_3",
      "question": "Qui a été incapable d'obtenir l'appui des masses russes ?",
      "answer": "Trotsky",
      "answer_stringIds": [
        "string_2"
      ]
    },
    {
      "id_qa": "FMSH_PB188a_24-25_163_qa12_v3",
      "id_block": "block_3",
      "question": "Qui fut incapable d'obtenir l'appui des masses russes dans sa lutte contre la bureaucratie « stalinienne ?",
      "answer": "Trotsky",
      "answer_stringIds": [
        "string_2"
      ]
    },
    {
      "id_qa": "FMSH_PB188a_24-25_163_qa19_v3",
      "id_block": "block_3",
      "question": "Quel est le nom de l'entreprise qu'il dirigea ?",
      "answer": "le Tsektran",
      "answer_stringIds": [
        "string_157",
        "string_158"
      ]
    },
    {
      "id_qa": "FMSH_PB188a_24-25_163_qa28_v3",
      "id_block": "block_3",
      "question": "Qui fut placé à sa tête ?",
      "answer": "Trotsky",
      "answer_stringIds": [
        "string_2"
      ]
    },
    {
      "id_qa": "FMSH_PB188a_24-25_163_qa25_v3",
      "id_block": "block_4",
      "question": "Qui a présenté le rapport officiel ?",
      "answer": "Zinoviev",
      "answer_stringIds": [
        "string_249"
      ]
    }
  ]
}