{
  "num": "autog_0338-7259_1973_num_24_1",
  "article": "autog_0338-7259_1973_num_24_1_1103",
  "page_name": "FMSH_PB188a_24-25_129",
  "questions": [
    {
      "id_qa": "FMSH_PB188a_24-25_129_qa0_v3",
      "id_block": "block_1",
      "question": "Qu'est-ce que les visionnaires romantiques ?",
      "answer": "des utopies pastorales",
      "answer_stringIds": [
        "string_218",
        "string_219",
        "string_220"
      ]
    },
    {
      "id_qa": "FMSH_PB188a_24-25_129_qa6_v3",
      "id_block": "block_1",
      "question": "Pour quoi Lénine et ses partisans ont-ils créé une nouvelle structure de classe ?",
      "answer": "leur soif de pouvoir",
      "answer_stringIds": [
        "string_103",
        "string_104",
        "string_105",
        "string_106"
      ]
    },
    {
      "id_qa": "FMSH_PB188a_24-25_129_qa8_v3",
      "id_block": "block_1",
      "question": "Qui est accusé d'avoir trompé la classe ouvrière ?",
      "answer": "les boicheviks",
      "answer_stringIds": [
        "string_65",
        "string_66"
      ]
    },
    {
      "id_qa": "FMSH_PB188a_24-25_129_qa11_v3",
      "id_block": "block_1",
      "question": "Qui a trompé les boicheviks ?",
      "answer": "la classe ouvrière",
      "answer_stringIds": [
        "string_72",
        "string_73",
        "string_74"
      ]
    }
  ]
}