{
  "num": "autog_0338-7259_1973_num_24_1",
  "article": "autog_0338-7259_1973_num_24_1_1103",
  "page_name": "FMSH_PB188a_24-25_111",
  "questions": [
    {
      "id_qa": "FMSH_PB188a_24-25_111_qa7_v3",
      "id_block": "block_1",
      "question": "Qui refuserait de se soumettre à la discipline syndicale ?",
      "answer": "des groupes isolés de travailleurs",
      "answer_stringIds": [
        "string_13",
        "string_14",
        "string_15",
        "string_16",
        "string_17"
      ]
    },
    {
      "id_qa": "FMSH_PB188a_24-25_111_qa8_v3",
      "id_block": "block_1",
      "question": "Qu'est-ce qui pourrait être expulsé si des groupes isolés de travailleurs refusent de se soumettre à la discipline syndicale ?",
      "answer": "être expulsés du syndicat",
      "answer_stringIds": [
        "string_32",
        "string_33",
        "string_34",
        "string_35"
      ]
    },
    {
      "id_qa": "FMSH_PB188a_24-25_111_qa10_v3",
      "id_block": "block_1",
      "question": "Qu'est-ce qui pourrait être expulsé du syndicat ?",
      "answer": "des groupes",
      "answer_stringIds": [
        "string_13",
        "string_14"
      ]
    },
    {
      "id_qa": "FMSH_PB188a_24-25_111_qa11_v3",
      "id_block": "block_1",
      "question": "Qui refusaient de se soumettre à la discipline syndicale ?",
      "answer": "des groupes isolés de travailleurs",
      "answer_stringIds": [
        "string_13",
        "string_14",
        "string_15",
        "string_16",
        "string_17"
      ]
    },
    {
      "id_qa": "FMSH_PB188a_24-25_111_qa12_v3",
      "id_block": "block_1",
      "question": "Que refusaient les groupes isolés de travailleurs ?",
      "answer": "se soumettre à la discipline syndicale",
      "answer_stringIds": [
        "string_21",
        "string_22",
        "string_23",
        "string_24",
        "string_25",
        "string_26"
      ]
    },
    {
      "id_qa": "FMSH_PB188a_24-25_111_qa14_v3",
      "id_block": "block_1",
      "question": "De qui les groupes isolés de travailleurs pourraient-ils être expulsés ?",
      "answer": "du syndicat",
      "answer_stringIds": [
        "string_34",
        "string_35"
      ]
    },
    {
      "id_qa": "FMSH_PB188a_24-25_111_qa24_v3",
      "id_block": "block_1",
      "question": "Quel est le but de la productivité ?",
      "answer": "le travailleur",
      "answer_stringIds": [
        "string_7",
        "string_8"
      ]
    },
    {
      "id_qa": "FMSH_PB188a_24-25_111_qa26_v3",
      "id_block": "block_3",
      "question": "Qui fait des descentes dans 26 centres anarchistes de Moscou ?",
      "answer": "Des détachements armés de la Tchéka",
      "answer_stringIds": [
        "string_48",
        "string_49",
        "string_50",
        "string_51",
        "string_52",
        "string_53"
      ]
    },
    {
      "id_qa": "FMSH_PB188a_24-25_111_qa3_v3",
      "id_block": "block_5",
      "question": "Qu'est ce qui menace d'asservir la classe ouvrière ?",
      "answer": "accroître",
      "answer_stringIds": [
        "string_241"
      ]
    },
    {
      "id_qa": "FMSH_PB188a_24-25_111_qa15_v3",
      "id_block": "block_5",
      "question": "Qui dénonçait la politique du travail ?",
      "answer": "La revue",
      "answer_stringIds": [
        "string_152",
        "string_153"
      ]
    },
    {
      "id_qa": "FMSH_PB188a_24-25_111_qa16_v3",
      "id_block": "block_5",
      "question": "A quoi servait la politique du travail ?",
      "answer": "à imposer une discipline aux travailleurs",
      "answer_stringIds": [
        "string_160",
        "string_161",
        "string_162",
        "string_163",
        "string_164",
        "string_165"
      ]
    },
    {
      "id_qa": "FMSH_PB188a_24-25_111_qa18_v3",
      "id_block": "block_5",
      "question": "Qu'est-ce que la politique du travail ?",
      "answer": "une discipline",
      "answer_stringIds": [
        "string_162",
        "string_163"
      ]
    },
    {
      "id_qa": "FMSH_PB188a_24-25_111_qa20_v3",
      "id_block": "block_5",
      "question": "A qui est destiné la politique du travail ?",
      "answer": "aux travailleurs",
      "answer_stringIds": [
        "string_164",
        "string_165"
      ]
    },
    {
      "id_qa": "FMSH_PB188a_24-25_111_qa21_v3",
      "id_block": "block_5",
      "question": "Qu'est-ce qui est maintenant largement discuté dans le Parti ?",
      "answer": "Le problème du contrôle ouvrier",
      "answer_stringIds": [
        "string_94",
        "string_95",
        "string_96",
        "string_97",
        "string_98"
      ]
    }
  ]
}