{
  "num": "autog_0338-7259_1973_num_24_1",
  "article": "autog_0338-7259_1973_num_24_1_1103",
  "page_name": "FMSH_PB188a_24-25_073",
  "questions": [
    {
      "id_qa": "FMSH_PB188a_24-25_073_qa1_v3",
      "id_block": "block_1",
      "question": "Qui fut l'instrument privilégié des boicheviks dans leurs efforts pour détruire le pouvoir autonome des Comités d'usine ?",
      "answer": "les syndicats",
      "answer_stringIds": [
        "string_129",
        "string_130"
      ]
    },
    {
      "id_qa": "FMSH_PB188a_24-25_073_qa10_v3",
      "id_block": "block_1",
      "question": "Quelle fonction exerçait les délégués de cette entreprise ?",
      "answer": "le contrôle ouvrier",
      "answer_stringIds": [
        "string_206",
        "string_207",
        "string_208"
      ]
    },
    {
      "id_qa": "FMSH_PB188a_24-25_073_qa11_v3",
      "id_block": "block_1",
      "question": "A qui les délégués de cette entreprise devaient-ils rendre compte ?",
      "answer": "compte de leur activité à une autorité supérieure",
      "answer_stringIds": [
        "string_323",
        "string_324",
        "string_325",
        "string_326",
        "string_327",
        "string_328",
        "string_329",
        "string_330"
      ]
    },
    {
      "id_qa": "FMSH_PB188a_24-25_073_qa12_v3",
      "id_block": "block_1",
      "question": "Qui devait rendre compte de leur activité à une autorité supérieure ?",
      "answer": "Les délégués de cette entreprise",
      "answer_stringIds": [
        "string_308",
        "string_309",
        "string_310",
        "string_311",
        "string_312",
        "string_313"
      ]
    },
    {
      "id_qa": "FMSH_PB188a_24-25_073_qa14_v3",
      "id_block": "block_1",
      "question": "Qui était responsable du contrôle ouvrier ?",
      "answer": "Les délégués de cette entreprise",
      "answer_stringIds": [
        "string_308",
        "string_309",
        "string_310",
        "string_311",
        "string_312",
        "string_313"
      ]
    },
    {
      "id_qa": "FMSH_PB188a_24-25_073_qa17_v3",
      "id_block": "block_1",
      "question": "Qu'est ce qui est obligatoire pour les propriétaires des entreprises ?",
      "answer": "les décisions",
      "answer_stringIds": [
        "string_102",
        "string_103"
      ]
    },
    {
      "id_qa": "FMSH_PB188a_24-25_073_qa19_v3",
      "id_block": "block_1",
      "question": "Qui pouvait annuler les décisions prises par les représentants élus des ouvriers et des employés ?",
      "answer": "les syndicats et",
      "answer_stringIds": [
        "string_129",
        "string_130",
        "string_131"
      ]
    },
    {
      "id_qa": "FMSH_PB188a_24-25_073_qa23_v3",
      "id_block": "block_1",
      "question": "Qui est responsable devant l'Etat de l'ordre le plus strict ?",
      "answer": "les délégués",
      "answer_stringIds": [
        "string_201",
        "string_202"
      ]
    }
  ]
}