{
  "num": "autog_0338-7259_1973_num_24_1",
  "article": "autog_0338-7259_1973_num_24_1_1103",
  "page_name": "FMSH_PB188a_24-25_167",
  "questions": [
    {
      "id_qa": "FMSH_PB188a_24-25_167_qa0_v3",
      "id_block": "block_1",
      "question": "Qui était décrit comme patriache des bureaucrates ?",
      "answer": "Trotsky",
      "answer_stringIds": [
        "string_38"
      ]
    },
    {
      "id_qa": "FMSH_PB188a_24-25_167_qa1_v3",
      "id_block": "block_1",
      "question": "Comment Staline qualifie-t-il Trotsky ?",
      "answer": "comme ie « patriache des bureaucrates",
      "answer_stringIds": [
        "string_39",
        "string_40",
        "string_41",
        "string_42",
        "string_43",
        "string_44"
      ]
    },
    {
      "id_qa": "FMSH_PB188a_24-25_167_qa3_v3",
      "id_block": "block_1",
      "question": "Qui a décrit Trotsky comme patriache des bureaucrates ?",
      "answer": "Staline",
      "answer_stringIds": [
        "string_33"
      ]
    },
    {
      "id_qa": "FMSH_PB188a_24-25_167_qa6_v3",
      "id_block": "block_1",
      "question": "Qu'exige la militarisation des syndicats ?",
      "answer": "une militarisation interne idéologique",
      "answer_stringIds": [
        "string_27",
        "string_28",
        "string_29",
        "string_30"
      ]
    },
    {
      "id_qa": "FMSH_PB188a_24-25_167_qa7_v3",
      "id_block": "block_1",
      "question": "Qu'exige la militarisation interne idéologique ?",
      "answer": "La militarisation des syndicats et la militarisation des transports",
      "answer_stringIds": [
        "string_17",
        "string_18",
        "string_19",
        "string_20",
        "string_21",
        "string_22",
        "string_23",
        "string_24",
        "string_25"
      ]
    },
    {
      "id_qa": "FMSH_PB188a_24-25_167_qa8_v3",
      "id_block": "block_1",
      "question": "Qui a été désavoué par le Comité Central ?",
      "answer": "Trotsky",
      "answer_stringIds": [
        "string_38"
      ]
    },
    {
      "id_qa": "FMSH_PB188a_24-25_167_qa9_v3",
      "id_block": "block_1",
      "question": "A qui Trotsky s'adressa-t-il avec irritation ?",
      "answer": "à Lénine et aux autres membres du Comité",
      "answer_stringIds": [
        "string_62",
        "string_63",
        "string_64",
        "string_65",
        "string_66",
        "string_67",
        "string_68",
        "string_69"
      ]
    },
    {
      "id_qa": "FMSH_PB188a_24-25_167_qa10_v3",
      "id_block": "block_1",
      "question": "A qui Trotsky rappela-t-il avec irritation ?",
      "answer": "à Lénine et aux autres membres du Comité",
      "answer_stringIds": [
        "string_62",
        "string_63",
        "string_64",
        "string_65",
        "string_66",
        "string_67",
        "string_68",
        "string_69"
      ]
    },
    {
      "id_qa": "FMSH_PB188a_24-25_167_qa15_v3",
      "id_block": "block_1",
      "question": "Qui a désavoué Trotsky ?",
      "answer": "le Comité Central",
      "answer_stringIds": [
        "string_52",
        "string_53",
        "string_54"
      ]
    },
    {
      "id_qa": "FMSH_PB188a_24-25_167_qa16_v3",
      "id_block": "block_3",
      "question": "Sur quoi est érroné le terme démocratie dans la production ?",
      "answer": "sur le plan théorique",
      "answer_stringIds": [
        "string_154",
        "string_155",
        "string_156",
        "string_157",
        "string_158"
      ]
    },
    {
      "id_qa": "FMSH_PB188a_24-25_167_qa18_v3",
      "id_block": "block_3",
      "question": "Qu'est ce qui devait rendre Lénine furieux ?",
      "answer": "une résolution sur la « démocratie dans la production",
      "answer_stringIds": [
        "string_122",
        "string_123",
        "string_124",
        "string_125",
        "string_126",
        "string_127",
        "string_128",
        "string_129",
        "string_130"
      ]
    },
    {
      "id_qa": "FMSH_PB188a_24-25_167_qa21_v3",
      "id_block": "block_3",
      "question": "Qui a présenté une résolution sur la démocratie dans la production ?",
      "answer": "du Comité Central Boukharine",
      "answer_stringIds": [
        "string_117",
        "string_118",
        "string_119",
        "string_120"
      ]
    },
    {
      "id_qa": "FMSH_PB188a_24-25_167_qa22_v3",
      "id_block": "block_3",
      "question": "Que devait rendre Lénine sur la \"démocratie dans la production\" ?",
      "answer": "furieux",
      "answer_stringIds": [
        "string_137"
      ]
    }
  ]
}