{
  "num": "autog_0338-7259_1973_num_24_1",
  "article": "autog_0338-7259_1973_num_24_1_1103",
  "page_name": "FMSH_PB188a_24-25_207",
  "questions": [
    {
      "id_qa": "FMSH_PB188a_24-25_207_qa0_v3",
      "id_block": "block_1",
      "question": "Sur quoi nous reviendrons-nous au fur et à mesure de sa parution ?",
      "answer": "cette importante réédition",
      "answer_stringIds": [
        "string_6",
        "string_7",
        "string_8"
      ]
    },
    {
      "id_qa": "FMSH_PB188a_24-25_207_qa12_v3",
      "id_block": "block_2",
      "question": "Dans quel journal Arthur Lehning a-t-il écrit en 1929 ?",
      "answer": "dans Die Internationale",
      "answer_stringIds": [
        "string_84",
        "string_85",
        "string_86"
      ]
    },
    {
      "id_qa": "FMSH_PB188a_24-25_207_qa22_v3",
      "id_block": "block_2",
      "question": "Qui trahit les soviets ?",
      "answer": "par les bolchéviks",
      "answer_stringIds": [
        "string_22",
        "string_23",
        "string_24"
      ]
    },
    {
      "id_qa": "FMSH_PB188a_24-25_207_qa1_v3",
      "id_block": "block_3",
      "question": "A quoi a dû subir l'évolution de la doctrine syndicale de Lénine ?",
      "answer": "subir sous",
      "answer_stringIds": [
        "string_169",
        "string_170"
      ]
    },
    {
      "id_qa": "FMSH_PB188a_24-25_207_qa3_v3",
      "id_block": "block_3",
      "question": "Qu'a dû subir la doctrine syndicale de Lénine ?",
      "answer": "les modifications",
      "answer_stringIds": [
        "string_164",
        "string_165"
      ]
    },
    {
      "id_qa": "FMSH_PB188a_24-25_207_qa4_v3",
      "id_block": "block_3",
      "question": "Qu'est ce qui a dû subir l'évolution de la doctrine syndicale de Lénine ?",
      "answer": "des expériences",
      "answer_stringIds": [
        "string_172",
        "string_173"
      ]
    },
    {
      "id_qa": "FMSH_PB188a_24-25_207_qa13_v3",
      "id_block": "block_3",
      "question": "Quand a été publiée cette étude du dirigeant menchevik ?",
      "answer": "en 1935",
      "answer_stringIds": [
        "string_139",
        "string_140"
      ]
    },
    {
      "id_qa": "FMSH_PB188a_24-25_207_qa14_v3",
      "id_block": "block_3",
      "question": "Qu'est ce qui a été publié en France en 1931 ?",
      "answer": "Cette étude du dirigeant menchevik",
      "answer_stringIds": [
        "string_124",
        "string_125",
        "string_126",
        "string_127",
        "string_128",
        "string_129"
      ]
    },
    {
      "id_qa": "FMSH_PB188a_24-25_207_qa15_v3",
      "id_block": "block_3",
      "question": "Où a été publiée cette étude du dirigeant menchevik ?",
      "answer": "en France",
      "answer_stringIds": [
        "string_67",
        "string_68"
      ]
    },
    {
      "id_qa": "FMSH_PB188a_24-25_207_qa17_v3",
      "id_block": "block_3",
      "question": "A qui s'adresse la documentation de Lénine ?",
      "answer": "au lecteur",
      "answer_stringIds": [
        "string_201",
        "string_202"
      ]
    },
    {
      "id_qa": "FMSH_PB188a_24-25_207_qa19_v3",
      "id_block": "block_3",
      "question": "Pour quelle raison la documentation doit être aussi complète que possible ?",
      "answer": "pour faciliter son propre examen de la doctrine syndicale de Lénine",
      "answer_stringIds": [
        "string_210",
        "string_211",
        "string_212",
        "string_213",
        "string_214",
        "string_215",
        "string_216",
        "string_217",
        "string_218",
        "string_219",
        "string_220"
      ]
    },
    {
      "id_qa": "FMSH_PB188a_24-25_207_qa20_v3",
      "id_block": "block_3",
      "question": "Qu'est-ce qui était important pour le lecteur ?",
      "answer": "de donner au lecteur une documentation authentique aussi complète que possible pour faciliter son propre examen de la doctrine syndicale de Lénine",
      "answer_stringIds": [
        "string_199",
        "string_200",
        "string_201",
        "string_202",
        "string_203",
        "string_204",
        "string_205",
        "string_206",
        "string_207",
        "string_208",
        "string_209",
        "string_210",
        "string_211",
        "string_212",
        "string_213",
        "string_214",
        "string_215",
        "string_216",
        "string_217",
        "string_218",
        "string_219",
        "string_220"
      ]
    }
  ]
}