{
  "num": "autog_0338-7259_1973_num_24_1",
  "article": "autog_0338-7259_1973_num_24_1_1103",
  "page_name": "FMSH_PB188a_24-25_127",
  "questions": [
    {
      "id_qa": "FMSH_PB188a_24-25_127_qa20_v3",
      "id_block": "block_1",
      "question": "Qu'est-ce que la \"politique du travail\" ?",
      "answer": "une affaire de stratégie militaire",
      "answer_stringIds": [
        "string_61",
        "string_62",
        "string_63",
        "string_64",
        "string_65"
      ]
    },
    {
      "id_qa": "FMSH_PB188a_24-25_127_qa22_v3",
      "id_block": "block_1",
      "question": "Qu'est ce qui tendait à transformer toutes les industries importantes en sources de ravitaillement de l'Armée Rouge ?",
      "answer": "la Guerre Civile",
      "answer_stringIds": [
        "string_37",
        "string_38",
        "string_39"
      ]
    },
    {
      "id_qa": "FMSH_PB188a_24-25_127_qa24_v3",
      "id_block": "block_1",
      "question": "Qu'est ce que la Guerre Civile tendait à transformer en sources de ravitaillement de l'Armée Rouge ?",
      "answer": "toutes les industries importantes",
      "answer_stringIds": [
        "string_43",
        "string_44",
        "string_45",
        "string_46"
      ]
    },
    {
      "id_qa": "FMSH_PB188a_24-25_127_qa34_v3",
      "id_block": "block_2",
      "question": "Qu'est-ce qui peut aller de pair avec l'absence de démocratie ?",
      "answer": "la décentralisation",
      "answer_stringIds": [
        "string_85",
        "string_86"
      ]
    },
    {
      "id_qa": "FMSH_PB188a_24-25_127_qa35_v3",
      "id_block": "block_2",
      "question": "Qu'est-ce qui peut aller avec l'absence de démocratie ?",
      "answer": "la décentralisation",
      "answer_stringIds": [
        "string_85",
        "string_86"
      ]
    },
    {
      "id_qa": "FMSH_PB188a_24-25_127_qa1_v3",
      "id_block": "block_3",
      "question": "Qu'est-ce qui est à l'origine des difficultés croissantes que rencontrait un mouvement social ?",
      "answer": "des travailleurs",
      "answer_stringIds": [
        "string_278",
        "string_279"
      ]
    },
    {
      "id_qa": "FMSH_PB188a_24-25_127_qa4_v3",
      "id_block": "block_3",
      "question": "Qu'est-ce qui venait de naître ?",
      "answer": "un mouvement social",
      "answer_stringIds": [
        "string_263",
        "string_264",
        "string_265"
      ]
    },
    {
      "id_qa": "FMSH_PB188a_24-25_127_qa5_v3",
      "id_block": "block_3",
      "question": "Qu'est-ce qui était à l'origine des difficultés croissantes que rencontraient les travailleurs ?",
      "answer": "un mouvement social qui",
      "answer_stringIds": [
        "string_263",
        "string_264",
        "string_265",
        "string_266"
      ]
    },
    {
      "id_qa": "FMSH_PB188a_24-25_127_qa14_v3",
      "id_block": "block_3",
      "question": "Qu'est ce qui explique la baisse de la production ?",
      "answer": "un ensemble complexe de facteurs",
      "answer_stringIds": [
        "string_198",
        "string_199",
        "string_200",
        "string_201",
        "string_202"
      ]
    },
    {
      "id_qa": "FMSH_PB188a_24-25_127_qa36_v3",
      "id_block": "block_4",
      "question": "Quel est le métier de Trotsky ?",
      "answer": "le prophète",
      "answer_stringIds": [
        "string_303",
        "string_304"
      ]
    }
  ]
}