{
  "num": "autog_0338-7259_1973_num_24_1",
  "article": "autog_0338-7259_1973_num_24_1_1103",
  "page_name": "FMSH_PB188a_24-25_069",
  "questions": [
    {
      "id_qa": "FMSH_PB188a_24-25_069_qa1_v3",
      "id_block": "block_1",
      "question": "Qu'est-ce que les mencheviks ont accusé d'abandonner en 1917 ?",
      "answer": "le marxisme",
      "answer_stringIds": [
        "string_33",
        "string_34"
      ]
    },
    {
      "id_qa": "FMSH_PB188a_24-25_069_qa2_v3",
      "id_block": "block_1",
      "question": "Qui a accusé les mencheviks d'abandonner le marxisme ?",
      "answer": "des bolcheviks",
      "answer_stringIds": [
        "string_12",
        "string_13"
      ]
    },
    {
      "id_qa": "FMSH_PB188a_24-25_069_qa3_v3",
      "id_block": "block_1",
      "question": "Qui a accusé les bolcheviks d'abandonner le marxisme ?",
      "answer": "les mencheviks",
      "answer_stringIds": [
        "string_23",
        "string_24"
      ]
    },
    {
      "id_qa": "FMSH_PB188a_24-25_069_qa4_v3",
      "id_block": "block_1",
      "question": "Que reproche les mencheviks aux Comités d'usine en 1917 ?",
      "answer": "abandonner » le marxisme et de défendre des positions anarchistes",
      "answer_stringIds": [
        "string_31",
        "string_32",
        "string_33",
        "string_34",
        "string_35",
        "string_36",
        "string_37",
        "string_38",
        "string_39",
        "string_40"
      ]
    },
    {
      "id_qa": "FMSH_PB188a_24-25_069_qa6_v3",
      "id_block": "block_1",
      "question": "Qui écrit que Lénine et ses camarades restaient fermement attachés à la conception marxiste de l'Etat centralisé ?",
      "answer": "Deutscher",
      "answer_stringIds": [
        "string_45"
      ]
    },
    {
      "id_qa": "FMSH_PB188a_24-25_069_qa7_v3",
      "id_block": "block_1",
      "question": "Qui adhérait à la conception marxiste de l'Etat centralisé ?",
      "answer": "Lénine et ses camarades",
      "answer_stringIds": [
        "string_47",
        "string_48",
        "string_49",
        "string_50"
      ]
    },
    {
      "id_qa": "FMSH_PB188a_24-25_069_qa12_v3",
      "id_block": "block_1",
      "question": "Qui apporta son soutien à l'idée du contrôle ouvrier ?",
      "answer": "les bolcheviks",
      "answer_stringIds": [
        "string_146",
        "string_147",
        "string_148"
      ]
    },
    {
      "id_qa": "FMSH_PB188a_24-25_069_qa14_v3",
      "id_block": "block_1",
      "question": "Où sont créés les Comités d'usine ?",
      "answer": "sur les lieux mêmes de travail",
      "answer_stringIds": [
        "string_107",
        "string_108",
        "string_109",
        "string_110",
        "string_111",
        "string_112"
      ]
    },
    {
      "id_qa": "FMSH_PB188a_24-25_069_qa16_v3",
      "id_block": "block_3",
      "question": "Qui a organisé la première Conférence Panrusse des Comités d'usine ?",
      "answer": "par Novy Put",
      "answer_stringIds": [
        "string_226",
        "string_227",
        "string_228"
      ]
    }
  ]
}