{
  "num": "autog_0338-7259_1973_num_24_1",
  "article": "autog_0338-7259_1973_num_24_1_1103",
  "page_name": "FMSH_PB188a_24-25_084",
  "questions": [
    {
      "id_qa": "FMSH_PB188a_24-25_084_qa0_v3",
      "id_block": "block_1",
      "question": "Qu'est ce que le Conseil était censé remplacer ?",
      "answer": "le mécanisme du contrôle ouvrier",
      "answer_stringIds": [
        "string_164",
        "string_165",
        "string_166",
        "string_167",
        "string_168"
      ]
    },
    {
      "id_qa": "FMSH_PB188a_24-25_084_qa15_v3",
      "id_block": "block_1",
      "question": "Qui a déclaré que la création du Conseil Suprême de l'économie nationale était un changement important ?",
      "answer": "Lénine",
      "answer_stringIds": [
        "string_123"
      ]
    },
    {
      "id_qa": "FMSH_PB188a_24-25_084_qa19_v3",
      "id_block": "block_1",
      "question": "Qui reconnurent qu'il s'agissait d'un pas vers l'étatisation ?",
      "answer": "Les bolcheviks",
      "answer_stringIds": [
        "string_82",
        "string_83"
      ]
    },
    {
      "id_qa": "FMSH_PB188a_24-25_084_qa20_v3",
      "id_block": "block_1",
      "question": "Qui obtinrent la majorité des postes dirigeants de la Vésenka ?",
      "answer": "les bolcheviks de « gauche",
      "answer_stringIds": [
        "string_18",
        "string_19",
        "string_20",
        "string_21",
        "string_22"
      ]
    },
    {
      "id_qa": "FMSH_PB188a_24-25_084_qa25_v3",
      "id_block": "block_1",
      "question": "Comment s'appelle le nouvel organisme ?",
      "answer": "le « Conseil Panrusse du Contrôle Ouvrier",
      "answer_stringIds": [
        "string_66",
        "string_67",
        "string_68",
        "string_69",
        "string_70",
        "string_71",
        "string_72"
      ]
    },
    {
      "id_qa": "FMSH_PB188a_24-25_084_qa26_v3",
      "id_block": "block_1",
      "question": "Qu'est-ce que le Conseil Panrusse du Contrôle Ouvrier ?",
      "answer": "le nouvel organisme",
      "answer_stringIds": [
        "string_60",
        "string_61",
        "string_62"
      ]
    },
    {
      "id_qa": "FMSH_PB188a_24-25_084_qa5_v3",
      "id_block": "block_2",
      "question": "Qu'est-ce que les Comités d'usine ?",
      "answer": "à transformer les rapports de production",
      "answer_stringIds": [
        "string_227",
        "string_228",
        "string_229",
        "string_230",
        "string_231",
        "string_232"
      ]
    },
    {
      "id_qa": "FMSH_PB188a_24-25_084_qa6_v3",
      "id_block": "block_2",
      "question": "Qu'est-ce qui est à l'origine du mouvement des Comités d'usine ?",
      "answer": "les rapports de production",
      "answer_stringIds": [
        "string_229",
        "string_230",
        "string_231",
        "string_232"
      ]
    },
    {
      "id_qa": "FMSH_PB188a_24-25_084_qa7_v3",
      "id_block": "block_2",
      "question": "Qu'est ce qui a conduit au formidable soulèvement des Comités d'usine ?",
      "answer": "un mouvement qui",
      "answer_stringIds": [
        "string_219",
        "string_220",
        "string_221",
        "string_222"
      ]
    },
    {
      "id_qa": "FMSH_PB188a_24-25_084_qa9_v3",
      "id_block": "block_2",
      "question": "Qu'est ce qui ne pouvait que limiter l'autorité des travailleurs dans le processus de production ?",
      "answer": "sa domination",
      "answer_stringIds": [
        "string_269",
        "string_270"
      ]
    }
  ]
}