{
  "num": "autog_0338-7259_1973_num_24_1",
  "article": "autog_0338-7259_1973_num_24_1_1103",
  "page_name": "FMSH_PB188a_24-25_091",
  "questions": [
    {
      "id_qa": "FMSH_PB188a_24-25_091_qa25_v3",
      "id_block": "block_1",
      "question": "Qu'est ce qui pouvait s'effectuer à travers l'auto-émancipation de la classe ouvrière ?",
      "answer": "la marche vers le socialisme",
      "answer_stringIds": [
        "string_5",
        "string_6",
        "string_7",
        "string_8",
        "string_9"
      ]
    },
    {
      "id_qa": "FMSH_PB188a_24-25_091_qa26_v3",
      "id_block": "block_1",
      "question": "Qu'est ce qui ne pouvait s'effectuer qu'à travers l'auto-émancipation de la classe ouvrière ?",
      "answer": "la marche vers le socialisme",
      "answer_stringIds": [
        "string_5",
        "string_6",
        "string_7",
        "string_8",
        "string_9"
      ]
    },
    {
      "id_qa": "FMSH_PB188a_24-25_091_qa5_v3",
      "id_block": "block_3",
      "question": "Qu'est ce qui joue un rôle réel dans la gestion des entreprises ?",
      "answer": "les commissions de contrôle",
      "answer_stringIds": [
        "string_125",
        "string_126",
        "string_127",
        "string_128"
      ]
    },
    {
      "id_qa": "FMSH_PB188a_24-25_091_qa9_v3",
      "id_block": "block_3",
      "question": "Dans quelle mesure les commissions de contrôle joueraient-elles un rôle ?",
      "answer": "un rôle réel dans la gestion des entreprises",
      "answer_stringIds": [
        "string_130",
        "string_131",
        "string_132",
        "string_133",
        "string_134",
        "string_135",
        "string_136",
        "string_137"
      ]
    },
    {
      "id_qa": "FMSH_PB188a_24-25_091_qa11_v3",
      "id_block": "block_3",
      "question": "Quelle est la responsabilité de la commission de contrôle ?",
      "answer": "aucune responsabilité se rapportant à son fonctionnement",
      "answer_stringIds": [
        "string_208",
        "string_209",
        "string_210",
        "string_211",
        "string_212",
        "string_213",
        "string_214"
      ]
    },
    {
      "id_qa": "FMSH_PB188a_24-25_091_qa12_v3",
      "id_block": "block_3",
      "question": "Qui ne participe pas à la gestion de l'entreprise ?",
      "answer": "La commission de contrôle",
      "answer_stringIds": [
        "string_193",
        "string_194",
        "string_195",
        "string_196",
        "string_197"
      ]
    },
    {
      "id_qa": "FMSH_PB188a_24-25_091_qa18_v3",
      "id_block": "block_3",
      "question": "Qui publie les Jnstructions générales sur le contrôle ouvrier ?",
      "answer": "Les Jsvestiya",
      "answer_stringIds": [
        "string_28",
        "string_29"
      ]
    },
    {
      "id_qa": "FMSH_PB188a_24-25_091_qa19_v3",
      "id_block": "block_3",
      "question": "Quelle est la date de publication des Jsvestiya ?",
      "answer": "les Jnstructions générales sur le contrôle ouvrier conformément au décret du 14 novembre",
      "answer_stringIds": [
        "string_31",
        "string_32",
        "string_33",
        "string_34",
        "string_35",
        "string_36",
        "string_37",
        "string_38",
        "string_39",
        "string_40",
        "string_41",
        "string_42",
        "string_43"
      ]
    },
    {
      "id_qa": "FMSH_PB188a_24-25_091_qa28_v3",
      "id_block": "block_5",
      "question": "Qu'est ce qui dégénère parfois en une apologie subtile de la position léninienne ?",
      "answer": "article",
      "answer_stringIds": [
        "string_270"
      ]
    },
    {
      "id_qa": "FMSH_PB188a_24-25_091_qa29_v3",
      "id_block": "block_5",
      "question": "En quoi consiste l'article de D. L. Limon ?",
      "answer": "en une apologie « subtile » de la position léninienne",
      "answer_stringIds": [
        "string_285",
        "string_286",
        "string_287",
        "string_288",
        "string_289",
        "string_290",
        "string_291",
        "string_292",
        "string_293",
        "string_294"
      ]
    }
  ]
}