{
  "num": "autog_0338-7259_1973_num_24_1",
  "article": "autog_0338-7259_1973_num_24_1_1103",
  "page_name": "FMSH_PB188a_24-25_113",
  "questions": [
    {
      "id_qa": "FMSH_PB188a_24-25_113_qa0_v3",
      "id_block": "block_1",
      "question": "Qui est obligé de chercher l'appui d'une autre classe ?",
      "answer": "le pouvoir soviétique",
      "answer_stringIds": [
        "string_18",
        "string_19",
        "string_20",
        "string_21"
      ]
    },
    {
      "id_qa": "FMSH_PB188a_24-25_113_qa8_v3",
      "id_block": "block_1",
      "question": "Par qui sera établi le socialisme et l'organisation socialiste ?",
      "answer": "par le prolétariat lui-même",
      "answer_stringIds": [
        "string_58",
        "string_59",
        "string_60",
        "string_61"
      ]
    },
    {
      "id_qa": "FMSH_PB188a_24-25_113_qa23_v3",
      "id_block": "block_2",
      "question": "A quoi les communistes de gauche se sont-ils laissé prendre ?",
      "answer": "prendre à la provocation des Issouv",
      "answer_stringIds": [
        "string_146",
        "string_147",
        "string_148",
        "string_149",
        "string_150",
        "string_151"
      ]
    },
    {
      "id_qa": "FMSH_PB188a_24-25_113_qa26_v3",
      "id_block": "block_2",
      "question": "Qui est l'auteur des injures \"appropriées\"?",
      "answer": "Lénine",
      "answer_stringIds": [
        "string_79"
      ]
    },
    {
      "id_qa": "FMSH_PB188a_24-25_113_qa27_v3",
      "id_block": "block_2",
      "question": "Qui réagit violemment ?",
      "answer": "Lénine",
      "answer_stringIds": [
        "string_79"
      ]
    },
    {
      "id_qa": "FMSH_PB188a_24-25_113_qa9_v3",
      "id_block": "block_3",
      "question": "Qui pense que le capitalisme d'Etat russe doit être dénoncé ?",
      "answer": "Ceux qui",
      "answer_stringIds": [
        "string_299",
        "string_300"
      ]
    },
    {
      "id_qa": "FMSH_PB188a_24-25_113_qa10_v3",
      "id_block": "block_3",
      "question": "Quel est le nom de ceux qui prétendent dénoncer le capitalisme d'Etat ?",
      "answer": "être « léninistes",
      "answer_stringIds": [
        "string_306",
        "string_307",
        "string_308"
      ]
    },
    {
      "id_qa": "FMSH_PB188a_24-25_113_qa12_v3",
      "id_block": "block_3",
      "question": "Qui dénonce le capitalisme d'Etat russe ?",
      "answer": "Ceux",
      "answer_stringIds": [
        "string_299"
      ]
    },
    {
      "id_qa": "FMSH_PB188a_24-25_113_qa25_v3",
      "id_block": "block_4",
      "question": "Comment s'appelle l'oeuvre de Lénine ?",
      "answer": "Oeuvres",
      "answer_stringIds": [
        "string_335"
      ]
    }
  ]
}