{
  "num": "autog_0338-7259_1973_num_24_1",
  "article": "autog_0338-7259_1973_num_24_1_1103",
  "page_name": "FMSH_PB188a_24-25_175",
  "questions": [
    {
      "id_qa": "FMSH_PB188a_24-25_175_qa0_v3",
      "id_block": "block_1",
      "question": "Qui proposait une révision radicale de la politique des salaires ?",
      "answer": "lOpposition Ouvrière",
      "answer_stringIds": [
        "string_13",
        "string_14"
      ]
    },
    {
      "id_qa": "FMSH_PB188a_24-25_175_qa1_v3",
      "id_block": "block_1",
      "question": "Que proposait lOpposition Ouvrière ?",
      "answer": "une révision radicale de la politique des salaires dans un sens extrêmement égalitaire et qui présupposait une substitution graduelle du salaire en argent par des rémunérations en nature",
      "answer_stringIds": [
        "string_16",
        "string_17",
        "string_18",
        "string_19",
        "string_20",
        "string_21",
        "string_22",
        "string_23",
        "string_24",
        "string_25",
        "string_26",
        "string_27",
        "string_28",
        "string_29",
        "string_30",
        "string_31",
        "string_32",
        "string_33",
        "string_34",
        "string_35",
        "string_36",
        "string_37",
        "string_38",
        "string_39",
        "string_40",
        "string_41",
        "string_42",
        "string_43"
      ]
    },
    {
      "id_qa": "FMSH_PB188a_24-25_175_qa2_v3",
      "id_block": "block_1",
      "question": "Qu'est-ce que lOpposition Ouvrière proposait ?",
      "answer": "une révision radicale de la politique des salaires",
      "answer_stringIds": [
        "string_16",
        "string_17",
        "string_18",
        "string_19",
        "string_20",
        "string_21",
        "string_22",
        "string_23"
      ]
    }
  ]
}