{
  "num": "autog_0338-7259_1973_num_24_1",
  "article": "autog_0338-7259_1973_num_24_1_1103",
  "page_name": "FMSH_PB188a_24-25_085",
  "questions": [
    {
      "id_qa": "FMSH_PB188a_24-25_085_qa5_v3",
      "id_block": "block_1",
      "question": "Qu'est ce qui était particulièrement important pour les syndicats ?",
      "answer": "le pouvoir",
      "answer_stringIds": [
        "string_187",
        "string_188",
        "string_189"
      ]
    },
    {
      "id_qa": "FMSH_PB188a_24-25_085_qa2_v3",
      "id_block": "block_1",
      "question": "Par qui les syndicats étaient-ils influencés ?",
      "answer": "par la classe ouvrière",
      "answer_stringIds": [
        "string_175",
        "string_176",
        "string_177",
        "string_178"
      ]
    },
    {
      "id_qa": "FMSH_PB188a_24-25_085_qa3_v3",
      "id_block": "block_1",
      "question": "Qu'est ce qui a permis de détruire le pouvoir des syndicats ?",
      "answer": "une intense campagne",
      "answer_stringIds": [
        "string_147",
        "string_148",
        "string_149"
      ]
    },
    {
      "id_qa": "FMSH_PB188a_24-25_085_qa4_v3",
      "id_block": "block_1",
      "question": "Par qui est remplacé le pouvoir des syndicats ?",
      "answer": "par le Parti",
      "answer_stringIds": [
        "string_107",
        "string_108",
        "string_109"
      ]
    },
    {
      "id_qa": "FMSH_PB188a_24-25_085_qa6_v3",
      "id_block": "block_1",
      "question": "Qu'est ce qui était particulièrement important pour détruire les syndicats ?",
      "answer": "le pouvoir",
      "answer_stringIds": [
        "string_187",
        "string_188",
        "string_189"
      ]
    },
    {
      "id_qa": "FMSH_PB188a_24-25_085_qa8_v3",
      "id_block": "block_1",
      "question": "Quel était le but de la campagne lancée par les syndicats ?",
      "answer": "de détruire leur pouvoir",
      "answer_stringIds": [
        "string_156",
        "string_157",
        "string_158",
        "string_159"
      ]
    },
    {
      "id_qa": "FMSH_PB188a_24-25_085_qa9_v3",
      "id_block": "block_1",
      "question": "Quel est l'objectif de la Révolution russe ?",
      "answer": "son objectif socialiste",
      "answer_stringIds": [
        "string_301",
        "string_302",
        "string_303"
      ]
    },
    {
      "id_qa": "FMSH_PB188a_24-25_085_qa21_v3",
      "id_block": "block_1",
      "question": "Dans quelle ville fut évitée la direction communiste de gauche ?",
      "answer": "à la Vesenka",
      "answer_stringIds": [
        "string_124",
        "string_125",
        "string_126"
      ]
    },
    {
      "id_qa": "FMSH_PB188a_24-25_085_qa24_v3",
      "id_block": "block_1",
      "question": "Qu'est-ce que la société de classes ?",
      "answer": "la perpétuation de rapports hiérarchiques dans la production elle-même",
      "answer_stringIds": [
        "string_4",
        "string_5",
        "string_6",
        "string_7",
        "string_8",
        "string_9",
        "string_10",
        "string_11",
        "string_12",
        "string_13"
      ]
    },
    {
      "id_qa": "FMSH_PB188a_24-25_085_qa27_v3",
      "id_block": "block_1",
      "question": "A quoi était soumis le Conseil Panrusse du contrôle ouvrier ?",
      "answer": "la représentation des syndicats",
      "answer_stringIds": [
        "string_45",
        "string_46",
        "string_47",
        "string_48",
        "string_49"
      ]
    }
  ]
}