{
  "num": "autog_0338-7259_1973_num_24_1",
  "article": "autog_0338-7259_1973_num_24_1_1103",
  "page_name": "FMSH_PB188a_24-25_076",
  "questions": [
    {
      "id_qa": "FMSH_PB188a_24-25_076_qa4_v3",
      "id_block": "block_1",
      "question": "Qui reconnaît l'autorité du contrôle ouvrier ?",
      "answer": "le nouveau gouvernement",
      "answer_stringIds": [
        "string_110",
        "string_111",
        "string_112",
        "string_113"
      ]
    },
    {
      "id_qa": "FMSH_PB188a_24-25_076_qa6_v3",
      "id_block": "block_1",
      "question": "Quel était le projet du décret corrigé ?",
      "answer": "les 8 points du projet de Lénine",
      "answer_stringIds": [
        "string_79",
        "string_80",
        "string_81",
        "string_82",
        "string_83",
        "string_84",
        "string_85"
      ]
    },
    {
      "id_qa": "FMSH_PB188a_24-25_076_qa7_v3",
      "id_block": "block_1",
      "question": "Qui était majoritaire au sein de la nouvelle pyramide du contrôle ouvrier institutionalisé ?",
      "answer": "Les syndicats",
      "answer_stringIds": [
        "string_196",
        "string_197"
      ]
    },
    {
      "id_qa": "FMSH_PB188a_24-25_076_qa11_v3",
      "id_block": "block_1",
      "question": "Comment s'appelle le Conseil Panrusse des Syndicats ?",
      "answer": "Le Conseil Panrusse du Contrôle Ouvrier",
      "answer_stringIds": [
        "string_215",
        "string_216",
        "string_217",
        "string_218",
        "string_219",
        "string_220"
      ]
    }
  ]
}