{
  "num": "autog_0338-7259_1973_num_24_1",
  "article": "autog_0338-7259_1973_num_24_1_1103",
  "page_name": "FMSH_PB188a_24-25_177",
  "questions": [
    {
      "id_qa": "FMSH_PB188a_24-25_177_qa8_v3",
      "id_block": "block_2",
      "question": "Qu'utilisa-t-on avant l'ouverture du Congrès ?",
      "answer": "toute une série de mesures administratives",
      "answer_stringIds": [
        "string_32",
        "string_33",
        "string_34",
        "string_35",
        "string_36",
        "string_37"
      ]
    },
    {
      "id_qa": "FMSH_PB188a_24-25_177_qa9_v3",
      "id_block": "block_2",
      "question": "Qui dirige la campagne officielle de préparation du Dixième Congrès ?",
      "answer": "par le très léniniste Comité du Parti de Pétrograd",
      "answer_stringIds": [
        "string_12",
        "string_13",
        "string_14",
        "string_15",
        "string_16",
        "string_17",
        "string_18",
        "string_19",
        "string_20"
      ]
    },
    {
      "id_qa": "FMSH_PB188a_24-25_177_qa12_v3",
      "id_block": "block_2",
      "question": "Qui a lancé la campagne officielle de préparation du Dixième Congrès ?",
      "answer": "par le très léniniste Comité du Parti de Pétrograd",
      "answer_stringIds": [
        "string_12",
        "string_13",
        "string_14",
        "string_15",
        "string_16",
        "string_17",
        "string_18",
        "string_19",
        "string_20"
      ]
    },
    {
      "id_qa": "FMSH_PB188a_24-25_177_qa0_v3",
      "id_block": "block_4",
      "question": "Comment les léninistes utilisaient l'organisation de Pétrograd ?",
      "answer": "comme une base",
      "answer_stringIds": [
        "string_122",
        "string_123",
        "string_124"
      ]
    },
    {
      "id_qa": "FMSH_PB188a_24-25_177_qa1_v3",
      "id_block": "block_4",
      "question": "Qui utilisait l'organisation de Pétrograd comme une base à partir de laquelle ils pourraient construire leur organisation ?",
      "answer": "Les léninistes",
      "answer_stringIds": [
        "string_116",
        "string_117"
      ]
    }
  ]
}