{
  "num": "autog_0338-7259_1974_num_26_1",
  "article": "autog_0338-7259_1974_num_26_1_1112",
  "page_name": "FMSH_PB188a_26-27_081",
  "questions": [
    "Quel programme est-il question ici et comment est-il décrit ?",
    "Quels sont les 18 articles de la Charte de Vérone concernant la participation des travailleurs aux entreprises ?",
    "Quels sont les motifs qui ont poussé le gouvernement à adopter ce programme ?",
    "Quel est le résultat de la consultation des ouvriers de Fiat Lingotto et de Mirafiori ?",
    "Quels secteurs industriels ont connu un succès modeste de la solution proposée par Tarchi ?",
    "Quels problèmes ont été posés à la Libération en raison de cette situation créée par le fascisme ?"
  ]
}