{
  "num": "autog_0338-7259_1974_num_26_1",
  "article": "autog_0338-7259_1974_num_26_1_1112",
  "page_name": "FMSH_PB188a_26-27_087",
  "questions": [
    "Quels sont les entreprises italiennes mentionnées dans le texte qui ont déjà ou vont bientôt avoir un Comité de Gestion du Travail (C.d.G.)?",
    "Comment s'est déroulée l'élection du C.d.G. de la société Triplex ?",
    "Quel est le rôle garanti du C.d.G. de Triplex envers le peuple italien ?",
    "Quel est le désir exprimé par la Fédération Italienne des Employés du Gaz concernant la création de C.d.G. dans leurs entreprises ?",
    "Quels sont les deux principaux points de discussion lors des réunions des Comités Locaux de Lutte des Entreprises (C.L.N.) pour définir les fonctions des C.d.G. ?",
    "Comment les fonctions des C.d.G. sont-elles définies : consultatives, délibératives ou paritaires ?",
    "Quel est l'importance de la réponse à la question précédente pour déterminer le contre-pouvoir effectif de ces institutions ?",
    "Où on trouve des documents supplémentaires sur la constitution des C.d.G. dans d'autres entreprises ?"
  ]
}