{
  "num": "autog_0338-7259_1974_num_26_1",
  "article": "autog_0338-7259_1974_num_26_1_1112",
  "page_name": "FMSH_PB188a_26-27_100",
  "questions": [
    "Quel gouvernement a-t-il été élaboré en plein accord avec, et quels étaient ses objectifs en matière des C.d.G. ?",
    "Quels pouvoirs avaient-ils initialement en matière de délibération et de décision ?",
    "Quels représentants ont approuvé le projet, et quels ont opposé leur veto ?",
    "Quel événement a mis fin à cette phase de l'histoire des C.d.G. ?",
    "Quels événements politiques ont entraîné la disparition des C.d.g. ?",
    "Quels mouvements ont apporté leur soutien aux C.d.G. lors de leur disparition ?",
    "Quel rôle avaient les C.d.G. dans les conceptions précédentes ?",
    "Quel était l'accord au sein de la Fiat et comment il a été dénoncé ?",
    "Comment les C.d.G. ont-ils trouvé leur soutien lors de leur disparition ?",
    "Quand et comment les C.d.G. ont-ils complètement disparu ?"
  ]
}