{
  "num": "autog_0338-7259_1977_num_39_1",
  "article": "autog_0338-7259_1977_num_39_1_1268",
  "page_name": "FMSH_PB188a_00039_147",
  "questions": [
    "Quel est le montant de l'abonnement pour cinq numéros de quelle publication ?",
    "Qui est le soutien financier de cette abonnement ?",
    "Quel est l'adresse de la publication Fracture/éd. Savelli ?",
    "Quels sont les adresses de la société Video 00 pour la production et de Mon Oeil pour la diffusion des films vidéo communautaires ?",
    "Quand est parue la seconde édition des \"Clefs pour l'autogestion\" ?",
    "Qui ont été les auteurs de la première édition des \"Clefs pour l'autogestion\" ?",
    "Quel a été le rôle d'Olivier Corpet dans la seconde édition des \"Clefs pour l'autogestion\" ?",
    "Quel est le titre de la bibliographie sur l'autogestion qui a été mise à jour ?"
  ]
}