{
  "num": "autog_0338-7259_1978_num_40_1",
  "article": "autog_0338-7259_1978_num_40_1_1271",
  "page_name": "FMSH_PB188a_00040_024",
  "questions": [
    {
      "id_qa": "FMSH_PB188a_00040_024_qa5_v3",
      "id_block": "block_1",
      "question": "A quoi passe l'industrie d'armement ?",
      "answer": "de la production de voitures automobiles à des transports collectifs",
      "answer_stringIds": [
        "string_23",
        "string_24",
        "string_25",
        "string_26",
        "string_27",
        "string_28",
        "string_29",
        "string_30",
        "string_31",
        "string_32"
      ]
    },
    {
      "id_qa": "FMSH_PB188a_00040_024_qa10_v3",
      "id_block": "block_1",
      "question": "Qu'est ce qui ne peut pas être autogéré ?",
      "answer": "un système de décision",
      "answer_stringIds": [
        "string_41",
        "string_42",
        "string_43",
        "string_44"
      ]
    },
    {
      "id_qa": "FMSH_PB188a_00040_024_qa8_v3",
      "id_block": "block_1",
      "question": "Qu'est ce qui ne peut pas être autogéré au niveau des seuls petits groupes ?",
      "answer": "un système de décision",
      "answer_stringIds": [
        "string_41",
        "string_42",
        "string_43",
        "string_44"
      ]
    },
    {
      "id_qa": "FMSH_PB188a_00040_024_qa33_v3",
      "id_block": "block_2",
      "question": "Que va faire F. GUATTARI ?",
      "answer": "cette autogestion",
      "answer_stringIds": [
        "string_83",
        "string_84"
      ]
    },
    {
      "id_qa": "FMSH_PB188a_00040_024_qa11_v3",
      "id_block": "block_3",
      "question": "Qu'est ce qui fait tâche d'huile ?",
      "answer": "les mutations mentales",
      "answer_stringIds": [
        "string_175",
        "string_176",
        "string_177"
      ]
    },
    {
      "id_qa": "FMSH_PB188a_00040_024_qa24_v3",
      "id_block": "block_3",
      "question": "A qui appartient l'intiative ?",
      "answer": "à de petits groupes",
      "answer_stringIds": [
        "string_170",
        "string_171",
        "string_172",
        "string_173"
      ]
    },
    {
      "id_qa": "FMSH_PB188a_00040_024_qa26_v3",
      "id_block": "block_3",
      "question": "Quand les communistes en Italie sont-ils en train d'accepter progressivement ?",
      "answer": "tout-à-l'heure que",
      "answer_stringIds": [
        "string_135",
        "string_136"
      ]
    },
    {
      "id_qa": "FMSH_PB188a_00040_024_qa27_v3",
      "id_block": "block_3",
      "question": "Qui est en train d'accepter progressivement et peut-être, même dans certains cas, d'intérioriser de nouveaux schémas mentaux ?",
      "answer": "les communistes",
      "answer_stringIds": [
        "string_138",
        "string_139"
      ]
    },
    {
      "id_qa": "FMSH_PB188a_00040_024_qa28_v3",
      "id_block": "block_3",
      "question": "Qui est en train d'accepter de nouveaux schémas mentaux et sociaux ?",
      "answer": "les communistes",
      "answer_stringIds": [
        "string_138",
        "string_139"
      ]
    },
    {
      "id_qa": "FMSH_PB188a_00040_024_qa29_v3",
      "id_block": "block_3",
      "question": "Qu'est-ce que les communistes en Italie sont en train d'accepter progressivement et peut-être même dans certains cas ?",
      "answer": "de nouveaux schémas mentaux et sociaux",
      "answer_stringIds": [
        "string_154",
        "string_155",
        "string_156",
        "string_157",
        "string_158",
        "string_159"
      ]
    },
    {
      "id_qa": "FMSH_PB188a_00040_024_qa36_v3",
      "id_block": "block_3",
      "question": "Comment s'appelle le raisonnement de JULLIARD ?",
      "answer": "une manière aussi stratégique",
      "answer_stringIds": [
        "string_109",
        "string_110",
        "string_111",
        "string_112"
      ]
    },
    {
      "id_qa": "FMSH_PB188a_00040_024_qa12_v3",
      "id_block": "block_4",
      "question": "Qui pense que la prise du pouvoir politique de l'Etat est un leurre ?",
      "answer": "les partis de gauche",
      "answer_stringIds": [
        "string_370",
        "string_371",
        "string_372",
        "string_373"
      ]
    },
    {
      "id_qa": "FMSH_PB188a_00040_024_qa13_v3",
      "id_block": "block_4",
      "question": "Quel parti pense que la prise du pouvoir politique de l'Etat est un leurre ?",
      "answer": "les partis de gauche",
      "answer_stringIds": [
        "string_370",
        "string_371",
        "string_372",
        "string_373"
      ]
    },
    {
      "id_qa": "FMSH_PB188a_00040_024_qa14_v3",
      "id_block": "block_4",
      "question": "Qui est à l'origine de cette affaire ?",
      "answer": "les partis de gauche",
      "answer_stringIds": [
        "string_370",
        "string_371",
        "string_372",
        "string_373"
      ]
    },
    {
      "id_qa": "FMSH_PB188a_00040_024_qa30_v3",
      "id_block": "block_4",
      "question": "Qu'est-ce qui peut être amené à acheter dans une super-production ?",
      "answer": "une automobile",
      "answer_stringIds": [
        "string_237",
        "string_238"
      ]
    },
    {
      "id_qa": "FMSH_PB188a_00040_024_qa31_v3",
      "id_block": "block_4",
      "question": "Qu'est-ce qu'on peut acheter une automobile ?",
      "answer": "une super-production",
      "answer_stringIds": [
        "string_251",
        "string_252"
      ]
    }
  ]
}