{
  "num": "autog_0338-7259_1975_num_30_1",
  "article": "autog_0338-7259_1975_num_30_1_1122",
  "page_name": "FMSH_PB188a_30-31_042",
  "questions": [
    {
      "id_qa": "FMSH_PB188a_30-31_042_qa13_v3",
      "id_block": "block_10",
      "question": "Qui ne déclarait pas ouvertement sa rupture avec la monarchie ?",
      "answer": "de ce gouvernement qui",
      "answer_stringIds": [
        "string_151",
        "string_152",
        "string_153",
        "string_154"
      ]
    },
    {
      "id_qa": "FMSH_PB188a_30-31_042_qa14_v3",
      "id_block": "block_10",
      "question": "Qu'est-ce que le gouvernement ne déclarait pas ouvertement ?",
      "answer": "sa rupture avec la monarchie",
      "answer_stringIds": [
        "string_159",
        "string_160",
        "string_161",
        "string_162",
        "string_163"
      ]
    },
    {
      "id_qa": "FMSH_PB188a_30-31_042_qa15_v3",
      "id_block": "block_10",
      "question": "Qui a donné serment de fidélité au gouvernement ?",
      "answer": "le roi Charles",
      "answer_stringIds": [
        "string_164",
        "string_165",
        "string_166"
      ]
    },
    {
      "id_qa": "FMSH_PB188a_30-31_042_qa19_v3",
      "id_block": "block_10",
      "question": "Qui a la possibilité de proclamer la république ?",
      "answer": "au premier ministre",
      "answer_stringIds": [
        "string_178",
        "string_179",
        "string_180"
      ]
    },
    {
      "id_qa": "FMSH_PB188a_30-31_042_qa22_v3",
      "id_block": "block_10",
      "question": "Qu'est ce qui permettait au premier ministre de proclamer la république ?",
      "answer": "la monarchie",
      "answer_stringIds": [
        "string_162",
        "string_163"
      ]
    },
    {
      "id_qa": "FMSH_PB188a_30-31_042_qa7_v3",
      "id_block": "block_11",
      "question": "Qu'est ce que les ouvriers commençaient à demander aux ouvriers ?",
      "answer": "des prises de position plus fermes",
      "answer_stringIds": [
        "string_204",
        "string_205",
        "string_206",
        "string_207",
        "string_208",
        "string_209"
      ]
    },
    {
      "id_qa": "FMSH_PB188a_30-31_042_qa8_v3",
      "id_block": "block_11",
      "question": "Qui a demandé des prises de position plus fermes ?",
      "answer": "Les ouvriers",
      "answer_stringIds": [
        "string_199",
        "string_200"
      ]
    },
    {
      "id_qa": "FMSH_PB188a_30-31_042_qa10_v3",
      "id_block": "block_11",
      "question": "A quoi les ouvriers commençaient-ils à faire face ?",
      "answer": "à demander des prises de position plus fermes",
      "answer_stringIds": [
        "string_202",
        "string_203",
        "string_204",
        "string_205",
        "string_206",
        "string_207",
        "string_208",
        "string_209"
      ]
    },
    {
      "id_qa": "FMSH_PB188a_30-31_042_qa0_v3",
      "id_block": "block_2",
      "question": "Qu'est ce que le cabinet de Karolyi lança dès sa formation ?",
      "answer": "une sorte de programme minimum",
      "answer_stringIds": [
        "string_42",
        "string_43",
        "string_44",
        "string_45",
        "string_46"
      ]
    },
    {
      "id_qa": "FMSH_PB188a_30-31_042_qa1_v3",
      "id_block": "block_2",
      "question": "Qui lança un programme minimum ?",
      "answer": "le cabinet de Karolyi",
      "answer_stringIds": [
        "string_37",
        "string_38",
        "string_39",
        "string_40"
      ]
    },
    {
      "id_qa": "FMSH_PB188a_30-31_042_qa2_v3",
      "id_block": "block_2",
      "question": "Qui lança une sorte de programme minimum ?",
      "answer": "le cabinet de Karolyi",
      "answer_stringIds": [
        "string_37",
        "string_38",
        "string_39",
        "string_40"
      ]
    }
  ]
}