{
  "num": "autog_0338-7259_1975_num_30_1",
  "article": "autog_0338-7259_1975_num_30_1_1122",
  "page_name": "FMSH_PB188a_30-31_034",
  "questions": [
    {
      "id_qa": "FMSH_PB188a_30-31_034_qa1_v3",
      "id_block": "block_2",
      "question": "A quoi le Conseil National n'a-t-il jamais assisté ?",
      "answer": "aucune de leurs réunions",
      "answer_stringIds": [
        "string_57",
        "string_58",
        "string_59",
        "string_60"
      ]
    },
    {
      "id_qa": "FMSH_PB188a_30-31_034_qa36_v3",
      "id_block": "block_2",
      "question": "Qui voulait d'abord se réunir dans ma maison ?",
      "answer": "Le conseil de soldats",
      "answer_stringIds": [
        "string_21",
        "string_22",
        "string_23",
        "string_24"
      ]
    },
    {
      "id_qa": "FMSH_PB188a_30-31_034_qa37_v3",
      "id_block": "block_2",
      "question": "Où se réunit le conseil de soldats ?",
      "answer": "dans ma maison",
      "answer_stringIds": [
        "string_29",
        "string_30",
        "string_31"
      ]
    },
    {
      "id_qa": "FMSH_PB188a_30-31_034_qa31_v3",
      "id_block": "block_3",
      "question": "Qui a réussi à coordonner toutes les forces militaires de la capitale ?",
      "answer": "le Conseil",
      "answer_stringIds": [
        "string_65",
        "string_66"
      ]
    },
    {
      "id_qa": "FMSH_PB188a_30-31_034_qa32_v3",
      "id_block": "block_3",
      "question": "A quoi parvient le Conseil en l'espace de 48 heures ?",
      "answer": "à coordonner toutes les forces militaires de la capitale",
      "answer_stringIds": [
        "string_156",
        "string_157",
        "string_158",
        "string_159",
        "string_160",
        "string_161",
        "string_162",
        "string_163",
        "string_164"
      ]
    },
    {
      "id_qa": "FMSH_PB188a_30-31_034_qa33_v3",
      "id_block": "block_3",
      "question": "Qui parvint à coordonner toutes les forces militaires de la capitale ?",
      "answer": "le Conseil",
      "answer_stringIds": [
        "string_65",
        "string_66"
      ]
    },
    {
      "id_qa": "FMSH_PB188a_30-31_034_qa34_v3",
      "id_block": "block_3",
      "question": "Qui disposait de 80 unités de gardes mobiles prêts à répondre aux consignes d'action ?",
      "answer": "le Conseil",
      "answer_stringIds": [
        "string_65",
        "string_66"
      ]
    },
    {
      "id_qa": "FMSH_PB188a_30-31_034_qa35_v3",
      "id_block": "block_3",
      "question": "Quelle était la mission du Conseil en 48 heures ?",
      "answer": "toutes les forces militaires de la capitale",
      "answer_stringIds": [
        "string_158",
        "string_159",
        "string_160",
        "string_161",
        "string_162",
        "string_163",
        "string_164"
      ]
    },
    {
      "id_qa": "FMSH_PB188a_30-31_034_qa40_v3",
      "id_block": "block_3",
      "question": "Avec qui les militants les plus actifs du parti ouvrier prirent-ils contact ?",
      "answer": "contact avec ce conseil de soldats",
      "answer_stringIds": [
        "string_107",
        "string_108",
        "string_109",
        "string_110",
        "string_111",
        "string_112"
      ]
    },
    {
      "id_qa": "FMSH_PB188a_30-31_034_qa14_v3",
      "id_block": "block_4",
      "question": "Quel était le but du conseil de 50O membres ?",
      "answer": "pour premier objectif la mise en liberté des militants du Cercle Galilée et la suppression de la censure",
      "answer_stringIds": [
        "string_194",
        "string_195",
        "string_196",
        "string_197",
        "string_198",
        "string_199",
        "string_200",
        "string_201",
        "string_202",
        "string_203",
        "string_204",
        "string_205",
        "string_206",
        "string_207",
        "string_208",
        "string_209",
        "string_210",
        "string_211"
      ]
    },
    {
      "id_qa": "FMSH_PB188a_30-31_034_qa16_v3",
      "id_block": "block_4",
      "question": "Quel était le but du conseil de la jeunesse étudiante ?",
      "answer": "un conseil de 50Omembres qui se fixa pour premier objectif la mise en liberté des militants du Cercle Galilée et la suppression de la censure",
      "answer_stringIds": [
        "string_187",
        "string_188",
        "string_189",
        "string_190",
        "string_191",
        "string_192",
        "string_193",
        "string_194",
        "string_195",
        "string_196",
        "string_197",
        "string_198",
        "string_199",
        "string_200",
        "string_201",
        "string_202",
        "string_203",
        "string_204",
        "string_205",
        "string_206",
        "string_207",
        "string_208",
        "string_209",
        "string_210",
        "string_211"
      ]
    },
    {
      "id_qa": "FMSH_PB188a_30-31_034_qa8_v3",
      "id_block": "block_5",
      "question": "Quel gouvernement Karolyi tenta-t-il de former ?",
      "answer": "son propre gouvernement",
      "answer_stringIds": [
        "string_285",
        "string_286",
        "string_287"
      ]
    }
  ]
}