{
  "num": "autog_0338-7259_1975_num_30_1",
  "article": "autog_0338-7259_1975_num_30_1_1122",
  "page_name": "FMSH_PB188a_30-31_062",
  "questions": [
    {
      "id_qa": "FMSH_PB188a_30-31_062_qa1_v3",
      "id_block": "block_1",
      "question": "Par qui sont effectués les votes ?",
      "answer": "par les soldats",
      "answer_stringIds": [
        "string_11",
        "string_12",
        "string_13"
      ]
    },
    {
      "id_qa": "FMSH_PB188a_30-31_062_qa19_v3",
      "id_block": "block_2",
      "question": "Qu'est ce que le gouvernement a voulu enlever au C.S.B. ?",
      "answer": "les compétences administratives dont il s'",
      "answer_stringIds": [
        "string_51",
        "string_52",
        "string_53",
        "string_54",
        "string_55",
        "string_56"
      ]
    },
    {
      "id_qa": "FMSH_PB188a_30-31_062_qa21_v3",
      "id_block": "block_2",
      "question": "Qui fit accepter au C.S.B. la tutelle du ministère de la Défense ?",
      "answer": "Le gouvernement",
      "answer_stringIds": [
        "string_32",
        "string_33"
      ]
    },
    {
      "id_qa": "FMSH_PB188a_30-31_062_qa22_v3",
      "id_block": "block_2",
      "question": "Qu'est ce que le gouvernement a voulu retirer au C.S.B. ?",
      "answer": "les compétences administratives",
      "answer_stringIds": [
        "string_51",
        "string_52",
        "string_53"
      ]
    },
    {
      "id_qa": "FMSH_PB188a_30-31_062_qa28_v3",
      "id_block": "block_3",
      "question": "Qu'est ce qui était impossible de séparer l'armée de la population ?",
      "answer": "la hiérarchie disciplinaire",
      "answer_stringIds": [
        "string_240",
        "string_241",
        "string_242"
      ]
    },
    {
      "id_qa": "FMSH_PB188a_30-31_062_qa34_v3",
      "id_block": "block_3",
      "question": "Qui était dépourvu de toute force militaire ?",
      "answer": "le gouvernement",
      "answer_stringIds": [
        "string_159",
        "string_160"
      ]
    },
    {
      "id_qa": "FMSH_PB188a_30-31_062_qa39_v3",
      "id_block": "block_3",
      "question": "Pour quelle raison le ministère de l'Intérieur préférait-il faire appel à l'ancienne gendarmerie ?",
      "answer": "les révoltes paysannes",
      "answer_stringIds": [
        "string_267",
        "string_268",
        "string_269",
        "string_270"
      ]
    },
    {
      "id_qa": "FMSH_PB188a_30-31_062_qa15_v3",
      "id_block": "block_4",
      "question": "Par qui les conseils de garnison sont-ils remplacés ?",
      "answer": "par des officiers nommés et responsables devant les seules instances gouvernementales",
      "answer_stringIds": [
        "string_286",
        "string_287",
        "string_288",
        "string_289",
        "string_290",
        "string_291",
        "string_292",
        "string_293",
        "string_294",
        "string_295",
        "string_296",
        "string_297",
        "string_298"
      ]
    }
  ]
}