{
  "num": "autog_0338-7259_1975_num_30_1",
  "article": "autog_0338-7259_1975_num_30_1_1122",
  "page_name": "FMSH_PB188a_30-31_036",
  "questions": [
    {
      "id_qa": "FMSH_PB188a_30-31_036_qa0_v3",
      "id_block": "block_1",
      "question": "Quel poste occupe le comte Julius Andrassy ?",
      "answer": "comme ministre impérial des affaires étrangères",
      "answer_stringIds": [
        "string_83",
        "string_84",
        "string_85",
        "string_86",
        "string_87",
        "string_88"
      ]
    },
    {
      "id_qa": "FMSH_PB188a_30-31_036_qa1_v3",
      "id_block": "block_1",
      "question": "Qui est le ministre des affaires étrangères de Charles IV ?",
      "answer": "Le comte Julius Andrassy",
      "answer_stringIds": [
        "string_72",
        "string_73",
        "string_74",
        "string_75"
      ]
    },
    {
      "id_qa": "FMSH_PB188a_30-31_036_qa2_v3",
      "id_block": "block_1",
      "question": "Quand a été nommé le comte Julius Andrassy ?",
      "answer": "le 24",
      "answer_stringIds": [
        "string_81",
        "string_82"
      ]
    },
    {
      "id_qa": "FMSH_PB188a_30-31_036_qa3_v3",
      "id_block": "block_1",
      "question": "Qui est le ministre des affaires étrangères ?",
      "answer": "Le comte Julius Andrassy",
      "answer_stringIds": [
        "string_72",
        "string_73",
        "string_74",
        "string_75"
      ]
    },
    {
      "id_qa": "FMSH_PB188a_30-31_036_qa4_v3",
      "id_block": "block_1",
      "question": "Qui a nommé Julius Andrassy ministre des affaires étrangères ?",
      "answer": "Charles IV",
      "answer_stringIds": [
        "string_77",
        "string_78"
      ]
    },
    {
      "id_qa": "FMSH_PB188a_30-31_036_qa6_v3",
      "id_block": "block_2",
      "question": "Qui se mirent en grève le 29 au matin ?",
      "answer": "Les ouvriers",
      "answer_stringIds": [
        "string_119",
        "string_120"
      ]
    },
    {
      "id_qa": "FMSH_PB188a_30-31_036_qa7_v3",
      "id_block": "block_2",
      "question": "Quand les ouvriers se mirent-ils en grève ?",
      "answer": "le 29 au matin",
      "answer_stringIds": [
        "string_126",
        "string_127",
        "string_128",
        "string_129"
      ]
    },
    {
      "id_qa": "FMSH_PB188a_30-31_036_qa8_v3",
      "id_block": "block_2",
      "question": "Quelle est la couleur des ouvriers qui défilent dans la capitale ?",
      "answer": "les armes à la main",
      "answer_stringIds": [
        "string_139",
        "string_140",
        "string_141",
        "string_142",
        "string_143"
      ]
    },
    {
      "id_qa": "FMSH_PB188a_30-31_036_qa9_v3",
      "id_block": "block_2",
      "question": "Où les ouvriers se mirent-ils en grève le 29 mai ?",
      "answer": "dans la capitale",
      "answer_stringIds": [
        "string_136",
        "string_137",
        "string_138"
      ]
    },
    {
      "id_qa": "FMSH_PB188a_30-31_036_qa18_v3",
      "id_block": "block_2",
      "question": "De quelle nationalité était la garnison de Budapest ?",
      "answer": "de nombreux soldats bosniaques",
      "answer_stringIds": [
        "string_151",
        "string_152",
        "string_153",
        "string_154"
      ]
    },
    {
      "id_qa": "FMSH_PB188a_30-31_036_qa23_v3",
      "id_block": "block_3",
      "question": "Combien de travailleurs participent à ces réunions ?",
      "answer": "Plus de 100 000 travailleurs",
      "answer_stringIds": [
        "string_288",
        "string_289",
        "string_290",
        "string_291",
        "string_292"
      ]
    },
    {
      "id_qa": "FMSH_PB188a_30-31_036_qa40_v3",
      "id_block": "block_3",
      "question": "Qui était chargé de reconstituer le grand Conseil de Budapest ?",
      "answer": "des délégués",
      "answer_stringIds": [
        "string_278",
        "string_279"
      ]
    },
    {
      "id_qa": "FMSH_PB188a_30-31_036_qa25_v3",
      "id_block": "block_4",
      "question": "Que constate l'assemblée ?",
      "answer": "des tâches sans précédent",
      "answer_stringIds": [
        "string_309",
        "string_310",
        "string_311",
        "string_312"
      ]
    }
  ]
}