{
  "num": "autog_0338-7259_1971_num_15_1",
  "article": "autog_0338-7259_1971_num_15_1_1003",
  "page_name": "FMSH_PB188a_00015_130",
  "questions": [
    "Quels problèmes posait le Groupe de la lutte contre l'exploitation en termes globaux ?",
    "Comment les idées de développement d'une pensée dialectique et la lutte des travailleurs pour dépasser les luttes partielles s'inscrivent dans le même mouvement ?",
    "Quels sont les conceptions différentes du rôle du Parti au sein du G.L.A. ?",
    "Comment définir le parti révolutionnaire selon Pannekoek ?",
    "Dans quelle période historique appartient la notion de parti révolutionnaire prenant la direction de la révolution prolétarienne ?",
    "Comment le parti peut-il contribuer à abolir le capitalisme et à favoriser la conquête du pouvoir par la classe ouvrière ?",
    "Comment résoudre le problème de cantonner le parti dans une fonction d'animation idéologique ?",
    "Quels textes de Pannekoek sont cités dans le paragraphe ?",
    "Note: The text is about the Group for Self-Management (G.L.A.) and its ideas on revolution and the role of a revolutionary party. The questions are meant to encourage further exploration and analysis of the text.?"
  ]
}