{
  "num": "autog_0338-7259_1971_num_15_1",
  "article": "autog_0338-7259_1971_num_15_1_1005",
  "page_name": "FMSH_PB188a_00015_141",
  "questions": [
    {
      "id_qa": "FMSH_PB188a_00015_141_qa19_v3",
      "id_block": "block_1",
      "question": "Qu'est ce qui est établi avec des camarades italiens ?",
      "answer": "Des contacts",
      "answer_stringIds": [
        "string_7",
        "string_8"
      ]
    },
    {
      "id_qa": "FMSH_PB188a_00015_141_qa23_v3",
      "id_block": "block_10",
      "question": "Quel est le but de l'accord général ?",
      "answer": "au projet autogestionnaire",
      "answer_stringIds": [
        "string_295",
        "string_296",
        "string_297"
      ]
    },
    {
      "id_qa": "FMSH_PB188a_00015_141_qa2_v3",
      "id_block": "block_2",
      "question": "Qui a souligné l'importance de l'autogestion en termes concrets ?",
      "answer": "la plupart des participants",
      "answer_stringIds": [
        "string_19",
        "string_20",
        "string_21",
        "string_22"
      ]
    },
    {
      "id_qa": "FMSH_PB188a_00015_141_qa27_v3",
      "id_block": "block_4",
      "question": "Sur quoi s'est fondée la commission « Autogestion moyen de lutte» ?",
      "answer": "les conclusions suivantes",
      "answer_stringIds": [
        "string_97",
        "string_98",
        "string_99"
      ]
    },
    {
      "id_qa": "FMSH_PB188a_00015_141_qa5_v3",
      "id_block": "block_5",
      "question": "Qu'est-ce qui vise à renverser le capitalisme ?",
      "answer": "la lutte autogestionnaire",
      "answer_stringIds": [
        "string_102",
        "string_103",
        "string_104"
      ]
    },
    {
      "id_qa": "FMSH_PB188a_00015_141_qa6_v3",
      "id_block": "block_5",
      "question": "Quelle est la finalité de la lutte autogestionnaire ?",
      "answer": "renverser le capitalisme",
      "answer_stringIds": [
        "string_107",
        "string_108",
        "string_109"
      ]
    },
    {
      "id_qa": "FMSH_PB188a_00015_141_qa8_v3",
      "id_block": "block_5",
      "question": "Comment appelle-t-on la société bureaucratique ?",
      "answer": "« socialiste",
      "answer_stringIds": [
        "string_124",
        "string_125"
      ]
    },
    {
      "id_qa": "FMSH_PB188a_00015_141_qa9_v3",
      "id_block": "block_5",
      "question": "Quel est le but de la lutte autogestionnaire ?",
      "answer": "le capitalisme",
      "answer_stringIds": [
        "string_108",
        "string_109"
      ]
    },
    {
      "id_qa": "FMSH_PB188a_00015_141_qa13_v3",
      "id_block": "block_6",
      "question": "Quel est le but de la lutte contre les syndicats ?",
      "answer": "lutte contre les syndicats mais démocratisation des luttes",
      "answer_stringIds": [
        "string_166",
        "string_167",
        "string_168",
        "string_169",
        "string_170",
        "string_171",
        "string_172",
        "string_173"
      ]
    },
    {
      "id_qa": "FMSH_PB188a_00015_141_qa28_v3",
      "id_block": "block_6",
      "question": "Qu'est ce qui est mené par la base ?",
      "answer": "la lutte autogestionnaire",
      "answer_stringIds": [
        "string_102",
        "string_103",
        "string_104"
      ]
    },
    {
      "id_qa": "FMSH_PB188a_00015_141_qa29_v3",
      "id_block": "block_6",
      "question": "Qui mène la lutte autogestionnaire ?",
      "answer": "la base",
      "answer_stringIds": [
        "string_134",
        "string_135"
      ]
    },
    {
      "id_qa": "FMSH_PB188a_00015_141_qa3_v3",
      "id_block": "block_8",
      "question": "Dans quels secteurs la lutte autogestionnaire s'est-elle développée ?",
      "answer": "certains secteurs privilégiés",
      "answer_stringIds": [
        "string_202",
        "string_203",
        "string_204"
      ]
    },
    {
      "id_qa": "FMSH_PB188a_00015_141_qa4_v3",
      "id_block": "block_8",
      "question": "Qu'est-ce que la lutte autogestionnaire ?",
      "answer": "une lutte permanente",
      "answer_stringIds": [
        "string_195",
        "string_196",
        "string_197"
      ]
    },
    {
      "id_qa": "FMSH_PB188a_00015_141_qa14_v3",
      "id_block": "block_9",
      "question": "Qu'est-ce que la commission « Expériences de vie communautaire » ?",
      "answer": "les tentatives de vie collective",
      "answer_stringIds": [
        "string_228",
        "string_229",
        "string_230",
        "string_231",
        "string_232",
        "string_233"
      ]
    }
  ]
}