{
  "num": "autog_0338-7259_1970_num_11_1",
  "article": "autog_0338-7259_1970_num_11_1_1784",
  "page_name": "FMSH_PB188a_11-12_232",
  "questions": [
    {
      "id_qa": "FMSH_PB188a_11-12_232_qa4_v3",
      "id_block": "block_1",
      "question": "Qui commence à contaminer la jeunesse estudiantine ?",
      "answer": "les jeunes ouvriers",
      "answer_stringIds": [
        "string_24",
        "string_25",
        "string_26"
      ]
    },
    {
      "id_qa": "FMSH_PB188a_11-12_232_qa27_v3",
      "id_block": "block_10",
      "question": "Qui a écrit \"Le Congrès Clandestin\" ?",
      "answer": "par Jiri Pelikan",
      "answer_stringIds": [
        "string_341",
        "string_342",
        "string_343"
      ]
    },
    {
      "id_qa": "FMSH_PB188a_11-12_232_qa28_v3",
      "id_block": "block_10",
      "question": "Comment s'appelle le Congrès Clandestin ?",
      "answer": "documents du 14ème Congrès extraordinaire du P.C. Tchécoslovaque",
      "answer_stringIds": [
        "string_331",
        "string_332",
        "string_333",
        "string_334",
        "string_335",
        "string_336",
        "string_337",
        "string_338",
        "string_339"
      ]
    },
    {
      "id_qa": "FMSH_PB188a_11-12_232_qa26_v3",
      "id_block": "block_11",
      "question": "Qu'est-ce que la démocratie dans le Parti ?",
      "answer": "le droit aux tendances idéologiques",
      "answer_stringIds": [
        "string_367",
        "string_368",
        "string_369",
        "string_370",
        "string_371"
      ]
    },
    {
      "id_qa": "FMSH_PB188a_11-12_232_qa1_v3",
      "id_block": "block_2",
      "question": "Quand les forces importantes de la classe ouvrière se réveillent-elles ?",
      "answer": "de Mars 1968",
      "answer_stringIds": [
        "string_32",
        "string_33",
        "string_34"
      ]
    },
    {
      "id_qa": "FMSH_PB188a_11-12_232_qa29_v3",
      "id_block": "block_3",
      "question": "Qu'est ce qui influence même la bureaucratie du Parti ?",
      "answer": "le pas",
      "answer_stringIds": [
        "string_62",
        "string_63"
      ]
    },
    {
      "id_qa": "FMSH_PB188a_11-12_232_qa30_v3",
      "id_block": "block_3",
      "question": "Qui influence le jeu d'interaction entre celle-ci et les masses ?",
      "answer": "la bureaucratie du Parti",
      "answer_stringIds": [
        "string_68",
        "string_69",
        "string_70",
        "string_71"
      ]
    },
    {
      "id_qa": "FMSH_PB188a_11-12_232_qa31_v3",
      "id_block": "block_3",
      "question": "Qu'est-ce qui influence la bureaucratie du Parti ?",
      "answer": "le pas décisif qui",
      "answer_stringIds": [
        "string_62",
        "string_63",
        "string_64",
        "string_65"
      ]
    },
    {
      "id_qa": "FMSH_PB188a_11-12_232_qa8_v3",
      "id_block": "block_4",
      "question": "Où s'est tenu le 14ème Congrès du P.C.T ?",
      "answer": "à Vysocany",
      "answer_stringIds": [
        "string_105",
        "string_106"
      ]
    },
    {
      "id_qa": "FMSH_PB188a_11-12_232_qa11_v3",
      "id_block": "block_4",
      "question": "Quand a eu lieu le 14ème Congrès du P.C.T ?",
      "answer": "le 22 août 1968",
      "answer_stringIds": [
        "string_101",
        "string_102",
        "string_103",
        "string_104"
      ]
    },
    {
      "id_qa": "FMSH_PB188a_11-12_232_qa18_v3",
      "id_block": "block_5",
      "question": "Quelles sont les principales conclusions du Congrès ?",
      "answer": "les conclusions théoriques et politiques",
      "answer_stringIds": [
        "string_140",
        "string_141",
        "string_142",
        "string_143",
        "string_144"
      ]
    },
    {
      "id_qa": "FMSH_PB188a_11-12_232_qa12_v3",
      "id_block": "block_8",
      "question": "Par qui sont ressenties les réformes structurelles ?",
      "answer": "par les masses",
      "answer_stringIds": [
        "string_246",
        "string_247",
        "string_248"
      ]
    },
    {
      "id_qa": "FMSH_PB188a_11-12_232_qa15_v3",
      "id_block": "block_8",
      "question": "Qu'est-ce que réclament les masses ?",
      "answer": "un changement radical de la situation",
      "answer_stringIds": [
        "string_300",
        "string_301",
        "string_302",
        "string_303",
        "string_304",
        "string_305"
      ]
    },
    {
      "id_qa": "FMSH_PB188a_11-12_232_qa17_v3",
      "id_block": "block_8",
      "question": "Qui est à l'origine de la réflexion de toute une avant-garde ?",
      "answer": "par les masses",
      "answer_stringIds": [
        "string_246",
        "string_247",
        "string_248"
      ]
    },
    {
      "id_qa": "FMSH_PB188a_11-12_232_qa32_v3",
      "id_block": "block_8",
      "question": "Qu'est ce qui est mis en cause par les masses ?",
      "answer": "une expérience politique plus longue du modèle « stalinien",
      "answer_stringIds": [
        "string_233",
        "string_234",
        "string_235",
        "string_236",
        "string_237",
        "string_238",
        "string_239",
        "string_240",
        "string_241"
      ]
    }
  ]
}