{
  "num": "autog_0249-2563_1984_num_17_16",
  "article": "autog_0249-2563_1984_num_17_16_1593",
  "page_name": "autog_0249-2563_1984_num_17_16_T1_0052_0000",
  "questions": [
    {
      "id_qa": "autog_0249-2563_1984_num_17_16_T1_0052_0000_qa3_v3",
      "id_block": "block_0",
      "question": "Qu'est ce qui a disparu avec l'industrialisation ?",
      "answer": "les marges",
      "answer_stringIds": [
        "string_142",
        "string_143"
      ]
    },
    {
      "id_qa": "autog_0249-2563_1984_num_17_16_T1_0052_0000_qa13_v3",
      "id_block": "block_1",
      "question": "Qu'est-ce qui est risqué pour le syndicalisme paysan ?",
      "answer": "revendiquer ce type de co-gestion de la crise",
      "answer_stringIds": [
        "string_299",
        "string_300",
        "string_301",
        "string_302",
        "string_303",
        "string_304",
        "string_305",
        "string_306"
      ]
    },
    {
      "id_qa": "autog_0249-2563_1984_num_17_16_T1_0052_0000_qa15_v3",
      "id_block": "block_1",
      "question": "Qu'est-ce que le syndicalisme paysan peut-il revendiquer ?",
      "answer": "ce type de co-gestion de la crise",
      "answer_stringIds": [
        "string_300",
        "string_301",
        "string_302",
        "string_303",
        "string_304",
        "string_305",
        "string_306"
      ]
    },
    {
      "id_qa": "autog_0249-2563_1984_num_17_16_T1_0052_0000_qa26_v3",
      "id_block": "block_1",
      "question": "Sur quoi les syndicats ouvriers demandent-ils des explications ?",
      "answer": "des explications sur les « restructurations industrielles",
      "answer_stringIds": [
        "string_251",
        "string_252",
        "string_253",
        "string_254",
        "string_255",
        "string_256",
        "string_257",
        "string_258"
      ]
    },
    {
      "id_qa": "autog_0249-2563_1984_num_17_16_T1_0052_0000_qa27_v3",
      "id_block": "block_1",
      "question": "Qui demande des explications sur les restructurations industrielles ?",
      "answer": "les syndicats ouvriers",
      "answer_stringIds": [
        "string_247",
        "string_248",
        "string_249"
      ]
    },
    {
      "id_qa": "autog_0249-2563_1984_num_17_16_T1_0052_0000_qa6_v3",
      "id_block": "block_2",
      "question": "Comment peut-on qualifier les restructurations industrielles ?",
      "answer": "des partenaires à part entière",
      "answer_stringIds": [
        "string_348",
        "string_349",
        "string_350",
        "string_351",
        "string_352"
      ]
    },
    {
      "id_qa": "autog_0249-2563_1984_num_17_16_T1_0052_0000_qa31_v3",
      "id_block": "block_3",
      "question": "Qu'a demandé Besnier à l'Union laitière normande ?",
      "answer": "à être présents",
      "answer_stringIds": [
        "string_392",
        "string_393",
        "string_394"
      ]
    }
  ]
}