{
  "num": "autog_0249-2563_1984_num_17_16",
  "article": "autog_0249-2563_1984_num_17_16_1593",
  "page_name": "autog_0249-2563_1984_num_17_16_T1_0055_0000",
  "questions": [
    {
      "id_qa": "autog_0249-2563_1984_num_17_16_T1_0055_0000_qa15_v3",
      "id_block": "block_0",
      "question": "Qu'est-ce que les paysans pourraient obtenir avec l'Etat-providence ?",
      "answer": "obtenir gain de cause",
      "answer_stringIds": [
        "string_28",
        "string_29",
        "string_30",
        "string_31"
      ]
    },
    {
      "id_qa": "autog_0249-2563_1984_num_17_16_T1_0055_0000_qa16_v3",
      "id_block": "block_0",
      "question": "Qui pourrait obtenir gain de cause avec l'Etat-providence ?",
      "answer": "les paysans",
      "answer_stringIds": [
        "string_25",
        "string_26"
      ]
    },
    {
      "id_qa": "autog_0249-2563_1984_num_17_16_T1_0055_0000_qa20_v3",
      "id_block": "block_0",
      "question": "Qui pourrait être intégré dans l'Etat-providence ?",
      "answer": "les paysans",
      "answer_stringIds": [
        "string_25",
        "string_26"
      ]
    },
    {
      "id_qa": "autog_0249-2563_1984_num_17_16_T1_0055_0000_qa4_v3",
      "id_block": "block_1",
      "question": "Qui doit être mieux intégré dans la société ?",
      "answer": "les paysans",
      "answer_stringIds": [
        "string_25",
        "string_26"
      ]
    },
    {
      "id_qa": "autog_0249-2563_1984_num_17_16_T1_0055_0000_qa9_v3",
      "id_block": "block_1",
      "question": "A partir de quel revenu les paysans peuvent-ils bénéficier de la protection sociale ?",
      "answer": "revenus",
      "answer_stringIds": [
        "string_93"
      ]
    },
    {
      "id_qa": "autog_0249-2563_1984_num_17_16_T1_0055_0000_qa14_v3",
      "id_block": "block_1",
      "question": "A quoi doit contribuer l'industrie en amont et en aval ?",
      "answer": "au financement de notre protection sociale",
      "answer_stringIds": [
        "string_184",
        "string_185",
        "string_186",
        "string_187",
        "string_188",
        "string_189",
        "string_190"
      ]
    },
    {
      "id_qa": "autog_0249-2563_1984_num_17_16_T1_0055_0000_qa36_v3",
      "id_block": "block_1",
      "question": "Qu'est-ce qui est à l'origine des progrès sociaux ?",
      "answer": "partie",
      "answer_stringIds": [
        "string_201"
      ]
    },
    {
      "id_qa": "autog_0249-2563_1984_num_17_16_T1_0055_0000_qa37_v3",
      "id_block": "block_1",
      "question": "Qu'est ce qui fait partie des progrès sociaux ?",
      "answer": "conquérir",
      "answer_stringIds": [
        "string_207"
      ]
    },
    {
      "id_qa": "autog_0249-2563_1984_num_17_16_T1_0055_0000_qa40_v3",
      "id_block": "block_2",
      "question": "A quoi est liée la partie sociale du revenu ?",
      "answer": "un travail",
      "answer_stringIds": [
        "string_331",
        "string_332"
      ]
    }
  ]
}