{
  "num": "autog_0249-2563_1984_num_17_16",
  "article": "autog_0249-2563_1984_num_17_16_1593",
  "page_name": "autog_0249-2563_1984_num_17_16_T1_0054_0000",
  "questions": [
    {
      "id_qa": "autog_0249-2563_1984_num_17_16_T1_0054_0000_qa3_v3",
      "id_block": "block_0",
      "question": "Qui exige une intensification énorme de la production ?",
      "answer": "la banque",
      "answer_stringIds": [
        "string_28",
        "string_29"
      ]
    },
    {
      "id_qa": "autog_0249-2563_1984_num_17_16_T1_0054_0000_qa7_v3",
      "id_block": "block_2",
      "question": "Qu'obtient-il en matière de protection sociale et de revenus ?",
      "answer": "des droits équivalents",
      "answer_stringIds": [
        "string_408",
        "string_409",
        "string_410"
      ]
    },
    {
      "id_qa": "autog_0249-2563_1984_num_17_16_T1_0054_0000_qa8_v3",
      "id_block": "block_2",
      "question": "Qu'est-ce qui pourrait être obtenu en matière de protection sociale et de revenus ?",
      "answer": "obtenir des droits équivalents",
      "answer_stringIds": [
        "string_407",
        "string_408",
        "string_409",
        "string_410"
      ]
    },
    {
      "id_qa": "autog_0249-2563_1984_num_17_16_T1_0054_0000_qa25_v3",
      "id_block": "block_2",
      "question": "Qui réclamait une certaine régularité des revenus ?",
      "answer": "les « modernistes »",
      "answer_stringIds": [
        "string_279",
        "string_280",
        "string_281",
        "string_282"
      ]
    },
    {
      "id_qa": "autog_0249-2563_1984_num_17_16_T1_0054_0000_qa26_v3",
      "id_block": "block_2",
      "question": "Qu'exige les modernistes ?",
      "answer": "une certaine garantie des revenus",
      "answer_stringIds": [
        "string_285",
        "string_286",
        "string_287",
        "string_288",
        "string_289",
        "string_290"
      ]
    }
  ]
}