{
  "num": "autog_0338-7259_1971_num_16_1",
  "article": "autog_0338-7259_1971_num_16_1_1010",
  "page_name": "FMSH_PB188a_16-17_007",
  "questions": [
    {
      "id_qa": "FMSH_PB188a_16-17_007_qa9_v3",
      "id_block": "block_1",
      "question": "Qu'est-ce que les conseils des travailleurs devraient faire ?",
      "answer": "être élus",
      "answer_stringIds": [
        "string_20",
        "string_21"
      ]
    },
    {
      "id_qa": "FMSH_PB188a_16-17_007_qa10_v3",
      "id_block": "block_1",
      "question": "Qu'est-ce qui devrait être démocratique ?",
      "answer": "les conseils des travailleurs",
      "answer_stringIds": [
        "string_15",
        "string_16",
        "string_17",
        "string_18"
      ]
    },
    {
      "id_qa": "FMSH_PB188a_16-17_007_qa11_v3",
      "id_block": "block_1",
      "question": "Qu'est ce qui devrait être démocratique ?",
      "answer": "les conseils des travailleurs",
      "answer_stringIds": [
        "string_15",
        "string_16",
        "string_17",
        "string_18"
      ]
    },
    {
      "id_qa": "FMSH_PB188a_16-17_007_qa21_v3",
      "id_block": "block_1",
      "question": "Sur quel mouvement social le parti social-démocrate régnait-il en Autriche ?",
      "answer": "sur le mouvement ouvrier",
      "answer_stringIds": [
        "string_39",
        "string_40",
        "string_41",
        "string_42"
      ]
    },
    {
      "id_qa": "FMSH_PB188a_16-17_007_qa28_v3",
      "id_block": "block_2",
      "question": "Qu'est-ce que la violence de l'Etat ne peut pas conduire ?",
      "answer": "au Stalinisme",
      "answer_stringIds": [
        "string_148",
        "string_149"
      ]
    },
    {
      "id_qa": "FMSH_PB188a_16-17_007_qa0_v3",
      "id_block": "block_3",
      "question": "Comment s'appelle le Testament de Lénine ?",
      "answer": "son « Testament",
      "answer_stringIds": [
        "string_316",
        "string_317",
        "string_318",
        "string_319"
      ]
    },
    {
      "id_qa": "FMSH_PB188a_16-17_007_qa2_v3",
      "id_block": "block_3",
      "question": "Qui a écrit son Testament ?",
      "answer": "Lénine",
      "answer_stringIds": [
        "string_118"
      ]
    },
    {
      "id_qa": "FMSH_PB188a_16-17_007_qa4_v3",
      "id_block": "block_3",
      "question": "De quoi les soviets se mêlaient-ils ?",
      "answer": "des affaires privées des ouvriers",
      "answer_stringIds": [
        "string_196",
        "string_197",
        "string_198",
        "string_199",
        "string_200"
      ]
    },
    {
      "id_qa": "FMSH_PB188a_16-17_007_qa5_v3",
      "id_block": "block_3",
      "question": "Qu'est ce que les sociaux-démocrates voulaient imposer au mouvement ?",
      "answer": "au mouvement une organisation hiérarchisée",
      "answer_stringIds": [
        "string_233",
        "string_234",
        "string_235",
        "string_236",
        "string_237"
      ]
    },
    {
      "id_qa": "FMSH_PB188a_16-17_007_qa6_v3",
      "id_block": "block_3",
      "question": "Qui trouvait cela très bien ?",
      "answer": "Lénine",
      "answer_stringIds": [
        "string_118"
      ]
    },
    {
      "id_qa": "FMSH_PB188a_16-17_007_qa7_v3",
      "id_block": "block_3",
      "question": "Qui s'est mêlé des affaires privées des ouvriers ?",
      "answer": "Les soviets",
      "answer_stringIds": [
        "string_173",
        "string_174"
      ]
    },
    {
      "id_qa": "FMSH_PB188a_16-17_007_qa12_v3",
      "id_block": "block_3",
      "question": "Quel mouvement s'est développé après la guerre en Allemagne ?",
      "answer": "le mouvement ouvrier",
      "answer_stringIds": [
        "string_40",
        "string_41",
        "string_42"
      ]
    },
    {
      "id_qa": "FMSH_PB188a_16-17_007_qa13_v3",
      "id_block": "block_3",
      "question": "Quand le mouvement ouvrier s'est-il développé en Allemagne ?",
      "answer": "après la guerre",
      "answer_stringIds": [
        "string_269",
        "string_270",
        "string_271"
      ]
    },
    {
      "id_qa": "FMSH_PB188a_16-17_007_qa15_v3",
      "id_block": "block_3",
      "question": "Qu'est-ce qui est impossible entre Lénine et Staline ?",
      "answer": "un véritable lien",
      "answer_stringIds": [
        "string_298",
        "string_299",
        "string_300"
      ]
    },
    {
      "id_qa": "FMSH_PB188a_16-17_007_qa29_v3",
      "id_block": "block_3",
      "question": "Quel était le mouvement des soviets de 1917 en Russie ?",
      "answer": "car le mouvement des soviets de 1917 en Russie était un mouvement entièrement démocratique",
      "answer_stringIds": [
        "string_158",
        "string_159",
        "string_160",
        "string_161",
        "string_162",
        "string_163",
        "string_164",
        "string_165",
        "string_166",
        "string_167",
        "string_168",
        "string_169",
        "string_170",
        "string_171",
        "string_172"
      ]
    }
  ]
}