{
  "num": "autog_0338-7259_1971_num_16_1",
  "article": "autog_0338-7259_1971_num_16_1_1010",
  "page_name": "FMSH_PB188a_16-17_014",
  "questions": [
    {
      "id_qa": "FMSH_PB188a_16-17_014_qa39_v3",
      "id_block": "block_1",
      "question": "Qu'est ce qui donne les solutions concrètes ?",
      "answer": "la situation concrète",
      "answer_stringIds": [
        "string_21",
        "string_22",
        "string_23"
      ]
    },
    {
      "id_qa": "FMSH_PB188a_16-17_014_qa43_v3",
      "id_block": "block_1",
      "question": "Qui ne le croit pas ?",
      "answer": "moi je",
      "answer_stringIds": [
        "string_9",
        "string_10"
      ]
    },
    {
      "id_qa": "FMSH_PB188a_16-17_014_qa3_v3",
      "id_block": "block_2",
      "question": "Qui a voulu instaurer un système démocratique ?",
      "answer": "Lénine",
      "answer_stringIds": [
        "string_73"
      ]
    },
    {
      "id_qa": "FMSH_PB188a_16-17_014_qa6_v3",
      "id_block": "block_2",
      "question": "Qu'est-ce que Staline a voulu instaurer ?",
      "answer": "instaurer un système démocratique",
      "answer_stringIds": [
        "string_78",
        "string_79",
        "string_80",
        "string_81"
      ]
    },
    {
      "id_qa": "FMSH_PB188a_16-17_014_qa7_v3",
      "id_block": "block_2",
      "question": "Pour quelle raison Staline critiquait-il Staline ?",
      "answer": "le contraire",
      "answer_stringIds": [
        "string_90",
        "string_91"
      ]
    },
    {
      "id_qa": "FMSH_PB188a_16-17_014_qa12_v3",
      "id_block": "block_2",
      "question": "Qu'est ce que Staline a voulu instaurer ?",
      "answer": "un système démocratique",
      "answer_stringIds": [
        "string_79",
        "string_80",
        "string_81"
      ]
    },
    {
      "id_qa": "FMSH_PB188a_16-17_014_qa22_v3",
      "id_block": "block_2",
      "question": "Qu'est-ce que Marx condamnait ?",
      "answer": "toute morale",
      "answer_stringIds": [
        "string_121",
        "string_122"
      ]
    },
    {
      "id_qa": "FMSH_PB188a_16-17_014_qa23_v3",
      "id_block": "block_2",
      "question": "Qui condamnait toute morale ?",
      "answer": "Marx",
      "answer_stringIds": [
        "string_118"
      ]
    },
    {
      "id_qa": "FMSH_PB188a_16-17_014_qa26_v3",
      "id_block": "block_2",
      "question": "Qui ne s'intéressait qu'à la science ?",
      "answer": "Marx",
      "answer_stringIds": [
        "string_118"
      ]
    },
    {
      "id_qa": "FMSH_PB188a_16-17_014_qa15_v3",
      "id_block": "block_3",
      "question": "Comment l'homme ne peut pas échapper au choix de valeur ?",
      "answer": "comme une chose",
      "answer_stringIds": [
        "string_263",
        "string_264",
        "string_265"
      ]
    },
    {
      "id_qa": "FMSH_PB188a_16-17_014_qa16_v3",
      "id_block": "block_3",
      "question": "A quoi se mêle la pensée de la valeur ?",
      "answer": "à chaque chose",
      "answer_stringIds": [
        "string_242",
        "string_243",
        "string_244"
      ]
    },
    {
      "id_qa": "FMSH_PB188a_16-17_014_qa18_v3",
      "id_block": "block_3",
      "question": "A quoi l'homme ne peut pas échapper ?",
      "answer": "au choix de valeur",
      "answer_stringIds": [
        "string_254",
        "string_255",
        "string_256",
        "string_257"
      ]
    },
    {
      "id_qa": "FMSH_PB188a_16-17_014_qa32_v3",
      "id_block": "block_3",
      "question": "Quelle est l'origine de la catégorie de la valeur ?",
      "answer": "de Phomme",
      "answer_stringIds": [
        "string_156",
        "string_157"
      ]
    },
    {
      "id_qa": "FMSH_PB188a_16-17_014_qa35_v3",
      "id_block": "block_3",
      "question": "Qu'est ce que je ne trouverai jamais si je considère toutes les choses existantes hors de l'homme ?",
      "answer": "la valeur",
      "answer_stringIds": [
        "string_149",
        "string_150"
      ]
    }
  ]
}