{
  "num": "autog_0338-7259_1977_num_39_1",
  "article": "autog_0338-7259_1977_num_39_1_1251",
  "page_name": "FMSH_PB188a_00039_023",
  "questions": [
    {
      "id_qa": "FMSH_PB188a_00039_023_qa38_v3",
      "id_block": "block_1",
      "question": "Qu'appelle-t-on d'échapper à ce qu'ils appellent le \"sous-développement\"?",
      "answer": "le « sous-développement",
      "answer_stringIds": [
        "string_6",
        "string_7",
        "string_8",
        "string_9"
      ]
    },
    {
      "id_qa": "FMSH_PB188a_00039_023_qa19_v3",
      "id_block": "block_2",
      "question": "A quelle société lautogestion s'adresse-t-elle ?",
      "answer": "à la société industrielle moderne",
      "answer_stringIds": [
        "string_147",
        "string_148",
        "string_149",
        "string_150",
        "string_151"
      ]
    },
    {
      "id_qa": "FMSH_PB188a_00039_023_qa21_v3",
      "id_block": "block_2",
      "question": "Dans quoi lautogestion essaie-t-elle d'exprimer son aspiration ?",
      "answer": "dans un projet précis",
      "answer_stringIds": [
        "string_142",
        "string_143",
        "string_144",
        "string_145"
      ]
    },
    {
      "id_qa": "FMSH_PB188a_00039_023_qa12_v3",
      "id_block": "block_3",
      "question": "Qui pense que l'autogestion est une recette européenne ?",
      "answer": "des intellectuels",
      "answer_stringIds": [
        "string_203",
        "string_204"
      ]
    },
    {
      "id_qa": "FMSH_PB188a_00039_023_qa13_v3",
      "id_block": "block_3",
      "question": "A qui des intellectuels voudraient-ils passer l'autogestion ?",
      "answer": "passer aux Africains",
      "answer_stringIds": [
        "string_206",
        "string_207",
        "string_208"
      ]
    },
    {
      "id_qa": "FMSH_PB188a_00039_023_qa29_v3",
      "id_block": "block_3",
      "question": "Qu'est-ce qui permet à chaque peuple d'intérioriser la nouvelle universalité ?",
      "answer": "les traditions libertaires",
      "answer_stringIds": [
        "string_298",
        "string_299",
        "string_300"
      ]
    },
    {
      "id_qa": "FMSH_PB188a_00039_023_qa28_v3",
      "id_block": "block_3",
      "question": "A quoi doit être opposée l'autogestion ?",
      "answer": "au système",
      "answer_stringIds": [
        "string_280",
        "string_281"
      ]
    },
    {
      "id_qa": "FMSH_PB188a_00039_023_qa30_v3",
      "id_block": "block_3",
      "question": "Qui doit chercher en lui-même les traditions libertaires ?",
      "answer": "chaque peuple",
      "answer_stringIds": [
        "string_289",
        "string_290"
      ]
    },
    {
      "id_qa": "FMSH_PB188a_00039_023_qa32_v3",
      "id_block": "block_3",
      "question": "Qu'est ce qui a détourné l'humanité de lutte contre l'entropie ?",
      "answer": "les relations marchandes",
      "answer_stringIds": [
        "string_342",
        "string_343",
        "string_344",
        "string_345"
      ]
    }
  ]
}