{
  "num": "autog_0338-7259_1977_num_39_1",
  "article": "autog_0338-7259_1977_num_39_1_1251",
  "page_name": "FMSH_PB188a_00039_015",
  "questions": [
    {
      "id_qa": "FMSH_PB188a_00039_015_qa1_v3",
      "id_block": "block_1",
      "question": "Quelle est la liberté de la lutte des hommes ?",
      "answer": "libre",
      "answer_stringIds": [
        "string_14"
      ]
    },
    {
      "id_qa": "FMSH_PB188a_00039_015_qa4_v3",
      "id_block": "block_1",
      "question": "Qu'est-ce qui reste libre ?",
      "answer": "la lutte des hommes",
      "answer_stringIds": [
        "string_9",
        "string_10",
        "string_11",
        "string_12"
      ]
    },
    {
      "id_qa": "FMSH_PB188a_00039_015_qa13_v3",
      "id_block": "block_1",
      "question": "Par qui la révolution anglaise a-t-elle été rendue possible ?",
      "answer": "des tenants du droit féodal et de la bourgeoisie marchande",
      "answer_stringIds": [
        "string_78",
        "string_79",
        "string_80",
        "string_81",
        "string_82",
        "string_83",
        "string_84",
        "string_85",
        "string_86",
        "string_87"
      ]
    },
    {
      "id_qa": "FMSH_PB188a_00039_015_qa16_v3",
      "id_block": "block_2",
      "question": "A quoi les anthropologues ont-ils longtemps assimilé le terme \"sans Etat\"?",
      "answer": "les nombreuses sociétés africaines",
      "answer_stringIds": [
        "string_144",
        "string_145",
        "string_146",
        "string_147"
      ]
    },
    {
      "id_qa": "FMSH_PB188a_00039_015_qa17_v3",
      "id_block": "block_2",
      "question": "Qu'est-ce que les anthropologues ont longtemps désigné \"sans Etat\" ?",
      "answer": "les nombreuses sociétés africaines",
      "answer_stringIds": [
        "string_144",
        "string_145",
        "string_146",
        "string_147"
      ]
    },
    {
      "id_qa": "FMSH_PB188a_00039_015_qa8_v3",
      "id_block": "block_3",
      "question": "Qu'est ce qui regroupait une moitié du peuplement du monde noir à la veille de la colonisation ?",
      "answer": "ces sociétés",
      "answer_stringIds": [
        "string_185",
        "string_186"
      ]
    },
    {
      "id_qa": "FMSH_PB188a_00039_015_qa24_v3",
      "id_block": "block_4",
      "question": "Que donne la fantaisie de l'individu à la société ?",
      "answer": "libre cours",
      "answer_stringIds": [
        "string_230",
        "string_231"
      ]
    }
  ]
}