{
  "num": "autog_0338-7259_1977_num_39_1",
  "article": "autog_0338-7259_1977_num_39_1_1251",
  "page_name": "FMSH_PB188a_00039_012",
  "questions": [
    {
      "id_qa": "FMSH_PB188a_00039_012_qa0_v3",
      "id_block": "block_1",
      "question": "Quel est le nom du capitalisme d'Etat à la mode de Moscou ?",
      "answer": "le nom de socialisme",
      "answer_stringIds": [
        "string_72",
        "string_73",
        "string_74",
        "string_75"
      ]
    },
    {
      "id_qa": "FMSH_PB188a_00039_012_qa1_v3",
      "id_block": "block_1",
      "question": "Sur quoi est fondé le développement du socialisme ?",
      "answer": "sur le simple capitalisme",
      "answer_stringIds": [
        "string_106",
        "string_107",
        "string_108",
        "string_109"
      ]
    },
    {
      "id_qa": "FMSH_PB188a_00039_012_qa2_v3",
      "id_block": "block_1",
      "question": "Qu'est-ce que le socialisme ?",
      "answer": "un développement",
      "answer_stringIds": [
        "string_103",
        "string_104"
      ]
    },
    {
      "id_qa": "FMSH_PB188a_00039_012_qa3_v3",
      "id_block": "block_1",
      "question": "Qu'est ce qui est né en Afrique du Sud à la fin du XIXème siècle ?",
      "answer": "Le socialisme",
      "answer_stringIds": [
        "string_17",
        "string_18"
      ]
    },
    {
      "id_qa": "FMSH_PB188a_00039_012_qa6_v3",
      "id_block": "block_1",
      "question": "Où est né le socialisme ?",
      "answer": "en Afrique du Sud",
      "answer_stringIds": [
        "string_22",
        "string_23",
        "string_24",
        "string_25"
      ]
    },
    {
      "id_qa": "FMSH_PB188a_00039_012_qa7_v3",
      "id_block": "block_1",
      "question": "Quand est né le socialisme en Afrique du Sud ?",
      "answer": "à la fin du XIXème siècle",
      "answer_stringIds": [
        "string_26",
        "string_27",
        "string_28",
        "string_29",
        "string_30",
        "string_31"
      ]
    },
    {
      "id_qa": "FMSH_PB188a_00039_012_qa10_v3",
      "id_block": "block_1",
      "question": "A quoi est assimilé l'Etat ?",
      "answer": "à la nation",
      "answer_stringIds": [
        "string_117",
        "string_118",
        "string_119"
      ]
    },
    {
      "id_qa": "FMSH_PB188a_00039_012_qa11_v3",
      "id_block": "block_1",
      "question": "Comment étaient transformés les travailleurs sur place ?",
      "answer": "en travailleurs salariés",
      "answer_stringIds": [
        "string_5",
        "string_6",
        "string_7"
      ]
    },
    {
      "id_qa": "FMSH_PB188a_00039_012_qa27_v3",
      "id_block": "block_1",
      "question": "Quel est le nom de l'inventeur du socialisme scientifique ?",
      "answer": "Maximilien Rubel",
      "answer_stringIds": [
        "string_163",
        "string_164"
      ]
    },
    {
      "id_qa": "FMSH_PB188a_00039_012_qa29_v3",
      "id_block": "block_1",
      "question": "Qui est l'inventeur du socialisme scientifique ?",
      "answer": "Maximilien Rubel",
      "answer_stringIds": [
        "string_163",
        "string_164"
      ]
    },
    {
      "id_qa": "FMSH_PB188a_00039_012_qa12_v3",
      "id_block": "block_2",
      "question": "Sur quoi s'appuie le socialisme africain ?",
      "answer": "sur son esprit et ses anciennes structures",
      "answer_stringIds": [
        "string_255",
        "string_256",
        "string_257",
        "string_258",
        "string_259",
        "string_260",
        "string_261"
      ]
    },
    {
      "id_qa": "FMSH_PB188a_00039_012_qa13_v3",
      "id_block": "block_2",
      "question": "De quoi s'inspire le socialisme africain ?",
      "answer": "de la tradition culturelle du monde noir",
      "answer_stringIds": [
        "string_243",
        "string_244",
        "string_245",
        "string_246",
        "string_247",
        "string_248",
        "string_249"
      ]
    },
    {
      "id_qa": "FMSH_PB188a_00039_012_qa14_v3",
      "id_block": "block_2",
      "question": "Qui a proclamé qu'il voulait construire un socialisme africain ?",
      "answer": "Certains leaders africains",
      "answer_stringIds": [
        "string_214",
        "string_215",
        "string_216"
      ]
    },
    {
      "id_qa": "FMSH_PB188a_00039_012_qa15_v3",
      "id_block": "block_2",
      "question": "Qu'est-ce que voulaient les leaders africains ?",
      "answer": "construire le socialisme",
      "answer_stringIds": [
        "string_232",
        "string_233",
        "string_234"
      ]
    },
    {
      "id_qa": "FMSH_PB188a_00039_012_qa18_v3",
      "id_block": "block_2",
      "question": "Qu'est-ce que le socialisme?",
      "answer": "un socialisme africain",
      "answer_stringIds": [
        "string_236",
        "string_237",
        "string_238"
      ]
    },
    {
      "id_qa": "FMSH_PB188a_00039_012_qa19_v3",
      "id_block": "block_2",
      "question": "Qu'est-ce que veulent dire les leaders africains ?",
      "answer": "ils voulaient construire le socialisme",
      "answer_stringIds": [
        "string_230",
        "string_231",
        "string_232",
        "string_233",
        "string_234"
      ]
    },
    {
      "id_qa": "FMSH_PB188a_00039_012_qa21_v3",
      "id_block": "block_4",
      "question": "Sur quel type de socialisme s'appuie Yves Person ?",
      "answer": "Sur le socialisme africain",
      "answer_stringIds": [
        "string_318",
        "string_319",
        "string_320",
        "string_321"
      ]
    },
    {
      "id_qa": "FMSH_PB188a_00039_012_qa22_v3",
      "id_block": "block_4",
      "question": "Qui a écrit \"Le socialisme en Afrique Noire\" ?",
      "answer": "Yves Person",
      "answer_stringIds": [
        "string_323",
        "string_324"
      ]
    }
  ]
}