{
  "num": "autog_0249-2563_1982_num_15_8",
  "article": "autog_0249-2563_1982_num_15_8_1480",
  "page_name": "autog_0249-2563_1982_num_15_8_T1_0137_0000",
  "questions": [
    {
      "id_qa": "autog_0249-2563_1982_num_15_8_T1_0137_0000_qa18_v3",
      "id_block": "block_3",
      "question": "De quoi les alternatifs se préoccupent-ils ?",
      "answer": "la société urbaine et de la production industrielle",
      "answer_stringIds": [
        "string_61",
        "string_62",
        "string_63",
        "string_64",
        "string_65",
        "string_66",
        "string_67",
        "string_68"
      ]
    },
    {
      "id_qa": "autog_0249-2563_1982_num_15_8_T1_0137_0000_qa16_v3",
      "id_block": "block_4",
      "question": "Par quoi les alternatifs revendiquent-ils le changement ?",
      "answer": "changement par la médiation des partis et des syndicats",
      "answer_stringIds": [
        "string_100",
        "string_101",
        "string_102",
        "string_103",
        "string_104",
        "string_105",
        "string_106",
        "string_107",
        "string_108"
      ]
    },
    {
      "id_qa": "autog_0249-2563_1982_num_15_8_T1_0137_0000_qa6_v3",
      "id_block": "block_7",
      "question": "Qui veulent changer le cœur du système technique ?",
      "answer": "les alternatifs",
      "answer_stringIds": [
        "string_54",
        "string_55",
        "string_56"
      ]
    },
    {
      "id_qa": "autog_0249-2563_1982_num_15_8_T1_0137_0000_qa8_v3",
      "id_block": "block_7",
      "question": "Que veulent changer les alternatifs ?",
      "answer": "le cœur du système technique",
      "answer_stringIds": [
        "string_166",
        "string_167",
        "string_168",
        "string_169",
        "string_170"
      ]
    }
  ]
}