{
  "num": "autog_0338-7259_1972_num_18_1",
  "article": "autog_0338-7259_1972_num_18_1_1056_t1_0290_0000_1",
  "page_name": "FMSH_PB188a_18-19_292",
  "questions": [
    "Quel est le titre et l'auteur de ce livre sur l'origine du gauchisme ?",
    "Qu'écrivait Lénine en 1920 sur le gauchisme ?",
    "Comment Richard Gombin réhabilite le gauchisme dans son ouvrage ?",
    "Qu'est-ce que le gauchisme selon Richard Gombin ?",
    "Comment le gauchisme se distingue-t-il de la science ?",
    "Quel est le rôle du réel dans le gauchisme ?",
    "Comment le gauchisme est-il présenté comme une alternative au marxisme-léninisme ?",
    "Quels groupes politiques sont considérés comme des extrémismes par Richard Gombin ?",
    "Comment le gauchisme est-il différent du réformisme selon Richard Gombin ?"
  ]
}