{
  "num": "autog_0249-2563_1981_num_14_5",
  "article": "autog_0249-2563_1981_num_14_5_1409",
  "page_name": "autog_0249-2563_1981_num_14_5_T1_0027_0000",
  "questions": [
    {
      "id_qa": "autog_0249-2563_1981_num_14_5_T1_0027_0000_qa0_v3",
      "id_block": "block_0",
      "question": "Avec qui se lance-t-il à 10 heures du soir ?",
      "answer": "dans des tractations illicites avec des chauffeurs de taxi",
      "answer_stringIds": [
        "string_30",
        "string_31",
        "string_32",
        "string_33",
        "string_34",
        "string_35",
        "string_36",
        "string_37",
        "string_38",
        "string_39"
      ]
    },
    {
      "id_qa": "autog_0249-2563_1981_num_14_5_T1_0027_0000_qa1_v3",
      "id_block": "block_0",
      "question": "Quand est-ce que j'arrive sur l'aérodrome de Varsovie ?",
      "answer": "À 10 heures du soir",
      "answer_stringIds": [
        "string_14",
        "string_15",
        "string_16",
        "string_17",
        "string_18"
      ]
    },
    {
      "id_qa": "autog_0249-2563_1981_num_14_5_T1_0027_0000_qa11_v3",
      "id_block": "block_1",
      "question": "Qu'est ce qui était le contraire d'un signe de fissure ?",
      "answer": "La marginalité du marché",
      "answer_stringIds": [
        "string_118",
        "string_119",
        "string_120",
        "string_121"
      ]
    },
    {
      "id_qa": "autog_0249-2563_1981_num_14_5_T1_0027_0000_qa28_v3",
      "id_block": "block_1",
      "question": "Qu'est ce qui était un leurre ?",
      "answer": "cette première expérience",
      "answer_stringIds": [
        "string_103",
        "string_104",
        "string_105"
      ]
    },
    {
      "id_qa": "autog_0249-2563_1981_num_14_5_T1_0027_0000_qa6_v3",
      "id_block": "block_2",
      "question": "Qui est toujours méprisé par la révolution ?",
      "answer": "le pauvre",
      "answer_stringIds": [
        "string_219",
        "string_220"
      ]
    },
    {
      "id_qa": "autog_0249-2563_1981_num_14_5_T1_0027_0000_qa8_v3",
      "id_block": "block_2",
      "question": "Qu'est ce qui a été inversé par la révolution ?",
      "answer": "les valeurs sociales",
      "answer_stringIds": [
        "string_216",
        "string_217",
        "string_218"
      ]
    },
    {
      "id_qa": "autog_0249-2563_1981_num_14_5_T1_0027_0000_qa29_v3",
      "id_block": "block_2",
      "question": "Sur quoi repose la société ?",
      "answer": "ses bases",
      "answer_stringIds": [
        "string_230",
        "string_231"
      ]
    },
    {
      "id_qa": "autog_0249-2563_1981_num_14_5_T1_0027_0000_qa9_v3",
      "id_block": "block_3",
      "question": "Qu'est ce qui me promenait partout ?",
      "answer": "les marques de la fissure",
      "answer_stringIds": [
        "string_238",
        "string_239",
        "string_240",
        "string_241",
        "string_242"
      ]
    },
    {
      "id_qa": "autog_0249-2563_1981_num_14_5_T1_0027_0000_qa10_v3",
      "id_block": "block_3",
      "question": "Qu'est ce qui n'est pas fait dans la rue ?",
      "answer": "discours",
      "answer_stringIds": [
        "string_279"
      ]
    },
    {
      "id_qa": "autog_0249-2563_1981_num_14_5_T1_0027_0000_qa15_v3",
      "id_block": "block_3",
      "question": "Que fait chacun dans l'autobus?",
      "answer": "son billet",
      "answer_stringIds": [
        "string_267",
        "string_268"
      ]
    },
    {
      "id_qa": "autog_0249-2563_1981_num_14_5_T1_0027_0000_qa19_v3",
      "id_block": "block_3",
      "question": "Qu'est ce qui apparaît à l'horizon ?",
      "answer": "aucune voiture",
      "answer_stringIds": [
        "string_254",
        "string_255"
      ]
    },
    {
      "id_qa": "autog_0249-2563_1981_num_14_5_T1_0027_0000_qa22_v3",
      "id_block": "block_3",
      "question": "Que fait une population disciplinée ?",
      "answer": "la queue en silence",
      "answer_stringIds": [
        "string_310",
        "string_311",
        "string_312",
        "string_313"
      ]
    },
    {
      "id_qa": "autog_0249-2563_1981_num_14_5_T1_0027_0000_qa32_v3",
      "id_block": "block_3",
      "question": "Qui a un faciès détendu et innocent ?",
      "answer": "La police",
      "answer_stringIds": [
        "string_314",
        "string_315"
      ]
    },
    {
      "id_qa": "autog_0249-2563_1981_num_14_5_T1_0027_0000_qa35_v3",
      "id_block": "block_3",
      "question": "Qui est discipliné ?",
      "answer": "Les passants",
      "answer_stringIds": [
        "string_243",
        "string_244"
      ]
    },
    {
      "id_qa": "autog_0249-2563_1981_num_14_5_T1_0027_0000_qa37_v3",
      "id_block": "block_3",
      "question": "Qu'est ce qui n'est pas envahie ?",
      "answer": "La chaussée",
      "answer_stringIds": [
        "string_259",
        "string_260"
      ]
    },
    {
      "id_qa": "autog_0249-2563_1981_num_14_5_T1_0027_0000_qa2_v3",
      "id_block": "block_4",
      "question": "Qui séparerait les partisans du régime en Pologne ?",
      "answer": "les partisans du régime des contestataires de Solidarité",
      "answer_stringIds": [
        "string_334",
        "string_335",
        "string_336",
        "string_337",
        "string_338",
        "string_339",
        "string_340",
        "string_341"
      ]
    },
    {
      "id_qa": "autog_0249-2563_1981_num_14_5_T1_0027_0000_qa3_v3",
      "id_block": "block_4",
      "question": "Qu'est ce qui sépare les partisans du régime de Solidarité ?",
      "answer": "un clivage",
      "answer_stringIds": [
        "string_330",
        "string_331"
      ]
    }
  ]
}