{
  "num": "autog_0338-7259_1978_num_41_1",
  "article": "autog_0338-7259_1978_num_41_1_1314",
  "page_name": "FMSH_PB188a_41-42_099",
  "questions": [
    {
      "id_qa": "FMSH_PB188a_41-42_099_qa10_v3",
      "id_block": "block_1",
      "question": "De quand datent les positions des newcomers ?",
      "answer": "in the hands of an old ingroup mainly from the WWII resistance movement",
      "answer_stringIds": [
        "string_X"
      ]
    },
    {
      "id_qa": "FMSH_PB188a_41-42_099_qa11_v3",
      "id_block": "block_1",
      "question": "Qu'est-ce que les newcomers did not want ?",
      "answer": "to involve themselves too much and remanined candidates",
      "answer_stringIds": [
        "string_X"
      ]
    },
    {
      "id_qa": "FMSH_PB188a_41-42_099_qa13_v3",
      "id_block": "block_1",
      "question": "Où les newcomers were-ils no longer members ?",
      "answer": "in the community",
      "answer_stringIds": [
        "string_X"
      ]
    },
    {
      "id_qa": "FMSH_PB188a_41-42_099_qa17_v3",
      "id_block": "block_2",
      "question": "Qu'est-ce qui doit être fait dans la structure de Boimondeau community itself ?",
      "answer": "the explanations",
      "answer_stringIds": [
        "string_X"
      ]
    },
    {
      "id_qa": "FMSH_PB188a_41-42_099_qa16_v3",
      "id_block": "block_3",
      "question": "Qu'est-ce qui arose les communities ?",
      "answer": "the difficulties",
      "answer_stringIds": [
        "string_X"
      ]
    },
    {
      "id_qa": "FMSH_PB188a_41-42_099_qa1_v3",
      "id_block": "block_5",
      "question": "Qu'est ce que la money economy still played ?",
      "answer": "a great role",
      "answer_stringIds": [
        "string_X"
      ]
    },
    {
      "id_qa": "FMSH_PB188a_41-42_099_qa3_v3",
      "id_block": "block_5",
      "question": "Pour qui la money economy a t-elle un great role ?",
      "answer": "for the members of the community",
      "answer_stringIds": [
        "string_X"
      ]
    },
    {
      "id_qa": "FMSH_PB188a_41-42_099_qa20_v3",
      "id_block": "block_5",
      "question": "Qui supporte la traditional family life ?",
      "answer": "by the community",
      "answer_stringIds": [
        "string_X"
      ]
    }
  ]
}