{
  "num": "autog_0338-7259_1978_num_41_1",
  "article": "autog_0338-7259_1978_num_41_1_1314",
  "page_name": "FMSH_PB188a_41-42_102",
  "questions": [
    {
      "id_qa": "FMSH_PB188a_41-42_102_qa11_v3",
      "id_block": "block_1",
      "question": "Pour qui les demandes d'une plus grande rigueur méthodologique avaient elles été repoussées ?",
      "answer": "étudiants de première année",
      "answer_stringIds": [
        "string_X"
      ]
    },
    {
      "id_qa": "FMSH_PB188a_41-42_102_qa12_v3",
      "id_block": "block_1",
      "question": "Qui était à l'origine des demandes d'une plus grande rigueur méthodologique ?",
      "answer": "ce même professeur yougoslave",
      "answer_stringIds": [
        "string_X"
      ]
    },
    {
      "id_qa": "FMSH_PB188a_41-42_102_qa25_v3",
      "id_block": "block_1",
      "question": "Qui organisait la diffusion généreuse mais sélective de leurs tout derniers écrits ?",
      "answer": "auteurs réalistes",
      "answer_stringIds": [
        "string_X"
      ]
    },
    {
      "id_qa": "FMSH_PB188a_41-42_102_qa28_v3",
      "id_block": "block_12",
      "question": "Qu'est ce qui est autogestionnaire ?",
      "answer": "institutions",
      "answer_stringIds": [
        "string_X"
      ]
    },
    {
      "id_qa": "FMSH_PB188a_41-42_102_qa29_v3",
      "id_block": "block_12",
      "question": "Qu'est ce qui caractérise le fonctionnement des institutions ?",
      "answer": "autogestionnaires",
      "answer_stringIds": [
        "string_X"
      ]
    },
    {
      "id_qa": "FMSH_PB188a_41-42_102_qa14_v3",
      "id_block": "block_13",
      "question": "Qu'est-ce que l'Assemblée Générale ?",
      "answer": "une institution fondamentale de lautogestion",
      "answer_stringIds": [
        "string_X"
      ]
    },
    {
      "id_qa": "FMSH_PB188a_41-42_102_qa15_v3",
      "id_block": "block_2",
      "question": "Qu'est ce qui indique un point de fracture dans la recherche ?",
      "answer": "Ce raté dansune programmation pourtant bien préparée",
      "answer_stringIds": [
        "string_X"
      ]
    },
    {
      "id_qa": "FMSH_PB188a_41-42_102_qa21_v3",
      "id_block": "block_2",
      "question": "A quoi ne faut-il pas prendre l'imbroglio de la section 6 ?",
      "answer": "la légère",
      "answer_stringIds": [
        "string_X"
      ]
    },
    {
      "id_qa": "FMSH_PB188a_41-42_102_qa26_v3",
      "id_block": "block_2",
      "question": "Qu'est-ce qui s'inverse en son contraire ?",
      "answer": "cette",
      "answer_stringIds": [
        "string_X"
      ]
    },
    {
      "id_qa": "FMSH_PB188a_41-42_102_qa18_v3",
      "id_block": "block_3",
      "question": "Qui a gagné la partie ?",
      "answer": "Aucune",
      "answer_stringIds": [
        "string_X"
      ]
    },
    {
      "id_qa": "FMSH_PB188a_41-42_102_qa4_v3",
      "id_block": "block_6",
      "question": "Quelles langues se partagent les participants ?",
      "answer": "la langue française et la langue anglaise",
      "answer_stringIds": [
        "string_X"
      ]
    },
    {
      "id_qa": "FMSH_PB188a_41-42_102_qa5_v3",
      "id_block": "block_6",
      "question": "Qu'est ce qui provoque la séparation momentanée de la section ?",
      "answer": "des difficultés de communication qui péseront lourdement sur les activité",
      "answer_stringIds": [
        "string_X"
      ]
    },
    {
      "id_qa": "FMSH_PB188a_41-42_102_qa6_v3",
      "id_block": "block_6",
      "question": "Qui se partage entre la langue française et la langue anglaise ?",
      "answer": "Les participants",
      "answer_stringIds": [
        "string_X"
      ]
    },
    {
      "id_qa": "FMSH_PB188a_41-42_102_qa1_v3",
      "id_block": "block_7",
      "question": "Dans quel groupe se situe le débat qui s'instaure ?",
      "answer": "sous-groupe francophone",
      "answer_stringIds": [
        "string_X"
      ]
    },
    {
      "id_qa": "FMSH_PB188a_41-42_102_qa22_v3",
      "id_block": "block_8",
      "question": "Qu'est ce qui caractérise le fonctionnement des institutions ?",
      "answer": "autogestionnaires",
      "answer_stringIds": [
        "string_X"
      ]
    },
    {
      "id_qa": "FMSH_PB188a_41-42_102_qa23_v3",
      "id_block": "block_8",
      "question": "Qu'est ce qui est autogestionnaire ?",
      "answer": "institutions",
      "answer_stringIds": [
        "string_X"
      ]
    }
  ]
}