{
  "num": "autog_0338-7259_1974_num_26_1",
  "article": "autog_0338-7259_1974_num_26_1_1110",
  "page_name": "FMSH_PB188a_26-27_074",
  "questions": [
    {
      "id_qa": "FMSH_PB188a_26-27_074_qa7_v3",
      "id_block": "block_1",
      "question": "Qui veut l'abolition complète du patronat ?",
      "answer": "M. Bianchi",
      "answer_stringIds": [
        "string_15",
        "string_16"
      ]
    },
    {
      "id_qa": "FMSH_PB188a_26-27_074_qa1_v3",
      "id_block": "block_2",
      "question": "Dans quel état d'exaspération et d'impatience se trouvent les masses ?",
      "answer": "dans lequel",
      "answer_stringIds": [
        "string_188",
        "string_189"
      ]
    },
    {
      "id_qa": "FMSH_PB188a_26-27_074_qa2_v3",
      "id_block": "block_2",
      "question": "Qu'est ce qui est acquis par l'élite du prolétariat italien ?",
      "answer": "le degré de conscience",
      "answer_stringIds": [
        "string_172",
        "string_173",
        "string_174",
        "string_175"
      ]
    },
    {
      "id_qa": "FMSH_PB188a_26-27_074_qa3_v3",
      "id_block": "block_2",
      "question": "Qu'est ce qui s'ensuivrait après la turlupinade ?",
      "answer": "la consolidation du système capitaliste",
      "answer_stringIds": [
        "string_224",
        "string_225",
        "string_226",
        "string_227",
        "string_228"
      ]
    },
    {
      "id_qa": "FMSH_PB188a_26-27_074_qa16_v3",
      "id_block": "block_2",
      "question": "Qui est à l'origine du contrôle syndical ?",
      "answer": "les patrons",
      "answer_stringIds": [
        "string_48",
        "string_49"
      ]
    },
    {
      "id_qa": "FMSH_PB188a_26-27_074_qa17_v3",
      "id_block": "block_2",
      "question": "Qui soutient le contrôle syndical ?",
      "answer": "les patrons",
      "answer_stringIds": [
        "string_48",
        "string_49"
      ]
    },
    {
      "id_qa": "FMSH_PB188a_26-27_074_qa8_v3",
      "id_block": "block_3",
      "question": "Qu'est-ce qui permet de conserver le régime actuel ?",
      "answer": "Iégalisation de ces conquétes ouvrières par des formules dictées par les organes politiques de la bourgeoisie",
      "answer_stringIds": [
        "string_254",
        "string_255",
        "string_256",
        "string_257",
        "string_258",
        "string_259",
        "string_260",
        "string_261",
        "string_262",
        "string_263",
        "string_264",
        "string_265",
        "string_266",
        "string_267",
        "string_268",
        "string_269",
        "string_270"
      ]
    }
  ]
}