{
  "num": "autog_0338-7259_1973_num_22_1",
  "article": "autog_0338-7259_1973_num_22_1_1076",
  "page_name": "FMSH_PB188a_22-23_010",
  "questions": [
    "Quels sont les partisans et les adversaires de l'idée de l'autogestion et sur quels points se différencient-ils ?",
    "Quels sont les différentes perspectives sur l'essence, les voies et les moyens de l'auto-émancipation et de l'auto-gouvernement des travailleurs ?",
    "Comment ces discussions constituent-elles un nouveau fait politique ?",
    "Comment l'idée de l'autogestion sert-elle de repère politique ?",
    "Quels groupes sont mentionnés dans le texte et quels sont leurs positions en matière d'autogestion ?",
    "Quel rôle joue la revue Autogestion et Socialisme dans la recherche sur les mouvements d'autogestion ?"
  ]
}