{
  "num": "autog_0338-7259_1973_num_22_1",
  "article": "autog_0338-7259_1973_num_22_1_1076",
  "page_name": "FMSH_PB188a_22-23_007",
  "questions": [
    "Quel est le contexte historique de la recherche sur le « moyen immédiat » de la révolution ?",
    "Quel est le but de l'autogestion selon les chercheurs ?",
    "Quels sont les organisations politiques et syndicales de gauche et d'extrême-gauche contactées par les chercheurs ?",
    "Quels sont les résultats des demandes de contributions sur l'autogestion ?",
    "Quels sont les positions des organisations sur l'autogestion ?",
    "Quels sont les groupes que les chercheurs n'ont pas pu atteindre directement ?",
    "Quels sont les études individuelles publiées pour pallier les lacunes ?",
    "Quel est le double débat que l'on trouve dans les contributions ?",
    "Quels sont les documents et articles des organisations consultés sur l'autogestion ?",
    "Quels sont les points de vue des organisations sur la façon dont d'autres groupes entendent l'autogestion ?",
    "Quels sont les promesses des organisations non livrées ?",
    "Quels sont les précisions complémentaires demandées par le PCF ?",
    "Quels sont les documents de congrès des organisations sur l'autogestion ?",
    "Quels sont les discours et interviews des organisations sur l'autogestion ?",
    "Quels sont les articles des organisations sur l'autogestion ?",
    "Quels sont les points de vue des organisations sur la caste ou classe dirigeante et la masse des exécutants ?",
    "Quels sont les documents d'autres numéros de la revue Autogestion et socialisme consultés par les chercheurs ?",
    "Quels sont les groupes C.U.B. et quels sont leurs travaux sur l'autogestion ?",
    "Quels sont les résultats attendus pour la prochaine publication sur l'autogestion des luttes ?"
  ]
}