{
  "num": "autog_0249-2563_1982_num_15_10",
  "article": "autog_0249-2563_1982_num_15_10_1497",
  "page_name": "autog_0249-2563_1982_num_15_10_T1_0053_0000",
  "questions": [
    "Quel type de patrimoine visent-on à connaître, protéger et développer selon Henri Giordan ?",
    "Quel est le but de l'autonomie des interventions et institutions mentionnées par Henri Giordan ?",
    "Quel est le but de l'autogestion culturelle selon Henri Giordan ?",
    "Quels sont les trois niveaux interdépendants de la mise en autogestion selon Henri Giordan ?",
    "Quel est le rôle de la citoyenneté politique dans la mise en autogestion selon Henri Giordan ?",
    "Quel est le rôle de la citoyenneté sociale et économique dans la mise en autogestion selon Henri Giordan ?",
    "Quel est le rôle de la citoyenneté culturelle dans la mise en autogestion selon Henri Giordan ?",
    "Quels sont les domaines culturels visés par les actions proposées par Henri Giordan ?",
    "Quel est le but de la création d'un « Centre national de documentation, de recherches et d'échanges » selon Henri Giordan ?",
    "Quels sont les domaines visés par les actions en faveur du livre, du théâtre, du cinéma, de la musique, de la chanson, des arts plastiques et de l'animation culturelle selon Henri Giordan ?",
    "Quel est l'importance de l'enseignement de la maternelle à l'Université dans la mise en autogestion culturelle selon Henri Giordan ?"
  ]
}