{
  "num": "autog_0338-7259_1970_num_13_1",
  "article": "autog_0338-7259_1970_num_13_1_978",
  "page_name": "FMSH_PB188a_13-14_111",
  "questions": [
    {
      "id_qa": "FMSH_PB188a_13-14_111_qa9_v3",
      "id_block": "block_1",
      "question": "Qu'est ce qui n'a pas l'impression d'avoir vécu ?",
      "answer": "une expérience",
      "answer_stringIds": [
        "string_11",
        "string_12"
      ]
    },
    {
      "id_qa": "FMSH_PB188a_13-14_111_qa3_v3",
      "id_block": "block_4",
      "question": "Qu'est ce qui aurait pu masquer les véritables problèmes ?",
      "answer": "une approche plus théorique",
      "answer_stringIds": [
        "string_66",
        "string_67",
        "string_68",
        "string_69"
      ]
    },
    {
      "id_qa": "FMSH_PB188a_13-14_111_qa1_v3",
      "id_block": "block_4",
      "question": "Qu'est ce qui aurait pu masquer les véritables problèmes de l'A.G.P ?",
      "answer": "une approche plus théorique",
      "answer_stringIds": [
        "string_66",
        "string_67",
        "string_68",
        "string_69"
      ]
    },
    {
      "id_qa": "FMSH_PB188a_13-14_111_qa2_v3",
      "id_block": "block_4",
      "question": "Qu'est ce qui aurait pu masquer l'approche plus théorique ?",
      "answer": "les véritables problèmes",
      "answer_stringIds": [
        "string_73",
        "string_74",
        "string_75"
      ]
    },
    {
      "id_qa": "FMSH_PB188a_13-14_111_qa17_v3",
      "id_block": "block_4",
      "question": "Qu'est ce qui permet de résoudre les problèmes fondamentaux du groupe ?",
      "answer": "cheminer",
      "answer_stringIds": [
        "string_56"
      ]
    },
    {
      "id_qa": "FMSH_PB188a_13-14_111_qa19_v3",
      "id_block": "block_4",
      "question": "Qu'est ce qui est important dans un stage d'A.G.P ?",
      "answer": "les problèmes fondamentaux",
      "answer_stringIds": [
        "string_41",
        "string_42",
        "string_43",
        "string_44"
      ]
    },
    {
      "id_qa": "FMSH_PB188a_13-14_111_qa20_v3",
      "id_block": "block_4",
      "question": "Qu'est-ce qui permet de cheminer ?",
      "answer": "le groupe",
      "answer_stringIds": [
        "string_47",
        "string_48"
      ]
    },
    {
      "id_qa": "FMSH_PB188a_13-14_111_qa23_v3",
      "id_block": "block_5",
      "question": "Qui a eu révélation de nos manques ?",
      "answer": "A.G.P.",
      "answer_stringIds": [
        "string_38"
      ]
    },
    {
      "id_qa": "FMSH_PB188a_13-14_111_qa24_v3",
      "id_block": "block_5",
      "question": "Qu'a eu A.G.P ?",
      "answer": "révélation de nos manques et",
      "answer_stringIds": [
        "string_88",
        "string_89",
        "string_90",
        "string_91",
        "string_92"
      ]
    },
    {
      "id_qa": "FMSH_PB188a_13-14_111_qa25_v3",
      "id_block": "block_5",
      "question": "Qu'est ce qui nous a pris en charge ?",
      "answer": "des réalités objectives et subjectives",
      "answer_stringIds": [
        "string_113",
        "string_114",
        "string_115",
        "string_116",
        "string_117"
      ]
    },
    {
      "id_qa": "FMSH_PB188a_13-14_111_qa14_v3",
      "id_block": "block_6",
      "question": "Qu'est ce qui a éprouvé un malaise ?",
      "answer": "nous nous",
      "answer_stringIds": [
        "string_124",
        "string_125"
      ]
    },
    {
      "id_qa": "FMSH_PB188a_13-14_111_qa16_v3",
      "id_block": "block_6",
      "question": "Qu'est ce que nous avons éprouvé à l'A.G.P. en général ?",
      "answer": "un malaise",
      "answer_stringIds": [
        "string_120",
        "string_121"
      ]
    },
    {
      "id_qa": "FMSH_PB188a_13-14_111_qa10_v3",
      "id_block": "block_7",
      "question": "Qu'est ce qui n'est pas arrivé l'année dernière ?",
      "answer": "à rien",
      "answer_stringIds": [
        "string_173",
        "string_174"
      ]
    },
    {
      "id_qa": "FMSH_PB188a_13-14_111_qa13_v3",
      "id_block": "block_7",
      "question": "Qu'est ce qui a changé l'année dernière ?",
      "answer": "des méthodes nouvelles",
      "answer_stringIds": [
        "string_168",
        "string_169",
        "string_170"
      ]
    },
    {
      "id_qa": "FMSH_PB188a_13-14_111_qa5_v3",
      "id_block": "block_9",
      "question": "Pourquoi Gérard (2) n'était pas venu là ?",
      "answer": "pour manipuler le groupe",
      "answer_stringIds": [
        "string_210",
        "string_211",
        "string_212",
        "string_213"
      ]
    },
    {
      "id_qa": "FMSH_PB188a_13-14_111_qa6_v3",
      "id_block": "block_9",
      "question": "Pour qui Gérard est-il venu ?",
      "answer": "le groupe",
      "answer_stringIds": [
        "string_47",
        "string_48"
      ]
    },
    {
      "id_qa": "FMSH_PB188a_13-14_111_qa7_v3",
      "id_block": "block_9",
      "question": "Quand a eu lieu la mauvaise pensée de Gérard ?",
      "answer": "Hier soir",
      "answer_stringIds": [
        "string_194",
        "string_195"
      ]
    }
  ]
}