{
  "num": "autog_0338-7259_1970_num_13_1",
  "article": "autog_0338-7259_1970_num_13_1_987",
  "page_name": "FMSH_PB188a_13-14_206",
  "questions": [
    "Albert Meister parle du processus de développement national. Quel est le sens de l'autogestion dans ce contexte ?",
    "Quel est la différence entre l'autogestion et la coopération ou d'autres formes de self-management ?",
    "Qu'est-ce que la coopération dans le contexte de Meister ?",
    "Comment l'appropriation privée des moyens de production est-elle transformée par la participation des travailleurs dans une coopérative ?",
    "Quels sont les droits des co-propriétaires des moyens de production dans une coopérative ?",
    "Quels sont les objectifs de la société dans une coopérative ?",
    "Quels sont les types mixtes d'économie mentionnés par Meister ?",
    "Comment les conditions de fonctionnement du self-management sont-elles affectées dans les sociétés socialistes non-planifiées ?",
    "Comment les unités autogérées sont-elles transformées dans les sociétés libérales ?"
  ]
}