{
  "num": "autog_0005-0970_1966_num_1_1",
  "article": "autog_0005-0970_1966_num_1_1_890",
  "page_name": "FMSH_PB188a_00001_092",
  "questions": [
    {
      "id_qa": "FMSH_PB188a_00001_092_qa7_v3",
      "id_block": "block_2",
      "question": "Qu'est-ce que la croissance de notre économie ?",
      "answer": "une économie techniquement développée et économiquement puissante",
      "answer_stringIds": [
        "string_71",
        "string_72",
        "string_73",
        "string_74",
        "string_75",
        "string_76",
        "string_77"
      ]
    },
    {
      "id_qa": "FMSH_PB188a_00001_092_qa26_v3",
      "id_block": "block_3",
      "question": "A quoi s'oppose la position du travailleur ?",
      "answer": "tous les compromis dans la politique économique et sa réalisation",
      "answer_stringIds": [
        "string_109",
        "string_110",
        "string_111",
        "string_112",
        "string_113",
        "string_114",
        "string_115",
        "string_116",
        "string_117",
        "string_118"
      ]
    },
    {
      "id_qa": "FMSH_PB188a_00001_092_qa0_v3",
      "id_block": "block_7",
      "question": "Qu'est ce qui fut appliqué à la démocratisation du régime ?",
      "answer": "les décisions du VIII Congrès de la L.C.Y.",
      "answer_stringIds": [
        "string_327",
        "string_328",
        "string_329",
        "string_330",
        "string_331",
        "string_332",
        "string_333",
        "string_334"
      ]
    },
    {
      "id_qa": "FMSH_PB188a_00001_092_qa1_v3",
      "id_block": "block_7",
      "question": "Qu'est-ce qui fut appliqué par le VIII Congrès de la L.C.Y ?",
      "answer": "la démocratisation du régime",
      "answer_stringIds": [
        "string_337",
        "string_338",
        "string_339",
        "string_340"
      ]
    },
    {
      "id_qa": "FMSH_PB188a_00001_092_qa5_v3",
      "id_block": "block_7",
      "question": "Qu'est ce que la Commission du Comité Exécutif du C.C. ?",
      "answer": "de quelle façon furent appliquées les décisions du VIII Congrès de la L.C.Y. concernant la démocratisation du régime",
      "answer_stringIds": [
        "string_322",
        "string_323",
        "string_324",
        "string_325",
        "string_326",
        "string_327",
        "string_328",
        "string_329",
        "string_330",
        "string_331",
        "string_332",
        "string_333",
        "string_334",
        "string_335",
        "string_336",
        "string_337",
        "string_338",
        "string_339",
        "string_340"
      ]
    },
    {
      "id_qa": "FMSH_PB188a_00001_092_qa20_v3",
      "id_block": "block_8",
      "question": "Qu'est ce qui est en conflit avec certaines survivances de l'ancien système ?",
      "answer": "notre développement social",
      "answer_stringIds": [
        "string_401",
        "string_402",
        "string_403",
        "string_404"
      ]
    },
    {
      "id_qa": "FMSH_PB188a_00001_092_qa29_v3",
      "id_block": "block_9",
      "question": "Qu'est ce qui a été marqué par l'affrontement ?",
      "answer": "le Plenum",
      "answer_stringIds": [
        "string_424",
        "string_425"
      ]
    }
  ]
}