{
  "num": "autog_0338-7259_1978_num_40_1",
  "article": "autog_0338-7259_1978_num_40_1_1286_t1_0137_0000_1",
  "page_name": "FMSH_PB188a_00040_138",
  "questions": [
    "Quelles sont les femmes de la classe ouvrière qui ne peuvent pas s'allier avec des femmes des classes dominantes contre les hommes de leur propre classe selon Jeannette Laot ?",
    "Les hommes de la classe ouvrière se dissocient-ils de ceux de la classe dominante lorsqu'il s'agit des rapports hommes-femmes ?",
    "Quelle est la stratégie proposée par Jeannette Laot pour les femmes face à l'attitude du mouvement ouvrier et aux mouvements de femmes qui lutte pour la transformation des rapports hommes-femmes dans la société capitaliste ?",
    "Quels sont les espoirs, les échecs et les victoires que décrit Jeannette Laot entre la fin de la guerre et le congrès de la CFDT en 1976 ?",
    "Quels sont les principaux points de la stratégie de Jeannette Laot pour mettre en œuvre les revendications féministes ?",
    "Quels sont les changements sociaux et économiques que implique le droit à l'emploi pour Jeannette Laot ?",
    "Quel est le nombre de nouveaux emplois qui doit être créé pour mettre en œuvre le principe du droit à l'emploi inscrit dans la Constitution selon Jeannette Laot ?",
    "Quels sont les domaines de la vie quotidienne qui doivent être modifiés pour mettre en œuvre les revendications féministes selon Jeannette Laot ?",
    "Quel est le rôle de l'autogestion dans la stratégie de Jeannette Laot pour les hommes ?"
  ]
}