{
  "num": "autog_0338-7259_1976_num_33_1",
  "article": "autog_0338-7259_1976_num_33_1_1156",
  "page_name": "FMSH_PB188a_33-34_059",
  "questions": [
    {
      "id_qa": "FMSH_PB188a_33-34_059_qa26_v3",
      "id_block": "block_11",
      "question": "Où sont discutées les revendications ?",
      "answer": "En assemblée des travailleurs",
      "answer_stringIds": [
        "string_307",
        "string_308",
        "string_309",
        "string_310"
      ]
    },
    {
      "id_qa": "FMSH_PB188a_33-34_059_qa27_v3",
      "id_block": "block_3",
      "question": "Qu'est ce qui est élu ?",
      "answer": "Une commission de travailleurs",
      "answer_stringIds": [
        "string_53",
        "string_54",
        "string_55",
        "string_56"
      ]
    },
    {
      "id_qa": "FMSH_PB188a_33-34_059_qa41_v3",
      "id_block": "block_3",
      "question": "Qui prennent le parti du patron contre les ouvriers ?",
      "answer": "chefs de section et employés de bureau",
      "answer_stringIds": [
        "string_38",
        "string_39",
        "string_40",
        "string_41",
        "string_42",
        "string_43",
        "string_44"
      ]
    },
    {
      "id_qa": "FMSH_PB188a_33-34_059_qa21_v3",
      "id_block": "block_5",
      "question": "Quel était le métier de Stravaïlleurs ?",
      "answer": "un contremaître",
      "answer_stringIds": [
        "string_73",
        "string_74"
      ]
    },
    {
      "id_qa": "FMSH_PB188a_33-34_059_qa22_v3",
      "id_block": "block_5",
      "question": "Qui a voulu «assainir» un contremaître ?",
      "answer": "Licenciement de Stravaïlleurs",
      "answer_stringIds": [
        "string_67",
        "string_68",
        "string_69"
      ]
    },
    {
      "id_qa": "FMSH_PB188a_33-34_059_qa0_v3",
      "id_block": "block_7",
      "question": "Qui se joint à la lutte ?",
      "answer": "Le personnel administratif",
      "answer_stringIds": [
        "string_150",
        "string_151",
        "string_152"
      ]
    },
    {
      "id_qa": "FMSH_PB188a_33-34_059_qa2_v3",
      "id_block": "block_7",
      "question": "Qui hésite à se joindre à la lutte ?",
      "answer": "Le personnel administratif",
      "answer_stringIds": [
        "string_150",
        "string_151",
        "string_152"
      ]
    },
    {
      "id_qa": "FMSH_PB188a_33-34_059_qa3_v3",
      "id_block": "block_7",
      "question": "A quoi le personnel administratif hésite-t-il ?",
      "answer": "à la lutte",
      "answer_stringIds": [
        "string_157",
        "string_158",
        "string_159"
      ]
    },
    {
      "id_qa": "FMSH_PB188a_33-34_059_qa9_v3",
      "id_block": "block_7",
      "question": "Qui commence à vendre directement ?",
      "answer": "Les travailleurs",
      "answer_stringIds": [
        "string_141",
        "string_142"
      ]
    },
    {
      "id_qa": "FMSH_PB188a_33-34_059_qa12_v3",
      "id_block": "block_7",
      "question": "Qui produit et vend directement ?",
      "answer": "Les travailleurs",
      "answer_stringIds": [
        "string_141",
        "string_142"
      ]
    },
    {
      "id_qa": "FMSH_PB188a_33-34_059_qa18_v3",
      "id_block": "block_7",
      "question": "Combien d'ouvriers ont été licenciés pendant deux ans ?",
      "answer": "plus de 200 ouvrières",
      "answer_stringIds": [
        "string_98",
        "string_99",
        "string_100",
        "string_101"
      ]
    },
    {
      "id_qa": "FMSH_PB188a_33-34_059_qa19_v3",
      "id_block": "block_7",
      "question": "Combien de temps a duré la lutte contre une contremaître ?",
      "answer": "pendant deux ans",
      "answer_stringIds": [
        "string_102",
        "string_103",
        "string_104"
      ]
    },
    {
      "id_qa": "FMSH_PB188a_33-34_059_qa24_v3",
      "id_block": "block_7",
      "question": "Qui demande au Ministère du Travail un financement et une organisation en coopérative ?",
      "answer": "Les travailleurs",
      "answer_stringIds": [
        "string_141",
        "string_142"
      ]
    },
    {
      "id_qa": "FMSH_PB188a_33-34_059_qa35_v3",
      "id_block": "block_7",
      "question": "Qui est écarté de la conduite de la lutte ?",
      "answer": "le personnel administratif",
      "answer_stringIds": [
        "string_188",
        "string_189",
        "string_190"
      ]
    },
    {
      "id_qa": "FMSH_PB188a_33-34_059_qa36_v3",
      "id_block": "block_7",
      "question": "Qu'est ce qui a lieu après une réunion avec les ouvrières de Sogantal ?",
      "answer": "des élections",
      "answer_stringIds": [
        "string_236",
        "string_237"
      ]
    }
  ]
}