{
  "num": "autog_0338-7259_1976_num_33_1",
  "article": "autog_0338-7259_1976_num_33_1_1156",
  "page_name": "FMSH_PB188a_33-34_057",
  "questions": [
    {
      "id_qa": "FMSH_PB188a_33-34_057_qa20_v3",
      "id_block": "block_10",
      "question": "Qu'est ce qui renvoie aux numéros du journal Combate ?",
      "answer": "Cette référence ainsi que les suivantes",
      "answer_stringIds": [
        "string_227",
        "string_228",
        "string_229",
        "string_230",
        "string_231",
        "string_232"
      ]
    },
    {
      "id_qa": "FMSH_PB188a_33-34_057_qa1_v3",
      "id_block": "block_3",
      "question": "Quand les luttes ont-elles éclaté ?",
      "answer": "dans les premiers mois de la révolution",
      "answer_stringIds": [
        "string_35",
        "string_36",
        "string_37",
        "string_38",
        "string_39",
        "string_40",
        "string_41"
      ]
    },
    {
      "id_qa": "FMSH_PB188a_33-34_057_qa2_v3",
      "id_block": "block_3",
      "question": "Comment sont classées les 42 entreprises dans lesquelles des luttes ont éclaté ?",
      "answer": "par ordre alphabétique",
      "answer_stringIds": [
        "string_25",
        "string_26",
        "string_27"
      ]
    },
    {
      "id_qa": "FMSH_PB188a_33-34_057_qa3_v3",
      "id_block": "block_3",
      "question": "Qu'est ce qui a éclaté dans les premiers mois de la révolution ?",
      "answer": "des luttes",
      "answer_stringIds": [
        "string_31",
        "string_32"
      ]
    },
    {
      "id_qa": "FMSH_PB188a_33-34_057_qa11_v3",
      "id_block": "block_3",
      "question": "Qu'est ce qui est loin d'être exhaustif ?",
      "answer": "Cette liste",
      "answer_stringIds": [
        "string_71",
        "string_72"
      ]
    },
    {
      "id_qa": "FMSH_PB188a_33-34_057_qa12_v3",
      "id_block": "block_3",
      "question": "Quand le Ministère portugais du Travail a-t-il établi un document ?",
      "answer": "en octobre 1975",
      "answer_stringIds": [
        "string_94",
        "string_95",
        "string_96"
      ]
    },
    {
      "id_qa": "FMSH_PB188a_33-34_057_qa16_v3",
      "id_block": "block_3",
      "question": "Qui a estimé à environ 200 le nombre d'entreprises qui ont fait l'objet d'une prise en main par les travailleurs ?",
      "answer": "le Ministère portugais du Travail",
      "answer_stringIds": [
        "string_97",
        "string_98",
        "string_99",
        "string_100",
        "string_101"
      ]
    },
    {
      "id_qa": "FMSH_PB188a_33-34_057_qa18_v3",
      "id_block": "block_7",
      "question": "Qu'est ce qui est élu démocratiquement ?",
      "answer": "une commission de travailleurs",
      "answer_stringIds": [
        "string_183",
        "string_184",
        "string_185",
        "string_186"
      ]
    },
    {
      "id_qa": "FMSH_PB188a_33-34_057_qa21_v3",
      "id_block": "block_7",
      "question": "Qui a pris part à la grève de 80 ouvriers métallos ?",
      "answer": "un camarade",
      "answer_stringIds": [
        "string_172",
        "string_173"
      ]
    }
  ]
}