{
  "num": "autog_0338-7259_1976_num_33_1",
  "article": "autog_0338-7259_1976_num_33_1_1156",
  "page_name": "FMSH_PB188a_33-34_063",
  "questions": [
    {
      "id_qa": "FMSH_PB188a_33-34_063_qa8_v3",
      "id_block": "block_1",
      "question": "Qui reçoit l'argent des ventes ?",
      "answer": "Les travailleurs",
      "answer_stringIds": [
        "string_33",
        "string_34"
      ]
    },
    {
      "id_qa": "FMSH_PB188a_33-34_063_qa10_v3",
      "id_block": "block_1",
      "question": "Qui retient l'argent des ventes ?",
      "answer": "Les travailleurs",
      "answer_stringIds": [
        "string_33",
        "string_34"
      ]
    },
    {
      "id_qa": "FMSH_PB188a_33-34_063_qa23_v3",
      "id_block": "block_1",
      "question": "Qui est favorable à une faillite ?",
      "answer": "les travailleurs",
      "answer_stringIds": [
        "string_2",
        "string_3"
      ]
    },
    {
      "id_qa": "FMSH_PB188a_33-34_063_qa42_v3",
      "id_block": "block_10",
      "question": "Qui se met en grève en septembre ?",
      "answer": "les travailleurs",
      "answer_stringIds": [
        "string_2",
        "string_3"
      ]
    },
    {
      "id_qa": "FMSH_PB188a_33-34_063_qa11_v3",
      "id_block": "block_3",
      "question": "Qu'est-ce que Lagos, Sagres ?",
      "answer": "les « Maisons des Pécheurs",
      "answer_stringIds": [
        "string_55",
        "string_56",
        "string_57",
        "string_58",
        "string_59",
        "string_60"
      ]
    },
    {
      "id_qa": "FMSH_PB188a_33-34_063_qa2_v3",
      "id_block": "block_6",
      "question": "Qui donne des informations incomplètes aux travailleurs ?",
      "answer": "Cette commission",
      "answer_stringIds": [
        "string_143",
        "string_144"
      ]
    },
    {
      "id_qa": "FMSH_PB188a_33-34_063_qa1_v3",
      "id_block": "block_6",
      "question": "Qu'est ce que la commission donne aux travailleurs ?",
      "answer": "des informations incomplètes aux travailleurs",
      "answer_stringIds": [
        "string_146",
        "string_147",
        "string_148",
        "string_149",
        "string_150"
      ]
    },
    {
      "id_qa": "FMSH_PB188a_33-34_063_qa4_v3",
      "id_block": "block_8",
      "question": "Qu'affirme la direction du syndicat ?",
      "answer": "il faut augmenter les salaires",
      "answer_stringIds": [
        "string_202",
        "string_203",
        "string_204",
        "string_205",
        "string_206"
      ]
    },
    {
      "id_qa": "FMSH_PB188a_33-34_063_qa5_v3",
      "id_block": "block_8",
      "question": "Qui affirme qu'il faut augmenter les salaires ?",
      "answer": "La direction du syndicat",
      "answer_stringIds": [
        "string_197",
        "string_198",
        "string_199",
        "string_200"
      ]
    },
    {
      "id_qa": "FMSH_PB188a_33-34_063_qa6_v3",
      "id_block": "block_8",
      "question": "Qu'est ce qui est demandé par la direction du syndicat ?",
      "answer": "les salaires",
      "answer_stringIds": [
        "string_205",
        "string_206"
      ]
    },
    {
      "id_qa": "FMSH_PB188a_33-34_063_qa7_v3",
      "id_block": "block_8",
      "question": "Qu'est-ce qui est proposé par la direction du syndicat ?",
      "answer": "augmenter les salaires",
      "answer_stringIds": [
        "string_204",
        "string_205",
        "string_206"
      ]
    },
    {
      "id_qa": "FMSH_PB188a_33-34_063_qa12_v3",
      "id_block": "block_8",
      "question": "Qui critique la position anti-grève de l'Intersyndicale ?",
      "answer": "La direction du Syndicat",
      "answer_stringIds": [
        "string_167",
        "string_168",
        "string_169",
        "string_170"
      ]
    },
    {
      "id_qa": "FMSH_PB188a_33-34_063_qa15_v3",
      "id_block": "block_8",
      "question": "Que reproche la direction du syndicat à l'Intersyndicale ?",
      "answer": "le débat entre les différents courants du syndicalisme",
      "answer_stringIds": [
        "string_188",
        "string_189",
        "string_190",
        "string_191",
        "string_192",
        "string_193",
        "string_194",
        "string_195",
        "string_196"
      ]
    },
    {
      "id_qa": "FMSH_PB188a_33-34_063_qa27_v3",
      "id_block": "block_8",
      "question": "Qui veut être réintégré dans le syndicat de la chimie après avoir été écartés ?",
      "answer": "Les travailleurs des plastiques",
      "answer_stringIds": [
        "string_207",
        "string_208",
        "string_209",
        "string_210"
      ]
    },
    {
      "id_qa": "FMSH_PB188a_33-34_063_qa28_v3",
      "id_block": "block_8",
      "question": "Qui a été écarté du syndicat de la chimie après le fascisme ?",
      "answer": "Les travailleurs des plastiques",
      "answer_stringIds": [
        "string_207",
        "string_208",
        "string_209",
        "string_210"
      ]
    },
    {
      "id_qa": "FMSH_PB188a_33-34_063_qa33_v3",
      "id_block": "block_8",
      "question": "Qui veut être réintégrés dans le syndicat de la chimie après avoir été écartés durant le fascisme ?",
      "answer": "Les travailleurs des plastiques",
      "answer_stringIds": [
        "string_207",
        "string_208",
        "string_209",
        "string_210"
      ]
    },
    {
      "id_qa": "FMSH_PB188a_33-34_063_qa35_v3",
      "id_block": "block_8",
      "question": "Quand les travailleurs des plastiques veulent-ils être réintégrés dans le Syndicat de la chimie ?",
      "answer": "durant le fascisme",
      "answer_stringIds": [
        "string_226",
        "string_227",
        "string_228"
      ]
    },
    {
      "id_qa": "FMSH_PB188a_33-34_063_qa40_v3",
      "id_block": "block_8",
      "question": "Que sabote l'Intersyndicale et le Ministère du Travail ?",
      "answer": "cette réintégration",
      "answer_stringIds": [
        "string_247",
        "string_248"
      ]
    }
  ]
}