{
  "num": "autog_0338-7259_1976_num_33_1",
  "article": "autog_0338-7259_1976_num_33_1_1156",
  "page_name": "FMSH_PB188a_33-34_069",
  "questions": [
    {
      "id_qa": "FMSH_PB188a_33-34_069_qa19_v3",
      "id_block": "block_1",
      "question": "Quelle est la valeur du salaire pendant l'occupation ?",
      "answer": "3 300 escudos",
      "answer_stringIds": [
        "string_47",
        "string_48",
        "string_49"
      ]
    },
    {
      "id_qa": "FMSH_PB188a_33-34_069_qa0_v3",
      "id_block": "block_3",
      "question": "Qui se met en grève en janvier ?",
      "answer": "Le personnel",
      "answer_stringIds": [
        "string_57",
        "string_58"
      ]
    },
    {
      "id_qa": "FMSH_PB188a_33-34_069_qa2_v3",
      "id_block": "block_3",
      "question": "Où se met en grève en janvier ?",
      "answer": "les locaux",
      "answer_stringIds": [
        "string_67",
        "string_68"
      ]
    },
    {
      "id_qa": "FMSH_PB188a_33-34_069_qa9_v3",
      "id_block": "block_3",
      "question": "Qui intervient pour déloger les travailleurs ?",
      "answer": "La gendarmerie",
      "answer_stringIds": [
        "string_98",
        "string_99"
      ]
    },
    {
      "id_qa": "FMSH_PB188a_33-34_069_qa13_v3",
      "id_block": "block_5",
      "question": "Qui est à l'origine du boycott des clients ?",
      "answer": "les travailleurs",
      "answer_stringIds": [
        "string_111",
        "string_112"
      ]
    },
    {
      "id_qa": "FMSH_PB188a_33-34_069_qa16_v3",
      "id_block": "block_5",
      "question": "Par qui les hôtels obtiennent-ils la collaboration ?",
      "answer": "travailleurs",
      "answer_stringIds": [
        "string_18"
      ]
    },
    {
      "id_qa": "FMSH_PB188a_33-34_069_qa18_v3",
      "id_block": "block_5",
      "question": "A qui les travailleurs des hôtels ont-ils demandé la collaboration ?",
      "answer": "des clients",
      "answer_stringIds": [
        "string_175",
        "string_176"
      ]
    },
    {
      "id_qa": "FMSH_PB188a_33-34_069_qa22_v3",
      "id_block": "block_5",
      "question": "Qui paye le premier mois de salaire ?",
      "answer": "Les travailleurs",
      "answer_stringIds": [
        "string_154",
        "string_155"
      ]
    },
    {
      "id_qa": "FMSH_PB188a_33-34_069_qa24_v3",
      "id_block": "block_5",
      "question": "Qui réussit à payer toutes leurs dépenses comptant ?",
      "answer": "Les travailleurs",
      "answer_stringIds": [
        "string_154",
        "string_155"
      ]
    },
    {
      "id_qa": "FMSH_PB188a_33-34_069_qa30_v3",
      "id_block": "block_5",
      "question": "Qui propose l'autogestion aux travailleurs ?",
      "answer": "le syndicat",
      "answer_stringIds": [
        "string_148",
        "string_149"
      ]
    }
  ]
}