{
  "num": "autog_0338-7259_1976_num_33_1",
  "article": "autog_0338-7259_1976_num_33_1_1156",
  "page_name": "FMSH_PB188a_33-34_067",
  "questions": [
    {
      "id_qa": "FMSH_PB188a_33-34_067_qa34_v3",
      "id_block": "block_1",
      "question": "Qu'est-ce qui permet de lutter contre les licenciements ?",
      "answer": "le patron enlève les machines et les stocks",
      "answer_stringIds": [
        "string_13",
        "string_14",
        "string_15",
        "string_16",
        "string_17",
        "string_18",
        "string_19",
        "string_20"
      ]
    },
    {
      "id_qa": "FMSH_PB188a_33-34_067_qa0_v3",
      "id_block": "block_11",
      "question": "Après quoi l'ouvrier est-il réintégré ?",
      "answer": "le travail",
      "answer_stringIds": [
        "string_307",
        "string_308"
      ]
    },
    {
      "id_qa": "FMSH_PB188a_33-34_067_qa16_v3",
      "id_block": "block_3",
      "question": "Qui a demandé la mise en liquidation de l'entreprise ?",
      "answer": "le patron",
      "answer_stringIds": [
        "string_13",
        "string_14"
      ]
    },
    {
      "id_qa": "FMSH_PB188a_33-34_067_qa3_v3",
      "id_block": "block_5",
      "question": "Par qui les travailleurs continuent-ils d'exécuter les commandes ?",
      "answer": "les commandes passées par les entreprises de FEtat",
      "answer_stringIds": [
        "string_132",
        "string_133",
        "string_134",
        "string_135",
        "string_136",
        "string_137",
        "string_138",
        "string_139"
      ]
    },
    {
      "id_qa": "FMSH_PB188a_33-34_067_qa7_v3",
      "id_block": "block_5",
      "question": "Qu'est ce qui continue d'exécuter les travailleurs ?",
      "answer": "les commandes",
      "answer_stringIds": [
        "string_132",
        "string_133"
      ]
    },
    {
      "id_qa": "FMSH_PB188a_33-34_067_qa8_v3",
      "id_block": "block_5",
      "question": "Qu'est-ce que Novo Rumo ?",
      "answer": "une coopérative de production",
      "answer_stringIds": [
        "string_121",
        "string_122",
        "string_123",
        "string_124"
      ]
    },
    {
      "id_qa": "FMSH_PB188a_33-34_067_qa25_v3",
      "id_block": "block_7",
      "question": "Qui gère les commissions locales de gestion ?",
      "answer": "Les travailleurs",
      "answer_stringIds": [
        "string_178",
        "string_179"
      ]
    },
    {
      "id_qa": "FMSH_PB188a_33-34_067_qa26_v3",
      "id_block": "block_7",
      "question": "Quelle est l'autonomie des commissions locales de gestion ?",
      "answer": "son autonomie",
      "answer_stringIds": [
        "string_197",
        "string_198"
      ]
    },
    {
      "id_qa": "FMSH_PB188a_33-34_067_qa10_v3",
      "id_block": "block_9",
      "question": "Combien de travailleurs décident d'occuper les installations de l'entreprise ?",
      "answer": "615",
      "answer_stringIds": [
        "string_230"
      ]
    }
  ]
}