{
  "num": "autog_0338-7259_1974_num_26_1",
  "article": "autog_0338-7259_1974_num_26_1_1115",
  "page_name": "FMSH_PB188a_26-27_160",
  "questions": [
    {
      "id_qa": "FMSH_PB188a_26-27_160_qa5_v3",
      "id_block": "block_1",
      "question": "Qu'est-ce que les Conseils de zone doivent rester ouverts ?",
      "answer": "des initiatives",
      "answer_stringIds": [
        "string_107",
        "string_108"
      ]
    },
    {
      "id_qa": "FMSH_PB188a_26-27_160_qa7_v3",
      "id_block": "block_1",
      "question": "Quel organisme doit rester ouvert aux initiatives des étudiants ?",
      "answer": "les Conseils de zone",
      "answer_stringIds": [
        "string_95",
        "string_96",
        "string_97",
        "string_98"
      ]
    },
    {
      "id_qa": "FMSH_PB188a_26-27_160_qa4_v3",
      "id_block": "block_3",
      "question": "A qui sont associées les structures d'autogestion de la lutte sociale ?",
      "answer": "à la direction réformiste",
      "answer_stringIds": [
        "string_251",
        "string_252",
        "string_253",
        "string_254"
      ]
    }
  ]
}