{
  "num": "autog_0338-7259_1974_num_26_1",
  "article": "autog_0338-7259_1974_num_26_1_1115",
  "page_name": "FMSH_PB188a_26-27_149",
  "questions": [
    {
      "id_qa": "FMSH_PB188a_26-27_149_qa3_v3",
      "id_block": "block_3",
      "question": "Qu'est ce qui a été à l'origine de la création des diverses structures ?",
      "answer": "la revendication",
      "answer_stringIds": [
        "string_72",
        "string_73"
      ]
    },
    {
      "id_qa": "FMSH_PB188a_26-27_149_qa7_v3",
      "id_block": "block_3",
      "question": "Sur quoi s'est appuyé le souci d'autonomie ouvrière ?",
      "answer": "la revendication portant sur les exigences immédiates",
      "answer_stringIds": [
        "string_72",
        "string_73",
        "string_74",
        "string_75",
        "string_76",
        "string_77",
        "string_78",
        "string_79"
      ]
    }
  ]
}