{
  "num": "autog_0005-0970_1969_num_8_1",
  "article": "autog_0005-0970_1969_num_8_1_950",
  "page_name": "FMSH_PB188a_00008_164",
  "questions": [
    "Quel est le rôle du fraiseur dans ce processus de fabrication ?",
    "Quel est le rôle des différents services (contrôle, planning, magasin) dans ce processus ?",
    "Quel est le rôle de l'ajusteur dans ce processus ?",
    "Quel est le temps total consacré à l'usinage de la pièce ?",
    "Pourquoi a-t-il fallu six mois pour réaliser cette pièce ?",
    "Quel est le rôle des \"suiveurs de pièce\" dans ce processus ?",
    "Quels sont les effets possibles de cette pièce sur les employés, les services et le chef de service ?",
    "Quel est le rôle de la graveuse dans la fabrication de la pièce ?",
    "Pourquoi le fraiseur ne se fie-t-il pas au tracé qu'il reçoit ?",
    "Quel est le but de la série de contrôles et de graphiquages successifs ?",
    "Quel est le rôle des délais dans la fabrication de la pièce ?",
    "Quels sont les conséquences habituelles qui découlent de la fabrication de la pièce ?"
  ]
}