{
  "num": "autog_0005-0970_1969_num_8_1",
  "article": "autog_0005-0970_1969_num_8_1_950",
  "page_name": "FMSH_PB188a_00008_143",
  "questions": [
    "Qu'est-ce que la science selon les auteurs du texte ?",
    "Comment la science explique-t-elle les phénomènes visibles ?",
    "Qu'est-ce que l'hétérogestion selon le texte ?",
    "Comment l'hétérogestion est-elle liée à la situation d'aliénation ?",
    "Comment l'hétérogestion est-elle liée à la relation maître-esclave ?",
    "Pourquoi les auteurs préfèrent utiliser le néologisme d'hétérogestion plutôt que celui de bureaucratie ?",
    "Quel est le lien entre l'autogestion et l'hétérogestion selon le texte ?",
    "Comment l'autogestion est-elle présentée comme l'antidote de l'hétérogestion ?",
    "Quel est le but de l'article en ce qui concerne l'hétérogestion ?",
    "Comment les auteurs espèrent définir concrètement le sens du mot hétérogestion ?"
  ]
}