{
  "num": "autog_0005-0970_1969_num_8_1",
  "article": "autog_0005-0970_1969_num_8_1_950",
  "page_name": "FMSH_PB188a_00008_167",
  "questions": [
    "Quels sont les deux parties du système de gestion décrites dans le texte et comment se complètent-elles ?",
    "Quel est le rôle de la conscience-robot dans le système de gestion actuel et comment elle pourrait être supprimée ?",
    "Qu'implique la suppression de la coercition dans une société autogérée selon Mothé ?",
    "Quels sont les exemples donnés par Mothé de la morale collective des ouvriers et comment elle fonctionne dans une usine autogérée ?",
    "Comment l'usine décrite par Mothé diffère de l'usine capitaliste en matière de sabotage et de la pression sociale exercée contre les saboteurs ?",
    "En quoi l'atelier décrit par Mothé est-il différent des ateliers de masse dans une usine capitaliste ?",
    "Pourquoi Mothé considère que l'atelier décrit dans son texte est marginal dans le contexte d'une usine plus grande ?",
    "Quels sont les limites de l'extrapolation faite par Mothé à partir de l'atelier spécialisé décrit dans son texte ?"
  ]
}