{
  "num": "autog_0249-2563_1984_num_17_15",
  "article": "autog_0249-2563_1984_num_17_15_1578_t1_0067_0000_2",
  "page_name": "autog_0249-2563_1984_num_17_15_T1_0068_0000",
  "questions": [
    "Quels revues ont été envoyées aux abonnés avec des petits papillons louant Deng Xiaoping ?",
    "Comment peut-on interpréter cette méthode d'Histoire à la carte ?",
    "Quand a-t-E2D publié son premier numéro ?",
    "Qu'indique le sigle E2D ?",
    "Quel principe est mis en place pour la rédaction de E2D ?",
    "Qui est le groupe qui a initié la publication d'E2D ?",
    "Quels sont les noms connus dans la gauche politique française qui figurent dans le collectif de rédaction du premier numéro d'E2D ?",
    "Qu'est-il arrivé à une entreprise similaire lancée en 1968 ?",
    "Quelles craintes sont exprimées quant à la gestion de E2D ?",
    "Quels rôles peuvent tenir les « responsables de la publication » et le groupe initiateur dans la publication d'E2D ?",
    "Est-il possible que des textes soient envoyés par des groupes de droite ou d'extrême-droite ?",
    "Comment les réponses des lecteurs seront-elles traitées dans E2D ?"
  ]
}