{
  "num": "autog_0338-7259_1971_num_15_1",
  "article": "autog_0338-7259_1971_num_15_1_1006",
  "page_name": "FMSH_PB188a_00015_143",
  "questions": [
    {
      "id_qa": "FMSH_PB188a_00015_143_qa0_v3",
      "id_block": "block_1",
      "question": "Qu'est-ce qui est à l'origine de ces deux textes ?",
      "answer": "les tentatives actuelles",
      "answer_stringIds": [
        "string_31",
        "string_32",
        "string_33"
      ]
    }
  ]
}