{
  "num": "autog_0338-7259_1971_num_15_1",
  "article": "autog_0338-7259_1971_num_15_1_1006",
  "page_name": "FMSH_PB188a_00015_146",
  "questions": [
    {
      "id_qa": "FMSH_PB188a_00015_146_qa0_v3",
      "id_block": "block_2",
      "question": "Quelle organisation a lancé un appel en vue du regroupement de toutes les forces se réclamant de «l'Autogestion révolutionnaïire\"?",
      "answer": "une organisation internationale",
      "answer_stringIds": [
        "string_17",
        "string_18",
        "string_19"
      ]
    },
    {
      "id_qa": "FMSH_PB188a_00015_146_qa1_v3",
      "id_block": "block_2",
      "question": "Quelle organisation a lancé un appel en vue du regroupement de toutes les forces se réclamant de l'Autogestion révolutionnaïire ?",
      "answer": "une organisation internationale",
      "answer_stringIds": [
        "string_17",
        "string_18",
        "string_19"
      ]
    },
    {
      "id_qa": "FMSH_PB188a_00015_146_qa2_v3",
      "id_block": "block_2",
      "question": "Qu'est ce qui a été lancé par l'organisation internationale ?",
      "answer": "un appel problématique",
      "answer_stringIds": [
        "string_23",
        "string_24",
        "string_25"
      ]
    },
    {
      "id_qa": "FMSH_PB188a_00015_146_qa15_v3",
      "id_block": "block_4",
      "question": "Sur quoi repose l'Autogestion ?",
      "answer": "Socialisme démocratique",
      "answer_stringIds": [
        "string_76",
        "string_77"
      ]
    },
    {
      "id_qa": "FMSH_PB188a_00015_146_qa5_v3",
      "id_block": "block_5",
      "question": "De quelles forces politiques s'agit-elle ?",
      "answer": "de toutes les forces révolutionnaires",
      "answer_stringIds": [
        "string_92",
        "string_93",
        "string_94",
        "string_95",
        "string_96"
      ]
    },
    {
      "id_qa": "FMSH_PB188a_00015_146_qa7_v3",
      "id_block": "block_5",
      "question": "Quelle est l'ambition de la révolution ?",
      "answer": "pour un regroupement plus vaste de toutes les forces révolutionnaires",
      "answer_stringIds": [
        "string_87",
        "string_88",
        "string_89",
        "string_90",
        "string_91",
        "string_92",
        "string_93",
        "string_94",
        "string_95",
        "string_96"
      ]
    },
    {
      "id_qa": "FMSH_PB188a_00015_146_qa10_v3",
      "id_block": "block_7",
      "question": "Qu'est ce qui est assumé en réalité essentiellement par son Etat et « son » Parti ?",
      "answer": "le pouvoir de la classe",
      "answer_stringIds": [
        "string_192",
        "string_193",
        "string_194",
        "string_195",
        "string_196"
      ]
    }
  ]
}