{
  "num": "autog_0249-2563_1982_num_15_11",
  "article": "autog_0249-2563_1982_num_15_11_1517",
  "page_name": "autog_0249-2563_1982_num_15_11_T1_0105_0000",
  "questions": [
    "Quels objectifs extérieurs poursuivent les groupes pragmatiques ?",
    "Comment les groupes pragmatiques traitent-ils les désirs et les refus des individus ?",
    "Quels problèmes concrets essaient les groupes pragmatiques de résoudre ?",
    "Quels « interdits idéologiques » évitent les groupes pragmatiques ?",
    "Comment les groupes pragmatiques cherchent-ils des solutions pratiques ?",
    "Comment les groupes volontaristes diffèrent des groupes pragmatiques ?",
    "Quels sont les trois projets qui se mêlent chez les groupes volontaristes ?",
    "Comment les groupes volontaristes voient leur projet de société s'exprimer sur les deux autres projets ?",
    "Pourquoi le choix d'habiter en habitat autogéré est-il un choix idéologique pour les groupes volontaristes ?",
    "Quelles valeurs poursuivent les groupes de l'Ellan ?",
    "Comment les membres de l'Ellan concilient leur recherche de logement et leur mode de vie quotidien ?",
    "Qu'insiste la dernière arrivée sur dans sa recherche de cohérence ?"
  ]
}