{
  "num": "autog_0249-2563_1982_num_15_11",
  "article": "autog_0249-2563_1982_num_15_11_1517",
  "page_name": "autog_0249-2563_1982_num_15_11_T1_0091_0000",
  "questions": [
    "Quel événement fait réagir les interlocuteurs dans cette conversation ?",
    "Quel est le rôle de l'amitié dans les réactions des membres de la communauté ?",
    "Quels types de rapports interpersonnels sont-ils rencontrés habituellement dans la communauté ?",
    "Quels types de rapports interpersonnels sont-ils plus libres et directs selon l'interlocuteur ?",
    "Quels autres rapports sont-ils évoqués (au corps, aux biens, à la propriété) ?",
    "Comment la mort est-elle vécue dans la communauté selon l'interlocuteur ?",
    "Quel est le rôle de l'habitat communautaire dans ces transformations ?",
    "Quels auteurs ont abordé ce sujet et quels sont leurs conclusions ?"
  ]
}