{
  "num": "autog_0249-2563_1982_num_15_11",
  "article": "autog_0249-2563_1982_num_15_11_1517",
  "page_name": "autog_0249-2563_1982_num_15_11_T1_0095_0000",
  "questions": [
    "Quels sont les groupes sociaux qui refusent l'impersonnalité des relations humaines et cherchent à retourner à la Gemeinschaft ?",
    "Quels sont les lieux privilégiés pour observer les modifications des rapports de sociabilité ?",
    "En quoi la famille est-elle un des lieux privilégiés pour observer ces modifications ?",
    "Comment l'ambiance de sécurité et de liberté dans la famille permet-elle l'épanouissement de pratiques familiales différentes des pratiques traditionnelles ?",
    "Comment l'habitat autogéré inspire-t-il de nombreux jeunes couples ?",
    "Quel processus social s'établit entre l'effet de grossissement et l'effet de modèle social ?",
    "Comment la famille reste-t-elle le point central alors qu'elle subit des transformations si remarquables ?",
    "Quels sont d'autres travaux nécessaires pour avoir une vision plus complète des modifications des rapports de sociabilité dans la famille ?",
    "Quels sont les résultats des observations actuelles qui convergent avec les conclusions d'auteurs tels que Ph. Ariès sur l'évolution de la sociabilité familiale ?",
    "Quelles sont les deux grandes tendances observées dans les modifications des rapports de sociabilité dans la famille ?"
  ]
}