{
  "num": "autog_0249-2563_1980_num_13_4",
  "article": "autog_0249-2563_1980_num_13_4_1402_t1_0515_0000_1",
  "page_name": "autog_0249-2563_1980_num_13_4_T1_0515_0000",
  "questions": [
    "Quel est le titre complet et l'auteur du livre présenté dans le texte ?",
    "Quel est le sous-titre de ce livre et quelle est sa signification ?",
    "Dans quels pays les enquêtes pour l'UNESCO ont-elles été menées ?",
    "Quel est le rôle de l'autogestion pédagogique dans ce livre ?",
    "Quels sont les concepts clés que Jacques Ardoino distingue dans son livre ?",
    "Qu'est-ce qu'il entend par autogestion organisationnelle et autogestion institutionnelle ?",
    "Comment Ardoino caractérise-t-il l'autogestion ?",
    "Quel est le domaine dans lequel les recherches sur l'autogestion sont les plus nombreuses en France ?",
    "Pourquoi les ouvrages sur l'éducation doivent-ils attirer l'attention des personnes qui pensent l'autogestion comme une démarche dialectique ?"
  ]
}