{
  "num": "autog_0338-7259_1971_num_16_1",
  "article": "autog_0338-7259_1971_num_16_1_1019",
  "page_name": "FMSH_PB188a_16-17_148",
  "questions": [
    "Quel est le rôle de Meister dans la critique de l'autogestion en Yougoslavie ?",
    "Quel est le point de vue des délégués yougoslaves sur l'autogestion ?",
    "Pourquoi les délégués rejettent le « centralisme bureaucratique » ?",
    "Qu'est-ce que les délégués entendent par « la reproduction élargie » ?",
    "Qu'est-ce qui est contesté sur le système actuel de l'autogestion en Yougoslavie ?",
    "Pourquoi certaines formules sur l'autogestion suscitent des acclamations des délégués ?",
    "Quel serait le résultat attendu par les organisateurs du congrès si leur but était celui indiqué par Meister ?"
  ]
}