{
  "num": "autog_0338-7259_1971_num_16_1",
  "article": "autog_0338-7259_1971_num_16_1_1019",
  "page_name": "FMSH_PB188a_16-17_147",
  "questions": [
    "Quels sont les quatre commissions mentionnées dans le texte et quels sujets traitent-elles ?",
    "Quels sont les pays d'origine des journalistes étrangers présents au congrès et comment sont-ils traités ?",
    "Quels sont les deux points de vue opposés sur l'évolution du régime yougoslave et qui sont leurs auteurs ?",
    "Quels sont les pays dont les observateurs bénéficient de services d'interprètes particuliers ?",
    "Quel est le point de vue de Meister sur l'autogestion yougoslave et comment est-il qualifiée ?",
    "Combien de délégués ont pris la parole dans les assemblées plénières et dans les commissions ?",
    "Quel est le rôle et l'impact des applaudissements lors des interventions des orateurs ?"
  ]
}