{
  "num": "autog_0249-2563_1982_num_15_8",
  "article": "autog_0249-2563_1982_num_15_8_1866",
  "page_name": "autog_0249-2563_1982_num_15_8_T1_0212_0000",
  "questions": [
    "Quels membres de la rédaction de quelle publication dénoncent les autogestions ?",
    "En quels termes critique F. Muhic le démenti de N. Fovanov et qui est-ce que F. Muhic accuse les membres de la rédaction d'Autogestions d'être ?",
    "Quel journal a publié une lettre de réponse de R. Supek et P. Matvejevic ?",
    "Pourquoi R. Supek considère qu'il est de son devoir d'informer l'opinion publique yougoslave sur la nature de la revue Autogestions ?",
    "Quels collaborateurs principaux de la revue Autogestions sont-ils et où sont-ils basés ?",
    "Quelle conférence internationale sur l'autogestion a-t-elle organisée la revue Autogestions en 1977 ?"
  ]
}