{
  "num": "autog_0338-7259_1977_num_37_1",
  "article": "autog_0338-7259_1977_num_37_1_1219",
  "page_name": "FMSH_PB188a_37-38_042",
  "questions": [
    "Quels événements ont conduit à la fondation de la revue en 1966 ?",
    "Pouvons-nous parler des éditions Anthropos comme de « la base matérielle » de la revue ?",
    "Quels courants du mouvement ouvrier européen ont émergé dans la revue ?",
    "Comment le mouvement de Mai 68 a-t-il traversé la revue ?",
    "Comment la création de différences impulsées par le Mouvement de Mai 68 a-t-il marqué la revue ?",
    "Comment concevoir la revue comme un instrument de réflexion sur les luttes et les mouvements autogestionnaires mondiaux ?",
    "Comment articuler les langages de l'action et les langages de la réflexion dans la revue ?"
  ]
}