{
  "num": "autog_0338-7259_1974_num_28_1",
  "article": "autog_0338-7259_1974_num_28_1_1206_t1_0194_0000_1",
  "page_name": "FMSH_PB188a_28-29_196",
  "questions": [
    {
      "id_qa": "FMSH_PB188a_28-29_196_qa4_v3",
      "id_block": "block_1",
      "question": "Par quoi la figure de Marx est-elle altérée ?",
      "answer": "par les besoins simplificateurs de la propagande des appareils",
      "answer_stringIds": [
        "string_117",
        "string_118",
        "string_119",
        "string_120",
        "string_121",
        "string_122",
        "string_123",
        "string_124",
        "string_125",
        "string_126"
      ]
    },
    {
      "id_qa": "FMSH_PB188a_28-29_196_qa13_v3",
      "id_block": "block_1",
      "question": "Qu'est ce que Bourdet s'assigne pour première tâche ?",
      "answer": "les principes",
      "answer_stringIds": [
        "string_83",
        "string_84"
      ]
    },
    {
      "id_qa": "FMSH_PB188a_28-29_196_qa14_v3",
      "id_block": "block_1",
      "question": "Qui a pour première tâche de rappeler les principes qui oblitèrent la crédibilité de l'autogestion ?",
      "answer": "Yvon Bourdet",
      "answer_stringIds": [
        "string_72",
        "string_73"
      ]
    },
    {
      "id_qa": "FMSH_PB188a_28-29_196_qa18_v3",
      "id_block": "block_1",
      "question": "Qu'est-ce que la Délivrance de Prométhée ?",
      "answer": "les idéologies anti-autogestionnaire",
      "answer_stringIds": [
        "string_21",
        "string_22",
        "string_23"
      ]
    },
    {
      "id_qa": "FMSH_PB188a_28-29_196_qa19_v3",
      "id_block": "block_1",
      "question": "Dans quel ouvrage l'Autogestion poursuit-elle son travail d'analyse ?",
      "answer": "dans La Délivrance de Prométhée",
      "answer_stringIds": [
        "string_14",
        "string_15",
        "string_16",
        "string_17",
        "string_18"
      ]
    },
    {
      "id_qa": "FMSH_PB188a_28-29_196_qa0_v3",
      "id_block": "block_2",
      "question": "A qui doivent être apportées les idées révolutionnaires SPACE ?",
      "answer": "à la classe ouvrière",
      "answer_stringIds": [
        "string_200",
        "string_201",
        "string_202",
        "string_203"
      ]
    },
    {
      "id_qa": "FMSH_PB188a_28-29_196_qa1_v3",
      "id_block": "block_2",
      "question": "Qu'est ce qui doit être apporté à la classe ouvrière ?",
      "answer": "Les idées révolutionnaires SPACE",
      "answer_stringIds": [
        "string_194",
        "string_195",
        "string_196",
        "string_197"
      ]
    },
    {
      "id_qa": "FMSH_PB188a_28-29_196_qa3_v3",
      "id_block": "block_2",
      "question": "Par qui sont apportées les idées révolutionnaires SPACE ?",
      "answer": "par des intellectuels bourgeois",
      "answer_stringIds": [
        "string_204",
        "string_205",
        "string_206",
        "string_207",
        "string_208"
      ]
    }
  ]
}