{
  "num": "autog_0249-2563_1980_num_13_2",
  "article": "autog_0249-2563_1980_num_13_2_1362",
  "page_name": "autog_0249-2563_1980_num_13_2_T1_0202_0000",
  "questions": [
    {
      "id_qa": "autog_0249-2563_1980_num_13_2_T1_0202_0000_qa22_v3",
      "id_block": "block_0",
      "question": "Qu'est-ce que l'école et l'usine cherchent à chercher à l'extérieur d'institutions qu'ils ressentent comme contraignantes ?",
      "answer": "leur bonheur",
      "answer_stringIds": [
        "string_5",
        "string_6"
      ]
    },
    {
      "id_qa": "autog_0249-2563_1980_num_13_2_T1_0202_0000_qa23_v3",
      "id_block": "block_0",
      "question": "Qu'est-ce que l'école et l'usine ?",
      "answer": "comme contraignantes",
      "answer_stringIds": [
        "string_13",
        "string_14"
      ]
    },
    {
      "id_qa": "autog_0249-2563_1980_num_13_2_T1_0202_0000_qa12_v3",
      "id_block": "block_1",
      "question": "Qui s'est engagé dans des actions locales ?",
      "answer": "le collectif",
      "answer_stringIds": [
        "string_144",
        "string_145"
      ]
    },
    {
      "id_qa": "autog_0249-2563_1980_num_13_2_T1_0202_0000_qa14_v3",
      "id_block": "block_2",
      "question": "Qu'est-ce que les collectifs autogérés à Bielefeld ?",
      "answer": "un travail social alternatif",
      "answer_stringIds": [
        "string_238",
        "string_239",
        "string_240",
        "string_241"
      ]
    },
    {
      "id_qa": "autog_0249-2563_1980_num_13_2_T1_0202_0000_qa16_v3",
      "id_block": "block_2",
      "question": "De quand datent les collectifs autogérés à Bielefeld et Stuttgart ?",
      "answer": "Entre temps",
      "answer_stringIds": [
        "string_200",
        "string_201"
      ]
    },
    {
      "id_qa": "autog_0249-2563_1980_num_13_2_T1_0202_0000_qa17_v3",
      "id_block": "block_2",
      "question": "Qu'est-ce que les collectifs autogérés à Bielefeld et Stuttgart ?",
      "answer": "développer un travail social alternatif",
      "answer_stringIds": [
        "string_236",
        "string_237",
        "string_238",
        "string_239",
        "string_240",
        "string_241"
      ]
    },
    {
      "id_qa": "autog_0249-2563_1980_num_13_2_T1_0202_0000_qa18_v3",
      "id_block": "block_2",
      "question": "Qu'est ce qui s'est développé à Bielefeld et Stuttgart ?",
      "answer": "des collectifs autogérés",
      "answer_stringIds": [
        "string_206",
        "string_207",
        "string_208"
      ]
    },
    {
      "id_qa": "autog_0249-2563_1980_num_13_2_T1_0202_0000_qa24_v3",
      "id_block": "block_4",
      "question": "Qu'est-ce que les collectifs autogérés ?",
      "answer": "les tendances positives des collectifs autogérés",
      "answer_stringIds": [
        "string_297",
        "string_298",
        "string_299",
        "string_300",
        "string_301",
        "string_302"
      ]
    },
    {
      "id_qa": "autog_0249-2563_1980_num_13_2_T1_0202_0000_qa26_v3",
      "id_block": "block_4",
      "question": "Qu'est ce qui représente une tentative d'intégrer au travail pédagogique les tendances positives ?",
      "answer": "collectifs",
      "answer_stringIds": [
        "string_17"
      ]
    },
    {
      "id_qa": "autog_0249-2563_1980_num_13_2_T1_0202_0000_qa4_v3",
      "id_block": "block_5",
      "question": "Quand a été fondée Ouest Ouest ?",
      "answer": "à la fin de 1977",
      "answer_stringIds": [
        "string_318",
        "string_319",
        "string_320",
        "string_321",
        "string_322"
      ]
    },
    {
      "id_qa": "autog_0249-2563_1980_num_13_2_T1_0202_0000_qa21_v3",
      "id_block": "block_6",
      "question": "Qu'est ce qui se présente à Sfattbuch ?",
      "answer": "La Werkschule",
      "answer_stringIds": [
        "string_342",
        "string_343"
      ]
    }
  ]
}