{
  "num": "autog_0249-2563_1980_num_13_4",
  "article": "autog_0249-2563_1980_num_13_4_1395",
  "page_name": "autog_0249-2563_1980_num_13_4_T1_0459_0000",
  "questions": [
    {
      "id_qa": "autog_0249-2563_1980_num_13_4_T1_0459_0000_qa9_v3",
      "id_block": "block_2",
      "question": "Qu'est ce qui est engagé dans les sociétés «industrielles avancées » ?",
      "answer": "la révolution technologique",
      "answer_stringIds": [
        "string_35",
        "string_36",
        "string_37"
      ]
    },
    {
      "id_qa": "autog_0249-2563_1980_num_13_4_T1_0459_0000_qa10_v3",
      "id_block": "block_2",
      "question": "Quelle est la nationalité de la guerre économique ?",
      "answer": "pays pauvres et pays riches",
      "answer_stringIds": [
        "string_67",
        "string_68",
        "string_69",
        "string_70",
        "string_71"
      ]
    }
  ]
}