{
  "num": "autog_0249-2563_1980_num_13_4",
  "article": "autog_0249-2563_1980_num_13_4_1395",
  "page_name": "autog_0249-2563_1980_num_13_4_T1_0470_0000",
  "questions": [
    {
      "id_qa": "autog_0249-2563_1980_num_13_4_T1_0470_0000_qa3_v3",
      "id_block": "block_0",
      "question": "Qu'est-ce qui favorise le capitalisme avancé ?",
      "answer": "la rencontre des êtres entre eux",
      "answer_stringIds": [
        "string_13",
        "string_14",
        "string_15",
        "string_16",
        "string_17",
        "string_18"
      ]
    },
    {
      "id_qa": "autog_0249-2563_1980_num_13_4_T1_0470_0000_qa6_v3",
      "id_block": "block_0",
      "question": "Quel est le but du capitalisme avancé ?",
      "answer": "sa survie",
      "answer_stringIds": [
        "string_8",
        "string_9"
      ]
    },
    {
      "id_qa": "autog_0249-2563_1980_num_13_4_T1_0470_0000_qa11_v3",
      "id_block": "block_0",
      "question": "A quoi pourrait aboutir la société de l'incommunicabilité ?",
      "answer": "La révolution informatique",
      "answer_stringIds": [
        "string_105",
        "string_106",
        "string_107"
      ]
    },
    {
      "id_qa": "autog_0249-2563_1980_num_13_4_T1_0470_0000_qa12_v3",
      "id_block": "block_0",
      "question": "Qu'est ce qui pourrait aboutir à la société de l'incommunicabilité ?",
      "answer": "La révolution informatique",
      "answer_stringIds": [
        "string_105",
        "string_106",
        "string_107"
      ]
    },
    {
      "id_qa": "autog_0249-2563_1980_num_13_4_T1_0470_0000_qa20_v3",
      "id_block": "block_2",
      "question": "Qu'est-ce qui permet de s'informer sur son état de santé ?",
      "answer": "des télépaiements",
      "answer_stringIds": [
        "string_213",
        "string_214"
      ]
    },
    {
      "id_qa": "autog_0249-2563_1980_num_13_4_T1_0470_0000_qa22_v3",
      "id_block": "block_3",
      "question": "Que doit défendre l'autogestion ?",
      "answer": "des espaces libres de toute emprise informatisée",
      "answer_stringIds": [
        "string_283",
        "string_284",
        "string_285",
        "string_286",
        "string_287",
        "string_288",
        "string_289"
      ]
    }
  ]
}