{
  "num": "autog_0249-2563_1984_num_17_15",
  "article": "autog_0249-2563_1984_num_17_15_1578_t1_0072_0000_3",
  "page_name": "autog_0249-2563_1984_num_17_15_T1_0072_0000",
  "questions": [
    {
      "id_qa": "autog_0249-2563_1984_num_17_15_T1_0072_0000_qa20_v3",
      "id_block": "block_4",
      "question": "Qu'est-ce qui reste cruel pour la femme qui vieillit ?",
      "answer": "la société",
      "answer_stringIds": [
        "string_132",
        "string_133"
      ]
    },
    {
      "id_qa": "autog_0249-2563_1984_num_17_15_T1_0072_0000_qa24_v3",
      "id_block": "block_4",
      "question": "Pour qui la société reste cruelle ?",
      "answer": "la femme",
      "answer_stringIds": [
        "string_127",
        "string_128"
      ]
    }
  ]
}