{
  "num": "autog_0338-7259_1978_num_41_1",
  "article": "autog_0338-7259_1978_num_41_1_1322",
  "page_name": "FMSH_PB188a_41-42_173",
  "questions": [
    "Quels sont les éléments clés de la situation politique dans laquelle se développent des mouvements sociaux cohérents ?",
    "En quoi la stagnation économique et la perte de confiance populaire contribuent-elles à la formation de mouvements sociaux ?",
    "Quels domaines politiques doivent être abordés pour former des mouvements sociaux cohérents ?",
    "Quel est le rôle de la vision globale des changements sociaux dans l'action politique ?",
    "Quand et comment le débat sur l'utilisation des sciences et des technologies a-t-il pris de l'importance aux États-Unis ?",
    "Comment le débat sur les sciences et les technologies s'est-il lié au contrôle des travailleurs ?",
    "Quels groupes ont été actifs dans le débat sur les sciences et les technologies aux États-Unis ?",
    "Quels ont été les objectifs initiaux de ces groupes ?",
    "Comment le débat sur les sciences et les technologies s'est-il lié au contrôle des recherches et du développement technologique ?",
    "Quels changements ont eu lieu dans le débat sur les sciences et les technologies, permettant de prendre en compte les forces contextuelles capitalistes dans les solutions proposées ?",
    "Comment le débat sur les sciences et les technologies a-t-il évolué en relation avec le contrôle des travailleurs ?",
    "Quels sont les intérêts que servent les gestionnaires de la recherche et du développement technologique ?",
    "Quels sont les intérêts que les groupes critiques visent en matière de sciences et de technologies ?",
    "Quels sont les domaines dans lesquels les critiques de la gestion des recherches et du développement technologique ont évolué ?",
    "Quels sont les enjeux politiques de la critique des sciences et des technologies ?",
    "Quels sont les auteurs de Monopoly Capital et quels sont les principaux points de leur analyse ?",
    "Comment les changements dans le débat sur?"
  ]
}