{
  "num": "autog_0338-7259_1974_num_26_1",
  "article": "autog_0338-7259_1974_num_26_1_1112",
  "page_name": "FMSH_PB188a_26-27_089",
  "questions": [
    {
      "id_qa": "FMSH_PB188a_26-27_089_qa11_v3",
      "id_block": "block_1",
      "question": "Qu'est ce qui est vu par le Conseil d'Administration ?",
      "answer": "rapports financiers",
      "answer_stringIds": [
        "string_43",
        "string_44"
      ]
    },
    {
      "id_qa": "FMSH_PB188a_26-27_089_qa13_v3",
      "id_block": "block_3",
      "question": "Sur quoi sont nommés les membres du C.d.G. ?",
      "answer": "une liste de candidats",
      "answer_stringIds": [
        "string_122",
        "string_123",
        "string_124",
        "string_125"
      ]
    },
    {
      "id_qa": "FMSH_PB188a_26-27_089_qa14_v3",
      "id_block": "block_3",
      "question": "Qui nomme les membres du C.d.G. ?",
      "answer": "par le C.L.N.",
      "answer_stringIds": [
        "string_127",
        "string_128",
        "string_129"
      ]
    },
    {
      "id_qa": "FMSH_PB188a_26-27_089_qa1_v3",
      "id_block": "block_4",
      "question": "Quel est le moment de préparer les cadres, les organismes ?",
      "answer": "le faire aujourd'hui",
      "answer_stringIds": [
        "string_255",
        "string_256",
        "string_257"
      ]
    },
    {
      "id_qa": "FMSH_PB188a_26-27_089_qa6_v3",
      "id_block": "block_4",
      "question": "A qui est destiné la nouvelle Constitution ?",
      "answer": "aux travailleurs",
      "answer_stringIds": [
        "string_215",
        "string_216"
      ]
    },
    {
      "id_qa": "FMSH_PB188a_26-27_089_qa9_v3",
      "id_block": "block_4",
      "question": "Par qui sont gérées les industries-clés ?",
      "answer": "les travailleurs",
      "answer_stringIds": [
        "string_242",
        "string_243"
      ]
    }
  ]
}