{
  "num": "autog_0338-7259_1974_num_26_1",
  "article": "autog_0338-7259_1974_num_26_1_1112",
  "page_name": "FMSH_PB188a_26-27_092",
  "questions": [
    {
      "id_qa": "FMSH_PB188a_26-27_092_qa13_v3",
      "id_block": "block_1",
      "question": "Qu'exige la C.G.I.L. ?",
      "answer": "une loi",
      "answer_stringIds": [
        "string_50",
        "string_51"
      ]
    },
    {
      "id_qa": "FMSH_PB188a_26-27_092_qa16_v3",
      "id_block": "block_1",
      "question": "Quand s'est tenu le congrès ?",
      "answer": "le 2 décembre 1945",
      "answer_stringIds": [
        "string_10",
        "string_11",
        "string_12",
        "string_13",
        "string_14"
      ]
    },
    {
      "id_qa": "FMSH_PB188a_26-27_092_qa3_v3",
      "id_block": "block_2",
      "question": "Qu'est ce qui doit être reconnu aux C.d.G ?",
      "answer": "organismes",
      "answer_stringIds": [
        "string_100",
        "string_101"
      ]
    },
    {
      "id_qa": "FMSH_PB188a_26-27_092_qa4_v3",
      "id_block": "block_5",
      "question": "Dans quel type d'organisation la capacité d'initiative et de lutte pouvait-elle se développer ?",
      "answer": "dans des Conseils",
      "answer_stringIds": [
        "string_319",
        "string_320",
        "string_321"
      ]
    },
    {
      "id_qa": "FMSH_PB188a_26-27_092_qa5_v3",
      "id_block": "block_5",
      "question": "Qui avait fait preuve de la capacité d'initiative et de lutte ?",
      "answer": "les masses",
      "answer_stringIds": [
        "string_274",
        "string_275"
      ]
    }
  ]
}