{
  "num": "autog_0338-7259_1977_num_39_1",
  "article": "autog_0338-7259_1977_num_39_1_1263_t1_0124_0000_2",
  "page_name": "FMSH_PB188a_00039_128",
  "questions": [
    {
      "id_qa": "FMSH_PB188a_00039_128_qa47_v3",
      "id_block": "block_1",
      "question": "Qu'est-ce qui est décrit de l'extérieur ?",
      "answer": "organisation coopérative",
      "answer_stringIds": [
        "string_5",
        "string_6"
      ]
    },
    {
      "id_qa": "FMSH_PB188a_00039_128_qa14_v3",
      "id_block": "block_3",
      "question": "Qui sont les membres des sociétés agropécuniaires ?",
      "answer": "des ouvriers agricoles",
      "answer_stringIds": [
        "string_146",
        "string_147",
        "string_148"
      ]
    },
    {
      "id_qa": "FMSH_PB188a_00039_128_qa15_v3",
      "id_block": "block_3",
      "question": "Quelles sont les deux types d'associations rurales à Cuba ?",
      "answer": "les sociétés agropécuniaires",
      "answer_stringIds": [
        "string_142",
        "string_143",
        "string_144"
      ]
    },
    {
      "id_qa": "FMSH_PB188a_00039_128_qa16_v3",
      "id_block": "block_3",
      "question": "Quelles sont les deux types d'associations rurales ?",
      "answer": "les coopératives",
      "answer_stringIds": [
        "string_150",
        "string_151"
      ]
    },
    {
      "id_qa": "FMSH_PB188a_00039_128_qa40_v3",
      "id_block": "block_3",
      "question": "Qu'est ce qui empêche le contrôle de l'Etat ?",
      "answer": "les initiatives de la base",
      "answer_stringIds": [
        "string_163",
        "string_164",
        "string_165",
        "string_166",
        "string_167"
      ]
    },
    {
      "id_qa": "FMSH_PB188a_00039_128_qa26_v3",
      "id_block": "block_4",
      "question": "Où Ben Salah a-t-il voulu étendre le secteur coopératif ?",
      "answer": "En Tunisie",
      "answer_stringIds": [
        "string_180",
        "string_181"
      ]
    },
    {
      "id_qa": "FMSH_PB188a_00039_128_qa27_v3",
      "id_block": "block_4",
      "question": "Qui a voulu étendre le secteur coopératif ?",
      "answer": "Ben Salah",
      "answer_stringIds": [
        "string_182",
        "string_183"
      ]
    },
    {
      "id_qa": "FMSH_PB188a_00039_128_qa30_v3",
      "id_block": "block_4",
      "question": "Qu'est ce qui a été mis en place après l'indépendance ?",
      "answer": "le secteur coopératif restreint",
      "answer_stringIds": [
        "string_191",
        "string_192",
        "string_193",
        "string_194"
      ]
    },
    {
      "id_qa": "FMSH_PB188a_00039_128_qa4_v3",
      "id_block": "block_5",
      "question": "Qu'est-ce qui peut mener au socialisme ?",
      "answer": "une force",
      "answer_stringIds": [
        "string_263",
        "string_264"
      ]
    },
    {
      "id_qa": "FMSH_PB188a_00039_128_qa11_v3",
      "id_block": "block_5",
      "question": "Qu'est ce qui aurait rendu le Sénégal exclusivement capitaliste ?",
      "answer": "les séquelles des autres modes de production",
      "answer_stringIds": [
        "string_352",
        "string_353",
        "string_354",
        "string_355",
        "string_356",
        "string_357",
        "string_358"
      ]
    },
    {
      "id_qa": "FMSH_PB188a_00039_128_qa12_v3",
      "id_block": "block_5",
      "question": "Qui a réussi à rendre le Sénégal exclusivement capitaliste ?",
      "answer": "Dia",
      "answer_stringIds": [
        "string_9"
      ]
    },
    {
      "id_qa": "FMSH_PB188a_00039_128_qa22_v3",
      "id_block": "block_5",
      "question": "Où est situé le système coopératif de Gagnon ?",
      "answer": "situer le système coopératif dans les formations sociales dépendantes",
      "answer_stringIds": [
        "string_253",
        "string_254",
        "string_255",
        "string_256",
        "string_257",
        "string_258",
        "string_259",
        "string_260",
        "string_261"
      ]
    },
    {
      "id_qa": "FMSH_PB188a_00039_128_qa24_v3",
      "id_block": "block_5",
      "question": "Où est situé le système coopératif ?",
      "answer": "dans les formations sociales dépendantes",
      "answer_stringIds": [
        "string_257",
        "string_258",
        "string_259",
        "string_260",
        "string_261"
      ]
    },
    {
      "id_qa": "FMSH_PB188a_00039_128_qa49_v3",
      "id_block": "block_5",
      "question": "Qu'est ce qui a ouvert la voie au capitalisme ?",
      "answer": "les coopératives",
      "answer_stringIds": [
        "string_150",
        "string_151"
      ]
    },
    {
      "id_qa": "FMSH_PB188a_00039_128_qa50_v3",
      "id_block": "block_5",
      "question": "A quoi les coopératives ont-elles ouvert la voie ?",
      "answer": "la voie au capitalisme",
      "answer_stringIds": [
        "string_299",
        "string_300",
        "string_301",
        "string_302"
      ]
    },
    {
      "id_qa": "FMSH_PB188a_00039_128_qa37_v3",
      "id_block": "block_6",
      "question": "A qui s'adresse l'équipe de Dia ?",
      "answer": "Gagnon",
      "answer_stringIds": [
        "string_241"
      ]
    },
    {
      "id_qa": "FMSH_PB188a_00039_128_qa38_v3",
      "id_block": "block_6",
      "question": "Qui s'est adressé directement à l'équipe de Dia et aux textes qui en sont issus ?",
      "answer": "Gagnon",
      "answer_stringIds": [
        "string_241"
      ]
    },
    {
      "id_qa": "FMSH_PB188a_00039_128_qa39_v3",
      "id_block": "block_6",
      "question": "Qui s'est adressé directement à l'équipe de Dia ?",
      "answer": "Gagnon",
      "answer_stringIds": [
        "string_241"
      ]
    }
  ]
}