{
  "num": "autog_0338-7259_1977_num_39_1",
  "article": "autog_0338-7259_1977_num_39_1_1263_t1_0124_0000_2",
  "page_name": "FMSH_PB188a_00039_127",
  "questions": [
    {
      "id_qa": "FMSH_PB188a_00039_127_qa1_v3",
      "id_block": "block_2",
      "question": "Quelle est la conséquence de la colonisation ?",
      "answer": "la société vaincue",
      "answer_stringIds": [
        "string_176",
        "string_177",
        "string_178"
      ]
    },
    {
      "id_qa": "FMSH_PB188a_00039_127_qa5_v3",
      "id_block": "block_2",
      "question": "Qu'est-ce que la colonisation ?",
      "answer": "à atomiser la société vaincue",
      "answer_stringIds": [
        "string_174",
        "string_175",
        "string_176",
        "string_177",
        "string_178"
      ]
    },
    {
      "id_qa": "FMSH_PB188a_00039_127_qa0_v3",
      "id_block": "block_3",
      "question": "Par qui est accordée l'égal acces à la fonction publique ?",
      "answer": "par la constitution",
      "answer_stringIds": [
        "string_208",
        "string_209",
        "string_210"
      ]
    },
    {
      "id_qa": "FMSH_PB188a_00039_127_qa23_v3",
      "id_block": "block_3",
      "question": "Quelle loi n'attribuait pas la citoyenneté ?",
      "answer": "La loi Lamine Gueye",
      "answer_stringIds": [
        "string_199",
        "string_200",
        "string_201",
        "string_202"
      ]
    },
    {
      "id_qa": "FMSH_PB188a_00039_127_qa11_v3",
      "id_block": "block_5",
      "question": "Avec qui Senghor a-t-il rompu ?",
      "answer": "avec la SFIO",
      "answer_stringIds": [
        "string_324",
        "string_325",
        "string_326"
      ]
    },
    {
      "id_qa": "FMSH_PB188a_00039_127_qa13_v3",
      "id_block": "block_5",
      "question": "Qui a su rompre avec la SFIO ?",
      "answer": "Senghor",
      "answer_stringIds": [
        "string_317"
      ]
    },
    {
      "id_qa": "FMSH_PB188a_00039_127_qa9_v3",
      "id_block": "block_7",
      "question": "Qu'est-ce que Senghor de Marx ?",
      "answer": "la profonde connaissance",
      "answer_stringIds": [
        "string_377",
        "string_378",
        "string_379"
      ]
    }
  ]
}