{
  "num": "autog_0249-2563_1984_num_17_16",
  "article": "autog_0249-2563_1984_num_17_16_1595",
  "page_name": "autog_0249-2563_1984_num_17_16_T1_0071_0000",
  "questions": [
    "Quels sont les différents rôles sociaux mis en relation dans un réseau ?",
    "Comment le réseau permet-il de mettre en cohérence ces différents rôles ?",
    "Quelles sont les questions fondamentales posées aujourd'hui que le projet d'une agriculture plus autonome répond ?",
    "Comment le projet d'une agriculture plus autonome permet-il de réapproprier des rôles professionnels ?",
    "Comment le projet d'une agriculture plus autonome permet-il de réconcilier rôles professionnels et rôles familiaux ?",
    "Comment le projet d'une agriculture plus autonome permet-il de réconcilier le rôle de producteur et le rôle de consommateur ?",
    "Qu'est-ce que le retour des « prosomateurs » et comment le projet d'une agriculture plus autonome les concerne ?",
    "Comment le paysan, grâce à son statut particulier, peut-il explorer de nouvelles voies et construire de nouveaux espaces de cohérence ?",
    "Comment le paysan peut-il critiquer le rapport salarial en tant qu'il n'en est pas lui-même soumis ?"
  ]
}