{
  "num": "autog_0249-2563_1984_num_17_17",
  "article": "autog_0249-2563_1984_num_17_17_1605",
  "page_name": "autog_0249-2563_1984_num_17_17_T1_0004_0000",
  "questions": [
    "Quel est le rôle de la stèle noire de 56m dans la RADIE ?",
    "Quels sont les principes de la RADIE ?",
    "Quels travaux ethnographiques, historiques et sociologiques ont été suscités par les rites de la RADIE ?",
    "Quand est apparu le livre de Gustave Affilpeu sur les origines socio-économiques de la RADIE ?",
    "Dans quelle période historique se situe la « fracture 84 » ?",
    "Quels événements sociaux et politiques se sont produits durant les années 1970-1980 ?",
    "Qu'entendre par « l'ordre ancien » ?",
    "Qu'entendre par « la troisième révolution industrielle, dite des puces » ?",
    "Quels sont les « rapports de classes » et comment s'exacerbaient-ils ?",
    "Quels sont les « courants internes aux Partis » et comment se donnaient-ils libre cours ?",
    "Qu'entendre par « la rentrée sociale » et « la rentrée scolaire » à l'époque ?",
    "Quels sont les auteurs de l'essai comparatif sur l'idée de mort dans la fête au moyen-âge et au grand siècle industriel ?",
    "En quelle année la constitution de la RADIE a-t-elle été adoptée ?",
    "Quel est le rôle de la devise de la RADIE dans la cohésion nationale et l'épanouissement de la culture RADIE ?",
    "Comment les étudiants se réjouissaient-ils du printemps et de l'automne ?",
    "Comment les leaders syndicaux avertissaient les Français de l'automne ?",
    "Comment les historiens décrivent la tranquillité sociale de l'époque ?",
    "Qu'entendre par « le Conflit devenait central » ?",
    "Qu'entendre par « les divisions corporatistes » ?"
  ]
}