{
  "num": "autog_0005-0970_1968_num_7_1",
  "article": "autog_0005-0970_1968_num_7_1_937",
  "page_name": "FMSH_PB188a_00007_101",
  "questions": [
    {
      "id_qa": "FMSH_PB188a_00007_101_qa1_v3",
      "id_block": "block_1",
      "question": "Sur quoi repose l'adhésion du militant aux décisions du Parti ?",
      "answer": "sur les règles cartésiennes",
      "answer_stringIds": [
        "string_109",
        "string_110",
        "string_111",
        "string_112"
      ]
    },
    {
      "id_qa": "FMSH_PB188a_00007_101_qa20_v3",
      "id_block": "block_1",
      "question": "Qu'est ce que les chefs n'ont pas théoriquement droit à faire ?",
      "answer": "droit à la prière",
      "answer_stringIds": [
        "string_38",
        "string_39",
        "string_40",
        "string_41"
      ]
    },
    {
      "id_qa": "FMSH_PB188a_00007_101_qa25_v3",
      "id_block": "block_1",
      "question": "Qu'est-ce qui n'a pas de degré ?",
      "answer": "la croyance",
      "answer_stringIds": [
        "string_138",
        "string_139"
      ]
    },
    {
      "id_qa": "FMSH_PB188a_00007_101_qa13_v3",
      "id_block": "block_3",
      "question": "Qui parle de cette loi du «tout ou rien » ?",
      "answer": "André Barjonet",
      "answer_stringIds": [
        "string_182",
        "string_183"
      ]
    },
    {
      "id_qa": "FMSH_PB188a_00007_101_qa14_v3",
      "id_block": "block_3",
      "question": "Qui a appris la loi du \"tout ou rien\" ?",
      "answer": "les militants de base",
      "answer_stringIds": [
        "string_216",
        "string_217",
        "string_218",
        "string_219"
      ]
    },
    {
      "id_qa": "FMSH_PB188a_00007_101_qa15_v3",
      "id_block": "block_3",
      "question": "Qui décrit très bien cette loi du «tout ou rien » ?",
      "answer": "André Barjonet",
      "answer_stringIds": [
        "string_182",
        "string_183"
      ]
    },
    {
      "id_qa": "FMSH_PB188a_00007_101_qa16_v3",
      "id_block": "block_3",
      "question": "Qui décrit cette loi du «tout ou rien » ?",
      "answer": "André Barjonet",
      "answer_stringIds": [
        "string_182",
        "string_183"
      ]
    },
    {
      "id_qa": "FMSH_PB188a_00007_101_qa23_v3",
      "id_block": "block_3",
      "question": "Qui ne peut se tromper si des erreurs se produisent néanmoins ?",
      "answer": "les dirigeants bien-aimés",
      "answer_stringIds": [
        "string_361",
        "string_362",
        "string_363"
      ]
    },
    {
      "id_qa": "FMSH_PB188a_00007_101_qa24_v3",
      "id_block": "block_3",
      "question": "Quel est l'aspect inverse du culte de Ia personnalité ?",
      "answer": "les dirigeants bien-aimés",
      "answer_stringIds": [
        "string_361",
        "string_362",
        "string_363"
      ]
    },
    {
      "id_qa": "FMSH_PB188a_00007_101_qa27_v3",
      "id_block": "block_3",
      "question": "Qu'est-ce qui est impossible dans un parti communiste ?",
      "answer": "un militant ou un dirigeant",
      "answer_stringIds": [
        "string_295",
        "string_296",
        "string_297",
        "string_298",
        "string_299"
      ]
    },
    {
      "id_qa": "FMSH_PB188a_00007_101_qa28_v3",
      "id_block": "block_3",
      "question": "Qu'est-ce qui a pu être reproché à un militant ou dirigeant ?",
      "answer": "des erreurs",
      "answer_stringIds": [
        "string_306",
        "string_307"
      ]
    },
    {
      "id_qa": "FMSH_PB188a_00007_101_qa36_v3",
      "id_block": "block_3",
      "question": "Quel est le coupable fofal ?",
      "answer": "le dirigeant fautif",
      "answer_stringIds": [
        "string_334",
        "string_335",
        "string_336"
      ]
    },
    {
      "id_qa": "FMSH_PB188a_00007_101_qa6_v3",
      "id_block": "block_4",
      "question": "Quelle conséquence a le système manichéiste sur la vie intellectuelle ?",
      "answer": "des conséquences plus graves",
      "answer_stringIds": [
        "string_413",
        "string_414",
        "string_415",
        "string_416"
      ]
    },
    {
      "id_qa": "FMSH_PB188a_00007_101_qa7_v3",
      "id_block": "block_4",
      "question": "Quel système a des conséquences graves sur la vie intellectuelle même des militants ?",
      "answer": "ce système manichéiste",
      "answer_stringIds": [
        "string_409",
        "string_410",
        "string_411"
      ]
    }
  ]
}