{
  "num": "autog_0338-7259_1977_num_39_1",
  "article": "autog_0338-7259_1977_num_39_1_1251",
  "page_name": "FMSH_PB188a_00039_007",
  "questions": [
    "Quels individus ont répété et accentué l'étouffement de la spontanéité en Afrique noire ?",
    "Quand et où s'est constituée l'Association Africaine des Forces pour le Développement ?",
    "Quel est le but de cette association ?",
    "Qui est Joseph Ki-Zerbo et quelle est la signification de son intervention au congrès constitutif de l'Association Africaine des Forces pour le Développement ?",
    "Quels sont les conditions politiques et sociales favorables au développement du socialisme autogestionnaire en Afrique noire ?",
    "Quel devrait être le rôle et la place des intellectuels dans ce processus ?",
    "Quels thèmes est-il question de dans l'intervention de Roland Colin en conclusion ?",
    "Pourquoi l'autogestion est-elle importante pour l'Afrique noire ?",
    "Comment l'Afrique noire peut-elle échapper à sa condition de dépendance à la périphérie du marché mondial sans l'autogestion ?",
    "Quel est le lien entre l'autogestion et la retrouver de l'autonomie créatrice en Afrique noire ?"
  ]
}