{
  "num": "autog_0338-7259_1971_num_15_1",
  "article": "autog_0338-7259_1971_num_15_1_1000",
  "page_name": "FMSH_PB188a_00015_082",
  "questions": [
    {
      "id_qa": "FMSH_PB188a_00015_082_qa29_v3",
      "id_block": "block_1",
      "question": "Qui a écrit la déclaration ?",
      "answer": "Vaillant",
      "answer_stringIds": [
        "string_12"
      ]
    },
    {
      "id_qa": "FMSH_PB188a_00015_082_qa31_v3",
      "id_block": "block_1",
      "question": "Qui était à la tête de la Commune ?",
      "answer": "Vaillant",
      "answer_stringIds": [
        "string_12"
      ]
    },
    {
      "id_qa": "FMSH_PB188a_00015_082_qa32_v3",
      "id_block": "block_1",
      "question": "Qu'est-ce qui a suivi la déclaration ?",
      "answer": "le débat",
      "answer_stringIds": [
        "string_90",
        "string_91"
      ]
    },
    {
      "id_qa": "FMSH_PB188a_00015_082_qa0_v3",
      "id_block": "block_2",
      "question": "Qui adhéra à la Déclaration de la minorité ?",
      "answer": "Longuet",
      "answer_stringIds": [
        "string_7"
      ]
    },
    {
      "id_qa": "FMSH_PB188a_00015_082_qa12_v3",
      "id_block": "block_2",
      "question": "Quand a eu lieu la déclaration de la minorité ?",
      "answer": "le 16 mai",
      "answer_stringIds": [
        "string_174",
        "string_175",
        "string_176"
      ]
    },
    {
      "id_qa": "FMSH_PB188a_00015_082_qa8_v3",
      "id_block": "block_2",
      "question": "Qui a quitté la majorité au début de la Commune ?",
      "answer": "Vallès et Vermorel",
      "answer_stringIds": [
        "string_137",
        "string_138",
        "string_139"
      ]
    },
    {
      "id_qa": "FMSH_PB188a_00015_082_qa11_v3",
      "id_block": "block_2",
      "question": "Qui vote pour le Comité de Salut Public le 16 mai ?",
      "answer": "Franckel et Arnold",
      "answer_stringIds": [
        "string_157",
        "string_158",
        "string_159"
      ]
    },
    {
      "id_qa": "FMSH_PB188a_00015_082_qa15_v3",
      "id_block": "block_2",
      "question": "Qu'est ce qui a été approuvé par Franckel et Arnold ?",
      "answer": "la déclaration de la minorité",
      "answer_stringIds": [
        "string_180",
        "string_181",
        "string_182",
        "string_183",
        "string_184"
      ]
    },
    {
      "id_qa": "FMSH_PB188a_00015_082_qa36_v3",
      "id_block": "block_3",
      "question": "Par quoi passe le Mutuellisme révolutionnaire ?",
      "answer": "par un collectivisme libéral",
      "answer_stringIds": [
        "string_284",
        "string_285",
        "string_286",
        "string_287"
      ]
    }
  ]
}