{
  "num": "autog_0338-7259_1971_num_15_1",
  "article": "autog_0338-7259_1971_num_15_1_1000",
  "page_name": "FMSH_PB188a_00015_049",
  "questions": [
    {
      "id_qa": "FMSH_PB188a_00015_049_qa7_v3",
      "id_block": "block_2",
      "question": "Qu'est-ce que la doctrine Proudhonienne ?",
      "answer": "le Proudhonisme",
      "answer_stringIds": [
        "string_174",
        "string_175"
      ]
    },
    {
      "id_qa": "FMSH_PB188a_00015_049_qa8_v3",
      "id_block": "block_2",
      "question": "Sur qui la doctrine Proudhonienne a-t-elle une influence ?",
      "answer": "sur des milieux socialistes",
      "answer_stringIds": [
        "string_162",
        "string_163",
        "string_164",
        "string_165"
      ]
    },
    {
      "id_qa": "FMSH_PB188a_00015_049_qa9_v3",
      "id_block": "block_2",
      "question": "Qui est à l'origine de cette imprégnation plus générale mais plus sélective ?",
      "answer": "par des milieux républicains",
      "answer_stringIds": [
        "string_126",
        "string_127",
        "string_128",
        "string_129"
      ]
    },
    {
      "id_qa": "FMSH_PB188a_00015_049_qa14_v3",
      "id_block": "block_2",
      "question": "Sur qui s'exercera une influence directe, unique et militante ?",
      "answer": "sur des socialistes",
      "answer_stringIds": [
        "string_200",
        "string_201",
        "string_202"
      ]
    },
    {
      "id_qa": "FMSH_PB188a_00015_049_qa17_v3",
      "id_block": "block_2",
      "question": "Quelle est l'idéologie des socialistes ?",
      "answer": "comme idéologie la pensée proudhonienne",
      "answer_stringIds": [
        "string_205",
        "string_206",
        "string_207",
        "string_208",
        "string_209",
        "string_210"
      ]
    },
    {
      "id_qa": "FMSH_PB188a_00015_049_qa0_v3",
      "id_block": "block_3",
      "question": "Qu'est ce que les Proudhoniens non Communards enseignèrent à la Lyonnaise ?",
      "answer": "un mutuellisme",
      "answer_stringIds": [
        "string_277",
        "string_278"
      ]
    },
    {
      "id_qa": "FMSH_PB188a_00015_049_qa1_v3",
      "id_block": "block_3",
      "question": "Dans quelle région Tollin et Limousin ont-ils étudié le mutuellisme ?",
      "answer": "à la Lyonnaise",
      "answer_stringIds": [
        "string_279",
        "string_280",
        "string_281"
      ]
    }
  ]
}