{
  "num": "autog_0249-2563_1984_num_17_17",
  "article": "autog_0249-2563_1984_num_17_17_1615",
  "page_name": "autog_0249-2563_1984_num_17_17_T1_0099_0000",
  "questions": [
    {
      "id_qa": "autog_0249-2563_1984_num_17_17_T1_0099_0000_qa1_v3",
      "id_block": "block_1",
      "question": "Qu'est ce qui est à l'origine de la mobilisation populaire ?",
      "answer": "la source de leur renouveau",
      "answer_stringIds": [
        "string_145",
        "string_146",
        "string_147",
        "string_148",
        "string_149"
      ]
    },
    {
      "id_qa": "autog_0249-2563_1984_num_17_17_T1_0099_0000_qa2_v3",
      "id_block": "block_1",
      "question": "Par qui étaient organisées les journées nationales de protestation ?",
      "answer": "des partis",
      "answer_stringIds": [
        "string_70",
        "string_71"
      ]
    },
    {
      "id_qa": "autog_0249-2563_1984_num_17_17_T1_0099_0000_qa4_v3",
      "id_block": "block_1",
      "question": "Qu'est ce qui a marqué de plus en plus l'encadrement des partis ?",
      "answer": "Le caractère des journées nationales de protestation",
      "answer_stringIds": [
        "string_53",
        "string_54",
        "string_55",
        "string_56",
        "string_57",
        "string_58",
        "string_59",
        "string_60"
      ]
    },
    {
      "id_qa": "autog_0249-2563_1984_num_17_17_T1_0099_0000_qa5_v3",
      "id_block": "block_1",
      "question": "Quelle est la couleur politique du MDP ?",
      "answer": "les forces de gauche",
      "answer_stringIds": [
        "string_46",
        "string_47",
        "string_48",
        "string_49"
      ]
    },
    {
      "id_qa": "autog_0249-2563_1984_num_17_17_T1_0099_0000_qa18_v3",
      "id_block": "block_1",
      "question": "Qu'a trouvé le régime du général Pinochet ?",
      "answer": "la réponse",
      "answer_stringIds": [
        "string_117",
        "string_118"
      ]
    },
    {
      "id_qa": "autog_0249-2563_1984_num_17_17_T1_0099_0000_qa10_v3",
      "id_block": "block_3",
      "question": "Qui est l'auteur de Tendencias de cambio ?",
      "answer": "Javier Martinez et Eugenion Tironi",
      "answer_stringIds": [
        "string_405",
        "string_406",
        "string_407",
        "string_408",
        "string_409",
        "string_410"
      ]
    }
  ]
}