{
  "num": "autog_0249-2563_1983_num_16_14",
  "article": "autog_0249-2563_1983_num_16_14_1563",
  "page_name": "autog_0249-2563_1983_num_16_14_T1_0093_0000",
  "questions": [
    "Quels facteurs poussent les LIP à reproduire le modèle pyramidal de gestion basé sur la délégation de pouvoirs ?",
    "Comment la taille de la structure économique renvoie-t-elle initialement à un problème culturel pour instaurer une vie démocratique pleine dans le travail ?",
    "Quelles réponses organisationnelles se révèlent formelles et inopérantes à ce niveau de la vie sociale ?",
    "Comment les instances participatives se sont-elles trouvées bloquées dans les coopératives ?",
    "Comment les contraintes du retour au travail ont-elles affecté l'ambiance communautaire ?",
    "Quelles aspirations individuelles sont difficiles à adapter aux nécessités collectives ?",
    "Comment l'obligation permanente de compromis frustrant entre l'idéal espéré et la dure exigence de la survie a-t-elle affecté les travailleurs ?",
    "Comment les petites unités de travail maintiennent-elles une certaine cohésion et quelle est leur rôle stimulant pour les autres ?",
    "Quand est-il trop tôt pour effectuer un bilan social de l'expérience vivante des LIP-1983 ?",
    "Quand la communauté multiforme se débat-elle dans des difficultés considérables et comment cela renvoie-t-il à une réflexion approfondie sur le lien social dans la production ?",
    "Les LIP sont-ils plus heureux ?"
  ]
}