{
  "num": "autog_0249-2563_1981_num_14_6",
  "article": "autog_0249-2563_1981_num_14_6_1428",
  "page_name": "autog_0249-2563_1981_num_14_6_T1_0186_0000",
  "questions": [
    "Combien de personnes étaient impliquées dans cette expérience de publication de la revue Argumenti ?",
    "Quel était le rôle de la Ligue communiste régionale dans le début de la publication de la revue ?",
    "Comment les changements de direction et rédaction de la revue se sont-ils produits ?",
    "Quel était le contenu du quatrième numéro de la revue et pourquoi il a été publié malgré les changements de direction ?",
    "Pourquoi la revue Argumenti n'était-elle plus vendue dans les librairies après ces changements ?",
    "Quels étaient les sujets abordés dans les premiers numéros de la revue et pourquoi elle a été critiquée pour cela ?",
    "Quel était le statut historique de la revue Argumenti par rapport à d'autres revues en sciences sociales ?",
    "Comment cette expérience de publication de la revue Argumenti illustre les formes possibles d'autogestion et la réaction du pouvoir ?"
  ]
}