{
  "num": "autog_0338-7259_1977_num_37_1",
  "article": "autog_0338-7259_1977_num_37_1_1221",
  "page_name": "FMSH_PB188a_37-38_058",
  "questions": [
    {
      "id_qa": "FMSH_PB188a_37-38_058_qa31_v3",
      "id_block": "block_1",
      "question": "En quelle année la revue a-t-elle travaillé par trois groupes ?",
      "answer": "En 1970",
      "answer_stringIds": [
        "string_X"
      ]
    },
    {
      "id_qa": "FMSH_PB188a_37-38_058_qa24_v3",
      "id_block": "block_3",
      "question": "Qu'est-ce qui fut un numéro de compromis ?",
      "answer": "un rassemblement de textes",
      "answer_stringIds": [
        "string_X"
      ]
    },
    {
      "id_qa": "FMSH_PB188a_37-38_058_qa1_v3",
      "id_block": "block_4",
      "question": "Qui se sont retrouvés à l'occasion du N. 13 ?",
      "answer": "Les institutionnalistes",
      "answer_stringIds": [
        "string_X"
      ]
    },
    {
      "id_qa": "FMSH_PB188a_37-38_058_qa2_v3",
      "id_block": "block_4",
      "question": "Qu'est-ce qui est aujourd'hui épuisé ?",
      "answer": "N. 13",
      "answer_stringIds": [
        "string_X"
      ]
    },
    {
      "id_qa": "FMSH_PB188a_37-38_058_qa3_v3",
      "id_block": "block_4",
      "question": "Qui se sont réunis à l'occasion du N. 13 ?",
      "answer": "Les institutionnalistes",
      "answer_stringIds": [
        "string_X"
      ]
    },
    {
      "id_qa": "FMSH_PB188a_37-38_058_qa19_v3",
      "id_block": "block_5",
      "question": "Qu'est ce qui joua le rôle d'une rampe de lancement ?",
      "answer": "ce numéro",
      "answer_stringIds": [
        "string_X"
      ]
    },
    {
      "id_qa": "FMSH_PB188a_37-38_058_qa23_v3",
      "id_block": "block_5",
      "question": "Quel est le métier de Javeau ?",
      "answer": "la sociologie Paris",
      "answer_stringIds": [
        "string_X"
      ]
    },
    {
      "id_qa": "FMSH_PB188a_37-38_058_qa26_v3",
      "id_block": "block_5",
      "question": "Qui a publié 7 ouvrages ?",
      "answer": "Lapassade",
      "answer_stringIds": [
        "string_X"
      ]
    }
  ]
}