{
  "num": "autog_0249-2563_1981_num_14_5",
  "article": "autog_0249-2563_1981_num_14_5_1417",
  "page_name": "autog_0249-2563_1981_num_14_5_T1_0090_0000",
  "questions": [
    {
      "id_qa": "autog_0249-2563_1981_num_14_5_T1_0090_0000_qa1_v3",
      "id_block": "block_0",
      "question": "Qui pouvait bénéficier de la mobilité sociale après la guerre ?",
      "answer": "les ouvriers",
      "answer_stringIds": [
        "string_149",
        "string_150"
      ]
    },
    {
      "id_qa": "autog_0249-2563_1981_num_14_5_T1_0090_0000_qa4_v3",
      "id_block": "block_2",
      "question": "Dans quel cadre s'inscrit le mouvement de 1956 ?",
      "answer": "la société",
      "answer_stringIds": [
        "string_56",
        "string_57"
      ]
    },
    {
      "id_qa": "autog_0249-2563_1981_num_14_5_T1_0090_0000_qa7_v3",
      "id_block": "block_2",
      "question": "Qui a tué à Poznan en 1956 ?",
      "answer": "des ouvriers",
      "answer_stringIds": [
        "string_44",
        "string_45"
      ]
    },
    {
      "id_qa": "autog_0249-2563_1981_num_14_5_T1_0090_0000_qa15_v3",
      "id_block": "block_2",
      "question": "Qu'est ce qui est important en Occident ?",
      "answer": "la rupture est importante",
      "answer_stringIds": [
        "string_192",
        "string_193",
        "string_194",
        "string_195"
      ]
    },
    {
      "id_qa": "autog_0249-2563_1981_num_14_5_T1_0090_0000_qa17_v3",
      "id_block": "block_3",
      "question": "Où a commencé la réaction spontanée des ouvriers ?",
      "answer": "à Gdansk",
      "answer_stringIds": [
        "string_234",
        "string_235"
      ]
    },
    {
      "id_qa": "autog_0249-2563_1981_num_14_5_T1_0090_0000_qa18_v3",
      "id_block": "block_3",
      "question": "Qui a commencé à Gdansk en 1970 ?",
      "answer": "des ouvriers",
      "answer_stringIds": [
        "string_44",
        "string_45"
      ]
    },
    {
      "id_qa": "autog_0249-2563_1981_num_14_5_T1_0090_0000_qa20_v3",
      "id_block": "block_3",
      "question": "Quand a eu lieu la réaction spontanée des ouvriers ?",
      "answer": "En 1970",
      "answer_stringIds": [
        "string_281",
        "string_282"
      ]
    },
    {
      "id_qa": "autog_0249-2563_1981_num_14_5_T1_0090_0000_qa32_v3",
      "id_block": "block_3",
      "question": "Avec quoi naît le mouvement de classe ?",
      "answer": "avec la rentrée de la classe ouvrière sur la scène politique polonaise",
      "answer_stringIds": [
        "string_329",
        "string_330",
        "string_331",
        "string_332",
        "string_333",
        "string_334",
        "string_335",
        "string_336",
        "string_337",
        "string_338",
        "string_339",
        "string_340"
      ]
    },
    {
      "id_qa": "autog_0249-2563_1981_num_14_5_T1_0090_0000_qa28_v3",
      "id_block": "block_4",
      "question": "Qu'est-ce qu'une donnée démographique élémentaire ?",
      "answer": "en être autre",
      "answer_stringIds": [
        "string_420",
        "string_421",
        "string_422"
      ]
    },
    {
      "id_qa": "autog_0249-2563_1981_num_14_5_T1_0090_0000_qa34_v3",
      "id_block": "block_4",
      "question": "Que manque-t-il du point de vue des acteurs ?",
      "answer": "très peu de références",
      "answer_stringIds": [
        "string_406",
        "string_407",
        "string_408",
        "string_409"
      ]
    },
    {
      "id_qa": "autog_0249-2563_1981_num_14_5_T1_0090_0000_qa35_v3",
      "id_block": "block_4",
      "question": "Qu'est-ce que K. POMIAN ?",
      "answer": "nuancer les choses",
      "answer_stringIds": [
        "string_393",
        "string_394",
        "string_395"
      ]
    },
    {
      "id_qa": "autog_0249-2563_1981_num_14_5_T1_0090_0000_qa36_v3",
      "id_block": "block_4",
      "question": "Qu'est-ce qui est nuancé par K. POMIAN ?",
      "answer": "les choses",
      "answer_stringIds": [
        "string_394",
        "string_395"
      ]
    }
  ]
}