{
  "num": "autog_0249-2563_1981_num_14_5",
  "article": "autog_0249-2563_1981_num_14_5_1417",
  "page_name": "autog_0249-2563_1981_num_14_5_T1_0097_0000",
  "questions": [
    {
      "id_qa": "autog_0249-2563_1981_num_14_5_T1_0097_0000_qa27_v3",
      "id_block": "block_0",
      "question": "Qu'est ce qui entraîne le mouvement dans une certaine direction ?",
      "answer": "des faits sociaux",
      "answer_stringIds": [
        "string_40",
        "string_41",
        "string_42"
      ]
    },
    {
      "id_qa": "autog_0249-2563_1981_num_14_5_T1_0097_0000_qa28_v3",
      "id_block": "block_0",
      "question": "Quelle Constitution dit que la République populaire de Pologne est l'Etat des ouvriers et des paysans ?",
      "answer": "La Constitution polonaise",
      "answer_stringIds": [
        "string_15",
        "string_16",
        "string_17"
      ]
    },
    {
      "id_qa": "autog_0249-2563_1981_num_14_5_T1_0097_0000_qa3_v3",
      "id_block": "block_1",
      "question": "Qui pense que l'attitude polonaise correspond à l'autogestion sociale-démocrate ?",
      "answer": "Pomian",
      "answer_stringIds": [
        "string_56"
      ]
    },
    {
      "id_qa": "autog_0249-2563_1981_num_14_5_T1_0097_0000_qa9_v3",
      "id_block": "block_1",
      "question": "Qui parle de créer des comités d'initiative pour l'autogestion ?",
      "answer": "Kuron",
      "answer_stringIds": [
        "string_86"
      ]
    },
    {
      "id_qa": "autog_0249-2563_1981_num_14_5_T1_0097_0000_qa1_v3",
      "id_block": "block_2",
      "question": "Quelle est la caractéristique des militants de Gdansk ?",
      "answer": "les militants les plus forts",
      "answer_stringIds": [
        "string_276",
        "string_277",
        "string_278",
        "string_279",
        "string_280"
      ]
    },
    {
      "id_qa": "autog_0249-2563_1981_num_14_5_T1_0097_0000_qa2_v3",
      "id_block": "block_2",
      "question": "Qu'est ce qui a été publié dans la presse polonaise ?",
      "answer": "toutes les interviews",
      "answer_stringIds": [
        "string_252",
        "string_253",
        "string_254"
      ]
    },
    {
      "id_qa": "autog_0249-2563_1981_num_14_5_T1_0097_0000_qa19_v3",
      "id_block": "block_2",
      "question": "Quel est le rôle des militants de Gdansk ?",
      "answer": "un rôle très positif dans la gestion",
      "answer_stringIds": [
        "string_315",
        "string_316",
        "string_317",
        "string_318",
        "string_319",
        "string_320",
        "string_321"
      ]
    },
    {
      "id_qa": "autog_0249-2563_1981_num_14_5_T1_0097_0000_qa21_v3",
      "id_block": "block_2",
      "question": "Qu'exige les militants de Gdansk ?",
      "answer": "de prendre des responsabilités dans la production",
      "answer_stringIds": [
        "string_298",
        "string_299",
        "string_300",
        "string_301",
        "string_302",
        "string_303",
        "string_304"
      ]
    },
    {
      "id_qa": "autog_0249-2563_1981_num_14_5_T1_0097_0000_qa22_v3",
      "id_block": "block_2",
      "question": "Qu'est ce qui permet aux militants de Gdansk de jouer un rôle positif dans la gestion ?",
      "answer": "un contrôle social",
      "answer_stringIds": [
        "string_309",
        "string_310",
        "string_311"
      ]
    },
    {
      "id_qa": "autog_0249-2563_1981_num_14_5_T1_0097_0000_qa7_v3",
      "id_block": "block_3",
      "question": "Qu'est-ce qui est important dans la discussion ?",
      "answer": "tous les tabous",
      "answer_stringIds": [
        "string_396",
        "string_397",
        "string_398"
      ]
    }
  ]
}