{
  "num": "autog_0249-2563_1981_num_14_5",
  "article": "autog_0249-2563_1981_num_14_5_1417",
  "page_name": "autog_0249-2563_1981_num_14_5_T1_0099_0000",
  "questions": [
    {
      "id_qa": "autog_0249-2563_1981_num_14_5_T1_0099_0000_qa10_v3",
      "id_block": "block_0",
      "question": "Qu'est ce qui va créer à l'intérieur de Solidarité ?",
      "answer": "des divergences",
      "answer_stringIds": [
        "string_42",
        "string_43",
        "string_44"
      ]
    },
    {
      "id_qa": "autog_0249-2563_1981_num_14_5_T1_0099_0000_qa20_v3",
      "id_block": "block_0",
      "question": "Quelle est l'opinion de D. SINGER ?",
      "answer": "une opinion plus nuancée",
      "answer_stringIds": [
        "string_7",
        "string_8",
        "string_9",
        "string_10"
      ]
    },
    {
      "id_qa": "autog_0249-2563_1981_num_14_5_T1_0099_0000_qa11_v3",
      "id_block": "block_1",
      "question": "Qui va commencer à se tourner vers les syndicats ?",
      "answer": "le gouvernement",
      "answer_stringIds": [
        "string_88",
        "string_89"
      ]
    },
    {
      "id_qa": "autog_0249-2563_1981_num_14_5_T1_0099_0000_qa12_v3",
      "id_block": "block_1",
      "question": "Qui va avoir des difficultés avec sa base ?",
      "answer": "Solidarité",
      "answer_stringIds": [
        "string_48"
      ]
    },
    {
      "id_qa": "autog_0249-2563_1981_num_14_5_T1_0099_0000_qa1_v3",
      "id_block": "block_3",
      "question": "A quoi est liée l'autogestion de la lutte ?",
      "answer": "une auto-discipline remarquable",
      "answer_stringIds": [
        "string_201",
        "string_202",
        "string_203",
        "string_204"
      ]
    },
    {
      "id_qa": "autog_0249-2563_1981_num_14_5_T1_0099_0000_qa2_v3",
      "id_block": "block_3",
      "question": "Qu'est-ce qui caractérise le mouvement ?",
      "answer": "une authentique autogestion de la lutte",
      "answer_stringIds": [
        "string_193",
        "string_194",
        "string_195",
        "string_196",
        "string_197",
        "string_198"
      ]
    },
    {
      "id_qa": "autog_0249-2563_1981_num_14_5_T1_0099_0000_qa9_v3",
      "id_block": "block_4",
      "question": "Qui se rappelaient les échecs et les dangers passés ?",
      "answer": "les ouvriers",
      "answer_stringIds": [
        "string_288",
        "string_289"
      ]
    },
    {
      "id_qa": "autog_0249-2563_1981_num_14_5_T1_0099_0000_qa22_v3",
      "id_block": "block_4",
      "question": "Qu'est ce qui restait spontané en 1970 ?",
      "answer": "le mouvement",
      "answer_stringIds": [
        "string_176",
        "string_177"
      ]
    },
    {
      "id_qa": "autog_0249-2563_1981_num_14_5_T1_0099_0000_qa24_v3",
      "id_block": "block_4",
      "question": "Qu'est-ce que l'autogestion des luttes ?",
      "answer": "un phénomène",
      "answer_stringIds": [
        "string_242",
        "string_243"
      ]
    }
  ]
}