{
  "num": "autog_0249-2563_1981_num_14_5",
  "article": "autog_0249-2563_1981_num_14_5_1417",
  "page_name": "autog_0249-2563_1981_num_14_5_T1_0100_0000",
  "questions": [
    {
      "id_qa": "autog_0249-2563_1981_num_14_5_T1_0100_0000_qa11_v3",
      "id_block": "block_0",
      "question": "Que voulaient faire les ouvriers à l'usine ?",
      "answer": "donner prise à une provocation",
      "answer_stringIds": [
        "string_13",
        "string_14",
        "string_15",
        "string_16",
        "string_17"
      ]
    },
    {
      "id_qa": "autog_0249-2563_1981_num_14_5_T1_0100_0000_qa27_v3",
      "id_block": "block_1",
      "question": "Qu'est-ce qui a eu lieu ?",
      "answer": "maturation du mouvement",
      "answer_stringIds": [
        "string_23",
        "string_24",
        "string_25"
      ]
    },
    {
      "id_qa": "autog_0249-2563_1981_num_14_5_T1_0100_0000_qa33_v3",
      "id_block": "block_1",
      "question": "Qu'est ce qui a été accepté par les ouvriers ?",
      "answer": "un ordre",
      "answer_stringIds": [
        "string_32",
        "string_33"
      ]
    },
    {
      "id_qa": "autog_0249-2563_1981_num_14_5_T1_0100_0000_qa34_v3",
      "id_block": "block_1",
      "question": "Qui a géré les luttes ?",
      "answer": "les ouvriers",
      "answer_stringIds": [
        "string_36",
        "string_37"
      ]
    },
    {
      "id_qa": "autog_0249-2563_1981_num_14_5_T1_0100_0000_qa17_v3",
      "id_block": "block_2",
      "question": "A quelle assemblée le délégué d'une usine participe-t-il ?",
      "answer": "à une assemblée générale inter-entreprises",
      "answer_stringIds": [
        "string_95",
        "string_96",
        "string_97",
        "string_98",
        "string_99",
        "string_100"
      ]
    },
    {
      "id_qa": "autog_0249-2563_1981_num_14_5_T1_0100_0000_qa10_v3",
      "id_block": "block_3",
      "question": "Que s'est donné le mouvement par l'emploi du magnétophone ?",
      "answer": "des formes de lutte très démocratiques",
      "answer_stringIds": [
        "string_141",
        "string_142",
        "string_143",
        "string_144",
        "string_145",
        "string_146",
        "string_147"
      ]
    },
    {
      "id_qa": "autog_0249-2563_1981_num_14_5_T1_0100_0000_qa24_v3",
      "id_block": "block_4",
      "question": "Qui transformait chaque revendication économique en un acte politique ?",
      "answer": "Kuron",
      "answer_stringIds": [
        "string_240"
      ]
    },
    {
      "id_qa": "autog_0249-2563_1981_num_14_5_T1_0100_0000_qa26_v3",
      "id_block": "block_4",
      "question": "Qu'est ce qui transformait chaque revendication économique en un acte politique ?",
      "answer": "public",
      "answer_stringIds": [
        "string_268"
      ]
    },
    {
      "id_qa": "autog_0249-2563_1981_num_14_5_T1_0100_0000_qa5_v3",
      "id_block": "block_6",
      "question": "Qui ne risque-t-il pas d'occuper une place ?",
      "answer": "les « experts",
      "answer_stringIds": [
        "string_290",
        "string_291",
        "string_292"
      ]
    },
    {
      "id_qa": "autog_0249-2563_1981_num_14_5_T1_0100_0000_qa6_v3",
      "id_block": "block_6",
      "question": "Qu'est ce qui peut manquer de s'interroger sur ces deux sujets ?",
      "answer": "une réflexion",
      "answer_stringIds": [
        "string_304",
        "string_305"
      ]
    },
    {
      "id_qa": "autog_0249-2563_1981_num_14_5_T1_0100_0000_qa28_v3",
      "id_block": "block_6",
      "question": "Qu'est-ce qui a souvent été fait référence pour tous ces événements ?",
      "answer": "aux rôles",
      "answer_stringIds": [
        "string_284",
        "string_285"
      ]
    },
    {
      "id_qa": "autog_0249-2563_1981_num_14_5_T1_0100_0000_qa29_v3",
      "id_block": "block_6",
      "question": "Par qui sont attribués les rôles joués par l'Eglise ?",
      "answer": "les « experts",
      "answer_stringIds": [
        "string_290",
        "string_291",
        "string_292"
      ]
    }
  ]
}