{
  "num": "autog_0249-2563_1982_num_15_10",
  "article": "autog_0249-2563_1982_num_15_10_1499",
  "page_name": "autog_0249-2563_1982_num_15_10_T1_0077_0000",
  "questions": [
    {
      "id_qa": "autog_0249-2563_1982_num_15_10_T1_0077_0000_qa14_v3",
      "id_block": "block_0",
      "question": "Qu'est-ce que l'activité autonome des masses ?",
      "answer": "une quelconque « ferveur émeutière",
      "answer_stringIds": [
        "string_39",
        "string_40",
        "string_41",
        "string_42",
        "string_43"
      ]
    },
    {
      "id_qa": "autog_0249-2563_1982_num_15_10_T1_0077_0000_qa15_v3",
      "id_block": "block_0",
      "question": "Quelle est la conséquence de l'activité autonome des masses ?",
      "answer": "éveiller « à gauche » une quelconque « ferveur émeutière",
      "answer_stringIds": [
        "string_34",
        "string_35",
        "string_36",
        "string_37",
        "string_38",
        "string_39",
        "string_40",
        "string_41",
        "string_42",
        "string_43"
      ]
    },
    {
      "id_qa": "autog_0249-2563_1982_num_15_10_T1_0077_0000_qa17_v3",
      "id_block": "block_0",
      "question": "Que cherche-t-il à faire à droite ?",
      "answer": "son équilibre",
      "answer_stringIds": [
        "string_28",
        "string_29"
      ]
    },
    {
      "id_qa": "autog_0249-2563_1982_num_15_10_T1_0077_0000_qa18_v3",
      "id_block": "block_0",
      "question": "Qu'est ce qui a mécontent les classes ?",
      "answer": "le nouveau pouvoir",
      "answer_stringIds": [
        "string_1",
        "string_2",
        "string_3"
      ]
    },
    {
      "id_qa": "autog_0249-2563_1982_num_15_10_T1_0077_0000_qa1_v3",
      "id_block": "block_1",
      "question": "Qui s'adresse à la jeune social-démocratie allemande ?",
      "answer": "Eduard Bernstein",
      "answer_stringIds": [
        "string_134",
        "string_135"
      ]
    },
    {
      "id_qa": "autog_0249-2563_1982_num_15_10_T1_0077_0000_qa8_v3",
      "id_block": "block_1",
      "question": "Qui a sa légitimité ?",
      "answer": "ses défenseurs",
      "answer_stringIds": [
        "string_61",
        "string_62"
      ]
    },
    {
      "id_qa": "autog_0249-2563_1982_num_15_10_T1_0077_0000_qa11_v3",
      "id_block": "block_1",
      "question": "Quel mouvement a sa fonction ?",
      "answer": "Le réformisme",
      "answer_stringIds": [
        "string_45",
        "string_46"
      ]
    }
  ]
}