{
  "num": "autog_0338-7259_1979_num_43_1",
  "article": "autog_0338-7259_1979_num_43_1_1301",
  "page_name": "FMSH_PB188a_00043_095",
  "questions": [
    "Quels sont les diverses sollicitations qui affectent l'individu historiquement ?",
    "Pourquoi l'individu recherche le temps libre lorsque les besoins psychologiques sont satisfaits ?",
    "Qu'est-ce que la recherche de convivialité signifie dans le contexte de cette passage ?",
    "Qu'est-ce qui est à combattre selon le texte ?",
    "Pourquoi il n'est pas nécessaire de montrer des courbes pour illustrer la croissance de l'utilité conférée à la convivialité ?",
    "Qu'est-ce qui est à nouveau un objectif selon le texte ?",
    "Qu'est-ce qui est à éviter selon l'auteur ?",
    "Comment la nouvelle technologie basée sur l'informatique permet-elle de mettre en place une nouvelle organisation optimale ?",
    "Qu'est-ce que Henri Lepage propose au lieu des grands systèmes informatisés ?"
  ]
}