{
  "num": "autog_0338-7259_1979_num_43_1",
  "article": "autog_0338-7259_1979_num_43_1_1301",
  "page_name": "FMSH_PB188a_00043_101",
  "questions": [
    "Quels types de personnes formaient cette nombreuse masse, selon Thomas Mann ?",
    "En quoi l'informatique peut-elle apporter beaucoup à l'autogestion en France ?",
    "Quel est le statut actuel des problèmes du Pouvoir, de la propriété des moyens de production, des rapports de production dans le contexte de l'autogestion ?",
    "Comment la poudre aux yeux et la co-gestion peuvent-elles contribuer à une nouvelle phase d'accumulation capitaliste ?",
    "Quels sont les raisons pour lesquelles les multinationales deviennent spécialistes en informatique et en matériel pédagogique ?",
    "Comment Henri Lepage a-t-il trouvé la méthode pour simuler le fonctionnement des sociétés actuelles ?",
    "Quels groupes sont susceptibles de voir s'appliquer les théories de Maslow dans le contexte de l'autogestion ?",
    "Comment Lepage utilise-t-il les théories de Maslow pour modéliser la lutte des classes et séduire les élites bourgeoises ?",
    "Qu'est le nouveau produit que Lepage lance et comment cela permet de masquer les conséquences du projet et laisser dans l'ombre la question de l'aliénation ?"
  ]
}