{
  "num": "autog_0338-7259_1979_num_43_1",
  "article": "autog_0338-7259_1979_num_43_1_1301",
  "page_name": "FMSH_PB188a_00043_099",
  "questions": [
    "Quel est le rôle des décisions prises dans l'organisation de l'État et de la production dans la vie quotidienne ?",
    "Comment s'organisera le pouvoir et sa négociation dans les différents champs d'intervention des hommes dominants la nouvelle technique ?",
    "Quel est le problème posé par la hiérarchie existante et sa transformation, sa suppression ?",
    "Quel est le point de vue de Henri Lepage sur la division des classes ?",
    "Quel est le problème posé par la critique de la rupture socialiste selon Kolm ?",
    "Quel est le fonctionnement de l'autogestion yougoslave et comment il génère une nouvelle dictature ?",
    "Est-ce que la société yougoslave est réellement malthusienne ?",
    "Quels sont les résultats de la croissance annuelle depuis la guerre en Yougoslavie ?",
    "Quels sont les difficultés rencontrées en Yougoslavie et comment elles peuvent être abordées ?",
    "Quels sont les solutions techniques proposées pour aborder ces difficultés ?",
    "Quel est le rôle de l'automatisation dans la transformation de la quantité et de la qualité du travail socialement nécessaire ?",
    "Quel est le rôle de l'efficacité et de la convivialité dans la critique de la rupture socialiste ?",
    "Quels sont les rapports sociaux redéfinis par le stade actuel de développement des forces productives ?",
    "Quel est le rôle de la concurrence dans la transformation de la société yougoslave ?",
    "Quel est le capital financier détenu par la banque alimentée par les entreprises ?",
    "Comment la division du travail est-elle affectée par les limites des forces productives ?"
  ]
}