{
  "num": "autog_0338-7259_1971_num_16_1",
  "article": "autog_0338-7259_1971_num_16_1_1017",
  "page_name": "FMSH_PB188a_16-17_134",
  "questions": [
    {
      "id_qa": "FMSH_PB188a_16-17_134_qa7_v3",
      "id_block": "block_1",
      "question": "Quelle est la conséquence d'une réforme juridique unique qui nierait la vie et l'évolution ?",
      "answer": "la lutte ouvrière",
      "answer_stringIds": [
        "string_32",
        "string_33",
        "string_34"
      ]
    },
    {
      "id_qa": "FMSH_PB188a_16-17_134_qa11_v3",
      "id_block": "block_2",
      "question": "Qu'est ce qui peut se développer dès maintenant ?",
      "answer": "la compétence des travailleurs",
      "answer_stringIds": [
        "string_70",
        "string_71",
        "string_72",
        "string_73"
      ]
    },
    {
      "id_qa": "FMSH_PB188a_16-17_134_qa10_v3",
      "id_block": "block_3",
      "question": "Quelle classe sociale se situe dans le développement du pouvoir syndical ?",
      "answer": "la classe ouvrière",
      "answer_stringIds": [
        "string_142",
        "string_143",
        "string_144"
      ]
    },
    {
      "id_qa": "FMSH_PB188a_16-17_134_qa15_v3",
      "id_block": "block_4",
      "question": "Qu'est-ce qui peut avoir une signification de transformation sociale ?",
      "answer": "certaines propositions juridiques",
      "answer_stringIds": [
        "string_216",
        "string_217",
        "string_218"
      ]
    },
    {
      "id_qa": "FMSH_PB188a_16-17_134_qa16_v3",
      "id_block": "block_4",
      "question": "Quelle est la signification des propositions d'élargissement des pouvoirs des travailleurs ?",
      "answer": "une signification de transformation sociale",
      "answer_stringIds": [
        "string_222",
        "string_223",
        "string_224",
        "string_225",
        "string_226"
      ]
    },
    {
      "id_qa": "FMSH_PB188a_16-17_134_qa1_v3",
      "id_block": "block_5",
      "question": "Qu'est ce qui se limiterait à l'entreprise ?",
      "answer": "une réforme",
      "answer_stringIds": [
        "string_19",
        "string_20"
      ]
    },
    {
      "id_qa": "FMSH_PB188a_16-17_134_qa3_v3",
      "id_block": "block_5",
      "question": "A quoi se limiterait la réforme ?",
      "answer": "entreprise",
      "answer_stringIds": [
        "string_112"
      ]
    },
    {
      "id_qa": "FMSH_PB188a_16-17_134_qa9_v3",
      "id_block": "block_6",
      "question": "Qui sont les partisans de la gestion par objectifs ?",
      "answer": "les réformistes patronaux",
      "answer_stringIds": [
        "string_282",
        "string_283",
        "string_284"
      ]
    }
  ]
}