{
  "num": "autog_0338-7259_1971_num_16_1",
  "article": "autog_0338-7259_1971_num_16_1_1017",
  "page_name": "FMSH_PB188a_16-17_137",
  "questions": [
    {
      "id_qa": "FMSH_PB188a_16-17_137_qa0_v3",
      "id_block": "block_1",
      "question": "Dans quel type d'entreprise doit-on trouver les postes de 50 salariés au moins ?",
      "answer": "les entreprises",
      "answer_stringIds": [
        "string_23",
        "string_24"
      ]
    },
    {
      "id_qa": "FMSH_PB188a_16-17_137_qa2_v3",
      "id_block": "block_1",
      "question": "Dans quelle entreprise doit-on considérer qu'ils doivent exister obligatoirement ?",
      "answer": "dans les entreprises occupant 50 salariés",
      "answer_stringIds": [
        "string_22",
        "string_23",
        "string_24",
        "string_25",
        "string_26",
        "string_27"
      ]
    },
    {
      "id_qa": "FMSH_PB188a_16-17_137_qa3_v3",
      "id_block": "block_1",
      "question": "Quelle est la taille minimum d'une entreprise ?",
      "answer": "50 salariés au moins",
      "answer_stringIds": [
        "string_26",
        "string_27",
        "string_28",
        "string_29"
      ]
    },
    {
      "id_qa": "FMSH_PB188a_16-17_137_qa9_v3",
      "id_block": "block_1",
      "question": "Où sont élus les représentants des travailleurs ?",
      "answer": "dans les entreprises",
      "answer_stringIds": [
        "string_22",
        "string_23",
        "string_24"
      ]
    },
    {
      "id_qa": "FMSH_PB188a_16-17_137_qa10_v3",
      "id_block": "block_3",
      "question": "Qu'est-ce qui fait exception à cette règle ?",
      "answer": "la gestion des œuvres sociales",
      "answer_stringIds": [
        "string_144",
        "string_145",
        "string_146",
        "string_147",
        "string_148"
      ]
    },
    {
      "id_qa": "FMSH_PB188a_16-17_137_qa12_v3",
      "id_block": "block_4",
      "question": "Qu'est ce qui a conduit au développement industriel ?",
      "answer": "la mise en place de structures financières très complexes",
      "answer_stringIds": [
        "string_192",
        "string_193",
        "string_194",
        "string_195",
        "string_196",
        "string_197",
        "string_198",
        "string_199",
        "string_200"
      ]
    },
    {
      "id_qa": "FMSH_PB188a_16-17_137_qa14_v3",
      "id_block": "block_4",
      "question": "Qu'est ce qui a conduit à la mise en place de structures financières très complexes ?",
      "answer": "le développement industriel",
      "answer_stringIds": [
        "string_186",
        "string_187",
        "string_188"
      ]
    },
    {
      "id_qa": "FMSH_PB188a_16-17_137_qa15_v3",
      "id_block": "block_4",
      "question": "Quel est le métier des trusts ou des holdings ?",
      "answer": "Les centres de décisions",
      "answer_stringIds": [
        "string_201",
        "string_202",
        "string_203",
        "string_204"
      ]
    }
  ]
}