{
  "num": "autog_0249-2563_1984_num_17_15",
  "article": "autog_0249-2563_1984_num_17_15_1585_t1_0123_0000_5",
  "page_name": "autog_0249-2563_1984_num_17_15_T1_0124_0000",
  "questions": [
    "Quels enjeux et avantages sont-ils abordés dans le tiers-secteur marchand selon B.E. ?",
    "Quel est le rôle des relations entre le tiers-secteur marchand et le développement local selon B.E. ?",
    "Qu'est-ce que l'Annuaire d'Éducation Alternative et quels types d'enseignements y figurent-ils ?",
    "Dans quels pays est-ce que l'ouvrage est publié ?",
    "Quel est le contenu de l'ouvrage et quels sujets sont abordés ?",
    "Qu'est-ce que l'Économie sociale et comment est-elle représentée dans le document ?",
    "Qu'est-ce que le film vidéo « L'Économie sociale aujourd'hui » et quels sont ses objectifs ?",
    "Quels sont les enjeux des réseaux de communication selon l'étude de la Fondation pour la recherche sociale ?"
  ]
}