{
  "num": "autog_0338-7259_1970_num_13_1",
  "article": "autog_0338-7259_1970_num_13_1_1793",
  "page_name": "FMSH_PB188a_13-14_245",
  "questions": [
    {
      "id_qa": "FMSH_PB188a_13-14_245_qa6_v3",
      "id_block": "block_2",
      "question": "Quelle est l'idéologie de l'autogestion ?",
      "answer": "le petit groupe",
      "answer_stringIds": [
        "string_73",
        "string_74",
        "string_75"
      ]
    },
    {
      "id_qa": "FMSH_PB188a_13-14_245_qa14_v3",
      "id_block": "block_2",
      "question": "Quel est le rôle de l'autogestion dans la constitution d'un groupe ?",
      "answer": "le rôle de la « personnalité",
      "answer_stringIds": [
        "string_86",
        "string_87",
        "string_88",
        "string_89",
        "string_90",
        "string_91",
        "string_92"
      ]
    },
    {
      "id_qa": "FMSH_PB188a_13-14_245_qa2_v3",
      "id_block": "block_5",
      "question": "Qu'est-ce qui vient clore l'analyse institutionnelle ?",
      "answer": "ces notes provisoires de travail",
      "answer_stringIds": [
        "string_194",
        "string_195",
        "string_196",
        "string_197",
        "string_198"
      ]
    },
    {
      "id_qa": "FMSH_PB188a_13-14_245_qa25_v3",
      "id_block": "block_6",
      "question": "Sur quoi s'appuie l'action institutionnelle ?",
      "answer": "des différentes idéologies pédagogistes",
      "answer_stringIds": [
        "string_232",
        "string_233",
        "string_234",
        "string_235",
        "string_236"
      ]
    }
  ]
}