{
  "num": "autog_0249-2563_1982_num_15_8",
  "article": "autog_0249-2563_1982_num_15_8_1476",
  "page_name": "autog_0249-2563_1982_num_15_8_T1_0106_0000",
  "questions": [
    {
      "id_qa": "autog_0249-2563_1982_num_15_8_T1_0106_0000_qa6_v3",
      "id_block": "block_1",
      "question": "Qu'est ce qui peut se transformer en chemins ?",
      "answer": "des sentiers",
      "answer_stringIds": [
        "string_182",
        "string_183"
      ]
    },
    {
      "id_qa": "autog_0249-2563_1982_num_15_8_T1_0106_0000_qa10_v3",
      "id_block": "block_1",
      "question": "Qu'est ce qui permet de se fraie un chemin à travers les ronces ?",
      "answer": "un instrument",
      "answer_stringIds": [
        "string_197",
        "string_198"
      ]
    },
    {
      "id_qa": "autog_0249-2563_1982_num_15_8_T1_0106_0000_qa12_v3",
      "id_block": "block_1",
      "question": "Qu'est-ce qui s'égratigne les mains ?",
      "answer": "ses vêtements",
      "answer_stringIds": [
        "string_224",
        "string_225"
      ]
    },
    {
      "id_qa": "autog_0249-2563_1982_num_15_8_T1_0106_0000_qa15_v3",
      "id_block": "block_1",
      "question": "Que se passe-t-il lorsqu'on arrache ses vêtements ?",
      "answer": "les mains",
      "answer_stringIds": [
        "string_229",
        "string_230"
      ]
    },
    {
      "id_qa": "autog_0249-2563_1982_num_15_8_T1_0106_0000_qa17_v3",
      "id_block": "block_1",
      "question": "Qui peut y voir une amorce de solution à leurs problèmes ?",
      "answer": "les hommes politiques",
      "answer_stringIds": [
        "string_99",
        "string_100",
        "string_101"
      ]
    },
    {
      "id_qa": "autog_0249-2563_1982_num_15_8_T1_0106_0000_qa20_v3",
      "id_block": "block_1",
      "question": "Qu'est ce qui intéresse les hommes politiques ?",
      "answer": "une amorce de solution à leurs problèmes",
      "answer_stringIds": [
        "string_105",
        "string_106",
        "string_107",
        "string_108",
        "string_109",
        "string_110",
        "string_111"
      ]
    },
    {
      "id_qa": "autog_0249-2563_1982_num_15_8_T1_0106_0000_qa21_v3",
      "id_block": "block_1",
      "question": "Qu'est-ce qui permet de rendre un oui visible à travers le non ?",
      "answer": "des jalons",
      "answer_stringIds": [
        "string_74",
        "string_75"
      ]
    },
    {
      "id_qa": "autog_0249-2563_1982_num_15_8_T1_0106_0000_qa22_v3",
      "id_block": "block_1",
      "question": "Qu'est ce qui permet de rendre un oui visible à travers le non ?",
      "answer": "des jalons qui peuvent proliférer et qui soient transposables",
      "answer_stringIds": [
        "string_74",
        "string_75",
        "string_76",
        "string_77",
        "string_78",
        "string_79",
        "string_80",
        "string_81",
        "string_82",
        "string_83"
      ]
    },
    {
      "id_qa": "autog_0249-2563_1982_num_15_8_T1_0106_0000_qa27_v3",
      "id_block": "block_1",
      "question": "Qu'est-ce que la seconde attitude ?",
      "answer": "un oui visible",
      "answer_stringIds": [
        "string_65",
        "string_66",
        "string_67"
      ]
    },
    {
      "id_qa": "autog_0249-2563_1982_num_15_8_T1_0106_0000_qa28_v3",
      "id_block": "block_1",
      "question": "Qu'est ce qui passe d'abord à travers des buissons pleins de ronces ?",
      "answer": "des sentiers",
      "answer_stringIds": [
        "string_182",
        "string_183"
      ]
    },
    {
      "id_qa": "autog_0249-2563_1982_num_15_8_T1_0106_0000_qa30_v3",
      "id_block": "block_1",
      "question": "Quels personnages sont évoqués dans les scénarios de Michal Grupp ?",
      "answer": "Ceux",
      "answer_stringIds": [
        "string_84"
      ]
    },
    {
      "id_qa": "autog_0249-2563_1982_num_15_8_T1_0106_0000_qa0_v3",
      "id_block": "block_3",
      "question": "Qu'est ce qui comporte un ouf ?",
      "answer": "un non",
      "answer_stringIds": [
        "string_348",
        "string_349"
      ]
    },
    {
      "id_qa": "autog_0249-2563_1982_num_15_8_T1_0106_0000_qa3_v3",
      "id_block": "block_3",
      "question": "Qu'est ce qui comporte un non ?",
      "answer": "un ouf",
      "answer_stringIds": [
        "string_352",
        "string_353"
      ]
    },
    {
      "id_qa": "autog_0249-2563_1982_num_15_8_T1_0106_0000_qa33_v3",
      "id_block": "block_3",
      "question": "Qu'est ce qui ne doit pas nécessairement être une alternative à la culture ?",
      "answer": "Les expériences alternatives",
      "answer_stringIds": [
        "string_1",
        "string_2",
        "string_3"
      ]
    }
  ]
}