{
  "num": "autog_0338-7259_1976_num_33_1",
  "article": "autog_0338-7259_1976_num_33_1_1154",
  "page_name": "FMSH_PB188a_33-34_037",
  "questions": [
    "Quel est le point de départ des commissions de \"moradores\" ?",
    "Quelle est la revendication concrète et localisée des commissions de \"moradores\" ?",
    "Combien de Portugais ne disposent-ils pas d'un logement \"correct\" ?",
    "En quelles conditions vivent les Portugais qui n'ont pas un logement \"correct\" à Porto ?",
    "Quels sont les trois visages principaux du problème du logement à Porto ?",
    "Comment les logements ouvriers de la révolution industrielle du 19ème siècle sont-ils liés au problème du logement à Porto ?",
    "Quels sont les vieux quartiers du centre-ville de Porto où la surpopulation et la surexploitation sont présentes ?",
    "Quels sont les ghettos périphériques construits pendant le fascisme et comment sont-ils liés au problème du logement à Porto ?"
  ]
}