{
  "num": "autog_0338-7259_1976_num_33_1",
  "article": "autog_0338-7259_1976_num_33_1_1154",
  "page_name": "FMSH_PB188a_33-34_041",
  "questions": [
    "Quel est le rôle des commissions dans l'occupation de logements vides ?",
    "Combien de commissions existent-il au total et où sont-elles situées ?",
    "Quel est le record de surpopulation dans une commission ?",
    "Comment est modifiée la situation lorsque la direction fasciste est remplacée par une commission administrative ?",
    "Quels autres points figurent dans le cahier de revendications des commissions ?",
    "Quel est le statut actuel de la prise en charge de l'entretien des bâtiments par la municipalité ?",
    "Quels sont les progrès réalisés en matière de construction de nouveaux logements ?",
    "Quels sont les efforts conjugués des commissions des quartiers municipaux et de celles formées à l'intérieur de la ville ?",
    "Quel est le rôle des militaires progressistes du M.F.A. dans le changement de la mairie ?",
    "Comment les commissions de moradores prennent-elles en main l'organisation de la vie dans leur quartier ?",
    "Quel est le rôle du cabinet particulier des délégués des commissions de moradores ?",
    "Quel est le problème important posé en matière de transports dans les zones mal desservies ?",
    "Comment les populations de ces zones ressentent-elles l'isolement et le rejet ?"
  ]
}