{
  "num": "autog_0338-7259_1976_num_33_1",
  "article": "autog_0338-7259_1976_num_33_1_1154",
  "page_name": "FMSH_PB188a_33-34_049",
  "questions": [
    "Quels sont les médecins utilisés pour développer localement des centres d'assistance médicale ?",
    "Dans quels quartiers ont déjà été organisées des réunions de discussions sur ces thèmes ?",
    "Quel est le but à long terme du projet en matière de participation des délégués des commissions de moradores et des autres organisations populaires de base ?",
    "Quels sont les bénéficiaires visés pour obtenir l'expropriation des cliniques privées et la réorganisation du système de sécurité sociale ?",
    "Quel est le statut des crèches populaires créées depuis le 25 Avril 1974 ?",
    "Quel était le nombre d'établissements de crèches municipales avant le 25 Avril 1974 ?",
    "Quel est le financement actuel des crèches fonctionnant régulièrement ?",
    "Dans quel quartier ont été récupérés les locaux d'un ancien centre social lié aux syndicats fascistes ?",
    "Quel est le rôle des élèves d'une école d'éducatrices dans l'aménagement des crèches en cours d'élaboration ?"
  ]
}