{
  "num": "autog_0249-2563_1983_num_16_14",
  "article": "autog_0249-2563_1983_num_16_14_1565",
  "page_name": "autog_0249-2563_1983_num_16_14_T1_0104_0000",
  "questions": [
    {
      "id_qa": "autog_0249-2563_1983_num_16_14_T1_0104_0000_qa29_v3",
      "id_block": "block_0",
      "question": "Qui est parti à 19h ?",
      "answer": "Daniel",
      "answer_stringIds": [
        "string_2"
      ]
    },
    {
      "id_qa": "autog_0249-2563_1983_num_16_14_T1_0104_0000_qa30_v3",
      "id_block": "block_0",
      "question": "Quel est le métier de Daniel ?",
      "answer": "des commissions",
      "answer_stringIds": [
        "string_4",
        "string_5"
      ]
    },
    {
      "id_qa": "autog_0249-2563_1983_num_16_14_T1_0104_0000_qa41_v3",
      "id_block": "block_0",
      "question": "Où peut-on se rendre sans lui ?",
      "answer": "à la radio",
      "answer_stringIds": [
        "string_16",
        "string_17",
        "string_18"
      ]
    },
    {
      "id_qa": "autog_0249-2563_1983_num_16_14_T1_0104_0000_qa32_v3",
      "id_block": "block_1",
      "question": "Qu'est ce que les élèves du lycée autogéré commencent à raconter ?",
      "answer": "leur vécu « alternatif",
      "answer_stringIds": [
        "string_58",
        "string_59",
        "string_60",
        "string_61"
      ]
    },
    {
      "id_qa": "autog_0249-2563_1983_num_16_14_T1_0104_0000_qa33_v3",
      "id_block": "block_1",
      "question": "Qui se met à table pour raconter leur vécu alternatif ?",
      "answer": "les élèves",
      "answer_stringIds": [
        "string_45",
        "string_46"
      ]
    },
    {
      "id_qa": "autog_0249-2563_1983_num_16_14_T1_0104_0000_qa34_v3",
      "id_block": "block_1",
      "question": "Qui se mettent à table et commencent à raconter leur vécu alternatif ?",
      "answer": "les élèves du lycée autogéré",
      "answer_stringIds": [
        "string_45",
        "string_46",
        "string_47",
        "string_48",
        "string_49"
      ]
    },
    {
      "id_qa": "autog_0249-2563_1983_num_16_14_T1_0104_0000_qa35_v3",
      "id_block": "block_1",
      "question": "Que commencent les élèves du lycée autogéré ?",
      "answer": "à raconter leur vécu « alternatif",
      "answer_stringIds": [
        "string_56",
        "string_57",
        "string_58",
        "string_59",
        "string_60",
        "string_61"
      ]
    },
    {
      "id_qa": "autog_0249-2563_1983_num_16_14_T1_0104_0000_qa36_v3",
      "id_block": "block_1",
      "question": "Qui se mettent à table et racontent leur vécu alternatif ?",
      "answer": "les élèves du lycée autogéré",
      "answer_stringIds": [
        "string_45",
        "string_46",
        "string_47",
        "string_48",
        "string_49"
      ]
    },
    {
      "id_qa": "autog_0249-2563_1983_num_16_14_T1_0104_0000_qa37_v3",
      "id_block": "block_1",
      "question": "Qui commence à raconter leur vécu alternatif ?",
      "answer": "les élèves du lycée autogéré",
      "answer_stringIds": [
        "string_45",
        "string_46",
        "string_47",
        "string_48",
        "string_49"
      ]
    },
    {
      "id_qa": "autog_0249-2563_1983_num_16_14_T1_0104_0000_qa0_v3",
      "id_block": "block_11",
      "question": "Combien y a-t-il de figurants ?",
      "answer": "beaucoup",
      "answer_stringIds": [
        "string_354"
      ]
    },
    {
      "id_qa": "autog_0249-2563_1983_num_16_14_T1_0104_0000_qa2_v3",
      "id_block": "block_11",
      "question": "Qu'est ce qui monopolisent les stars ?",
      "answer": "la scène",
      "answer_stringIds": [
        "string_374",
        "string_375"
      ]
    },
    {
      "id_qa": "autog_0249-2563_1983_num_16_14_T1_0104_0000_qa25_v3",
      "id_block": "block_11",
      "question": "De quoi parle Emmanuel dans le texte ?",
      "answer": "figurants",
      "answer_stringIds": [
        "string_349"
      ]
    },
    {
      "id_qa": "autog_0249-2563_1983_num_16_14_T1_0104_0000_qa27_v3",
      "id_block": "block_11",
      "question": "Qu'est ce qui devrait être un spectacle ?",
      "answer": "Ça",
      "answer_stringIds": [
        "string_337"
      ]
    },
    {
      "id_qa": "autog_0249-2563_1983_num_16_14_T1_0104_0000_qa42_v3",
      "id_block": "block_13",
      "question": "Quel est le métier de Michèle ?",
      "answer": "un metteur en scène",
      "answer_stringIds": [
        "string_405",
        "string_406",
        "string_407",
        "string_408"
      ]
    },
    {
      "id_qa": "autog_0249-2563_1983_num_16_14_T1_0104_0000_qa43_v3",
      "id_block": "block_2",
      "question": "Qu'est ce que je vous ai apporté ?",
      "answer": "des « bubons",
      "answer_stringIds": [
        "string_67",
        "string_68",
        "string_69"
      ]
    },
    {
      "id_qa": "autog_0249-2563_1983_num_16_14_T1_0104_0000_qa12_v3",
      "id_block": "block_3",
      "question": "Qui a réalisé le Bubon ?",
      "answer": "par les élèves",
      "answer_stringIds": [
        "string_82",
        "string_83",
        "string_84"
      ]
    },
    {
      "id_qa": "autog_0249-2563_1983_num_16_14_T1_0104_0000_qa13_v3",
      "id_block": "block_3",
      "question": "Quel est le journal de poche de Irène ?",
      "answer": "Le Bubon",
      "answer_stringIds": [
        "string_73",
        "string_74"
      ]
    },
    {
      "id_qa": "autog_0249-2563_1983_num_16_14_T1_0104_0000_qa6_v3",
      "id_block": "block_4",
      "question": "Quand a eu lieu la première représentation de cette pièce ?",
      "answer": "depuis septembre 82",
      "answer_stringIds": [
        "string_110",
        "string_111",
        "string_112"
      ]
    },
    {
      "id_qa": "autog_0249-2563_1983_num_16_14_T1_0104_0000_qa22_v3",
      "id_block": "block_6",
      "question": "Où est-ce que j'ai fait ça ?",
      "answer": "les pages dans mon journal",
      "answer_stringIds": [
        "string_190",
        "string_191",
        "string_192",
        "string_193",
        "string_194"
      ]
    },
    {
      "id_qa": "autog_0249-2563_1983_num_16_14_T1_0104_0000_qa24_v3",
      "id_block": "block_6",
      "question": "Qu'est-ce que j'ai voulu faire ?",
      "answer": "le mien",
      "answer_stringIds": [
        "string_209",
        "string_210"
      ]
    },
    {
      "id_qa": "autog_0249-2563_1983_num_16_14_T1_0104_0000_qa40_v3",
      "id_block": "block_6",
      "question": "De quoi Emmanuel parle-t-il ?",
      "answer": "déception",
      "answer_stringIds": [
        "string_108"
      ]
    },
    {
      "id_qa": "autog_0249-2563_1983_num_16_14_T1_0104_0000_qa28_v3",
      "id_block": "block_8",
      "question": "Quand est-ce que Emmanuel a préparé une A.G ?",
      "answer": "depuis septembre 82",
      "answer_stringIds": [
        "string_110",
        "string_111",
        "string_112"
      ]
    },
    {
      "id_qa": "autog_0249-2563_1983_num_16_14_T1_0104_0000_qa16_v3",
      "id_block": "block_9",
      "question": "Que n'a pas fait Emmanuel ?",
      "answer": "grand-chose",
      "answer_stringIds": [
        "string_311"
      ]
    }
  ]
}