{
  "num": "autog_0005-0970_1967_num_2_1",
  "article": "autog_0005-0970_1967_num_2_1_902",
  "page_name": "FMSH_PB188a_00002_099",
  "questions": [
    "Quel changement profond l'autogestion ouvrière yougoslave apporte dans l'organisation de l'économie ?",
    "Comment les entreprises yougoslaves sont-elles organisées selon le principe de l'autogestion ouvrière ?",
    "Quels sont les liens entre les diverses organisations de travail et le plan général de développement social et économique yougoslave ?",
    "Comment sont élus les membres des conseils ouvriers et comment sont formés les comités de gestion ?",
    "Quels sont les responsabilités des directeurs des entreprises dans le système de l'autogestion ouvrière ?",
    "Comment l'autogestion ouvrière s'exerce-t-elle au-delà des entreprises ?",
    "Quels sont les organes politiques correspondants aux Chambres politiques générales dans chaque unité politique territoriale ?"
  ]
}