{
  "num": "autog_0005-0970_1967_num_2_1",
  "article": "autog_0005-0970_1967_num_2_1_902",
  "page_name": "FMSH_PB188a_00002_103",
  "questions": [
    "Quel est le lien entre l'intensité d'intérêt des membres des organes d'autogestion et la technologie des entreprises ?",
    "Comment l'automatisation des processus de production affecte-t-elle l'intensité d'intérêt des membres des organes d'autogestion ?",
    "Quels sont les facteurs expliquant la différence dans les degrés d'intérêt pour les organes d'autogestion entre entreprises à technologie moderne et ancienne ?",
    "En quelle mesure ont les rapports entre chefs d'équipes et ouvriers amélioré après l'autogestion ouvrière ?",
    "Existe-t-il des tensions entre chefs d'équipes et ouvriers dans les entreprises industrielles ?",
    "Comment les réponses des ouvriers à la question posée dans l'enquête sociologique peuvent-elles être interprétées ?",
    "Quel est le rôle de l'intérêt des ouvriers pour la gestion des entreprises dans l'intégration des effectifs ?",
    "En quoi la Yougoslavie est-elle unique dans le contexte de l'autogestion ouvrière ?",
    "Quels sont les autres secteurs économiques où l'on observe des tensions entre direction et travailleurs ?",
    "Quels sont les enjeux de l'autogestion ouvrière ?",
    "Quels sont les défis de l'autogestion ouvrière ?",
    "Quels sont les résultats des enquêtes récentes sur l'autogestion ouvrière ?",
    "Quels sont les matériaux recueillis dans ces enquêtes et quels sont leurs limites ?",
    "Quels sont les facteurs généraux de l'économie yougoslave qui influencent l'autogestion ouvrière ?",
    "Quel est le statut actuel de l'autogestion ouvrière en Yougoslavie ?",
    "Quels sont les perspectives de l'?"
  ]
}