{
  "num": "autog_0249-2563_1982_num_15_8",
  "article": "autog_0249-2563_1982_num_15_8_1481",
  "page_name": "autog_0249-2563_1982_num_15_8_T1_0149_0000",
  "questions": [
    "Quel est le destin prévisionnel de la nation décrite dans le texte ?",
    "Quels sont les différents projets alternatifs mentionnés et comment sont-ils en difficulté ?",
    "Comment les actions des squatters reflètent-elles l'évolution de la situation ?",
    "Quels sont les objectifs des squatters en occupant des immeubles ?",
    "Quels sont les sentiments des occupants d'immeubles envers les éco-utopies ?",
    "Quel est la nouvelle génération mentionnée et comment elle diffère des plus anciens occupants ?",
    "Comment se définissent les Mäslis et les Mollis dans le contexte du mouvement alternatif ?",
    "Quels sont les groupes qui récoltent des succès à la suite des actions des squatters ?",
    "Comment les positions des partisans de l'utopie et ceux de « no future » sont-elles réconciliables ?",
    "Pourquoi les occupations d'immeubles et le nouveau mouvement pacifiste sont-ils maintenant sur le devant de la scène ?"
  ]
}