{
  "num": "autog_0249-2563_1982_num_15_8",
  "article": "autog_0249-2563_1982_num_15_8_1481",
  "page_name": "autog_0249-2563_1982_num_15_8_T1_0150_0000",
  "questions": [
    "Quels sont les limites internes du mouvement alternatif ?",
    "Comment le manque chronique de moyens financiers affecte le mouvement alternatif ?",
    "Quels sont les conséquences de la surcharge de travail dans le mouvement alternatif ?",
    "Pourquoi le mouvement alternatif manque-t-il de gens qualifiés ?",
    "Quels sont les problèmes posés par la répartition et l'organisation des tâches dans le mouvement alternatif ?",
    "Comment la situation de stress permanente affecte le mouvement alternatif ?",
    "Quels sont les nouvelles options proposées aux personnes impliquées dans le mouvement alternatif ?",
    "Quels sont les nouveaux entrepreneurs et comment se déroule leur montée ?",
    "Comment le secteur de prestations de services socioculturels se met-il en place ?",
    "Quels groupes sont exclus du circuit économique ?",
    "Comment le travail autonome est-il perçu et comment il implique la production de marchandises et de services ?",
    "Quelles valeurs alternatives sont intégrées partiellement ?",
    "Comment les structures politiques traditionnelles sont-elles transformées ?"
  ]
}