{
  "num": "autog_0338-7259_1975_num_30_1",
  "article": "autog_0338-7259_1975_num_30_1_1127",
  "page_name": "FMSH_PB188a_30-31_111",
  "questions": [
    {
      "id_qa": "FMSH_PB188a_30-31_111_qa0_v3",
      "id_block": "block_4",
      "question": "A qui la liberté d'opinion, d'expression et d'organisation sera-elle garantie ?",
      "answer": "tous les salariés",
      "answer_stringIds": [
        "string_42",
        "string_43",
        "string_44"
      ]
    },
    {
      "id_qa": "FMSH_PB188a_30-31_111_qa2_v3",
      "id_block": "block_7",
      "question": "Que signifie l'expression \"élus\" ?",
      "answer": "les travailleurs et leurs représentants",
      "answer_stringIds": [
        "string_299",
        "string_300",
        "string_301",
        "string_302",
        "string_303"
      ]
    },
    {
      "id_qa": "FMSH_PB188a_30-31_111_qa3_v3",
      "id_block": "block_7",
      "question": "A qui appartient la faculté d'intervenir directement dans les décisions ?",
      "answer": "aux travailleurs",
      "answer_stringIds": [
        "string_245",
        "string_246"
      ]
    },
    {
      "id_qa": "FMSH_PB188a_30-31_111_qa6_v3",
      "id_block": "block_7",
      "question": "Dans quoi les travailleurs peuvent-ils intervenir ?",
      "answer": "dans les décisions",
      "answer_stringIds": [
        "string_252",
        "string_253",
        "string_254"
      ]
    },
    {
      "id_qa": "FMSH_PB188a_30-31_111_qa8_v3",
      "id_block": "block_7",
      "question": "A quoi correspond l'expression \"intervenir directement dans les décisions\" ?",
      "answer": "au centralisme démocratique",
      "answer_stringIds": [
        "string_272",
        "string_273",
        "string_274"
      ]
    },
    {
      "id_qa": "FMSH_PB188a_30-31_111_qa11_v3",
      "id_block": "block_7",
      "question": "A quel moment l'autogestion est-elle affirmée comme objectif commun ?",
      "answer": "à la fin du texte",
      "answer_stringIds": [
        "string_190",
        "string_191",
        "string_192",
        "string_193",
        "string_194"
      ]
    }
  ]
}