{
  "num": "autog_0005-0970_1968_num_5_1",
  "article": "autog_0005-0970_1968_num_5_1_923",
  "page_name": "FMSH_PB188a_05-06_117",
  "questions": [
    {
      "id_qa": "FMSH_PB188a_05-06_117_qa10_v3",
      "id_block": "block_1",
      "question": "Qu'est-ce que le matérialisme vulgaire ?",
      "answer": "des hommes de simples jouets amorphes du processus historique",
      "answer_stringIds": [
        "string_231",
        "string_232",
        "string_233",
        "string_234",
        "string_235",
        "string_236",
        "string_237",
        "string_238",
        "string_239"
      ]
    },
    {
      "id_qa": "FMSH_PB188a_05-06_117_qa11_v3",
      "id_block": "block_1",
      "question": "Que forme la doctrine de Marx ?",
      "answer": "un tout et",
      "answer_stringIds": [
        "string_206",
        "string_207",
        "string_208"
      ]
    },
    {
      "id_qa": "FMSH_PB188a_05-06_117_qa12_v3",
      "id_block": "block_1",
      "question": "Qu'est-ce que la vapeur, électricité et machine à tisser selon Marx ?",
      "answer": "un caractère autrement dangereux",
      "answer_stringIds": [
        "string_84",
        "string_85",
        "string_86",
        "string_87"
      ]
    },
    {
      "id_qa": "FMSH_PB188a_05-06_117_qa14_v3",
      "id_block": "block_1",
      "question": "Qu'est-ce qui est dangereux selon Marx ?",
      "answer": "électricité et machine",
      "answer_stringIds": [
        "string_78",
        "string_79",
        "string_80"
      ]
    },
    {
      "id_qa": "FMSH_PB188a_05-06_117_qa15_v3",
      "id_block": "block_1",
      "question": "Quand Marx a-t-il écrit son Speech at the Anniversary of the People's Paper ?",
      "answer": "le 19 avril 1856",
      "answer_stringIds": [
        "string_41",
        "string_42",
        "string_43",
        "string_44"
      ]
    },
    {
      "id_qa": "FMSH_PB188a_05-06_117_qa16_v3",
      "id_block": "block_1",
      "question": "Qu'est ce qui a été provoqué par l'action de soi-disant meneurs ?",
      "answer": "les révolutions",
      "answer_stringIds": [
        "string_49",
        "string_50"
      ]
    },
    {
      "id_qa": "FMSH_PB188a_05-06_117_qa26_v3",
      "id_block": "block_1",
      "question": "Qu'est-ce qui a été entrepris par quelques révolutionnaires professionnels ?",
      "answer": "de la révolution",
      "answer_stringIds": [
        "string_11",
        "string_12",
        "string_13"
      ]
    },
    {
      "id_qa": "FMSH_PB188a_05-06_117_qa27_v3",
      "id_block": "block_1",
      "question": "A qui Lénine s'oppose-t-il ?",
      "answer": "à Bernstein",
      "answer_stringIds": [
        "string_134",
        "string_135"
      ]
    },
    {
      "id_qa": "FMSH_PB188a_05-06_117_qa29_v3",
      "id_block": "block_1",
      "question": "Qui est opposé à Bernstein ?",
      "answer": "Lénine",
      "answer_stringIds": [
        "string_173"
      ]
    },
    {
      "id_qa": "FMSH_PB188a_05-06_117_qa31_v3",
      "id_block": "block_1",
      "question": "Quel est le fondement scientifique de Que faire ?",
      "answer": "au socialisme",
      "answer_stringIds": [
        "string_151",
        "string_152"
      ]
    },
    {
      "id_qa": "FMSH_PB188a_05-06_117_qa35_v3",
      "id_block": "block_1",
      "question": "Qui pense que le prolétariat est incorrigiblement ?",
      "answer": "Lénine",
      "answer_stringIds": [
        "string_173"
      ]
    },
    {
      "id_qa": "FMSH_PB188a_05-06_117_qa43_v3",
      "id_block": "block_1",
      "question": "Qu'est ce qui suscitait les sarcasmes de Marx ?",
      "answer": "Une telle conception blanquiste",
      "answer_stringIds": [
        "string_21",
        "string_22",
        "string_23",
        "string_24"
      ]
    },
    {
      "id_qa": "FMSH_PB188a_05-06_117_qa19_v3",
      "id_block": "block_2",
      "question": "Qu'est-ce que les fessionnels de Lénine ?",
      "answer": "comment ils peuvent même exister",
      "answer_stringIds": [
        "string_259",
        "string_260",
        "string_261",
        "string_262",
        "string_263"
      ]
    },
    {
      "id_qa": "FMSH_PB188a_05-06_117_qa4_v3",
      "id_block": "block_3",
      "question": "Qui a écrit la théorie de l'apolitisme du syndicat ?",
      "answer": "Lénine",
      "answer_stringIds": [
        "string_173"
      ]
    },
    {
      "id_qa": "FMSH_PB188a_05-06_117_qa5_v3",
      "id_block": "block_3",
      "question": "Qui a toujours été intéressé par la lutte politique ?",
      "answer": "le prolétariat",
      "answer_stringIds": [
        "string_339",
        "string_340"
      ]
    },
    {
      "id_qa": "FMSH_PB188a_05-06_117_qa20_v3",
      "id_block": "block_3",
      "question": "Qu'est-ce que le mouvement syndical apolitique ?",
      "answer": "des améliorations matérielles de vie",
      "answer_stringIds": [
        "string_305",
        "string_306",
        "string_307",
        "string_308",
        "string_309"
      ]
    },
    {
      "id_qa": "FMSH_PB188a_05-06_117_qa21_v3",
      "id_block": "block_3",
      "question": "Qui critique le mouvement syndical apolitique ?",
      "answer": "Lénine",
      "answer_stringIds": [
        "string_173"
      ]
    },
    {
      "id_qa": "FMSH_PB188a_05-06_117_qa0_v3",
      "id_block": "block_4",
      "question": "Quelle est la première tâche de Lénine ?",
      "answer": "le prolétariat",
      "answer_stringIds": [
        "string_339",
        "string_340"
      ]
    }
  ]
}