{
  "num": "autog_0005-0970_1968_num_5_1",
  "article": "autog_0005-0970_1968_num_5_1_923",
  "page_name": "FMSH_PB188a_05-06_123",
  "questions": [
    {
      "id_qa": "FMSH_PB188a_05-06_123_qa0_v3",
      "id_block": "block_1",
      "question": "Que propose les intellectuels d'origine bourgeoise au prolétariat ?",
      "answer": "plusieurs vérités ou des discussions sur cette vérité",
      "answer_stringIds": [
        "string_107",
        "string_108",
        "string_109",
        "string_110",
        "string_111",
        "string_112",
        "string_113",
        "string_114"
      ]
    },
    {
      "id_qa": "FMSH_PB188a_05-06_123_qa2_v3",
      "id_block": "block_1",
      "question": "Qu'est-ce que les intellectuels d'origine bourgeoise ?",
      "answer": "porteur de la vérité du prolétariat",
      "answer_stringIds": [
        "string_94",
        "string_95",
        "string_96",
        "string_97",
        "string_98",
        "string_99"
      ]
    },
    {
      "id_qa": "FMSH_PB188a_05-06_123_qa3_v3",
      "id_block": "block_1",
      "question": "Qu'est-ce qui est étrange pour les intellectuels d'origine bourgeoise ?",
      "answer": "étrange de proposer au prolétariat plusieurs vérités ou des discussions sur cette vérité",
      "answer_stringIds": [
        "string_102",
        "string_103",
        "string_104",
        "string_105",
        "string_106",
        "string_107",
        "string_108",
        "string_109",
        "string_110",
        "string_111",
        "string_112",
        "string_113",
        "string_114"
      ]
    },
    {
      "id_qa": "FMSH_PB188a_05-06_123_qa14_v3",
      "id_block": "block_1",
      "question": "Qui a déclaré que l'opposition est finie ?",
      "answer": "Lénine",
      "answer_stringIds": [
        "string_20"
      ]
    },
    {
      "id_qa": "FMSH_PB188a_05-06_123_qa15_v3",
      "id_block": "block_1",
      "question": "Qu'est-ce que l'opposition ?",
      "answer": "des oppositions",
      "answer_stringIds": [
        "string_80",
        "string_81"
      ]
    },
    {
      "id_qa": "FMSH_PB188a_05-06_123_qa16_v3",
      "id_block": "block_1",
      "question": "Qu'est ce qui doit arriver à cette conclusion ?",
      "answer": "le congrès",
      "answer_stringIds": [
        "string_59",
        "string_60"
      ]
    },
    {
      "id_qa": "FMSH_PB188a_05-06_123_qa20_v3",
      "id_block": "block_1",
      "question": "Qui a dit que l'opposition est finie ?",
      "answer": "Lénine",
      "answer_stringIds": [
        "string_20"
      ]
    },
    {
      "id_qa": "FMSH_PB188a_05-06_123_qa21_v3",
      "id_block": "block_1",
      "question": "Qu'est-ce qui doit aboutir à cette conclusion ?",
      "answer": "le congrès",
      "answer_stringIds": [
        "string_59",
        "string_60"
      ]
    },
    {
      "id_qa": "FMSH_PB188a_05-06_123_qa23_v3",
      "id_block": "block_1",
      "question": "Combien de temps a duré le discours de Lénine ?",
      "answer": "de temps à discuter",
      "answer_stringIds": [
        "string_29",
        "string_30",
        "string_31",
        "string_32"
      ]
    },
    {
      "id_qa": "FMSH_PB188a_05-06_123_qa24_v3",
      "id_block": "block_1",
      "question": "Qui a écrit \" Conclusion sur le rapport d'activité\" ?",
      "answer": "Lénine",
      "answer_stringIds": [
        "string_20"
      ]
    },
    {
      "id_qa": "FMSH_PB188a_05-06_123_qa25_v3",
      "id_block": "block_1",
      "question": "Quel est le fondement de l'appareil politique des intellectuels léninistes ?",
      "answer": "la vérité",
      "answer_stringIds": [
        "string_96",
        "string_97"
      ]
    },
    {
      "id_qa": "FMSH_PB188a_05-06_123_qa46_v3",
      "id_block": "block_1",
      "question": "Qu'est-ce que le prolétariat ?",
      "answer": "de petites améliorations de vie",
      "answer_stringIds": [
        "string_195",
        "string_196",
        "string_197",
        "string_198",
        "string_199"
      ]
    },
    {
      "id_qa": "FMSH_PB188a_05-06_123_qa49_v3",
      "id_block": "block_1",
      "question": "Qu'est-ce qui est imposé par les institutions centralisées ?",
      "answer": "imposer une unique doctrine orthodoxe",
      "answer_stringIds": [
        "string_123",
        "string_124",
        "string_125",
        "string_126",
        "string_127"
      ]
    },
    {
      "id_qa": "FMSH_PB188a_05-06_123_qa50_v3",
      "id_block": "block_1",
      "question": "Qui impose une unique doctrine orthodoxe ?",
      "answer": "Toutes les institutions centralisées",
      "answer_stringIds": [
        "string_115",
        "string_116",
        "string_117",
        "string_118",
        "string_119"
      ]
    },
    {
      "id_qa": "FMSH_PB188a_05-06_123_qa35_v3",
      "id_block": "block_2",
      "question": "Que conduit la théorie de la spontanéité ?",
      "answer": "au suivisme",
      "answer_stringIds": [
        "string_244",
        "string_245"
      ]
    },
    {
      "id_qa": "FMSH_PB188a_05-06_123_qa36_v3",
      "id_block": "block_2",
      "question": "Qu'est ce qui conduit au suivisme ?",
      "answer": "La théorie de la spontanéité",
      "answer_stringIds": [
        "string_238",
        "string_239",
        "string_240",
        "string_241",
        "string_242"
      ]
    },
    {
      "id_qa": "FMSH_PB188a_05-06_123_qa31_v3",
      "id_block": "block_3",
      "question": "Qui doit élever le parti jusqu'à son programme ?",
      "answer": "le prolétariat",
      "answer_stringIds": [
        "string_279",
        "string_280"
      ]
    },
    {
      "id_qa": "FMSH_PB188a_05-06_123_qa32_v3",
      "id_block": "block_3",
      "question": "Qui doit élever le prolétariat jusqu'à son programme ?",
      "answer": "Le parti",
      "answer_stringIds": [
        "string_275",
        "string_276"
      ]
    },
    {
      "id_qa": "FMSH_PB188a_05-06_123_qa34_v3",
      "id_block": "block_3",
      "question": "Qu'est ce que le parti doit élever jusqu'à son programme ?",
      "answer": "élever le prolétariat",
      "answer_stringIds": [
        "string_278",
        "string_279",
        "string_280"
      ]
    },
    {
      "id_qa": "FMSH_PB188a_05-06_123_qa38_v3",
      "id_block": "block_3",
      "question": "Qui qualifie cette tendance d'opportunisme ?",
      "answer": "Lénine",
      "answer_stringIds": [
        "string_20"
      ]
    },
    {
      "id_qa": "FMSH_PB188a_05-06_123_qa59_v3",
      "id_block": "block_3",
      "question": "Où est-ce que se trainer est inutile ?",
      "answer": "à la queue du mouvement",
      "answer_stringIds": [
        "string_295",
        "string_296",
        "string_297",
        "string_298",
        "string_299"
      ]
    },
    {
      "id_qa": "FMSH_PB188a_05-06_123_qa62_v3",
      "id_block": "block_3",
      "question": "Où se situe l'esprit selon Lénine ?",
      "answer": "au-dessus du mouvement spontané",
      "answer_stringIds": [
        "string_269",
        "string_270",
        "string_271",
        "string_272",
        "string_273"
      ]
    },
    {
      "id_qa": "FMSH_PB188a_05-06_123_qa47_v3",
      "id_block": "block_5",
      "question": "Qui parle à lui-même devant moi ?",
      "answer": "André Malraux",
      "answer_stringIds": [
        "string_426",
        "string_427"
      ]
    },
    {
      "id_qa": "FMSH_PB188a_05-06_123_qa55_v3",
      "id_block": "block_6",
      "question": "Qu'a repris J.-P. Sartre dans Les Communistes et la Paix ?",
      "answer": "Ce thème",
      "answer_stringIds": [
        "string_437",
        "string_438"
      ]
    },
    {
      "id_qa": "FMSH_PB188a_05-06_123_qa56_v3",
      "id_block": "block_6",
      "question": "Qui a repris ce thème ?",
      "answer": "par J.-P. Sartre",
      "answer_stringIds": [
        "string_445",
        "string_446",
        "string_447"
      ]
    },
    {
      "id_qa": "FMSH_PB188a_05-06_123_qa58_v3",
      "id_block": "block_6",
      "question": "Qui a écrit Les Communistes et la Paix ?",
      "answer": "par J.-P. Sartre",
      "answer_stringIds": [
        "string_445",
        "string_446",
        "string_447"
      ]
    }
  ]
}