{
  "num": "autog_0005-0970_1968_num_5_1",
  "article": "autog_0005-0970_1968_num_5_1_923",
  "page_name": "FMSH_PB188a_05-06_122",
  "questions": [
    {
      "id_qa": "FMSH_PB188a_05-06_122_qa1_v3",
      "id_block": "block_1",
      "question": "Qui décrit le chef charismatique ?",
      "answer": "par Max Weber",
      "answer_stringIds": [
        "string_226",
        "string_227",
        "string_228"
      ]
    },
    {
      "id_qa": "FMSH_PB188a_05-06_122_qa2_v3",
      "id_block": "block_1",
      "question": "Qu'est-ce qui est décrit par Max Weber ?",
      "answer": "ce chef « charismatique",
      "answer_stringIds": [
        "string_219",
        "string_220",
        "string_221",
        "string_222",
        "string_223"
      ]
    },
    {
      "id_qa": "FMSH_PB188a_05-06_122_qa5_v3",
      "id_block": "block_1",
      "question": "Qu'est-ce que les révolutionnaires professionnels perçoivent ?",
      "answer": "ce que la masse ne",
      "answer_stringIds": [
        "string_117",
        "string_118",
        "string_119",
        "string_120",
        "string_121"
      ]
    },
    {
      "id_qa": "FMSH_PB188a_05-06_122_qa7_v3",
      "id_block": "block_1",
      "question": "De quoi sont assurés les révolutionnaires ?",
      "answer": "de la Vérité",
      "answer_stringIds": [
        "string_133",
        "string_134",
        "string_135"
      ]
    },
    {
      "id_qa": "FMSH_PB188a_05-06_122_qa10_v3",
      "id_block": "block_1",
      "question": "Quel est le caractère du dirigeant léniniste ?",
      "answer": "amorphe",
      "answer_stringIds": [
        "string_185"
      ]
    },
    {
      "id_qa": "FMSH_PB188a_05-06_122_qa14_v3",
      "id_block": "block_1",
      "question": "A qui les révolutionnaires ne peuvent-ils pas s'imposer ?",
      "answer": "la masse",
      "answer_stringIds": [
        "string_119",
        "string_120"
      ]
    },
    {
      "id_qa": "FMSH_PB188a_05-06_122_qa17_v3",
      "id_block": "block_1",
      "question": "Qui ne pense pas ou pense mal ?",
      "answer": "les masses",
      "answer_stringIds": [
        "string_230",
        "string_231"
      ]
    },
    {
      "id_qa": "FMSH_PB188a_05-06_122_qa23_v3",
      "id_block": "block_1",
      "question": "Qu'adopta le dixième congrès du P.C. en mars 1921 ?",
      "answer": "une résolution",
      "answer_stringIds": [
        "string_449",
        "string_450"
      ]
    },
    {
      "id_qa": "FMSH_PB188a_05-06_122_qa28_v3",
      "id_block": "block_1",
      "question": "Qu'est-ce que Lénine admettait ?",
      "answer": "la libre discussion dans le parti",
      "answer_stringIds": [
        "string_405",
        "string_406",
        "string_407",
        "string_408",
        "string_409",
        "string_410"
      ]
    },
    {
      "id_qa": "FMSH_PB188a_05-06_122_qa33_v3",
      "id_block": "block_1",
      "question": "Qui admettait la libre discussion dans le parti ?",
      "answer": "Lénine",
      "answer_stringIds": [
        "string_403"
      ]
    },
    {
      "id_qa": "FMSH_PB188a_05-06_122_qa37_v3",
      "id_block": "block_1",
      "question": "A qui est reproché le refus de la hiérarchie des chefs révolutionnaires ?",
      "answer": "au terroriste individuel",
      "answer_stringIds": [
        "string_12",
        "string_13",
        "string_14"
      ]
    }
  ]
}