{
  "num": "autog_0005-0970_1968_num_5_1",
  "article": "autog_0005-0970_1968_num_5_1_923",
  "page_name": "FMSH_PB188a_05-06_103",
  "questions": [
    {
      "id_qa": "FMSH_PB188a_05-06_103_qa5_v3",
      "id_block": "block_1",
      "question": "Qui voit cette essence dans la qualité que possède tout homme de sentir au fond de lui ?",
      "answer": "Descartes",
      "answer_stringIds": [
        "string_161"
      ]
    },
    {
      "id_qa": "FMSH_PB188a_05-06_103_qa6_v3",
      "id_block": "block_1",
      "question": "Quel est le refus de s'incliner devant Descartes ?",
      "answer": "devant le magister dixit",
      "answer_stringIds": [
        "string_143",
        "string_144",
        "string_145",
        "string_146"
      ]
    },
    {
      "id_qa": "FMSH_PB188a_05-06_103_qa14_v3",
      "id_block": "block_1",
      "question": "A quoi servent les diverses minorités éclairées ?",
      "answer": "à guider les masses",
      "answer_stringIds": [
        "string_471",
        "string_472",
        "string_473",
        "string_474"
      ]
    },
    {
      "id_qa": "FMSH_PB188a_05-06_103_qa15_v3",
      "id_block": "block_1",
      "question": "A quoi sert l'argument d'autorité ?",
      "answer": "les masses",
      "answer_stringIds": [
        "string_473",
        "string_474"
      ]
    },
    {
      "id_qa": "FMSH_PB188a_05-06_103_qa16_v3",
      "id_block": "block_1",
      "question": "Qui est à l'origine de l'argument d'autorité ?",
      "answer": "des diverses minorités",
      "answer_stringIds": [
        "string_467",
        "string_468",
        "string_469"
      ]
    },
    {
      "id_qa": "FMSH_PB188a_05-06_103_qa17_v3",
      "id_block": "block_1",
      "question": "Quelle était la première règle que je devais suivre pour Descartes ?",
      "answer": "aucune chose pour vraie",
      "answer_stringIds": [
        "string_440",
        "string_441",
        "string_442",
        "string_443"
      ]
    }
  ]
}