{
  "num": "autog_0005-0970_1966_num_1_1",
  "article": "autog_0005-0970_1966_num_1_1_893_t1_0101_0000_2",
  "page_name": "FMSH_PB188a_00001_105",
  "questions": [
    "Quel est le point de vue de l'auteur sur l'anarchie décentralisatrice fédéraliste et son rapport avec le marxisme ?",
    "Est-l'autogestion un facteur, un instrument ou un moyen de lutte efficace contre l'Etat ?",
    "Quels points de vue contradictoires sur l'autogestion sont présentés dans le texte ?",
    "Comment est décrit le fonctionnement de l'autogestion ?",
    "Quels problèmes de réforme agraire sont évoqués dans le texte ?",
    "Quels pouvoirs sont accaparés par la « Délégation spéciale » ou l'appareil central de l'O.N.R.A. ?",
    "Quels sont les résultats de l'étude de M. François d'Arcy sur l'administration communale dans les communes rurales du département de Constantine ?",
    "Quel est le décalage entre les immenses besoins et les faibles réalisations dans le secteur traditionnel ?",
    "Quel est le caractère de la conclusion de l'étude ?",
    "Quel est le statut des Conseils communaux dans l'autogestion ?",
    "Quels sont les intentions contenues dans la Charte d'Alger ?",
    "Comment semble répondre au niveau du ministère de la réforme administrative aux exigences immédiates des masses ?"
  ]
}