{
  "num": "autog_0338-7259_1974_num_28_1",
  "article": "autog_0338-7259_1974_num_28_1_1943",
  "page_name": "FMSH_PB188a_28-29_004",
  "questions": [
    "Quels événements sont décrits dans ce passage sous le titre \"Le P.S.U. à l'heure Lip ...\" ?",
    "Quel est le point de vue de la C.A.R.A.C. sur la crise du P.S.U.U. et la disparition du C.L.A.S. ?",
    "Quels colloques d'autogestion ont été organisés par la C.F.D.T. ?",
    "Quel est le point de vue d'O.R.A. sur le socialisme vécu dans le travail ?",
    "Quels livres ont été reçus ?",
    "Quels auteurs ont présenté des travaux sur l'analyseur Lip ?",
    "Quels auteurs ont présenté des travaux sur le léninisme sous Lénine ?",
    "Quels auteurs ont présenté des travaux sur l'expérience du mouvement ouvrier ?",
    "Quels auteurs ont présenté des travaux sur l'autogestion, l'entreprise et l'économie nationale ?",
    "Combien de pages sont occupées par les comptes rendus dans ce document ?",
    "Quels sont les titres de tous les livres reçus ?",
    "Quels sont les noms de tous les auteurs mentionnés dans ce passage ?",
    "Quels sont les noms des personnes qui ont présenté des travaux sur l'analyseur Lip, le léninisme sous Lénine, l'expérience du mouvement ouvrier, et l'autogestion, l'entreprise et l'économie nationale ?",
    "Quels sont les noms des personnes qui ont écrit les comptes rendus des travaux présentés ?",
    "Quels sont les noms des personnes qui ont organisé les colloques d'autogestion ?",
    "Quel est le rôle de la C.F.D.T. dans les événements décrits dans ce passage ?",
    "Quel est le rôle de la C.A.R.A.C. dans les événements décrits dans ce?"
  ]
}