{
  "num": "autog_0249-2563_1980_num_13_2",
  "article": "autog_0249-2563_1980_num_13_2_1380",
  "page_name": "autog_0249-2563_1980_num_13_2_T1_0355_0000",
  "questions": [
    "Quel jeu est-il question ici et comment est-il décrit ?",
    "Quels sont les travailleurs de cette entreprise et comment sont-ils qualifiés ?",
    "Quels sont les caractéristiques de l'entreprise en question ?",
    "Quel processus inavouable est-il à l'œuvre dans l'histoire de cette entreprise ?",
    "Quels sont les éléments de dépense somptuaire de l'entreprise ?",
    "Comment les gestionnaires interprètent les faits de l'entreprise ?",
    "Quels sont les objectifs de la recherche historique dans ce contexte ?",
    "Quels sont les liens entre les ambiguïtés de l'entreprise et la recherche historique ?",
    "Quels sont les liens entre l'autogestion et l'entreprise en question ?",
    "Quel est le rôle de la rédaction dans ce contexte ?"
  ]
}