{
  "num": "autog_0338-7259_1973_num_22_1",
  "article": "autog_0338-7259_1973_num_22_1_1076",
  "page_name": "FMSH_PB188a_22-23_005",
  "questions": [
    {
      "id_qa": "FMSH_PB188a_22-23_005_qa1_v3",
      "id_block": "block_2",
      "question": "Qui a établi quels étaient les premiers à s'intéresser à ce thème ?",
      "answer": "Les historiens",
      "answer_stringIds": [
        "string_40",
        "string_41"
      ]
    },
    {
      "id_qa": "FMSH_PB188a_22-23_005_qa2_v3",
      "id_block": "block_2",
      "question": "Quel était le rôle des historiens ?",
      "answer": "quels furent ceux qui se sensibilisèrent les premiers à ce thème et pour quelles raisons",
      "answer_stringIds": [
        "string_45",
        "string_46",
        "string_47",
        "string_48",
        "string_49",
        "string_50",
        "string_51",
        "string_52",
        "string_53",
        "string_54",
        "string_55",
        "string_56",
        "string_57",
        "string_58",
        "string_59"
      ]
    },
    {
      "id_qa": "FMSH_PB188a_22-23_005_qa19_v3",
      "id_block": "block_2",
      "question": "Quand la revue Aufogestion a-t-elle été fondée ?",
      "answer": "en 1966",
      "answer_stringIds": [
        "string_23",
        "string_24"
      ]
    },
    {
      "id_qa": "FMSH_PB188a_22-23_005_qa8_v3",
      "id_block": "block_3",
      "question": "A quoi sert le présent numéro de la revue Autogestion et socialisme ?",
      "answer": "de point de repère",
      "answer_stringIds": [
        "string_129",
        "string_130",
        "string_131",
        "string_132"
      ]
    },
    {
      "id_qa": "FMSH_PB188a_22-23_005_qa4_v3",
      "id_block": "block_4",
      "question": "Qui est à l'origine du concept d'autogestion ?",
      "answer": "Ceux qui",
      "answer_stringIds": [
        "string_170",
        "string_171"
      ]
    },
    {
      "id_qa": "FMSH_PB188a_22-23_005_qa10_v3",
      "id_block": "block_4",
      "question": "Qu'est-ce que l'autogestion ?",
      "answer": "petites unités autogérées qui lutteraient les unes",
      "answer_stringIds": [
        "string_220",
        "string_221",
        "string_222",
        "string_223",
        "string_224",
        "string_225",
        "string_226"
      ]
    },
    {
      "id_qa": "FMSH_PB188a_22-23_005_qa11_v3",
      "id_block": "block_4",
      "question": "Qu'est ce qui est incompatible avec l'autogestion ?",
      "answer": "des larmes sur la planification",
      "answer_stringIds": [
        "string_239",
        "string_240",
        "string_241",
        "string_242",
        "string_243"
      ]
    },
    {
      "id_qa": "FMSH_PB188a_22-23_005_qa18_v3",
      "id_block": "block_4",
      "question": "Comment est la référence à l'autogestion ?",
      "answer": "incertaine et ambiguë",
      "answer_stringIds": [
        "string_167",
        "string_168",
        "string_169"
      ]
    }
  ]
}