{
  "num": "autog_0338-7259_1975_num_30_1",
  "article": "autog_0338-7259_1975_num_30_1_1125",
  "page_name": "FMSH_PB188a_30-31_096",
  "questions": [
    {
      "id_qa": "FMSH_PB188a_30-31_096_qa34_v3",
      "id_block": "block_1",
      "question": "Qu'est-ce qui est à l'origine de ces préalables ?",
      "answer": "des théories autogestionnaires",
      "answer_stringIds": [
        "string_61",
        "string_62",
        "string_63",
        "string_64"
      ]
    },
    {
      "id_qa": "FMSH_PB188a_30-31_096_qa26_v3",
      "id_block": "block_2",
      "question": "Par quoi Mothé qualifie-t-il les autogestionnaires ?",
      "answer": "les autogestionnaires autoritaires",
      "answer_stringIds": [
        "string_153",
        "string_154",
        "string_155",
        "string_156"
      ]
    },
    {
      "id_qa": "FMSH_PB188a_30-31_096_qa27_v3",
      "id_block": "block_2",
      "question": "Qui qualifie les autogestionnaires autoritaires ?",
      "answer": "Mothé",
      "answer_stringIds": [
        "string_147"
      ]
    },
    {
      "id_qa": "FMSH_PB188a_30-31_096_qa28_v3",
      "id_block": "block_2",
      "question": "Qui qualifie les autogestionnaires autoritaires d'autogestion ?",
      "answer": "Mothé",
      "answer_stringIds": [
        "string_147"
      ]
    },
    {
      "id_qa": "FMSH_PB188a_30-31_096_qa29_v3",
      "id_block": "block_2",
      "question": "Qui met dans le même sac tous les autogestionnaires autoritaires ?",
      "answer": "Mothé",
      "answer_stringIds": [
        "string_147"
      ]
    },
    {
      "id_qa": "FMSH_PB188a_30-31_096_qa3_v3",
      "id_block": "block_3",
      "question": "Qui participe à la direction éclairée du parti ?",
      "answer": "les travailleurs",
      "answer_stringIds": [
        "string_294",
        "string_295"
      ]
    },
    {
      "id_qa": "FMSH_PB188a_30-31_096_qa6_v3",
      "id_block": "block_3",
      "question": "Qu'est-ce que le vieil homme ?",
      "answer": "ce mot capital",
      "answer_stringIds": [
        "string_275",
        "string_276",
        "string_277"
      ]
    },
    {
      "id_qa": "FMSH_PB188a_30-31_096_qa7_v3",
      "id_block": "block_3",
      "question": "A qui les travailleurs participent-ils ?",
      "answer": "à la direction éclairée du parti",
      "answer_stringIds": [
        "string_316",
        "string_317",
        "string_318",
        "string_319",
        "string_320",
        "string_321"
      ]
    },
    {
      "id_qa": "FMSH_PB188a_30-31_096_qa9_v3",
      "id_block": "block_3",
      "question": "Sur qui le pscudo-contrôle est-il exercé ?",
      "answer": "sur les minorités dirigeantes",
      "answer_stringIds": [
        "string_334",
        "string_335",
        "string_336",
        "string_337"
      ]
    },
    {
      "id_qa": "FMSH_PB188a_30-31_096_qa15_v3",
      "id_block": "block_4",
      "question": "Qui a changé d'attitude envers les partisans de l'autogestion ?",
      "answer": "le PCF",
      "answer_stringIds": [
        "string_192",
        "string_193"
      ]
    }
  ]
}