{
  "num": "autog_0338-7259_1975_num_30_1",
  "article": "autog_0338-7259_1975_num_30_1_1125",
  "page_name": "FMSH_PB188a_30-31_106",
  "questions": [
    {
      "id_qa": "FMSH_PB188a_30-31_106_qa1_v3",
      "id_block": "block_2",
      "question": "Qu'est ce qui n'aurait pas été réalisé en avril 68 ?",
      "answer": "Un sondage",
      "answer_stringIds": [
        "string_279",
        "string_280"
      ]
    },
    {
      "id_qa": "FMSH_PB188a_30-31_106_qa14_v3",
      "id_block": "block_2",
      "question": "Qu'est ce qui n'est pas reconnu par les minorités rectrices ?",
      "answer": "leurs capacités",
      "answer_stringIds": [
        "string_131",
        "string_132"
      ]
    },
    {
      "id_qa": "FMSH_PB188a_30-31_106_qa16_v3",
      "id_block": "block_2",
      "question": "Qui sont déçus par les minorités rectrices ?",
      "answer": "La plupart des hommes",
      "answer_stringIds": [
        "string_113",
        "string_114",
        "string_115",
        "string_116"
      ]
    },
    {
      "id_qa": "FMSH_PB188a_30-31_106_qa18_v3",
      "id_block": "block_2",
      "question": "Qui est déçu par les minorités rectrices ?",
      "answer": "La plupart des hommes",
      "answer_stringIds": [
        "string_113",
        "string_114",
        "string_115",
        "string_116"
      ]
    },
    {
      "id_qa": "FMSH_PB188a_30-31_106_qa19_v3",
      "id_block": "block_2",
      "question": "Par qui sont frustrés les hommes ?",
      "answer": "les minorités rectrices",
      "answer_stringIds": [
        "string_121",
        "string_122",
        "string_123"
      ]
    }
  ]
}