{
  "num": "autog_0249-2563_1983_num_16_14",
  "article": "autog_0249-2563_1983_num_16_14_1567_t1_0120_0000_2",
  "page_name": "autog_0249-2563_1983_num_16_14_T1_0121_0000",
  "questions": [
    {
      "id_qa": "autog_0249-2563_1983_num_16_14_T1_0121_0000_qa1_v3",
      "id_block": "block_1",
      "question": "Que veut détruire les entreprises ?",
      "answer": "tout un syndicat",
      "answer_stringIds": [
        "string_125",
        "string_126",
        "string_127"
      ]
    },
    {
      "id_qa": "autog_0249-2563_1983_num_16_14_T1_0121_0000_qa12_v3",
      "id_block": "block_1",
      "question": "Qui est à lorigine de l'industrialisation forcée ?",
      "answer": "car Satoshi",
      "answer_stringIds": [
        "string_23",
        "string_24"
      ]
    },
    {
      "id_qa": "autog_0249-2563_1983_num_16_14_T1_0121_0000_qa14_v3",
      "id_block": "block_1",
      "question": "Qu'est ce qui se crée là où il y a usage de la force ?",
      "answer": "un contre-pouvoir",
      "answer_stringIds": [
        "string_204",
        "string_205"
      ]
    },
    {
      "id_qa": "autog_0249-2563_1983_num_16_14_T1_0121_0000_qa18_v3",
      "id_block": "block_4",
      "question": "Qui est obligé de trouver un emploi temporaire pour les huit années d'activité ?",
      "answer": "les ouvriers",
      "answer_stringIds": [
        "string_347",
        "string_348"
      ]
    },
    {
      "id_qa": "autog_0249-2563_1983_num_16_14_T1_0121_0000_qa19_v3",
      "id_block": "block_4",
      "question": "Quelle est la somme de départ des ouvriers ?",
      "answer": "un salaire",
      "answer_stringIds": [
        "string_341",
        "string_342"
      ]
    },
    {
      "id_qa": "autog_0249-2563_1983_num_16_14_T1_0121_0000_qa21_v3",
      "id_block": "block_4",
      "question": "Qui est obligé de trouver un emploi temporaire pour les huit années restantes ?",
      "answer": "les ouvriers",
      "answer_stringIds": [
        "string_347",
        "string_348"
      ]
    },
    {
      "id_qa": "autog_0249-2563_1983_num_16_14_T1_0121_0000_qa22_v3",
      "id_block": "block_4",
      "question": "Quel est le capital de réserve industrielle ?",
      "answer": "le capital japonais",
      "answer_stringIds": [
        "string_376",
        "string_377",
        "string_378"
      ]
    },
    {
      "id_qa": "autog_0249-2563_1983_num_16_14_T1_0121_0000_qa23_v3",
      "id_block": "block_4",
      "question": "Combien de salariés constituent une armée de réserve industrielle ?",
      "answer": "Les deux tiers des salariés",
      "answer_stringIds": [
        "string_362",
        "string_363",
        "string_364",
        "string_365",
        "string_366"
      ]
    },
    {
      "id_qa": "autog_0249-2563_1983_num_16_14_T1_0121_0000_qa24_v3",
      "id_block": "block_4",
      "question": "Qu'est-ce que les ouvriers sont obligés de trouver pour les huit années restantes ?",
      "answer": "un emploi temporaire pour",
      "answer_stringIds": [
        "string_353",
        "string_354",
        "string_355",
        "string_356"
      ]
    },
    {
      "id_qa": "autog_0249-2563_1983_num_16_14_T1_0121_0000_qa31_v3",
      "id_block": "block_6",
      "question": "Par qui sont présentés les textes ?",
      "answer": "par la Revue Française de Gestion",
      "answer_stringIds": [
        "string_435",
        "string_436",
        "string_437",
        "string_438",
        "string_439",
        "string_440"
      ]
    }
  ]
}