{
  "num": "autog_0338-7259_1970_num_13_1",
  "article": "autog_0338-7259_1970_num_13_1_1796",
  "page_name": "FMSH_PB188a_13-14_256",
  "questions": [
    {
      "id_qa": "FMSH_PB188a_13-14_256_qa0_v3",
      "id_block": "block_1",
      "question": "Qu'est-ce qui est caractéristique des problèmes du travail humain en général ?",
      "answer": "les difficultés des contrôles de police aux frontières",
      "answer_stringIds": [
        "string_166",
        "string_167",
        "string_168",
        "string_169",
        "string_170",
        "string_171",
        "string_172",
        "string_173"
      ]
    },
    {
      "id_qa": "FMSH_PB188a_13-14_256_qa6_v3",
      "id_block": "block_1",
      "question": "Qu'est-ce que les grévistes de ce type font ?",
      "answer": "ils ont ordre",
      "answer_stringIds": [
        "string_90",
        "string_91",
        "string_92"
      ]
    },
    {
      "id_qa": "FMSH_PB188a_13-14_256_qa7_v3",
      "id_block": "block_1",
      "question": "Qu'est ce que les grévistes font exactement et scrupuleusement ?",
      "answer": "ordre",
      "answer_stringIds": [
        "string_92"
      ]
    },
    {
      "id_qa": "FMSH_PB188a_13-14_256_qa9_v3",
      "id_block": "block_1",
      "question": "Qui fait exactement et scrupuleusement tout ce qu'ils ont ordre de faire ?",
      "answer": "Les grévistes de ce type",
      "answer_stringIds": [
        "string_74",
        "string_75",
        "string_76",
        "string_77",
        "string_78"
      ]
    },
    {
      "id_qa": "FMSH_PB188a_13-14_256_qa12_v3",
      "id_block": "block_1",
      "question": "Qui édict les règlements ?",
      "answer": "autorités",
      "answer_stringIds": [
        "string_134"
      ]
    },
    {
      "id_qa": "FMSH_PB188a_13-14_256_qa16_v3",
      "id_block": "block_1",
      "question": "Qu'est ce qui était considéré comme une spécialité des douaniers ?",
      "answer": "La grève du zèle",
      "answer_stringIds": [
        "string_5",
        "string_6",
        "string_7",
        "string_8"
      ]
    },
    {
      "id_qa": "FMSH_PB188a_13-14_256_qa20_v3",
      "id_block": "block_1",
      "question": "Qu'est-ce que la grève du zèle ?",
      "answer": "tous les points du règlement",
      "answer_stringIds": [
        "string_69",
        "string_70",
        "string_71",
        "string_72",
        "string_73"
      ]
    }
  ]
}