{
  "num": "autog_0338-7259_1970_num_13_1",
  "article": "autog_0338-7259_1970_num_13_1_991_t1_0267_0000_1",
  "page_name": "FMSH_PB188a_13-14_270",
  "questions": [
    {
      "id_qa": "FMSH_PB188a_13-14_270_qa6_v3",
      "id_block": "block_0",
      "question": "Qui vend la mèche ?",
      "answer": "le « Rude Pravo",
      "answer_stringIds": [
        "string_1",
        "string_2",
        "string_3",
        "string_4"
      ]
    },
    {
      "id_qa": "FMSH_PB188a_13-14_270_qa7_v3",
      "id_block": "block_0",
      "question": "Qu'achète le « Rude Pravo » ?",
      "answer": "la mèche",
      "answer_stringIds": [
        "string_7",
        "string_8"
      ]
    },
    {
      "id_qa": "FMSH_PB188a_13-14_270_qa2_v3",
      "id_block": "block_1",
      "question": "Où l'ancien président Novotny donnait-il de l'argent ?",
      "answer": "à Dubcek",
      "answer_stringIds": [
        "string_65",
        "string_66"
      ]
    },
    {
      "id_qa": "FMSH_PB188a_13-14_270_qa32_v3",
      "id_block": "block_1",
      "question": "Qui faisait flèche de tout bois ces derniers temps ?",
      "answer": "Dubcek",
      "answer_stringIds": [
        "string_20"
      ]
    },
    {
      "id_qa": "FMSH_PB188a_13-14_270_qa14_v3",
      "id_block": "block_2",
      "question": "Qui occupait la deuxième place dans le milieu restreint des élus ?",
      "answer": "Alexandre Dubcek",
      "answer_stringIds": [
        "string_95",
        "string_96"
      ]
    },
    {
      "id_qa": "FMSH_PB188a_13-14_270_qa15_v3",
      "id_block": "block_2",
      "question": "Qu'est ce qui permettait à Alexandre Dubcek d'avoir une appréciation financière élevée ?",
      "answer": "des enveloppes",
      "answer_stringIds": [
        "string_110",
        "string_111"
      ]
    },
    {
      "id_qa": "FMSH_PB188a_13-14_270_qa16_v3",
      "id_block": "block_2",
      "question": "Qu'est-ce qui était reçu par Alexandre Dubcek ?",
      "answer": "des enveloppes contenant une appréciation financière élevée de leurs activités",
      "answer_stringIds": [
        "string_110",
        "string_111",
        "string_112",
        "string_113",
        "string_114",
        "string_115",
        "string_116",
        "string_117",
        "string_118",
        "string_119"
      ]
    },
    {
      "id_qa": "FMSH_PB188a_13-14_270_qa17_v3",
      "id_block": "block_2",
      "question": "Dans quel milieu se trouvait Alexandre Dubcek ?",
      "answer": "des élus",
      "answer_stringIds": [
        "string_105",
        "string_106"
      ]
    },
    {
      "id_qa": "FMSH_PB188a_13-14_270_qa19_v3",
      "id_block": "block_2",
      "question": "Qu'est-ce que les enveloppes d'Alexandre Dubcek ?",
      "answer": "une appréciation financière élevée de leurs activités",
      "answer_stringIds": [
        "string_113",
        "string_114",
        "string_115",
        "string_116",
        "string_117",
        "string_118",
        "string_119"
      ]
    },
    {
      "id_qa": "FMSH_PB188a_13-14_270_qa12_v3",
      "id_block": "block_3",
      "question": "Sur quoi repose la hiérarchie bureaucratique dans les démocraties populaires ?",
      "answer": "sur des inégalités de fortune",
      "answer_stringIds": [
        "string_145",
        "string_146",
        "string_147",
        "string_148",
        "string_149"
      ]
    },
    {
      "id_qa": "FMSH_PB188a_13-14_270_qa4_v3",
      "id_block": "block_6",
      "question": "Quel est le métier de l'équipe de dix membres ?",
      "answer": "le journal",
      "answer_stringIds": [
        "string_195",
        "string_196"
      ]
    },
    {
      "id_qa": "FMSH_PB188a_13-14_270_qa30_v3",
      "id_block": "block_6",
      "question": "Qu'est ce qui sera suivi avec intérêt ?",
      "answer": "Cette expérience",
      "answer_stringIds": [
        "string_208",
        "string_209"
      ]
    },
    {
      "id_qa": "FMSH_PB188a_13-14_270_qa34_v3",
      "id_block": "block_9",
      "question": "Depuis combien de temps existe un séminaire libre sur l'autogestion ?",
      "answer": "Depuis quelques mois",
      "answer_stringIds": [
        "string_218",
        "string_219",
        "string_220"
      ]
    }
  ]
}