{
  "num": "autog_0338-7259_1976_num_33_1",
  "article": "autog_0338-7259_1976_num_33_1_1159",
  "page_name": "FMSH_PB188a_33-34_107",
  "questions": [
    {
      "id_qa": "FMSH_PB188a_33-34_107_qa14_v3",
      "id_block": "block_1",
      "question": "Qu'exige les travailleurs de l'ancienne administration ?",
      "answer": "la gestion",
      "answer_stringIds": [
        "string_28",
        "string_29"
      ]
    },
    {
      "id_qa": "FMSH_PB188a_33-34_107_qa15_v3",
      "id_block": "block_1",
      "question": "Qui ne va pas jusqu'à l'autogestion ?",
      "answer": "les travailleurs",
      "answer_stringIds": [
        "string_24",
        "string_25"
      ]
    },
    {
      "id_qa": "FMSH_PB188a_33-34_107_qa16_v3",
      "id_block": "block_1",
      "question": "Qui exige que la gestion soit assurée par des représentants de l'ancienne administration ?",
      "answer": "les travailleurs",
      "answer_stringIds": [
        "string_24",
        "string_25"
      ]
    },
    {
      "id_qa": "FMSH_PB188a_33-34_107_qa7_v3",
      "id_block": "block_2",
      "question": "Quel est l'objectif permanent de la lutte ouvrière au Portugal ?",
      "answer": "un double pouvoir",
      "answer_stringIds": [
        "string_77",
        "string_78",
        "string_79"
      ]
    },
    {
      "id_qa": "FMSH_PB188a_33-34_107_qa6_v3",
      "id_block": "block_3",
      "question": "Qu'est-ce que le contrôle ouvrier ?",
      "answer": "le contrôle de certains pouvoirs",
      "answer_stringIds": [
        "string_133",
        "string_134",
        "string_135",
        "string_136",
        "string_137"
      ]
    },
    {
      "id_qa": "FMSH_PB188a_33-34_107_qa1_v3",
      "id_block": "block_3",
      "question": "Qu'est ce qui doit être exercé par les comités de travailleurs ?",
      "answer": "Ce contrôle ouvrier",
      "answer_stringIds": [
        "string_122",
        "string_123",
        "string_124"
      ]
    },
    {
      "id_qa": "FMSH_PB188a_33-34_107_qa2_v3",
      "id_block": "block_3",
      "question": "A quoi sert le contrôle de certains pouvoirs ?",
      "answer": "à la défense des intérêts ouvriers",
      "answer_stringIds": [
        "string_141",
        "string_142",
        "string_143",
        "string_144",
        "string_145",
        "string_146"
      ]
    },
    {
      "id_qa": "FMSH_PB188a_33-34_107_qa10_v3",
      "id_block": "block_4",
      "question": "Par quoi le processus de transformation ne peut-il pas être récupéré ?",
      "answer": "le « socialisme bureaucratique",
      "answer_stringIds": [
        "string_384",
        "string_385",
        "string_386",
        "string_387"
      ]
    },
    {
      "id_qa": "FMSH_PB188a_33-34_107_qa17_v3",
      "id_block": "block_4",
      "question": "Qu'investit les entreprises dans les constructions métalliques pour exportation ?",
      "answer": "des productions de base",
      "answer_stringIds": [
        "string_299",
        "string_300",
        "string_301",
        "string_302",
        "string_303"
      ]
    },
    {
      "id_qa": "FMSH_PB188a_33-34_107_qa18_v3",
      "id_block": "block_4",
      "question": "Qui investit dans des productions de base ou déploient leur capital sur des produits plus rentables ?",
      "answer": "les entreprises",
      "answer_stringIds": [
        "string_75",
        "string_76"
      ]
    },
    {
      "id_qa": "FMSH_PB188a_33-34_107_qa21_v3",
      "id_block": "block_4",
      "question": "Qui investit dans des productions de base ou sur des produits plus rentables ?",
      "answer": "les entreprises",
      "answer_stringIds": [
        "string_75",
        "string_76"
      ]
    },
    {
      "id_qa": "FMSH_PB188a_33-34_107_qa22_v3",
      "id_block": "block_4",
      "question": "Qu'est-ce qui s'étend à l'organisation du travail ?",
      "answer": "le contrôle ouvrier",
      "answer_stringIds": [
        "string_245",
        "string_246",
        "string_247"
      ]
    },
    {
      "id_qa": "FMSH_PB188a_33-34_107_qa23_v3",
      "id_block": "block_4",
      "question": "Qui exerce le contrôle ouvrier dans les entreprises privées ?",
      "answer": "les comités de travailleurs",
      "answer_stringIds": [
        "string_151",
        "string_152",
        "string_153",
        "string_154"
      ]
    }
  ]
}