{
  "num": "autog_0338-7259_1976_num_33_1",
  "article": "autog_0338-7259_1976_num_33_1_1159",
  "page_name": "FMSH_PB188a_33-34_098",
  "questions": [
    {
      "id_qa": "FMSH_PB188a_33-34_098_qa14_v3",
      "id_block": "block_1",
      "question": "Qu'est ce que les commissions doivent contrôler et occuper ?",
      "answer": "ladministration locale",
      "answer_stringIds": [
        "string_35",
        "string_36",
        "string_37"
      ]
    },
    {
      "id_qa": "FMSH_PB188a_33-34_098_qa15_v3",
      "id_block": "block_1",
      "question": "Qu'est ce qui va bouleverser l'ancien appareil d'Etat ?",
      "answer": "Les commissions",
      "answer_stringIds": [
        "string_29",
        "string_30"
      ]
    },
    {
      "id_qa": "FMSH_PB188a_33-34_098_qa1_v3",
      "id_block": "block_3",
      "question": "Qu'est ce qui ne peut pas naitre que d'un peuple en armes ?",
      "answer": "Une armée authentiquement populaire",
      "answer_stringIds": [
        "string_51",
        "string_52",
        "string_53",
        "string_54"
      ]
    },
    {
      "id_qa": "FMSH_PB188a_33-34_098_qa34_v3",
      "id_block": "block_4",
      "question": "Qui doit avoir des moyens, une organisation et des armes ?",
      "answer": "les travailleurs",
      "answer_stringIds": [
        "string_116",
        "string_117"
      ]
    },
    {
      "id_qa": "FMSH_PB188a_33-34_098_qa36_v3",
      "id_block": "block_4",
      "question": "Qui doit résister aux agents nationaux et internationaux qui bloquent leur émancipation ?",
      "answer": "les travailleurs",
      "answer_stringIds": [
        "string_116",
        "string_117"
      ]
    },
    {
      "id_qa": "FMSH_PB188a_33-34_098_qa37_v3",
      "id_block": "block_4",
      "question": "A qui les travailleurs doivent-ils résister ?",
      "answer": "aux agents nationaux et internationaux qui bloquent leur émancipation",
      "answer_stringIds": [
        "string_120",
        "string_121",
        "string_122",
        "string_123",
        "string_124",
        "string_125",
        "string_126",
        "string_127",
        "string_128"
      ]
    },
    {
      "id_qa": "FMSH_PB188a_33-34_098_qa39_v3",
      "id_block": "block_4",
      "question": "Qu'est ce qui empêche les travailleurs de s'émanciper ?",
      "answer": "résister aux agents nationaux et internationaux qui bloquent leur émancipation",
      "answer_stringIds": [
        "string_119",
        "string_120",
        "string_121",
        "string_122",
        "string_123",
        "string_124",
        "string_125",
        "string_126",
        "string_127",
        "string_128"
      ]
    },
    {
      "id_qa": "FMSH_PB188a_33-34_098_qa45_v3",
      "id_block": "block_4",
      "question": "Avec qui les masses peuvent-elles se battre ?",
      "answer": "avec les forces réactionnaires",
      "answer_stringIds": [
        "string_107",
        "string_108",
        "string_109",
        "string_110"
      ]
    },
    {
      "id_qa": "FMSH_PB188a_33-34_098_qa47_v3",
      "id_block": "block_4",
      "question": "Avec qui les masses désarmées peuvent-elles se battre ?",
      "answer": "se battre dans la rue avec les forces réactionnaires prêtes à tout",
      "answer_stringIds": [
        "string_102",
        "string_103",
        "string_104",
        "string_105",
        "string_106",
        "string_107",
        "string_108",
        "string_109",
        "string_110",
        "string_111",
        "string_112",
        "string_113"
      ]
    },
    {
      "id_qa": "FMSH_PB188a_33-34_098_qa49_v3",
      "id_block": "block_4",
      "question": "Qu'est ce qui pourra se battre dans la rue ?",
      "answer": "des masses résolues",
      "answer_stringIds": [
        "string_94",
        "string_95",
        "string_96"
      ]
    },
    {
      "id_qa": "FMSH_PB188a_33-34_098_qa50_v3",
      "id_block": "block_4",
      "question": "Où se bat les masses ?",
      "answer": "dans la rue",
      "answer_stringIds": [
        "string_104",
        "string_105",
        "string_106"
      ]
    },
    {
      "id_qa": "FMSH_PB188a_33-34_098_qa6_v3",
      "id_block": "block_5",
      "question": "A quoi servent les groupes d'auto-défense populaire ?",
      "answer": "à des missions spécifique de surveillance et de contrôle",
      "answer_stringIds": [
        "string_165",
        "string_166",
        "string_167",
        "string_168",
        "string_169",
        "string_170",
        "string_171",
        "string_172",
        "string_173",
        "string_174"
      ]
    },
    {
      "id_qa": "FMSH_PB188a_33-34_098_qa11_v3",
      "id_block": "block_7",
      "question": "Dans quoi les efforts de tous les révolutionnaires doivent-ils converger ?",
      "answer": "dans des actions concrètes",
      "answer_stringIds": [
        "string_316",
        "string_317",
        "string_318",
        "string_319"
      ]
    },
    {
      "id_qa": "FMSH_PB188a_33-34_098_qa28_v3",
      "id_block": "block_7",
      "question": "Qu'est ce que les divers mouvements révolutionnaires puissent créer dans la pratique ?",
      "answer": "une nécessaire unité",
      "answer_stringIds": [
        "string_262",
        "string_263",
        "string_264"
      ]
    },
    {
      "id_qa": "FMSH_PB188a_33-34_098_qa29_v3",
      "id_block": "block_7",
      "question": "Que doivent faire les divers mouvements révolutionnaires dans la pratique ?",
      "answer": "créer",
      "answer_stringIds": [
        "string_257"
      ]
    },
    {
      "id_qa": "FMSH_PB188a_33-34_098_qa30_v3",
      "id_block": "block_7",
      "question": "Qu'est-ce qui permet de créer une nécessaire unité dans la pratique ?",
      "answer": "les divers mouvements révolutionnaires",
      "answer_stringIds": [
        "string_252",
        "string_253",
        "string_254",
        "string_255"
      ]
    },
    {
      "id_qa": "FMSH_PB188a_33-34_098_qa31_v3",
      "id_block": "block_7",
      "question": "Quelles sont les caractéristiques des divers mouvements révolutionnaires ?",
      "answer": "leurs particularités et leur autonomie politique et organisationnelle",
      "answer_stringIds": [
        "string_244",
        "string_245",
        "string_246",
        "string_247",
        "string_248",
        "string_249",
        "string_250",
        "string_251"
      ]
    },
    {
      "id_qa": "FMSH_PB188a_33-34_098_qa32_v3",
      "id_block": "block_7",
      "question": "Qu'est-ce qui permet de créer une nécessaire unité ?",
      "answer": "les divers mouvements révolutionnaires",
      "answer_stringIds": [
        "string_252",
        "string_253",
        "string_254",
        "string_255"
      ]
    }
  ]
}