{
  "num": "autog_0338-7259_1976_num_33_1",
  "article": "autog_0338-7259_1976_num_33_1_1159",
  "page_name": "FMSH_PB188a_33-34_102",
  "questions": [
    {
      "id_qa": "FMSH_PB188a_33-34_102_qa8_v3",
      "id_block": "block_3",
      "question": "Qu'est-ce que les conseils de village, d'usines et de quartiers ?",
      "answer": "peuvent",
      "answer_stringIds": [
        "string_91"
      ]
    },
    {
      "id_qa": "FMSH_PB188a_33-34_102_qa18_v3",
      "id_block": "block_3",
      "question": "Qui est à l'origine des conseils de village, d'usines et de quartiers ?",
      "answer": "les travailleurs",
      "answer_stringIds": [
        "string_89",
        "string_90"
      ]
    },
    {
      "id_qa": "FMSH_PB188a_33-34_102_qa28_v3",
      "id_block": "block_4",
      "question": "Qu'est ce qui doit être un instrument pour les solutions économiques ?",
      "answer": "Ces organismes de pouvoir des travailleurs",
      "answer_stringIds": [
        "string_102",
        "string_103",
        "string_104",
        "string_105",
        "string_106",
        "string_107"
      ]
    },
    {
      "id_qa": "FMSH_PB188a_33-34_102_qa7_v3",
      "id_block": "block_6",
      "question": "Dans quel journal a été publié le document du Copcon ?",
      "answer": "dans Republica",
      "answer_stringIds": [
        "string_154",
        "string_155"
      ]
    },
    {
      "id_qa": "FMSH_PB188a_33-34_102_qa21_v3",
      "id_block": "block_8",
      "question": "Qu'est ce qui a été écrit en français pour notre revue ?",
      "answer": "Le texte",
      "answer_stringIds": [
        "string_169",
        "string_170"
      ]
    },
    {
      "id_qa": "FMSH_PB188a_33-34_102_qa23_v3",
      "id_block": "block_9",
      "question": "Qu'est-ce que nous avons introduit pour faciliter la lecture ?",
      "answer": "quelques modifications « de style",
      "answer_stringIds": [
        "string_215",
        "string_216",
        "string_217",
        "string_218",
        "string_219",
        "string_220"
      ]
    },
    {
      "id_qa": "FMSH_PB188a_33-34_102_qa27_v3",
      "id_block": "block_9",
      "question": "Comment a-t-on traduit les modifications de style ?",
      "answer": "entre crochets carrés",
      "answer_stringIds": [
        "string_234",
        "string_235",
        "string_236"
      ]
    },
    {
      "id_qa": "FMSH_PB188a_33-34_102_qa30_v3",
      "id_block": "block_9",
      "question": "Par quoi sont signalées les suppressions ?",
      "answer": "par des crochets",
      "answer_stringIds": [
        "string_281",
        "string_282",
        "string_283",
        "string_284"
      ]
    }
  ]
}