{
  "num": "autog_0249-2563_1980_num_13_4",
  "article": "autog_0249-2563_1980_num_13_4_1388",
  "page_name": "autog_0249-2563_1980_num_13_4_T1_0406_0000",
  "questions": [
    "Quel type de technologie est incompatible avec le développement actuel de l'économie décrite dans le texte ?",
    "Quels sont les critères de qualification pour devenir coopérateur selon la loi ?",
    "Quels sont les travailleurs exclus de la gestion et de la répartition des bénéfices ?",
    "Quel pourcentage des temporaires travaillent à titre permanent malgré l'interdiction légale ?",
    "Quels sont les salaires des travailleurs temporaires par rapport aux membres ?",
    "Quels services sociaux sont inaccessibles aux travailleurs temporaires ?",
    "Comment se pratique-t-il encore l'embauche par les recruteurs ?",
    "Quels sont les travaux les plus durs confiés aux travailleurs temporaires ?",
    "Existent-ils des fonds d'accumulation dans les pratiques des coopératives ?",
    "Comment sont les membres privilégiés dans les coopératives ?",
    "Comment les critères de recrutement des membres relèvent-ils de la société traditionnelle ?",
    "Comment ces coopératives peuvent-elles être considérées comme des organisations modernes ?"
  ]
}