{
  "num": "autog_0249-2563_1980_num_13_4",
  "article": "autog_0249-2563_1980_num_13_4_1388",
  "page_name": "autog_0249-2563_1980_num_13_4_T1_0397_0000",
  "questions": [
    "Quel est le modèle général de la réforme agraire selon le texte ?",
    "Combien de personnes ont été affectées par la réforme agricole ?",
    "Quels types d'organisations agricoles idéales sont visées par la réforme ?",
    "Quels types d'organisations agricoles ont été développées jusqu'à présent ?",
    "Quels types d'organisations agricoles reposent sur des procédures d'expropriation et quels sur le travail d'animation et de conviction ?",
    "Dans quelles zones la réforme a-t-elle été particulièrement développée ?",
    "Quels types d'activités sont pratiqués dans les SAIS ?",
    "Quel titre portera l'étude d'A. Meister sur l'autogestion dans le secteur rural ?",
    "Quand sera-t-il publiée cette étude d'A. Meister ?",
    "Quels types d'institutions agricoles sont-elles en train de s'amorcer selon le texte ?",
    "Quel rôle jouent les communautés indigènes dans les SAIS ?",
    "Quel est le but des coopératives d'intégration parcellaire ?",
    "Quels sont les objectifs de la réforme agricole selon le texte ?",
    "Quel est le statut actuel de la réforme agricole selon le texte ?",
    "Quel est le rôle des coopératives communales dans la réforme agricole ?",
    "Quels sont les types d'exploitations agricoles visées par la réforme ?",
    "Quels sont les types d'exploitations agricoles qui ont été développées jusqu'à présent ?",
    "Quels sont les types d'exploitations agricoles qui reposent sur des procédures d'expropriation et quels sur le travail d'animation et de conviction ?",
    "Quels sont les types d'activités pratiquées dans les coopératives de services ?",
    "Quels sont les types d'activités pratiquées dans les coopér?"
  ]
}