{
  "num": "autog_0249-2563_1980_num_13_4",
  "article": "autog_0249-2563_1980_num_13_4_1388",
  "page_name": "autog_0249-2563_1980_num_13_4_T1_0405_0000",
  "questions": [
    "Quels types de cultures sont traditionnellement cultivées dans la côte péruvienne, remplaçant les grandes plantations d'exportation ?",
    "En ce qui concerne les structures et les organigrammes, comment la coopérative agricole de production diffère-t-elle des grandes SAIS ?",
    "Quels sont les douze complexes agro-industriels sucriers les plus dynamiques et concentrés de l'agriculture péruvienne ?",
    "Quel est le secteur agricole le plus dynamique et le plus concentré en termes de superficies et de travailleurs ?",
    "Comment les coopératives agricoles se distinguent-elles des autres coopératives par rapport à l'inclusion d'opérations de transformation du produit ?",
    "Pourquoi il était impossible de diviser les plantations et de risquer une baisse des productions et des devises ?",
    "Comment le plan national voulait-il accroître les rendements agricoles ?",
    "Quel est le facteur de production déterminant dans l'agriculture péruvienne ?",
    "Comment devait-il réduire le sous-emploi rural le plan national ?",
    "Comment la réforme agraire devait-elle contribuer à réduire le sous-emploi rural ?",
    "Pourquoi la grande entreprise agricole ou industrielle cherche-t-elle à réduire ses coûts de production ?",
    "Comment les coûts sociaux et les équipements sociaux sont-ils réduits par la réduction du travail ?",
    "Comment les techniciens sont-ils attirés par les nouveaux équipements proposés par la technologie des pays riches ?",
    "Comment les techniciens confèrent-ils un prestige particulier à ceux qui les utilisent ?",
    "Quels sont les raisons pour lesquelles les organisations syndicales des ouvriers coûtaient plus cher aux entreprises ?"
  ]
}