{
  "num": "autog_0249-2563_1980_num_13_4",
  "article": "autog_0249-2563_1980_num_13_4_1388",
  "page_name": "autog_0249-2563_1980_num_13_4_T1_0400_0000",
  "questions": [
    "Avant 1969, combien de propriétés avaient été expropriées et pour combien de personnes ça représentait-il?",
    "Quel est le nombre de propriétés expropriées entre 1969 et fin avril 1979?",
    "Quel pourcentage des terres cultivables et de terres de pâture a été exproprié?",
    "Combien de familles ont bénéficié de la réforme et combien de personnes ça représente-t-il?",
    "Quels types d'entités existent ou sont en voie de formation et combien en existe-t-il?",
    "Dans quelles catégories se répartissent les familles bénéficiaires?",
    "Quel est le pourcentage de terres utiles à l'agriculture et à l'élevage par rapport au territoire national?",
    "Quel est le nombre total de personnes touchées par la réforme?",
    "Quel est le pourcentage des meilleures terres qui a été exproprié?",
    "Quel est l'état de la production de canne à sucre, de coton, de riz, de café, de maïs et de fruits?",
    "Quel est l'état de la production de bétail de boucherie et de laine?",
    "Quel est le pourcentage de la production de canne à sucre, de coton, de riz, de café, de maïs et de fruits qui est coopérativisée?",
    "Quel est le pourcentage de la production de bétail de boucherie et de laine qui est coopérativisée?",
    "Quel est le pourcentage de la population rurale qui a été touchée par la réforme?",
    "Quel est le pourcentage de terres expropriées par rapport au total des terres cultivables et de terres de pâture?",
    "Quel est le pourcentage de terres expropriées par rapport au territoire national?"
  ]
}