{
  "num": "autog_0249-2563_1980_num_13_4",
  "article": "autog_0249-2563_1980_num_13_4_1388",
  "page_name": "autog_0249-2563_1980_num_13_4_T1_0409_0000",
  "questions": [
    "Quels rôles ont-ils pris les contremaîtres et les styles de commandement dans les entreprises coopératives ?",
    "Pourquoi la formation de syndicats est-elle combattue ou découragée dans ces entreprises ?",
    "Quel est le rôle de l'assemblée générale du personnel dans la participation des coopérateurs ?",
    "Quels sont les buts des comités spéciaux et pourquoi ne sont-ils pas encore présents dans un grand nombre de coopératives ?",
    "Comment fonctionnent les organismes de la démocratie coopérative et quels sont les conflits de pouvoir qui en résultent ?",
    "Comment les gérants et les techniciens sont-ils formés et comment cela influence-t-il leur gestion ?",
    "Quels sont les rôles des membres élus dans les conseils d'administration et de surveillance et dans les conseils des SAIs ?",
    "Comment ces organismes influencent-ils la création d'une couche de notables ?",
    "Comment les délégués des communautés dans les conseils des SAIs rentrent-ils à la fin de leur mandat et quels sont leurs nouveaux postes ?",
    "Comment les leaders des coopératives de production deviennent-ils des dirigeants « professionnels » agraires et d'autres ?"
  ]
}