{
  "num": "autog_0005-0970_1969_num_9_1",
  "article": "autog_0005-0970_1969_num_9_1_1808",
  "page_name": "FMSH_PB188a_09-10_136",
  "questions": [
    {
      "id_qa": "FMSH_PB188a_09-10_136_qa2_v3",
      "id_block": "block_2",
      "question": "Qui évite les attitudes pieuses envers l'autogestion ?",
      "answer": "Lourau",
      "answer_stringIds": [
        "string_32"
      ]
    },
    {
      "id_qa": "FMSH_PB188a_09-10_136_qa12_v3",
      "id_block": "block_2",
      "question": "Qui a écrit la revue « Socialisme ou Barbarie » ?",
      "answer": "Lourau",
      "answer_stringIds": [
        "string_32"
      ]
    },
    {
      "id_qa": "FMSH_PB188a_09-10_136_qa7_v3",
      "id_block": "block_3",
      "question": "Qu'est ce qui a ébranlé la Sorbonne et la papauté ?",
      "answer": "une « révolution pédagogique",
      "answer_stringIds": [
        "string_234",
        "string_235",
        "string_236",
        "string_237",
        "string_238"
      ]
    },
    {
      "id_qa": "FMSH_PB188a_09-10_136_qa25_v3",
      "id_block": "block_3",
      "question": "Qui a un lien fondamental avec son statut de journaliste réduit aux « menus profits de l'écrivain fauché » ?",
      "answer": "celle de Marx",
      "answer_stringIds": [
        "string_331",
        "string_332",
        "string_333"
      ]
    }
  ]
}