{
  "num": "autog_0338-7259_1975_num_32_1",
  "article": "autog_0338-7259_1975_num_32_1_1138",
  "page_name": "FMSH_PB188a_00032_014",
  "questions": [
    "Qui sont Jacqueline Pluet et Olivier Corpet ?",
    "Ce mouvement d'autogestion pourrait-il servir de lien entre toutes les contestations diverses ?",
    "Quel est le rôle de la théorie de l'autogestion dans ce mouvement ?",
    "Quels travaux économiques sur l'autogestion sont considérés comme autoritatires ?",
    "Comment s'est formé le mouvement économique radical en 1968 ?",
    "Qu'est-ce que le radical caucus ?",
    "These questions aim to encourage further exploration and analysis of the text, while remaining open-ended and focused on specific elements of the paragraph. They can be used as a starting point for a more in-depth study of the topic.?"
  ]
}