{
  "num": "autog_0338-7259_1975_num_32_1",
  "article": "autog_0338-7259_1975_num_32_1_1138",
  "page_name": "FMSH_PB188a_00032_016",
  "questions": [
    "Quels auteurs sont mentionnés dans ce passage et pour quels raisons ?",
    "Quels sont les « grands ancêtres » du socialisme que Jacqueline Pluet et Olivier Corpet critiquent ?",
    "Pourquoi ces auteurs refusent-ils de s'opposer entre deux dogmatismes ?",
    "Comment ces auteurs justifient l'utilisation de l'économie néo-classique dans un contexte socialiste ?",
    "Quels sont les principaux effets sociaux de l'économie néo-classique selon ces auteurs ?",
    "Quels sont les critiques conservatrices et libérales à l'égard de l'économie radicale ?",
    "Quels sont les liens entre les auteurs mentionnés et les associations critiques des sciences économiques et sociales ?",
    "En quels contextes ont été écrites les œuvres de Jacqueline Pluet et Olivier Corpet citées ?",
    "Quels sont les titres des articles et livres mentionnés dans le passage ?"
  ]
}