{
  "num": "autog_0249-2563_1984_num_17_17",
  "article": "autog_0249-2563_1984_num_17_17_1907",
  "page_name": "autog_0249-2563_1984_num_17_17_T1_0119_0000",
  "questions": [
    {
      "id_qa": "autog_0249-2563_1984_num_17_17_T1_0119_0000_qa12_v3",
      "id_block": "block_0",
      "question": "Quelle est l'identité de la vallée vosgienne ?",
      "answer": "fragile",
      "answer_stringIds": [
        "string_47"
      ]
    },
    {
      "id_qa": "autog_0249-2563_1984_num_17_17_T1_0119_0000_qa0_v3",
      "id_block": "block_2",
      "question": "Que rencontre-t-on dans une région où cette notion émerge lentement ?",
      "answer": "certaines résistances",
      "answer_stringIds": [
        "string_161",
        "string_162"
      ]
    },
    {
      "id_qa": "autog_0249-2563_1984_num_17_17_T1_0119_0000_qa11_v3",
      "id_block": "block_2",
      "question": "Quel est le nom du groupe informel de réflexion et de proposition ?",
      "answer": "le développement local",
      "answer_stringIds": [
        "string_144",
        "string_145",
        "string_146"
      ]
    }
  ]
}