{
  "num": "autog_0249-2563_1984_num_17_17",
  "article": "autog_0249-2563_1984_num_17_17_1907",
  "page_name": "autog_0249-2563_1984_num_17_17_T1_0111_0000",
  "questions": [
    {
      "id_qa": "autog_0249-2563_1984_num_17_17_T1_0111_0000_qa7_v3",
      "id_block": "block_2",
      "question": "Qu'est ce qui suscite de nouvelles interrogations sur l'autonomie ou l'autogestion ?",
      "answer": "ces démarches locales de développement",
      "answer_stringIds": [
        "string_75",
        "string_76",
        "string_77",
        "string_78",
        "string_79"
      ]
    },
    {
      "id_qa": "autog_0249-2563_1984_num_17_17_T1_0111_0000_qa9_v3",
      "id_block": "block_2",
      "question": "Qu'est-ce que cet itinéraire voudrait rendre compte ?",
      "answer": "pratiques locales",
      "answer_stringIds": [
        "string_25",
        "string_26"
      ]
    },
    {
      "id_qa": "autog_0249-2563_1984_num_17_17_T1_0111_0000_qa12_v3",
      "id_block": "block_2",
      "question": "A quoi s'autoapproprier les pratiques locales ?",
      "answer": "les conditions de leur exercice",
      "answer_stringIds": [
        "string_43",
        "string_44",
        "string_45",
        "string_46",
        "string_47"
      ]
    },
    {
      "id_qa": "autog_0249-2563_1984_num_17_17_T1_0111_0000_qa0_v3",
      "id_block": "block_3",
      "question": "Quel est le nom du consensus social ?",
      "answer": "La « fibre alsacienne",
      "answer_stringIds": [
        "string_113",
        "string_114",
        "string_115",
        "string_116"
      ]
    },
    {
      "id_qa": "autog_0249-2563_1984_num_17_17_T1_0111_0000_qa1_v3",
      "id_block": "block_3",
      "question": "Qu'a réussi à atténuer les effets de l'exode rural ?",
      "answer": "ce bel agencement ordonné",
      "answer_stringIds": [
        "string_229",
        "string_230",
        "string_231",
        "string_232"
      ]
    },
    {
      "id_qa": "autog_0249-2563_1984_num_17_17_T1_0111_0000_qa2_v3",
      "id_block": "block_3",
      "question": "Qu'est ce qui n'a pas réussi à atténuer les effets de l'exode rural ?",
      "answer": "ce bel agencement ordonné",
      "answer_stringIds": [
        "string_229",
        "string_230",
        "string_231",
        "string_232"
      ]
    },
    {
      "id_qa": "autog_0249-2563_1984_num_17_17_T1_0111_0000_qa3_v3",
      "id_block": "block_3",
      "question": "Quelle est la conséquence de l'exode rural ?",
      "answer": "les disparités infra-régionales",
      "answer_stringIds": [
        "string_244",
        "string_245",
        "string_246"
      ]
    },
    {
      "id_qa": "autog_0249-2563_1984_num_17_17_T1_0111_0000_qa4_v3",
      "id_block": "block_3",
      "question": "Qu'est-ce qui a permis d'atténuer les effets de l'exode rural ?",
      "answer": "ce bel agencement",
      "answer_stringIds": [
        "string_229",
        "string_230",
        "string_231"
      ]
    },
    {
      "id_qa": "autog_0249-2563_1984_num_17_17_T1_0111_0000_qa5_v3",
      "id_block": "block_3",
      "question": "Quelles sont les conséquences de l'exode rural ?",
      "answer": "les disparités infra-régionales",
      "answer_stringIds": [
        "string_244",
        "string_245",
        "string_246"
      ]
    },
    {
      "id_qa": "autog_0249-2563_1984_num_17_17_T1_0111_0000_qa14_v3",
      "id_block": "block_3",
      "question": "A quoi l'Alsace résista-t-elle plus longtemps que l'ensemble de l'intérieur ?",
      "answer": "à la crise",
      "answer_stringIds": [
        "string_100",
        "string_101",
        "string_102"
      ]
    }
  ]
}