{
  "num": "autog_0249-2563_1984_num_17_17",
  "article": "autog_0249-2563_1984_num_17_17_1907",
  "page_name": "autog_0249-2563_1984_num_17_17_T1_0113_0000",
  "questions": [
    {
      "id_qa": "autog_0249-2563_1984_num_17_17_T1_0113_0000_qa39_v3",
      "id_block": "block_0",
      "question": "Qu'est ce qui ne doit pas être négligée ?",
      "answer": "des oppositions internes diverses",
      "answer_stringIds": [
        "string_14",
        "string_15",
        "string_16",
        "string_17"
      ]
    },
    {
      "id_qa": "autog_0249-2563_1984_num_17_17_T1_0113_0000_qa2_v3",
      "id_block": "block_2",
      "question": "Qui peut se réapproprier les formes de savoir local ?",
      "answer": "les habitants des vallées",
      "answer_stringIds": [
        "string_333",
        "string_334",
        "string_335",
        "string_336"
      ]
    },
    {
      "id_qa": "autog_0249-2563_1984_num_17_17_T1_0113_0000_qa6_v3",
      "id_block": "block_2",
      "question": "Qu'est-ce qui résiste à la normalisation ?",
      "answer": "le local",
      "answer_stringIds": [
        "string_359",
        "string_360"
      ]
    },
    {
      "id_qa": "autog_0249-2563_1984_num_17_17_T1_0113_0000_qa14_v3",
      "id_block": "block_2",
      "question": "Où est exilé le savoir local ?",
      "answer": "dans les bureaux des administrations",
      "answer_stringIds": [
        "string_398",
        "string_399",
        "string_400",
        "string_401",
        "string_402"
      ]
    },
    {
      "id_qa": "autog_0249-2563_1984_num_17_17_T1_0113_0000_qa16_v3",
      "id_block": "block_2",
      "question": "A qui s'adresse la restitution du savoir local spécifique ?",
      "answer": "des habitants",
      "answer_stringIds": [
        "string_314",
        "string_315"
      ]
    },
    {
      "id_qa": "autog_0249-2563_1984_num_17_17_T1_0113_0000_qa19_v3",
      "id_block": "block_2",
      "question": "A quoi résiste le local ?",
      "answer": "la normalisation",
      "answer_stringIds": [
        "string_500",
        "string_501"
      ]
    },
    {
      "id_qa": "autog_0249-2563_1984_num_17_17_T1_0113_0000_qa20_v3",
      "id_block": "block_2",
      "question": "Qui peut se réapproprier certaines formes de savoir local ?",
      "answer": "les habitants des vallées",
      "answer_stringIds": [
        "string_333",
        "string_334",
        "string_335",
        "string_336"
      ]
    },
    {
      "id_qa": "autog_0249-2563_1984_num_17_17_T1_0113_0000_qa35_v3",
      "id_block": "block_2",
      "question": "Quel est le métier des chargés d'études ?",
      "answer": "leur emploi",
      "answer_stringIds": [
        "string_266",
        "string_267"
      ]
    },
    {
      "id_qa": "autog_0249-2563_1984_num_17_17_T1_0113_0000_qa38_v3",
      "id_block": "block_2",
      "question": "Comment se définit le projet de l'association ?",
      "answer": "comme territorial et transversal",
      "answer_stringIds": [
        "string_195",
        "string_196",
        "string_197",
        "string_198"
      ]
    }
  ]
}