{
  "num": "autog_0338-7259_1975_num_30_1",
  "article": "autog_0338-7259_1975_num_30_1_1129",
  "page_name": "FMSH_PB188a_30-31_119",
  "questions": [
    "Quels responsables locaux sont-ils référencés dans le texte et quels pouvoirs représentent-ils ?",
    "Quel sens donne l'auteur à la notion de spontanéité ?",
    "Qu'est-ce qui empêche Duprat de comprendre le discours réel induisant le mouvement d'autogestion ?",
    "Pourquoi est Duprat obsédé par l'idée de dénoncer l'influence marxiste dans les textes de la révolution algérienne ?",
    "Qu'est-ce que la plate-forme de la Soummam insiste sur en matière de l'influence de la CGT ?",
    "Qu'est-ce que Koulytchizky affirme sur l'origine de l'autogestion en Algérie ?",
    "Quels partis et mouvements politiques algériens cherche-t-on en vain pour trouver les racines de l'autogestion ?",
    "Qu'est-ce que Duprat ne voit pas dans la plate-forme de la Soummam ?",
    "Qu'est-ce que la plate-forme dénonce quant à l'influence de la CGT ?",
    "Quand a-t-elle été adoptée et où s'est-elle tenue la plate-forme de la Soummam ?"
  ]
}