{
  "num": "autog_0338-7259_1975_num_30_1",
  "article": "autog_0338-7259_1975_num_30_1_1129",
  "page_name": "FMSH_PB188a_30-31_126",
  "questions": [
    "Quels auteurs ont-ils écrit des ouvrages sur les hommes qui ont inscrit l'option autogestionnaire dans la réalité algérienne, selon Duprat ?",
    "Pourquoi Duprat évite-t-il de parler des Bouamra dans la Mitidja et des Medjaher dans la vallée du Chélif, ainsi que de ceux qui leur ont apporté leur appui dans le cadre de la Fédération des travailleurs Agricoles ?",
    "Quels sont les premiers endroits où ont été réalisées les premières formes de prise en main de la gestion par des travailleurs, d'après Duprat ?",
    "Quel est le nom que Duprat donne à la première carte de l'Algérie, et dans quelle partie de cette carte intègre-t-il la presque totalité du territoire de l'« Algérie Centre » ?"
  ]
}