{
  "num": "autog_0005-0970_1969_num_8_1",
  "article": "autog_0005-0970_1969_num_8_1_947",
  "page_name": "FMSH_PB188a_00008_084",
  "questions": [
    {
      "id_qa": "FMSH_PB188a_00008_084_qa8_v3",
      "id_block": "block_1",
      "question": "Quelle est la valeur des associations primaires des producteurs ?",
      "answer": "une valeur de principe",
      "answer_stringIds": [
        "string_8",
        "string_9",
        "string_10",
        "string_11"
      ]
    },
    {
      "id_qa": "FMSH_PB188a_00008_084_qa1_v3",
      "id_block": "block_2",
      "question": "Qu'est-ce qui devient l'objet d'un contrôle direct ?",
      "answer": "des fonctions indispensables de représentation et de coordination",
      "answer_stringIds": [
        "string_157",
        "string_158",
        "string_159",
        "string_160",
        "string_161",
        "string_162",
        "string_163",
        "string_164",
        "string_165"
      ]
    },
    {
      "id_qa": "FMSH_PB188a_00008_084_qa2_v3",
      "id_block": "block_2",
      "question": "Qui contrôle les fonctions indispensables de représentation et de coordination ?",
      "answer": "par les animateurs de la pratique autogestionnaire",
      "answer_stringIds": [
        "string_172",
        "string_173",
        "string_174",
        "string_175",
        "string_176",
        "string_177",
        "string_178"
      ]
    },
    {
      "id_qa": "FMSH_PB188a_00008_084_qa3_v3",
      "id_block": "block_2",
      "question": "Qu'est-ce qui fait l'objet d'un contrôle direct ?",
      "answer": "des fonctions indispensables de représentation et de coordination",
      "answer_stringIds": [
        "string_157",
        "string_158",
        "string_159",
        "string_160",
        "string_161",
        "string_162",
        "string_163",
        "string_164",
        "string_165"
      ]
    },
    {
      "id_qa": "FMSH_PB188a_00008_084_qa6_v3",
      "id_block": "block_2",
      "question": "A quoi sont dues les valeurs de lautorité et de l'influence démocratiques ?",
      "answer": "des résultats",
      "answer_stringIds": [
        "string_199",
        "string_200"
      ]
    },
    {
      "id_qa": "FMSH_PB188a_00008_084_qa7_v3",
      "id_block": "block_2",
      "question": "Qu'est ce qui détermine d'une manière décisive le caractère des rapports à une échelle plus vaste ?",
      "answer": "dans la microstructure de la société autogestionnaire",
      "answer_stringIds": [
        "string_257",
        "string_258",
        "string_259",
        "string_260",
        "string_261",
        "string_262",
        "string_263",
        "string_264"
      ]
    }
  ]
}