{
  "num": "autog_0338-7259_1973_num_24_1",
  "article": "autog_0338-7259_1973_num_24_1_1823",
  "page_name": "FMSH_PB188a_24-25_007",
  "questions": [
    {
      "id_qa": "FMSH_PB188a_24-25_007_qa12_v3",
      "id_block": "block_1",
      "question": "Qu'est-ce que prendre les ouvriers de chez Lip ?",
      "answer": "le contrôle de leur entreprise",
      "answer_stringIds": [
        "string_22",
        "string_23",
        "string_24",
        "string_25",
        "string_26"
      ]
    },
    {
      "id_qa": "FMSH_PB188a_24-25_007_qa13_v3",
      "id_block": "block_1",
      "question": "Qui a l'idée de prendre eux-mêmes le contrôle de leur entreprise ?",
      "answer": "aux ouvriers de chez Lip",
      "answer_stringIds": [
        "string_13",
        "string_14",
        "string_15",
        "string_16",
        "string_17"
      ]
    },
    {
      "id_qa": "FMSH_PB188a_24-25_007_qa7_v3",
      "id_block": "block_2",
      "question": "Qu'est ce qui est condamné au psittacisme ou à improvisation sans fondement ni perspective ?",
      "answer": "le militantisme autogestionnaire",
      "answer_stringIds": [
        "string_367",
        "string_368",
        "string_369"
      ]
    },
    {
      "id_qa": "FMSH_PB188a_24-25_007_qa8_v3",
      "id_block": "block_2",
      "question": "Qu'est-ce que le militantisme autogestionnaire ?",
      "answer": "psittacisme ou à improvisation sans fondement ni perspective",
      "answer_stringIds": [
        "string_372",
        "string_373",
        "string_374",
        "string_375",
        "string_376",
        "string_377",
        "string_378",
        "string_379"
      ]
    },
    {
      "id_qa": "FMSH_PB188a_24-25_007_qa18_v3",
      "id_block": "block_2",
      "question": "Qu'est-ce que le divorce entre la scientificité et la philosophie fondamentale ?",
      "answer": "le travail théorique",
      "answer_stringIds": [
        "string_322",
        "string_323",
        "string_324"
      ]
    }
  ]
}