{
  "num": "autog_0005-0970_1967_num_4_1",
  "article": "autog_0005-0970_1967_num_4_1_909",
  "page_name": "FMSH_PB188a_00004_008",
  "questions": [
    {
      "id_qa": "FMSH_PB188a_00004_008_qa28_v3",
      "id_block": "block_3",
      "question": "Quand est-ce que leur essence de classe se fait sentir ?",
      "answer": "au cours de la révolution",
      "answer_stringIds": [
        "string_77",
        "string_78",
        "string_79",
        "string_80",
        "string_81"
      ]
    },
    {
      "id_qa": "FMSH_PB188a_00004_008_qa29_v3",
      "id_block": "block_3",
      "question": "Qu'est ce qui se fait sentir au cours de la révolution ?",
      "answer": "leur nature révolutionnaire de combat",
      "answer_stringIds": [
        "string_56",
        "string_57",
        "string_58",
        "string_59",
        "string_60"
      ]
    },
    {
      "id_qa": "FMSH_PB188a_00004_008_qa1_v3",
      "id_block": "block_4",
      "question": "Quand commence leur rôle économique combattant et révolutionnaire ?",
      "answer": "avec cette période chaude de la lutte la plus acharnée",
      "answer_stringIds": [
        "string_234",
        "string_235",
        "string_236",
        "string_237",
        "string_238",
        "string_239",
        "string_240",
        "string_241",
        "string_242",
        "string_243"
      ]
    },
    {
      "id_qa": "FMSH_PB188a_00004_008_qa3_v3",
      "id_block": "block_4",
      "question": "Quel est le nom de la lutte la plus acharnée ?",
      "answer": "révolution",
      "answer_stringIds": [
        "string_9"
      ]
    },
    {
      "id_qa": "FMSH_PB188a_00004_008_qa4_v3",
      "id_block": "block_4",
      "question": "Qu'est-ce que la révolution ?",
      "answer": "de la lutte la plus acharnée",
      "answer_stringIds": [
        "string_238",
        "string_239",
        "string_240",
        "string_241",
        "string_242",
        "string_243"
      ]
    },
    {
      "id_qa": "FMSH_PB188a_00004_008_qa14_v3",
      "id_block": "block_5",
      "question": "Qu'est ce qui fut introduit par la révolution ?",
      "answer": "les changements",
      "answer_stringIds": [
        "string_274",
        "string_275"
      ]
    },
    {
      "id_qa": "FMSH_PB188a_00004_008_qa5_v3",
      "id_block": "block_7",
      "question": "Quelle est la principale force motrice de la révolution ?",
      "answer": "le prolétariat",
      "answer_stringIds": [
        "string_310",
        "string_311"
      ]
    },
    {
      "id_qa": "FMSH_PB188a_00004_008_qa6_v3",
      "id_block": "block_7",
      "question": "Qu'est-ce que le prolétariat ?",
      "answer": "une nouvelle classe",
      "answer_stringIds": [
        "string_329",
        "string_330",
        "string_331"
      ]
    },
    {
      "id_qa": "FMSH_PB188a_00004_008_qa26_v3",
      "id_block": "block_8",
      "question": "Qu'est ce qui démolit le prolétariat ?",
      "answer": "les dernières citadelles du tsarisme",
      "answer_stringIds": [
        "string_371",
        "string_372",
        "string_373",
        "string_374",
        "string_375"
      ]
    },
    {
      "id_qa": "FMSH_PB188a_00004_008_qa27_v3",
      "id_block": "block_8",
      "question": "Qui démolit les dernières citadelles du tsarisme ?",
      "answer": "le prolétariat",
      "answer_stringIds": [
        "string_310",
        "string_311"
      ]
    },
    {
      "id_qa": "FMSH_PB188a_00004_008_qa18_v3",
      "id_block": "block_9",
      "question": "Qu'est ce qui a été accompli par le prolétariat ?",
      "answer": "la révolution",
      "answer_stringIds": [
        "string_8",
        "string_9"
      ]
    },
    {
      "id_qa": "FMSH_PB188a_00004_008_qa22_v3",
      "id_block": "block_9",
      "question": "A qui appartenait la révolution ?",
      "answer": "la bourgeoisie",
      "answer_stringIds": [
        "string_401",
        "string_402"
      ]
    },
    {
      "id_qa": "FMSH_PB188a_00004_008_qa23_v3",
      "id_block": "block_9",
      "question": "Par qui la révolution avait-elle été accomplie ?",
      "answer": "le prolétariat",
      "answer_stringIds": [
        "string_310",
        "string_311"
      ]
    }
  ]
}