{
  "num": "autog_0005-0970_1967_num_4_1",
  "article": "autog_0005-0970_1967_num_4_1_909",
  "page_name": "FMSH_PB188a_00004_027",
  "questions": [
    {
      "id_qa": "FMSH_PB188a_00004_027_qa35_v3",
      "id_block": "block_1",
      "question": "Combien y a-t-il de voies ?",
      "answer": "plus de 60",
      "answer_stringIds": [
        "string_20",
        "string_21",
        "string_22"
      ]
    },
    {
      "id_qa": "FMSH_PB188a_00004_027_qa18_v3",
      "id_block": "block_10",
      "question": "Où se manifesta l'attitude du prolétariat d'usine ?",
      "answer": "dans les discours à la séance du Soviet de Moscou",
      "answer_stringIds": [
        "string_465",
        "string_466",
        "string_467",
        "string_468",
        "string_469",
        "string_470",
        "string_471",
        "string_472",
        "string_473",
        "string_474"
      ]
    },
    {
      "id_qa": "FMSH_PB188a_00004_027_qa19_v3",
      "id_block": "block_10",
      "question": "Quand a eu lieu la séance du Soviet de Moscou ?",
      "answer": "le 11 août",
      "answer_stringIds": [
        "string_475",
        "string_476",
        "string_477"
      ]
    },
    {
      "id_qa": "FMSH_PB188a_00004_027_qa4_v3",
      "id_block": "block_3",
      "question": "Qui a prononcé une formulation beaucoup plus tranchante ?",
      "answer": "Riabouchinsky",
      "answer_stringIds": [
        "string_238"
      ]
    },
    {
      "id_qa": "FMSH_PB188a_00004_027_qa20_v3",
      "id_block": "block_8",
      "question": "Qui a essayé de protester et de lutter ?",
      "answer": "le prolétariat",
      "answer_stringIds": [
        "string_327",
        "string_328"
      ]
    },
    {
      "id_qa": "FMSH_PB188a_00004_027_qa21_v3",
      "id_block": "block_8",
      "question": "Qu'est ce que le prolétariat essaya de faire ?",
      "answer": "protester et de lutter",
      "answer_stringIds": [
        "string_390",
        "string_391",
        "string_392",
        "string_393"
      ]
    },
    {
      "id_qa": "FMSH_PB188a_00004_027_qa25_v3",
      "id_block": "block_8",
      "question": "Quand a eu lieu la grève générale ?",
      "answer": "le 12 août",
      "answer_stringIds": [
        "string_417",
        "string_418",
        "string_419"
      ]
    },
    {
      "id_qa": "FMSH_PB188a_00004_027_qa27_v3",
      "id_block": "block_8",
      "question": "Qu'est ce qui a eu lieu le 12 août ?",
      "answer": "une grève générale",
      "answer_stringIds": [
        "string_425",
        "string_426",
        "string_427"
      ]
    }
  ]
}