{
  "num": "autog_0005-0970_1967_num_4_1",
  "article": "autog_0005-0970_1967_num_4_1_909",
  "page_name": "FMSH_PB188a_00004_050",
  "questions": [
    {
      "id_qa": "FMSH_PB188a_00004_050_qa2_v3",
      "id_block": "block_1",
      "question": "Qui déclare que le gouvernement de la bourgeoisie contre-révolutionnaire perd le pays ?",
      "answer": "le peuple",
      "answer_stringIds": [
        "string_4",
        "string_5"
      ]
    },
    {
      "id_qa": "FMSH_PB188a_00004_050_qa4_v3",
      "id_block": "block_1",
      "question": "Que déclare le peuple en lution ?",
      "answer": "le gouvernement de la bourgeoisie contre-révolutionnaire perd le pays",
      "answer_stringIds": [
        "string_8",
        "string_9",
        "string_10",
        "string_11",
        "string_12",
        "string_13",
        "string_14",
        "string_15",
        "string_16"
      ]
    },
    {
      "id_qa": "FMSH_PB188a_00004_050_qa5_v3",
      "id_block": "block_1",
      "question": "Qui perd le pays ?",
      "answer": "le gouvernement de la bourgeoisie contre-révolutionnaire",
      "answer_stringIds": [
        "string_8",
        "string_9",
        "string_10",
        "string_11",
        "string_12",
        "string_13"
      ]
    },
    {
      "id_qa": "FMSH_PB188a_00004_050_qa12_v3",
      "id_block": "block_1",
      "question": "Quel est le but de la guerre ?",
      "answer": "la révolution",
      "answer_stringIds": [
        "string_28",
        "string_29"
      ]
    },
    {
      "id_qa": "FMSH_PB188a_00004_050_qa13_v3",
      "id_block": "block_1",
      "question": "Par quoi la révolution est-elle tuée ?",
      "answer": "par la famine",
      "answer_stringIds": [
        "string_30",
        "string_31",
        "string_32"
      ]
    },
    {
      "id_qa": "FMSH_PB188a_00004_050_qa14_v3",
      "id_block": "block_1",
      "question": "Que doit proposer le pouvoir soviétique à tous les peuples ?",
      "answer": "un armistice immédiat",
      "answer_stringIds": [
        "string_83",
        "string_84",
        "string_85",
        "string_86"
      ]
    },
    {
      "id_qa": "FMSH_PB188a_00004_050_qa15_v3",
      "id_block": "block_1",
      "question": "Qui doit proposer un armistice immédiat ?",
      "answer": "Le pouvoir soviétique",
      "answer_stringIds": [
        "string_74",
        "string_75",
        "string_76"
      ]
    },
    {
      "id_qa": "FMSH_PB188a_00004_050_qa16_v3",
      "id_block": "block_1",
      "question": "A qui le pouvoir soviétique doit-il proposer un armistice ?",
      "answer": "à tous les peuples",
      "answer_stringIds": [
        "string_79",
        "string_80",
        "string_81",
        "string_82"
      ]
    },
    {
      "id_qa": "FMSH_PB188a_00004_050_qa18_v3",
      "id_block": "block_1",
      "question": "Qui doit proposer à tous les peuples un armistice immédiat ?",
      "answer": "Le pouvoir soviétique",
      "answer_stringIds": [
        "string_74",
        "string_75",
        "string_76"
      ]
    },
    {
      "id_qa": "FMSH_PB188a_00004_050_qa23_v3",
      "id_block": "block_1",
      "question": "Qui doit donner sans tarder la terre aux comités agraires de paysans ?",
      "answer": "Le pouvoir soviétique",
      "answer_stringIds": [
        "string_74",
        "string_75",
        "string_76"
      ]
    },
    {
      "id_qa": "FMSH_PB188a_00004_050_qa24_v3",
      "id_block": "block_1",
      "question": "Qui donne la terre aux comités agraires de paysans ?",
      "answer": "Le pouvoir soviétique",
      "answer_stringIds": [
        "string_74",
        "string_75",
        "string_76"
      ]
    },
    {
      "id_qa": "FMSH_PB188a_00004_050_qa35_v3",
      "id_block": "block_1",
      "question": "Par qui sont dirigés les buts de la révolution ?",
      "answer": "par les masses travailleuses",
      "answer_stringIds": [
        "string_57",
        "string_58",
        "string_59",
        "string_60"
      ]
    },
    {
      "id_qa": "FMSH_PB188a_00004_050_qa28_v3",
      "id_block": "block_2",
      "question": "Qui a pris la décision sur le contrôle ouvrier ?",
      "answer": "par la Conférence panrusse",
      "answer_stringIds": [
        "string_146",
        "string_147",
        "string_148",
        "string_149"
      ]
    },
    {
      "id_qa": "FMSH_PB188a_00004_050_qa29_v3",
      "id_block": "block_2",
      "question": "Qu'est-ce qui devait naturellement s'imposer à la Conférence panrusse ?",
      "answer": "la décision sur le contrôle ouvrier",
      "answer_stringIds": [
        "string_150",
        "string_151",
        "string_152",
        "string_153",
        "string_154",
        "string_155"
      ]
    },
    {
      "id_qa": "FMSH_PB188a_00004_050_qa8_v3",
      "id_block": "block_3",
      "question": "Qui veut faire triompher ses aspirations démocratiques sur le plan économique ?",
      "answer": "la classe ouvrière",
      "answer_stringIds": [
        "string_174",
        "string_175",
        "string_176"
      ]
    },
    {
      "id_qa": "FMSH_PB188a_00004_050_qa20_v3",
      "id_block": "block_5",
      "question": "Qui est intéressé au travail régulier et ininterrompu des entreprises ?",
      "answer": "Les ouvriers",
      "answer_stringIds": [
        "string_272",
        "string_273"
      ]
    },
    {
      "id_qa": "FMSH_PB188a_00004_050_qa21_v3",
      "id_block": "block_5",
      "question": "Qu'est ce qui intéresse les ouvriers plus que les patrons ?",
      "answer": "travail régulier et ininterrompu des entreprises",
      "answer_stringIds": [
        "string_281",
        "string_282",
        "string_283",
        "string_284",
        "string_285",
        "string_286"
      ]
    },
    {
      "id_qa": "FMSH_PB188a_00004_050_qa32_v3",
      "id_block": "block_7",
      "question": "Qu'est-ce qui est mis en lumière par l'auteur ?",
      "answer": "les tâches pratiques du contrôle ouvrier",
      "answer_stringIds": [
        "string_395",
        "string_396",
        "string_397",
        "string_398",
        "string_399",
        "string_400"
      ]
    },
    {
      "id_qa": "FMSH_PB188a_00004_050_qa1_v3",
      "id_block": "block_8",
      "question": "Qui décide de la mise en place du contrôle ouvrier ?",
      "answer": "la décision de la Conférence",
      "answer_stringIds": [
        "string_439",
        "string_440",
        "string_441",
        "string_442",
        "string_443"
      ]
    }
  ]
}