{
  "num": "autog_0005-0970_1967_num_4_1",
  "article": "autog_0005-0970_1967_num_4_1_909",
  "page_name": "FMSH_PB188a_00004_049",
  "questions": [
    {
      "id_qa": "FMSH_PB188a_00004_049_qa33_v3",
      "id_block": "block_1",
      "question": "Où ont eu lieu les conférences de comités d'usines ?",
      "answer": "dans presque toutes les grandes villes industrielles russes",
      "answer_stringIds": [
        "string_32",
        "string_33",
        "string_34",
        "string_35",
        "string_36",
        "string_37",
        "string_38",
        "string_39"
      ]
    },
    {
      "id_qa": "FMSH_PB188a_00004_049_qa42_v3",
      "id_block": "block_1",
      "question": "Quel est le but de la lutte finale contre le capital ?",
      "answer": "leur centre de combat",
      "answer_stringIds": [
        "string_15",
        "string_16",
        "string_17",
        "string_18"
      ]
    },
    {
      "id_qa": "FMSH_PB188a_00004_049_qa43_v3",
      "id_block": "block_1",
      "question": "Qui a été élu là où ils n'existaient pas encore ?",
      "answer": "Les soviets",
      "answer_stringIds": [
        "string_40",
        "string_41"
      ]
    },
    {
      "id_qa": "FMSH_PB188a_00004_049_qa19_v3",
      "id_block": "block_2",
      "question": "Qu'est ce qui détermina le chemin que devait suivre la Conférence panrusse ?",
      "answer": "les décisions révolutionnaires",
      "answer_stringIds": [
        "string_127",
        "string_128",
        "string_129"
      ]
    },
    {
      "id_qa": "FMSH_PB188a_00004_049_qa34_v3",
      "id_block": "block_2",
      "question": "Qui convoqua sa quatrième conférence préparatoire des comités d'usines ?",
      "answer": "le prolétariat de Pétrograd",
      "answer_stringIds": [
        "string_111",
        "string_112",
        "string_113",
        "string_114"
      ]
    },
    {
      "id_qa": "FMSH_PB188a_00004_049_qa23_v3",
      "id_block": "block_3",
      "question": "Entre qui est arrivé le moment décisif de la bataille ?",
      "answer": "le prolétariat révolutionnaire et la bourgeoisie contre-révolutionnaire",
      "answer_stringIds": [
        "string_171",
        "string_172",
        "string_173",
        "string_174",
        "string_175",
        "string_176",
        "string_177"
      ]
    },
    {
      "id_qa": "FMSH_PB188a_00004_049_qa28_v3",
      "id_block": "block_3",
      "question": "Qu'est ce qui est ourdi contre la révolution ?",
      "answer": "Un complot",
      "answer_stringIds": [
        "string_220",
        "string_221"
      ]
    },
    {
      "id_qa": "FMSH_PB188a_00004_049_qa0_v3",
      "id_block": "block_6",
      "question": "Qu'est ce qui permet de consolider les conquêtes des ouvriers ?",
      "answer": "la prise du pouvoir politique",
      "answer_stringIds": [
        "string_377",
        "string_378",
        "string_379",
        "string_380",
        "string_381"
      ]
    },
    {
      "id_qa": "FMSH_PB188a_00004_049_qa2_v3",
      "id_block": "block_6",
      "question": "Qu'est-ce qui peut réellement consolider les conquêtes des ouvriers ?",
      "answer": "la prise du pouvoir politique",
      "answer_stringIds": [
        "string_377",
        "string_378",
        "string_379",
        "string_380",
        "string_381"
      ]
    },
    {
      "id_qa": "FMSH_PB188a_00004_049_qa31_v3",
      "id_block": "block_6",
      "question": "Qui s'immisce dans le domaine de la production ?",
      "answer": "prolétariat",
      "answer_stringIds": [
        "string_112"
      ]
    }
  ]
}