{
  "num": "autog_0005-0970_1967_num_4_1",
  "article": "autog_0005-0970_1967_num_4_1_909",
  "page_name": "FMSH_PB188a_00004_013",
  "questions": [
    {
      "id_qa": "FMSH_PB188a_00004_013_qa2_v3",
      "id_block": "block_1",
      "question": "A qui devaient s'ouvrir les règlements intérieurs des usines ?",
      "answer": "aux starostes ouvriers",
      "answer_stringIds": [
        "string_53",
        "string_54",
        "string_55"
      ]
    },
    {
      "id_qa": "FMSH_PB188a_00004_013_qa23_v3",
      "id_block": "block_2",
      "question": "Qu'est ce qui a influencé les droits et les devoirs des Comités d'usines ?",
      "answer": "les raisons révolutionnaires qui",
      "answer_stringIds": [
        "string_88",
        "string_89",
        "string_90",
        "string_91"
      ]
    },
    {
      "id_qa": "FMSH_PB188a_00004_013_qa24_v3",
      "id_block": "block_2",
      "question": "D'où venaient les raisons révolutionnaires ?",
      "answer": "des profondeurs de la masse ouvrière",
      "answer_stringIds": [
        "string_93",
        "string_94",
        "string_95",
        "string_96",
        "string_97",
        "string_98",
        "string_99"
      ]
    },
    {
      "id_qa": "FMSH_PB188a_00004_013_qa30_v3",
      "id_block": "block_4",
      "question": "Que devait tirer le prolétariat selon la théorie régnante du socialisme ?",
      "answer": "avantages et profits concrets de sa victoire de classe",
      "answer_stringIds": [
        "string_140",
        "string_141",
        "string_142",
        "string_143",
        "string_144",
        "string_145",
        "string_146",
        "string_147",
        "string_148"
      ]
    },
    {
      "id_qa": "FMSH_PB188a_00004_013_qa31_v3",
      "id_block": "block_4",
      "question": "Qui devait tirer profit de sa victoire de classe ?",
      "answer": "Le prolétariat",
      "answer_stringIds": [
        "string_112",
        "string_113"
      ]
    },
    {
      "id_qa": "FMSH_PB188a_00004_013_qa17_v3",
      "id_block": "block_5",
      "question": "Quel était l'objectif du gouvernement de Goutchkov et de Milioukov ?",
      "answer": "ces exigences du « héros principal de la révolution",
      "answer_stringIds": [
        "string_179",
        "string_180",
        "string_181",
        "string_182",
        "string_183",
        "string_184",
        "string_185",
        "string_186",
        "string_187"
      ]
    },
    {
      "id_qa": "FMSH_PB188a_00004_013_qa5_v3",
      "id_block": "block_7",
      "question": "Qui sortaient des comités d'usines ?",
      "answer": "des « cadres",
      "answer_stringIds": [
        "string_283",
        "string_284",
        "string_285"
      ]
    },
    {
      "id_qa": "FMSH_PB188a_00004_013_qa7_v3",
      "id_block": "block_7",
      "question": "A quoi se heurtèrent les comités d'usines ?",
      "answer": "à une résistance opiniâtre",
      "answer_stringIds": [
        "string_290",
        "string_291",
        "string_292",
        "string_293"
      ]
    },
    {
      "id_qa": "FMSH_PB188a_00004_013_qa21_v3",
      "id_block": "block_7",
      "question": "Qui a écrit Tels sur les exigences des ouvriers ?",
      "answer": "le même Milioukov",
      "answer_stringIds": [
        "string_261",
        "string_262",
        "string_263"
      ]
    },
    {
      "id_qa": "FMSH_PB188a_00004_013_qa26_v3",
      "id_block": "block_7",
      "question": "Par quoi est marquée la protection du travail ?",
      "answer": "par la législation universelle",
      "answer_stringIds": [
        "string_224",
        "string_225",
        "string_226",
        "string_227"
      ]
    },
    {
      "id_qa": "FMSH_PB188a_00004_013_qa28_v3",
      "id_block": "block_7",
      "question": "Qu'est-ce qui ne pouvait mener que vers l'utopie ?",
      "answer": "de la protection du travail",
      "answer_stringIds": [
        "string_218",
        "string_219",
        "string_220",
        "string_221",
        "string_222"
      ]
    },
    {
      "id_qa": "FMSH_PB188a_00004_013_qa33_v3",
      "id_block": "block_8",
      "question": "Qu'obtinrent les députés dant longtemps ?",
      "answer": "la sanction législative du gouvernement",
      "answer_stringIds": [
        "string_305",
        "string_306",
        "string_307",
        "string_308",
        "string_309",
        "string_310"
      ]
    },
    {
      "id_qa": "FMSH_PB188a_00004_013_qa4_v3",
      "id_block": "block_9",
      "question": "Qu'est-ce qui fut légalisé par le gouvernement Goutchkov-Milioukov ?",
      "answer": "les conquêtes révolutionnaires",
      "answer_stringIds": [
        "string_349",
        "string_350",
        "string_351"
      ]
    },
    {
      "id_qa": "FMSH_PB188a_00004_013_qa11_v3",
      "id_block": "block_9",
      "question": "Quel est le centre de gravité de la révolution ?",
      "answer": "le département",
      "answer_stringIds": [
        "string_394",
        "string_395"
      ]
    },
    {
      "id_qa": "FMSH_PB188a_00004_013_qa12_v3",
      "id_block": "block_9",
      "question": "Quel est le centre de gravité du département du travail ?",
      "answer": "dans la création de nouvelles formes législatives garantissant la liberté des organisations ouvrières",
      "answer_stringIds": [
        "string_405",
        "string_406",
        "string_407",
        "string_408",
        "string_409",
        "string_410",
        "string_411",
        "string_412",
        "string_413",
        "string_414",
        "string_415",
        "string_416",
        "string_417",
        "string_418"
      ]
    },
    {
      "id_qa": "FMSH_PB188a_00004_013_qa14_v3",
      "id_block": "block_9",
      "question": "Quel département a été incapable de promulguer une seule loi sur les comités ouvriers dans les établissements industriels ?",
      "answer": "le département du travail",
      "answer_stringIds": [
        "string_394",
        "string_395",
        "string_396",
        "string_397"
      ]
    }
  ]
}