{
  "num": "autog_0005-0970_1967_num_4_1",
  "article": "autog_0005-0970_1967_num_4_1_909",
  "page_name": "FMSH_PB188a_00004_024",
  "questions": [
    {
      "id_qa": "FMSH_PB188a_00004_024_qa30_v3",
      "id_block": "block_3",
      "question": "Quand la capitale lance-t-elle l'offensive contre les conquêtes de la classe ouvrière ?",
      "answer": "En mai",
      "answer_stringIds": [
        "string_44",
        "string_45"
      ]
    },
    {
      "id_qa": "FMSH_PB188a_00004_024_qa0_v3",
      "id_block": "block_4",
      "question": "Qu'annonçait le gouvernement ?",
      "answer": "à chaque conférence panrusse, réunion ou congrès",
      "answer_stringIds": [
        "string_461"
      ]
    },
    {
      "id_qa": "FMSH_PB188a_00004_024_qa1_v3",
      "id_block": "block_4",
      "question": "Qui annonce officiellement à chaque conférence panrusse, réunion ou congrès ?",
      "answer": "le gouvernement",
      "answer_stringIds": [
        "string_152",
        "string_153"
      ]
    },
    {
      "id_qa": "FMSH_PB188a_00004_024_qa4_v3",
      "id_block": "block_4",
      "question": "Qu'est-ce que la classe ouvrière à pratiquer ?",
      "answer": "la politique des « sacrifices et restrictions volontaires",
      "answer_stringIds": [
        "string_192",
        "string_193",
        "string_194",
        "string_195",
        "string_196",
        "string_197",
        "string_198",
        "string_199"
      ]
    },
    {
      "id_qa": "FMSH_PB188a_00004_024_qa19_v3",
      "id_block": "block_5",
      "question": "Qu'est ce que Pechekhonov appelle au travail le plus intense ?",
      "answer": "la psychologie des masses ouvrières",
      "answer_stringIds": [
        "string_239",
        "string_240",
        "string_241",
        "string_242",
        "string_243",
        "string_244"
      ]
    },
    {
      "id_qa": "FMSH_PB188a_00004_024_qa21_v3",
      "id_block": "block_5",
      "question": "Quand Pechekhonov a-t-il écrit son rapport sur la question du ravitaillement ?",
      "answer": "au premier congrès des Soviets",
      "answer_stringIds": [
        "string_207",
        "string_208",
        "string_209",
        "string_210",
        "string_211",
        "string_212"
      ]
    },
    {
      "id_qa": "FMSH_PB188a_00004_024_qa31_v3",
      "id_block": "block_6",
      "question": "Par quoi les projets du Ministère du Travail finirent-ils ?",
      "answer": "par de nouveaux appels aux ouvriers",
      "answer_stringIds": [
        "string_332",
        "string_333",
        "string_334",
        "string_335",
        "string_336",
        "string_337"
      ]
    },
    {
      "id_qa": "FMSH_PB188a_00004_024_qa33_v3",
      "id_block": "block_6",
      "question": "Avec qui le ministère du travail a-t-il essayé de concilier les intérêts des ouvriers ?",
      "answer": "avec ceux des industriels",
      "answer_stringIds": [
        "string_284",
        "string_285",
        "string_286",
        "string_287"
      ]
    },
    {
      "id_qa": "FMSH_PB188a_00004_024_qa34_v3",
      "id_block": "block_6",
      "question": "Qui a essayé de concilier les intérêts des ouvriers avec ceux des industriels ?",
      "answer": "du ministère du travail",
      "answer_stringIds": [
        "string_267",
        "string_268",
        "string_269",
        "string_270"
      ]
    },
    {
      "id_qa": "FMSH_PB188a_00004_024_qa10_v3",
      "id_block": "block_8",
      "question": "Quand Skobélev écrivit-il son adresse aux ouvriers ?",
      "answer": "le 27 juin",
      "answer_stringIds": [
        "string_357",
        "string_358",
        "string_359"
      ]
    },
    {
      "id_qa": "FMSH_PB188a_00004_024_qa11_v3",
      "id_block": "block_8",
      "question": "Qui a écrit son adresse aux ouvriers le 27 juin ?",
      "answer": "Skobélev",
      "answer_stringIds": [
        "string_360"
      ]
    }
  ]
}