{
  "num": "autog_0249-2563_1982_num_15_8",
  "article": "autog_0249-2563_1982_num_15_8_1469",
  "page_name": "autog_0249-2563_1982_num_15_8_T1_0035_0000",
  "questions": [
    {
      "id_qa": "autog_0249-2563_1982_num_15_8_T1_0035_0000_qa2_v3",
      "id_block": "block_4",
      "question": "Qu'est-ce qui est décrit par Papproche ?",
      "answer": "les emplois stables",
      "answer_stringIds": [
        "string_162",
        "string_163",
        "string_164"
      ]
    },
    {
      "id_qa": "autog_0249-2563_1982_num_15_8_T1_0035_0000_qa3_v3",
      "id_block": "block_4",
      "question": "Qu'est ce qui a donné les premiers contours les plus sombres d'un quart monde ?",
      "answer": "le développement de la pauvreté",
      "answer_stringIds": [
        "string_81",
        "string_82",
        "string_83",
        "string_84",
        "string_85"
      ]
    },
    {
      "id_qa": "autog_0249-2563_1982_num_15_8_T1_0035_0000_qa6_v3",
      "id_block": "block_4",
      "question": "Par quoi était caractérisé le nombre d'entreprises ?",
      "answer": "par une dépendance élevée et voué",
      "answer_stringIds": [
        "string_195",
        "string_196",
        "string_197",
        "string_198",
        "string_199",
        "string_200"
      ]
    },
    {
      "id_qa": "autog_0249-2563_1982_num_15_8_T1_0035_0000_qa0_v3",
      "id_block": "block_5",
      "question": "Qu'est ce qui ne se superposait pas forcément ?",
      "answer": "Ces deux expressions du dualisme",
      "answer_stringIds": [
        "string_210",
        "string_211",
        "string_212",
        "string_213",
        "string_214"
      ]
    }
  ]
}