{
  "num": "autog_0338-7259_1972_num_18_1",
  "article": "autog_0338-7259_1972_num_18_1_1056_t1_0294_0000_2",
  "page_name": "FMSH_PB188a_18-19_297",
  "questions": [
    "Quel est l'idéal qui a guidé cette lutte historique depuis le temps de Bakounine ?",
    "En quelle mesure ont les milices libertaires joué un rôle mineur ou négatif dans l'Aragon ?",
    "Quels sont les initiatives prises par les militants dans les villages et usines ?",
    "Quels sont les défis rencontrés dans le rapport entre l'individu et le travail dans une nouvelle société ?",
    "Comment Leval aborde-t-il les phases d'un changement social ?",
    "Comment Leval analyse la plus grande expérience d'autogestion révolutionnaire ?",
    "Quel jugement Leval porte sur la collaboration de la CNT et F.A.I. ?",
    "Quels sont les éléments psychologiques et religieux que Leval refuse ?",
    "Quel est le point de vue de Leval sur la révolution ?",
    "Comment Leval a-t-il contribué à la formation économique des collectivistes ?",
    "Quel est le sentiment de Leval envers l'espoir ?",
    "Pourquoi Leval se consacre-t-il à recueillir les résultats de l'expérience unique ?",
    "Quels sont les témoignages fréquents dans le texte ?"
  ]
}