{
  "num": "autog_0338-7259_1977_num_39_1",
  "article": "autog_0338-7259_1977_num_39_1_1254",
  "page_name": "FMSH_PB188a_00039_083",
  "questions": [
    {
      "id_qa": "FMSH_PB188a_00039_083_qa20_v3",
      "id_block": "block_1",
      "question": "Où s'installer les tasmes ?",
      "answer": "dans les délices de la masturbation théoricienne",
      "answer_stringIds": [
        "string_4",
        "string_5",
        "string_6",
        "string_7",
        "string_8",
        "string_9",
        "string_10"
      ]
    },
    {
      "id_qa": "FMSH_PB188a_00039_083_qa5_v3",
      "id_block": "block_3",
      "question": "Qu'est ce qui ne peut pas s'instaurer entre intellectuels, ouvriers et paysans africains indépendamment du système exploiteur mondial ?",
      "answer": "les rapports qualitativement nouveaux pour une autogestion africaine",
      "answer_stringIds": [
        "string_33",
        "string_34",
        "string_35",
        "string_36",
        "string_37",
        "string_38",
        "string_39",
        "string_40"
      ]
    },
    {
      "id_qa": "FMSH_PB188a_00039_083_qa9_v3",
      "id_block": "block_3",
      "question": "Qu'est-ce qui tend à atomiser chaque groupe par l'individualisme et la réduction au statut de consommateur ?",
      "answer": "système exploiteur mondial",
      "answer_stringIds": [
        "string_54",
        "string_55",
        "string_56"
      ]
    },
    {
      "id_qa": "FMSH_PB188a_00039_083_qa3_v3",
      "id_block": "block_4",
      "question": "Qui décide de l'indépendance à son seul profit ?",
      "answer": "une minorité",
      "answer_stringIds": [
        "string_227",
        "string_228"
      ]
    },
    {
      "id_qa": "FMSH_PB188a_00039_083_qa4_v3",
      "id_block": "block_4",
      "question": "Qui décide de gérer l'indépendance à son seul profit ?",
      "answer": "une minorité",
      "answer_stringIds": [
        "string_227",
        "string_228"
      ]
    },
    {
      "id_qa": "FMSH_PB188a_00039_083_qa10_v3",
      "id_block": "block_4",
      "question": "A qui le capital internationnal profite-t-il ?",
      "answer": "certaines minorités africaines",
      "answer_stringIds": [
        "string_126",
        "string_127",
        "string_128"
      ]
    },
    {
      "id_qa": "FMSH_PB188a_00039_083_qa14_v3",
      "id_block": "block_4",
      "question": "Quel est l'adversaire principal et commun des intellectuels ouvriers et paysans africains ?",
      "answer": "Le capital internationnal",
      "answer_stringIds": [
        "string_115",
        "string_116",
        "string_117"
      ]
    },
    {
      "id_qa": "FMSH_PB188a_00039_083_qa16_v3",
      "id_block": "block_4",
      "question": "Qui cherche à s'organiser dans un bloc moteur nouveau ?",
      "answer": "les couches exploitées",
      "answer_stringIds": [
        "string_249",
        "string_250",
        "string_251"
      ]
    },
    {
      "id_qa": "FMSH_PB188a_00039_083_qa21_v3",
      "id_block": "block_4",
      "question": "Qu'est-ce que le néo-colonialisme ?",
      "answer": "le parti unique",
      "answer_stringIds": [
        "string_192",
        "string_193",
        "string_194"
      ]
    },
    {
      "id_qa": "FMSH_PB188a_00039_083_qa22_v3",
      "id_block": "block_4",
      "question": "Qu'est ce qui est une inconséquence flagrante ?",
      "answer": "le néo-colonialisme",
      "answer_stringIds": [
        "string_188",
        "string_189"
      ]
    },
    {
      "id_qa": "FMSH_PB188a_00039_083_qa0_v3",
      "id_block": "block_5",
      "question": "Qui finance l'Etat ?",
      "answer": "une couche bourgeoise",
      "answer_stringIds": [
        "string_276",
        "string_277",
        "string_278"
      ]
    },
    {
      "id_qa": "FMSH_PB188a_00039_083_qa1_v3",
      "id_block": "block_5",
      "question": "A qui profitent les nationalisations ?",
      "answer": "une minorité",
      "answer_stringIds": [
        "string_227",
        "string_228"
      ]
    },
    {
      "id_qa": "FMSH_PB188a_00039_083_qa2_v3",
      "id_block": "block_5",
      "question": "Qui gère l'Etat ?",
      "answer": "une couche bourgeoise ou assimilée",
      "answer_stringIds": [
        "string_276",
        "string_277",
        "string_278",
        "string_279",
        "string_280"
      ]
    },
    {
      "id_qa": "FMSH_PB188a_00039_083_qa24_v3",
      "id_block": "block_5",
      "question": "Quel est le but du socialisme autogestionnaire ?",
      "answer": "garantir la révolution africaine",
      "answer_stringIds": [
        "string_271",
        "string_272",
        "string_273",
        "string_274"
      ]
    },
    {
      "id_qa": "FMSH_PB188a_00039_083_qa25_v3",
      "id_block": "block_5",
      "question": "Qu'est ce qui est le mieux placé pour garantir la révolution africaine ?",
      "answer": "le socialisme autogestionnaire",
      "answer_stringIds": [
        "string_263",
        "string_264",
        "string_265"
      ]
    },
    {
      "id_qa": "FMSH_PB188a_00039_083_qa17_v3",
      "id_block": "block_6",
      "question": "Qu'est ce qui prévient l'autogestion ?",
      "answer": "cette déviation morbide",
      "answer_stringIds": [
        "string_301",
        "string_302",
        "string_303"
      ]
    }
  ]
}