{
  "num": "autog_0338-7259_1977_num_39_1",
  "article": "autog_0338-7259_1977_num_39_1_1254",
  "page_name": "FMSH_PB188a_00039_084",
  "questions": [
    {
      "id_qa": "FMSH_PB188a_00039_084_qa38_v3",
      "id_block": "block_1",
      "question": "Quelle est la meilleure garantie de la révolution ?",
      "answer": "la meilleure garantie du bon aloi et de la permanence de la révolution",
      "answer_stringIds": [
        "string_3",
        "string_4",
        "string_5",
        "string_6",
        "string_7",
        "string_8",
        "string_9",
        "string_10",
        "string_11",
        "string_12",
        "string_13",
        "string_14",
        "string_15"
      ]
    },
    {
      "id_qa": "FMSH_PB188a_00039_084_qa27_v3",
      "id_block": "block_2",
      "question": "Qu'est-ce qui aide les couches majoritaires et exploitées à se situer correctement ?",
      "answer": "intellectuels",
      "answer_stringIds": [
        "string_42"
      ]
    },
    {
      "id_qa": "FMSH_PB188a_00039_084_qa33_v3",
      "id_block": "block_2",
      "question": "Quel est le rôle des intellectuels enracinés ?",
      "answer": "les couches majoritaires et exploitées à",
      "answer_stringIds": [
        "string_47",
        "string_48",
        "string_49",
        "string_50",
        "string_51",
        "string_52"
      ]
    },
    {
      "id_qa": "FMSH_PB188a_00039_084_qa29_v3",
      "id_block": "block_2",
      "question": "Qui aide les intellectuels enracinés à s'auto-déterminer ?",
      "answer": "les couches majoritaires",
      "answer_stringIds": [
        "string_47",
        "string_48",
        "string_49"
      ]
    },
    {
      "id_qa": "FMSH_PB188a_00039_084_qa30_v3",
      "id_block": "block_2",
      "question": "Qui aide les intellectuels enracinés à se situer correctement ?",
      "answer": "les couches majoritaires",
      "answer_stringIds": [
        "string_47",
        "string_48",
        "string_49"
      ]
    },
    {
      "id_qa": "FMSH_PB188a_00039_084_qa0_v3",
      "id_block": "block_3",
      "question": "Qui doit se garder de tout maximalisme qui exigerait tout et tout de suite ?",
      "answer": "les intellectuels afriacains",
      "answer_stringIds": [
        "string_62",
        "string_63",
        "string_64"
      ]
    },
    {
      "id_qa": "FMSH_PB188a_00039_084_qa1_v3",
      "id_block": "block_3",
      "question": "De quoi les intellectuels afriacains doivent se garder ?",
      "answer": "tout maximalisme",
      "answer_stringIds": [
        "string_69",
        "string_70"
      ]
    },
    {
      "id_qa": "FMSH_PB188a_00039_084_qa4_v3",
      "id_block": "block_3",
      "question": "Que doivent faire les intellectuels afriacains ?",
      "answer": "se garder de tout maximalisme qui exigerait tout et tout de suite",
      "answer_stringIds": [
        "string_66",
        "string_67",
        "string_68",
        "string_69",
        "string_70",
        "string_71",
        "string_72",
        "string_73",
        "string_74",
        "string_75",
        "string_76",
        "string_77"
      ]
    },
    {
      "id_qa": "FMSH_PB188a_00039_084_qa24_v3",
      "id_block": "block_3",
      "question": "Qu'est-ce qui fait partie intégrante de la stratégie juste ?",
      "answer": "toute organisation",
      "answer_stringIds": [
        "string_116",
        "string_117"
      ]
    },
    {
      "id_qa": "FMSH_PB188a_00039_084_qa35_v3",
      "id_block": "block_3",
      "question": "Que divise le marxisme selon Y. Benot ?",
      "answer": "le bloc moteur historique",
      "answer_stringIds": [
        "string_169",
        "string_170",
        "string_171",
        "string_172",
        "string_173"
      ]
    },
    {
      "id_qa": "FMSH_PB188a_00039_084_qa7_v3",
      "id_block": "block_4",
      "question": "Quelle est la signification du bonnet de Victor Hugo ?",
      "answer": "un bonnet rouge au vieux dictionnaire",
      "answer_stringIds": [
        "string_329",
        "string_330",
        "string_331",
        "string_332",
        "string_333",
        "string_334"
      ]
    },
    {
      "id_qa": "FMSH_PB188a_00039_084_qa10_v3",
      "id_block": "block_4",
      "question": "Quel est le sens nouveau de la révolution ?",
      "answer": "à chaque mot",
      "answer_stringIds": [
        "string_314",
        "string_315",
        "string_316"
      ]
    },
    {
      "id_qa": "FMSH_PB188a_00039_084_qa11_v3",
      "id_block": "block_4",
      "question": "Qu'est-ce qui est affaire des masses ?",
      "answer": "la révolution",
      "answer_stringIds": [
        "string_14",
        "string_15"
      ]
    },
    {
      "id_qa": "FMSH_PB188a_00039_084_qa15_v3",
      "id_block": "block_4",
      "question": "Qu'est-ce qui est nécessaire pour développer l'Afrique ?",
      "answer": "à la coopération internationale néccessaire",
      "answer_stringIds": [
        "string_284",
        "string_285",
        "string_286",
        "string_287",
        "string_288"
      ]
    },
    {
      "id_qa": "FMSH_PB188a_00039_084_qa19_v3",
      "id_block": "block_4",
      "question": "Qui a écrit \"un bonnet rouge au vieux dictionnaire\"?",
      "answer": "Victor Hugo",
      "answer_stringIds": [
        "string_326",
        "string_327"
      ]
    },
    {
      "id_qa": "FMSH_PB188a_00039_084_qa23_v3",
      "id_block": "block_4",
      "question": "Quel est le surnom de Victor Hugo ?",
      "answer": "un bonnet rouge au vieux dictionnaire",
      "answer_stringIds": [
        "string_329",
        "string_330",
        "string_331",
        "string_332",
        "string_333",
        "string_334"
      ]
    }
  ]
}