{
  "num": "autog_0338-7259_1977_num_39_1",
  "article": "autog_0338-7259_1977_num_39_1_1254",
  "page_name": "FMSH_PB188a_00039_080",
  "questions": [
    {
      "id_qa": "FMSH_PB188a_00039_080_qa2_v3",
      "id_block": "block_3",
      "question": "A quoi correspond le couple ouvriers-intellectuels ?",
      "answer": "au bloc historique doctrinal infrastructure",
      "answer_stringIds": [
        "string_132",
        "string_133",
        "string_134",
        "string_135",
        "string_136"
      ]
    },
    {
      "id_qa": "FMSH_PB188a_00039_080_qa4_v3",
      "id_block": "block_5",
      "question": "Qui a une vue plus globale du monde du travail africain ?",
      "answer": "Les ouvriers africians",
      "answer_stringIds": [
        "string_190",
        "string_191",
        "string_192"
      ]
    },
    {
      "id_qa": "FMSH_PB188a_00039_080_qa7_v3",
      "id_block": "block_5",
      "question": "Qu'est ce qui permettrait aux paysans africains d'accéder au pouvoir autogestionnaire ?",
      "answer": "une structuration",
      "answer_stringIds": [
        "string_266",
        "string_267"
      ]
    },
    {
      "id_qa": "FMSH_PB188a_00039_080_qa13_v3",
      "id_block": "block_5",
      "question": "Qu'est ce qui suppose que l'ouvrier africain retourne vers ses camarades paysans ?",
      "answer": "Cette association",
      "answer_stringIds": [
        "string_262",
        "string_263"
      ]
    },
    {
      "id_qa": "FMSH_PB188a_00039_080_qa15_v3",
      "id_block": "block_6",
      "question": "Qu'impose l'association ou le bloc ouvriers-intellectuels en Afrique ?",
      "answer": "parce que les deux couches coha",
      "answer_stringIds": [
        "string_336",
        "string_337",
        "string_338",
        "string_339",
        "string_340",
        "string_341"
      ]
    }
  ]
}