{
  "num": "autog_0249-2563_1984_num_17_15",
  "article": "autog_0249-2563_1984_num_17_15_1869_t1_0128_0000_2",
  "page_name": "autog_0249-2563_1984_num_17_15_T1_0129_0000",
  "questions": [
    {
      "id_qa": "autog_0249-2563_1984_num_17_15_T1_0129_0000_qa18_v3",
      "id_block": "block_0",
      "question": "Qu'est ce qui apparaît au début du siècle sous l'inspiration globale du socialisme ?",
      "answer": "une nouvelle vague de communautés",
      "answer_stringIds": [
        "string_51",
        "string_52",
        "string_53",
        "string_54",
        "string_55",
        "string_56"
      ]
    },
    {
      "id_qa": "autog_0249-2563_1984_num_17_15_T1_0129_0000_qa40_v3",
      "id_block": "block_11",
      "question": "Qu'est-ce qui semble moins pratique ?",
      "answer": "Ces tentatives",
      "answer_stringIds": [
        "string_353",
        "string_354"
      ]
    },
    {
      "id_qa": "autog_0249-2563_1984_num_17_15_T1_0129_0000_qa38_v3",
      "id_block": "block_16",
      "question": "Qui note à juste titre que l'appa ?",
      "answer": "Creagh",
      "answer_stringIds": [
        "string_228"
      ]
    },
    {
      "id_qa": "autog_0249-2563_1984_num_17_15_T1_0129_0000_qa7_v3",
      "id_block": "block_2",
      "question": "Par qui est-elle plus marquée ?",
      "answer": "par les libertaires",
      "answer_stringIds": [
        "string_173",
        "string_174",
        "string_175"
      ]
    },
    {
      "id_qa": "autog_0249-2563_1984_num_17_15_T1_0129_0000_qa28_v3",
      "id_block": "block_2",
      "question": "Où vivaient les objecteurs pendant la première guerre mondiale ?",
      "answer": "dans ces communautés",
      "answer_stringIds": [
        "string_106",
        "string_107",
        "string_108",
        "string_109"
      ]
    },
    {
      "id_qa": "autog_0249-2563_1984_num_17_15_T1_0129_0000_qa39_v3",
      "id_block": "block_22",
      "question": "Qu'est-ce qui est à l'origine de l'agression ?",
      "answer": "populations",
      "answer_stringIds": [
        "string_416"
      ]
    },
    {
      "id_qa": "autog_0249-2563_1984_num_17_15_T1_0129_0000_qa8_v3",
      "id_block": "block_27",
      "question": "Pourquoi circule-t-on d'un groupe à l'autre ?",
      "answer": "pour échanger fébrilement les expériences",
      "answer_stringIds": [
        "string_475",
        "string_476",
        "string_477",
        "string_478",
        "string_479"
      ]
    },
    {
      "id_qa": "autog_0249-2563_1984_num_17_15_T1_0129_0000_qa9_v3",
      "id_block": "block_27",
      "question": "Qu'est-ce qui circule d'un groupe à l'autre ?",
      "answer": "les expériences",
      "answer_stringIds": [
        "string_478",
        "string_479"
      ]
    },
    {
      "id_qa": "autog_0249-2563_1984_num_17_15_T1_0129_0000_qa10_v3",
      "id_block": "block_27",
      "question": "Qui reçoit-on partout ?",
      "answer": "les orateurs des écoles rivales",
      "answer_stringIds": [
        "string_457",
        "string_458",
        "string_459",
        "string_460",
        "string_461"
      ]
    },
    {
      "id_qa": "autog_0249-2563_1984_num_17_15_T1_0129_0000_qa15_v3",
      "id_block": "block_27",
      "question": "Qu'est ce qui a échappé à l'échec ?",
      "answer": "nautés",
      "answer_stringIds": [
        "string_442"
      ]
    },
    {
      "id_qa": "autog_0249-2563_1984_num_17_15_T1_0129_0000_qa20_v3",
      "id_block": "block_28",
      "question": "Qui revient sur le prétendu échec des communautés ?",
      "answer": "Creagh",
      "answer_stringIds": [
        "string_228"
      ]
    },
    {
      "id_qa": "autog_0249-2563_1984_num_17_15_T1_0129_0000_qa2_v3",
      "id_block": "block_29",
      "question": "Qui sont les irréalistes de demain ?",
      "answer": "des autorités politiques",
      "answer_stringIds": [
        "string_538",
        "string_539",
        "string_540"
      ]
    },
    {
      "id_qa": "autog_0249-2563_1984_num_17_15_T1_0129_0000_qa4_v3",
      "id_block": "block_29",
      "question": "Quel est le but ultime des utopistes ?",
      "answer": "le bonheur",
      "answer_stringIds": [
        "string_522",
        "string_523"
      ]
    },
    {
      "id_qa": "autog_0249-2563_1984_num_17_15_T1_0129_0000_qa14_v3",
      "id_block": "block_3",
      "question": "Qu'est ce qui a été important pour toute la gauche américaine ?",
      "answer": "le mouvement des émigrés juifs de Russie",
      "answer_stringIds": [
        "string_232",
        "string_233",
        "string_234",
        "string_235",
        "string_236",
        "string_237",
        "string_238"
      ]
    },
    {
      "id_qa": "autog_0249-2563_1984_num_17_15_T1_0129_0000_qa16_v3",
      "id_block": "block_8",
      "question": "A quand remonte le renouveau communautaire avec les hippies ?",
      "answer": "Les années 60",
      "answer_stringIds": [
        "string_333",
        "string_334",
        "string_335"
      ]
    }
  ]
}