{
  "num": "autog_0338-7259_1975_num_30_1",
  "article": "autog_0338-7259_1975_num_30_1_1136_t1_0190_0000_2",
  "page_name": "FMSH_PB188a_30-31_195",
  "questions": [
    "Quel est le point de vue de l'auteur sur la période allant de 1870 à 1914 et le développement du concept de contrôle ouvrier ?",
    "Quels sont les différentes conceptions ouvrières et patronales mentionnées dans le texte ?",
    "Pourquoi les coopératives sont-elles classées parmi les entreprises ayant des conceptions patronales ?",
    "Quels sont les «éternels» problèmes des coopératives ouvrières ?",
    "Quel est le message clé de l'auteur en matière de contrôle ouvrier ?",
    "Quels sont les solutions proposées par l'auteur pour améliorer les relations entre le patron et le personnel ?",
    "Quel est le rôle proposé pour l'État dans la solution du contrôle ouvrier ?",
    "Quels sont les nouveaux phénomènes apparus ou resurgis récemment en matière de relations entre les entreprises et le travail ?"
  ]
}