{
  "num": "autog_0249-2563_1981_num_14_5",
  "article": "autog_0249-2563_1981_num_14_5_1420",
  "page_name": "autog_0249-2563_1981_num_14_5_T1_0114_0000",
  "questions": [
    "Quels événements marquent la décentralisation dans le monde de l'édition SF ces dernières années ?",
    "Dans quels lieux se trouvent la plupart des revues SF actuelles et quels types de journalistes y travaillent ?",
    "Quels sont les rêves de la jeune SF française en matière de société ?",
    "Quels sont les deux outils essentiels pour mettre en œuvre le programme de la SF française moderne ?",
    "Quel est le caractère de l'utopie moderne décrite dans le texte et comment elle diffère de l'utopie ancienne ?",
    "Quels sont les titres de quelques publications éditées par la petite maison d'éditions A & A ?",
    "Quels sont les auteurs et journalistes spécialisés impliqués dans la réalisation du gros pavé sur le sujet de l'utopie moderne ?"
  ]
}