{
  "num": "autog_0338-7259_1970_num_11_1",
  "article": "autog_0338-7259_1970_num_11_1_961",
  "page_name": "FMSH_PB188a_11-12_064",
  "questions": [
    "Quels groupes sociaux sont impliqués dans la notion d'autogestion selon le texte ?",
    "Quel rôle politique joue la communauté selon cette notion ?",
    "Quel caractère politique est-il attaché à l'autogestion selon le texte ?",
    "Quel est le lien entre l'autogestion et le communisme selon le texte ?",
    "Quel est le rôle de l'État dans la notion d'autogestion ?",
    "Comment le texte décrit le visage de Janus de l'autogestion ?",
    "Comment les domaines politiques et d'autogestion doivent-ils se rapprocher selon le texte ?",
    "Quel rôle devrait la politique jouer dans l'orientation vers l'autogestion selon le texte ?"
  ]
}