{
  "num": "autog_0338-7259_1970_num_11_1",
  "article": "autog_0338-7259_1970_num_11_1_961",
  "page_name": "FMSH_PB188a_11-12_053",
  "questions": [
    "Quel est le rôle de Marx dans la compréhension de la notion d'autogestion selon le texte ?",
    "Comment l'homme est-il décrit comme un créateur selon le texte ?",
    "Qu'est-ce que l'autogestion consciente selon le texte ?",
    "Comment l'homme est-il décrit comme un être autocréateur selon le texte ?",
    "Qu'est-ce que l'amplificateur selon la cybernétique ?",
    "Comment l'information est-elle définie dans le contexte du texte ?",
    "Comment l'homme est-il décrit comme un transformateur selon le texte ?",
    "Quel est le rôle de la conscience dans l'autogestion selon le texte ?",
    "Comment l'autogestion consciente peut-elle agir selon le texte ?",
    "Qu'est-ce que l'œuvre humaine selon le texte ?",
    "Comment l'information humaine est-elle décrite dans le texte ?",
    "Comment l'homme est-il décrit comme un être qui saisit les interdépendances selon le texte ?",
    "Comment l'homme est-il décrit comme un être qui se transforme selon le texte ?",
    "Comment l'absence d'autorégulation chez l'homme et les groupes sociaux est-elle décrite dans le texte ?",
    "Comment l'autogestion consciente peut-elle multiplier les forces créatrices de l'homme selon le texte ?",
    "Comment l'autogestion consciente peut-elle agir comme un « amplificateur de l'amplificateur » selon le texte ?",
    "Comment l'homme est-il décrit comme un être qui crée son propre monde selon le texte ?",
    "Comment l'homme est-il décrit comme un être qui rend compte de sa faculté selon le texte ?",
    "Comment l'homme est-il décrit comme un être qui crée sciemment selon le texte ?"
  ]
}