{
  "num": "autog_0338-7259_1970_num_11_1",
  "article": "autog_0338-7259_1970_num_11_1_961",
  "page_name": "FMSH_PB188a_11-12_071",
  "questions": [
    "Quels sont les différents sous-systèmes autonomes que l'autogestion concerne selon le texte ?",
    "En quoi la notion d'autogestion des producteurs est différente de celle des consommateurs ?",
    "Quels types d'intérêts pourraient s'opposer dans une société d'autogestion ?",
    "Comment l'autogestion devrait-elle réunir les points de vue de production et de consommation ?",
    "Quels sont les structures d'intérêt anciennes et nouvelles mentionnées dans le texte ?",
    "En quoi la décentralisation est-elle nécessaire dans une société d'autogestion ?",
    "Quels sont les systèmes culturels, civilisations et idéologies qui pourraient s'opposer dans une société d'autogestion ?",
    "Quels sont les différents types d'hommes que l'auteur distingue dans cette société évoluée ?",
    "Comment l'homme idéologique ou l'homme-consommateur sont-ils caractérisés dans le texte ?"
  ]
}