{
  "num": "autog_0005-0970_1967_num_4_1",
  "article": "autog_0005-0970_1967_num_4_1_914",
  "page_name": "FMSH_PB188a_00004_164",
  "questions": [
    "Quel auteur parle-t-on de dans le texte ?",
    "Quel concept de révolution est abordé dans le texte ?",
    "Dans quelle pays se déroule-t-elle selon le texte ?",
    "Quel philosophe est cité dans le texte ?",
    "Quel livre de Marx est cité ?",
    "Quel passage de ce livre est cité ?",
    "Quel autre auteur est mentionné dans le texte ?",
    "Quel concept de révolution est-il opposé à la révolution prolétarienne ?",
    "Quel autre livre est cité dans le texte ?",
    "Dans quel tome de ce livre est-ce que l'on trouve la référence à Otto Bauer ?",
    "Quel est le point de vue de Yvon Bourdet sur la révolution prolétarienne ?",
    "Quel est le point de vue d'Otto Bauer sur la révolution prolétarienne ?",
    "Quel est le risque de cette approche selon Yvon Bourdet ?",
    "Quel est le titre complet de la source primaire citée ?",
    "Quel est le titre complet de la source secondaire citée ?"
  ]
}