{
  "num": "autog_0005-0970_1967_num_4_1",
  "article": "autog_0005-0970_1967_num_4_1_914",
  "page_name": "FMSH_PB188a_00004_156",
  "questions": [
    "Quel est le point de vue de Yvon Bourdet sur la direction collective dans le contexte de l'organisation de la production ?",
    "Quel est le jugement de Lénine sur la direction collective des soviets, selon le texte ?",
    "Comment Trotsky répond-il à l'accusation d'avoir vidé les soviets de leur substance et d'autonomie ?",
    "Quel est le rôle du Parti communiste selon Trotsky dans la gestion de l'État et de l'industrie ?",
    "Quel est l'objection de Trotsky à ceux qui critiquent la représentativité du Parti bolchevique ?",
    "Comment Lénine se défend-il contre l'accusation de vouloir remettre les usines aux ouvriers ?",
    "Quel est le statut de la gestion ouvrière dans le système soviétique selon le texte ?",
    "Comment Lénine parle-t-il de la lutte contre la débâcle économique en 1917 ?",
    "Quel est le style de rédaction de Trotsky dans son rapport au dixième congrès du P.C. ?"
  ]
}