{
  "num": "autog_0005-0970_1967_num_4_1",
  "article": "autog_0005-0970_1967_num_4_1_914",
  "page_name": "FMSH_PB188a_00004_159",
  "questions": [
    "Quels soviets est-il question dans ce passage ?",
    "Dans quels termes explique-t-on la révolution avant son exercice réel, selon Lénine ?",
    "Comment explique-t-on que les exploiteurs ne peuvent pas réprimer le peuple sans une machine complexe ?",
    "Comment explique-t-on que le peuple peut réprimer les exploiteurs avec une organisation simple ?",
    "Quel est l'illusion concernant les soviets et l'État ouvrier ?",
    "Pourquoi les paysans ont-ils suivi les bolcheviks et jusqu'à quel point ?",
    "Qu'est-ce qui a permis le passage de la révolution majoritaire plébéienne à une direction minoritaire selon Otto Bauer ?",
    "En quelles conditions les paysans sont-ils organisés en soviets ?",
    "Pourquoi les paysans ne sont-ils pas considérés comme une partie intégrante de l'État ouvrier ?",
    "Quel est le rôle des paysans dans la population totale de la Russie ?",
    "Quel est le rapport entre le pouvoir effectif des bolcheviks et le manque de prolétariat et d'infrastructure économique ?"
  ]
}