{
  "num": "autog_0249-2563_1980_num_13_2",
  "article": "autog_0249-2563_1980_num_13_2_1360",
  "page_name": "autog_0249-2563_1980_num_13_2_T1_0173_0000",
  "questions": [
    "Quels types de techniques alternatives sont mentionnées dans le texte ?",
    "En juin 1978, quels mouvements alternatifs existaient à Berlin et comment le Stattbuch facilitait leur coordination ?",
    "Quels chapitres couvrent-ils dans ce guide alternatif de Berlin ?",
    "Quels types d'associations et de groupes fonctionnent-ils sur un mode autogestionnel ?",
    "Quels sont les deux initiatives intéressantes mentionnées en fin de texte ?",
    "Qu'est-ce que le vide politique et comment il est lié aux notions de mort abordées plus haut ?",
    "Quel est le contexte historique de ces événements en Allemagne ?",
    "Comment le mouvement alternatif berlinois est-il décrit dans le texte ?",
    "Quel est le rôle de l'espace vacant dans la genèse du mouvement alternatif berlinois ?",
    "Comment les idées et les options révélées par Tunix sont-elles traduites dans les faits ?",
    "Quels sont les lieux clés du mouvement alternatif berlinois mentionnés dans le texte ?",
    "Comment le réseau alternatif est-il décrit dans le texte ?",
    "Quels sont les liens entre les notions de vide politique et de morts abordées plus haut et le mouvement alternatif berlinois ?",
    "Comment le passage de la Loi Fondamentale de 1949 à la période du mouvement alternatif berlinois est-il décrit dans le texte ?",
    "Quels sont les enjeux politiques et sociaux du mouvement alternatif berlinois ?",
    "Comment le mouvement alternatif berlinois est-il perçu par les autorités et la société allemande à l'époque ?",
    "Quels sont les enjeux culturels du mouvement alternatif berlinois ?",
    "Comment le mouvement alternatif berlinois a-t-il influencé la société allemande et l'histoire mondiale ?",
    "Quels sont les défis?"
  ]
}