{
  "num": "autog_0249-2563_1982_num_16_12",
  "article": "autog_0249-2563_1982_num_16_12_1549",
  "page_name": "autog_0249-2563_1982_num_16_12_T1_0218_0000",
  "questions": [
    {
      "id_qa": "autog_0249-2563_1982_num_16_12_T1_0218_0000_qa29_v3",
      "id_block": "block_0",
      "question": "Qui est l'auteur de la langue de bois et l'autosatisfaction ?",
      "answer": "B. Condominas et L. Janover",
      "answer_stringIds": [
        "string_21",
        "string_22",
        "string_23",
        "string_24",
        "string_25"
      ]
    },
    {
      "id_qa": "autog_0249-2563_1982_num_16_12_T1_0218_0000_qa32_v3",
      "id_block": "block_0",
      "question": "Que distribue B. Condominas et L. Janover ?",
      "answer": "des bons points",
      "answer_stringIds": [
        "string_35",
        "string_36",
        "string_37"
      ]
    },
    {
      "id_qa": "autog_0249-2563_1982_num_16_12_T1_0218_0000_qa33_v3",
      "id_block": "block_0",
      "question": "Sur quoi B. Condominas et L. Janover balayent-ils des bons points ?",
      "answer": "tout le champ politique",
      "answer_stringIds": [
        "string_29",
        "string_30",
        "string_31",
        "string_32"
      ]
    },
    {
      "id_qa": "autog_0249-2563_1982_num_16_12_T1_0218_0000_qa9_v3",
      "id_block": "block_1",
      "question": "Quel est le pouvoir discrétionnaire de la rédaction ?",
      "answer": "autogérer la parution de cette lettre",
      "answer_stringIds": [
        "string_56",
        "string_57",
        "string_58",
        "string_59",
        "string_60",
        "string_61"
      ]
    },
    {
      "id_qa": "autog_0249-2563_1982_num_16_12_T1_0218_0000_qa21_v3",
      "id_block": "block_4",
      "question": "Quel gouvernement met tous ses soins à dissimuler les parties honteuses du capitahisme ?",
      "answer": "le gouvernement « socialiste",
      "answer_stringIds": [
        "string_282",
        "string_283",
        "string_284",
        "string_285"
      ]
    },
    {
      "id_qa": "autog_0249-2563_1982_num_16_12_T1_0218_0000_qa25_v3",
      "id_block": "block_4",
      "question": "Qui met tous ses soins à dissimuler les parties honteuses du capitahisme ?",
      "answer": "le gouvernement",
      "answer_stringIds": [
        "string_282",
        "string_283"
      ]
    }
  ]
}