{
  "num": "autog_0338-7259_1974_num_26_1",
  "article": "autog_0338-7259_1974_num_26_1_1117",
  "page_name": "FMSH_PB188a_26-27_246",
  "questions": [
    {
      "id_qa": "FMSH_PB188a_26-27_246_qa3_v3",
      "id_block": "block_1",
      "question": "Qui se désintéressait un peu plus du mouvement ?",
      "answer": "les autres",
      "answer_stringIds": [
        "string_136",
        "string_137"
      ]
    },
    {
      "id_qa": "FMSH_PB188a_26-27_246_qa5_v3",
      "id_block": "block_1",
      "question": "Qu'est ce qui attirait les délégués les plus liés aux organisations syndicales ?",
      "answer": "la proximité des élections",
      "answer_stringIds": [
        "string_129",
        "string_130",
        "string_131",
        "string_132",
        "string_133"
      ]
    },
    {
      "id_qa": "FMSH_PB188a_26-27_246_qa24_v3",
      "id_block": "block_2",
      "question": "Qui a boycotté les élections ?",
      "answer": "les ouvriers",
      "answer_stringIds": [
        "string_148",
        "string_149"
      ]
    }
  ]
}