{
  "num": "autog_0338-7259_1974_num_26_1",
  "article": "autog_0338-7259_1974_num_26_1_1117",
  "page_name": "FMSH_PB188a_26-27_218",
  "questions": [
    {
      "id_qa": "FMSH_PB188a_26-27_218_qa24_v3",
      "id_block": "block_1",
      "question": "Qu'est ce qui se rapporte à l'usine ?",
      "answer": "syndicales",
      "answer_stringIds": [
        "string_3"
      ]
    },
    {
      "id_qa": "FMSH_PB188a_26-27_218_qa0_v3",
      "id_block": "block_2",
      "question": "Qu'est ce qui se développe à l'extérieur de l'usine ?",
      "answer": "la lutte ouvrière spontanée",
      "answer_stringIds": [
        "string_57",
        "string_58",
        "string_59",
        "string_60",
        "string_61"
      ]
    },
    {
      "id_qa": "FMSH_PB188a_26-27_218_qa1_v3",
      "id_block": "block_2",
      "question": "Qu'est-ce que la lutte ouvrière spontanée ?",
      "answer": "quel type de conflit",
      "answer_stringIds": [
        "string_93",
        "string_94",
        "string_95",
        "string_96"
      ]
    },
    {
      "id_qa": "FMSH_PB188a_26-27_218_qa5_v3",
      "id_block": "block_2",
      "question": "Qu'est ce qui a été montré au cours des luttes ?",
      "answer": "une grande détermination",
      "answer_stringIds": [
        "string_48",
        "string_49",
        "string_50"
      ]
    },
    {
      "id_qa": "FMSH_PB188a_26-27_218_qa16_v3",
      "id_block": "block_3",
      "question": "Qu'est ce qui a surgi au plus fort de la lutte de 1969, à l'intérieur du syndicat ?",
      "answer": "un organisme radicalement nouveau",
      "answer_stringIds": [
        "string_243",
        "string_244",
        "string_245",
        "string_246"
      ]
    },
    {
      "id_qa": "FMSH_PB188a_26-27_218_qa17_v3",
      "id_block": "block_3",
      "question": "Qu'est ce qui avait surgi au plus fort de la lutte de 1969, à l'intérieur du syndicat ?",
      "answer": "un organisme radicalement nouveau",
      "answer_stringIds": [
        "string_243",
        "string_244",
        "string_245",
        "string_246"
      ]
    },
    {
      "id_qa": "FMSH_PB188a_26-27_218_qa22_v3",
      "id_block": "block_3",
      "question": "Dans quelle industrie les enquêtes ont-elles été menées ?",
      "answer": "plusieurs grandes usines",
      "answer_stringIds": [
        "string_296",
        "string_297",
        "string_298"
      ]
    }
  ]
}