{
  "num": "autog_0338-7259_1974_num_26_1",
  "article": "autog_0338-7259_1974_num_26_1_1117",
  "page_name": "FMSH_PB188a_26-27_186",
  "questions": [
    {
      "id_qa": "FMSH_PB188a_26-27_186_qa3_v3",
      "id_block": "block_1",
      "question": "Qui a organisé une réunion à l'intérieur de l'usine durant la grève ?",
      "answer": "un ouvrier",
      "answer_stringIds": [
        "string_26",
        "string_27"
      ]
    },
    {
      "id_qa": "FMSH_PB188a_26-27_186_qa6_v3",
      "id_block": "block_1",
      "question": "Qu'est-ce qui reprend aux auxiliaires ?",
      "answer": "la lutte",
      "answer_stringIds": [
        "string_23",
        "string_24"
      ]
    },
    {
      "id_qa": "FMSH_PB188a_26-27_186_qa13_v3",
      "id_block": "block_1",
      "question": "Qui est à l'origine de cette requête ?",
      "answer": "le syndicat",
      "answer_stringIds": [
        "string_68",
        "string_69"
      ]
    },
    {
      "id_qa": "FMSH_PB188a_26-27_186_qa14_v3",
      "id_block": "block_1",
      "question": "Sur quoi le syndicat fonde-t-il sa requête ?",
      "answer": "sa requête sur des critères de valorisation différenciée de la profession",
      "answer_stringIds": [
        "string_71",
        "string_72",
        "string_73",
        "string_74",
        "string_75",
        "string_76",
        "string_77",
        "string_78",
        "string_79",
        "string_80",
        "string_81"
      ]
    },
    {
      "id_qa": "FMSH_PB188a_26-27_186_qa15_v3",
      "id_block": "block_1",
      "question": "Qui réclame la 2ème catégorie pour tous ?",
      "answer": "les ouvriers",
      "answer_stringIds": [
        "string_82",
        "string_83"
      ]
    },
    {
      "id_qa": "FMSH_PB188a_26-27_186_qa19_v3",
      "id_block": "block_1",
      "question": "Qu'est ce qui réussit dans de nombreux ateliers ?",
      "answer": "la première grève",
      "answer_stringIds": [
        "string_4",
        "string_5",
        "string_6"
      ]
    },
    {
      "id_qa": "FMSH_PB188a_26-27_186_qa20_v3",
      "id_block": "block_1",
      "question": "Où a lieu la première grève interne ?",
      "answer": "dans de nombreux ateliers",
      "answer_stringIds": [
        "string_10",
        "string_11",
        "string_12",
        "string_13",
        "string_14"
      ]
    },
    {
      "id_qa": "FMSH_PB188a_26-27_186_qa7_v3",
      "id_block": "block_2",
      "question": "Qui est à l'origine de la rupture ?",
      "answer": "ceux qui",
      "answer_stringIds": [
        "string_181",
        "string_182"
      ]
    },
    {
      "id_qa": "FMSH_PB188a_26-27_186_qa8_v3",
      "id_block": "block_2",
      "question": "Quel est le caractère radical de la rupture ?",
      "answer": "le caractère radical de la rupture entre les ouvriers en grève et ceux qui hésitent encore",
      "answer_stringIds": [
        "string_169",
        "string_170",
        "string_171",
        "string_172",
        "string_173",
        "string_174",
        "string_175",
        "string_176",
        "string_177",
        "string_178",
        "string_179",
        "string_180",
        "string_181",
        "string_182",
        "string_183",
        "string_184"
      ]
    },
    {
      "id_qa": "FMSH_PB188a_26-27_186_qa10_v3",
      "id_block": "block_2",
      "question": "Qu'est ce que les ouvriers acquièrent avec la lutte des presses ?",
      "answer": "des formes de combat interne de masse",
      "answer_stringIds": [
        "string_148",
        "string_149",
        "string_150",
        "string_151",
        "string_152",
        "string_153",
        "string_154"
      ]
    },
    {
      "id_qa": "FMSH_PB188a_26-27_186_qa12_v3",
      "id_block": "block_2",
      "question": "Quelles sont les formes de lutte interne de masse ?",
      "answer": "cortèges",
      "answer_stringIds": [
        "string_156"
      ]
    },
    {
      "id_qa": "FMSH_PB188a_26-27_186_qa17_v3",
      "id_block": "block_3",
      "question": "Quel est le résultat de la grève totale de 1962 ?",
      "answer": "établissements",
      "answer_stringIds": [
        "string_281"
      ]
    },
    {
      "id_qa": "FMSH_PB188a_26-27_186_qa23_v3",
      "id_block": "block_3",
      "question": "Quel est le nom de l'entreprise ?",
      "answer": "Statuto",
      "answer_stringIds": [
        "string_297"
      ]
    }
  ]
}