{
  "num": "autog_0338-7259_1974_num_26_1",
  "article": "autog_0338-7259_1974_num_26_1_1117",
  "page_name": "FMSH_PB188a_26-27_232",
  "questions": [
    {
      "id_qa": "FMSH_PB188a_26-27_232_qa1_v3",
      "id_block": "block_1",
      "question": "Qu'est-ce qui apparaît au niveau local ?",
      "answer": "ces contraintes",
      "answer_stringIds": [
        "string_40",
        "string_41"
      ]
    },
    {
      "id_qa": "FMSH_PB188a_26-27_232_qa5_v3",
      "id_block": "block_1",
      "question": "Sur quoi les délégués sont-ils impuissants ?",
      "answer": "les options du syndicat",
      "answer_stringIds": [
        "string_14",
        "string_15",
        "string_16",
        "string_17"
      ]
    },
    {
      "id_qa": "FMSH_PB188a_26-27_232_qa20_v3",
      "id_block": "block_1",
      "question": "Que conserve l'équipe à l'égard du syndicat ?",
      "answer": "une confiance totale dans la personne de ses délégués",
      "answer_stringIds": [
        "string_89",
        "string_90",
        "string_91",
        "string_92",
        "string_93",
        "string_94",
        "string_95",
        "string_96",
        "string_97"
      ]
    },
    {
      "id_qa": "FMSH_PB188a_26-27_232_qa11_v3",
      "id_block": "block_2",
      "question": "Qu'est ce qui s'affaiblit de plus en plus ?",
      "answer": "assemblées",
      "answer_stringIds": [
        "string_143",
        "string_144"
      ]
    },
    {
      "id_qa": "FMSH_PB188a_26-27_232_qa8_v3",
      "id_block": "block_3",
      "question": "Qu'est ce qui anime les groupes politiques extérieurs ?",
      "answer": "la classe ouvrière",
      "answer_stringIds": [
        "string_325",
        "string_326",
        "string_327"
      ]
    },
    {
      "id_qa": "FMSH_PB188a_26-27_232_qa12_v3",
      "id_block": "block_3",
      "question": "Qui est à l'origine des Conseils d'Atelier ?",
      "answer": "Les délégués les plus combatifs",
      "answer_stringIds": [
        "string_151",
        "string_152",
        "string_153",
        "string_154",
        "string_155"
      ]
    },
    {
      "id_qa": "FMSH_PB188a_26-27_232_qa15_v3",
      "id_block": "block_3",
      "question": "A quoi servent les Conseils d'Atelier ?",
      "answer": "une plus grande efficacité",
      "answer_stringIds": [
        "string_181",
        "string_182",
        "string_183",
        "string_184",
        "string_185"
      ]
    },
    {
      "id_qa": "FMSH_PB188a_26-27_232_qa22_v3",
      "id_block": "block_3",
      "question": "Qu'est ce qui a son origine dans les Conseils d'Atelier ?",
      "answer": "les revendications",
      "answer_stringIds": [
        "string_221",
        "string_222"
      ]
    },
    {
      "id_qa": "FMSH_PB188a_26-27_232_qa23_v3",
      "id_block": "block_3",
      "question": "A quoi sont intégrées les revendications ?",
      "answer": "à la plateforme officielle",
      "answer_stringIds": [
        "string_235",
        "string_236",
        "string_237",
        "string_238"
      ]
    }
  ]
}