{
  "num": "autog_0338-7259_1974_num_26_1",
  "article": "autog_0338-7259_1974_num_26_1_1117",
  "page_name": "FMSH_PB188a_26-27_226",
  "questions": [
    {
      "id_qa": "FMSH_PB188a_26-27_226_qa1_v3",
      "id_block": "block_1",
      "question": "Que permet la fonction du délégué ?",
      "answer": "les luttes",
      "answer_stringIds": [
        "string_280",
        "string_281",
        "string_282"
      ]
    },
    {
      "id_qa": "FMSH_PB188a_26-27_226_qa3_v3",
      "id_block": "block_1",
      "question": "Qu'est ce qui limite la fonction du délégué ?",
      "answer": "la capacité de contrôle du syndicat",
      "answer_stringIds": [
        "string_290",
        "string_291",
        "string_292",
        "string_293",
        "string_294",
        "string_295"
      ]
    },
    {
      "id_qa": "FMSH_PB188a_26-27_226_qa7_v3",
      "id_block": "block_1",
      "question": "Qu'est ce qui ne représente plus un danger réel ?",
      "answer": "la lutte spontanée",
      "answer_stringIds": [
        "string_12",
        "string_13",
        "string_14"
      ]
    },
    {
      "id_qa": "FMSH_PB188a_26-27_226_qa11_v3",
      "id_block": "block_1",
      "question": "Que permettent les élections ?",
      "answer": "une rotation importante",
      "answer_stringIds": [
        "string_207",
        "string_208",
        "string_209"
      ]
    },
    {
      "id_qa": "FMSH_PB188a_26-27_226_qa12_v3",
      "id_block": "block_1",
      "question": "Qui participe aux élections ?",
      "answer": "les travailleurs",
      "answer_stringIds": [
        "string_179",
        "string_180"
      ]
    },
    {
      "id_qa": "FMSH_PB188a_26-27_226_qa15_v3",
      "id_block": "block_1",
      "question": "Quel syndicat veut organiser en Italie ?",
      "answer": "la C.G.I.L.",
      "answer_stringIds": [
        "string_8",
        "string_9"
      ]
    }
  ]
}