{
  "num": "autog_0338-7259_1974_num_26_1",
  "article": "autog_0338-7259_1974_num_26_1_1117",
  "page_name": "FMSH_PB188a_26-27_195",
  "questions": [
    {
      "id_qa": "FMSH_PB188a_26-27_195_qa23_v3",
      "id_block": "block_1",
      "question": "Qu'est ce qui empêche les ouvriers de sortir de l'usine ?",
      "answer": "les grilles",
      "answer_stringIds": [
        "string_71",
        "string_72"
      ]
    },
    {
      "id_qa": "FMSH_PB188a_26-27_195_qa24_v3",
      "id_block": "block_1",
      "question": "Par qui sont désavoués les ouvriers des carrosseries ?",
      "answer": "la masse ouvrière",
      "answer_stringIds": [
        "string_66",
        "string_67",
        "string_68"
      ]
    },
    {
      "id_qa": "FMSH_PB188a_26-27_195_qa12_v3",
      "id_block": "block_2",
      "question": "A quoi les ouvriers participèrent-ils ?",
      "answer": "aux cortèges qui traversèrent les ateliers",
      "answer_stringIds": [
        "string_140",
        "string_141",
        "string_142",
        "string_143",
        "string_144",
        "string_145"
      ]
    },
    {
      "id_qa": "FMSH_PB188a_26-27_195_qa14_v3",
      "id_block": "block_2",
      "question": "Où les ouvriers participèrent-ils aux cortèges ?",
      "answer": "les ateliers",
      "answer_stringIds": [
        "string_144",
        "string_145"
      ]
    },
    {
      "id_qa": "FMSH_PB188a_26-27_195_qa15_v3",
      "id_block": "block_2",
      "question": "Qui se place en tête de la lutte intérieure ?",
      "answer": "les chefs",
      "answer_stringIds": [
        "string_147",
        "string_148"
      ]
    },
    {
      "id_qa": "FMSH_PB188a_26-27_195_qa16_v3",
      "id_block": "block_2",
      "question": "Qui était en train de s'emparer de la forme nouvelle de lutte ?",
      "answer": "les ouvriers",
      "answer_stringIds": [
        "string_108",
        "string_109",
        "string_110"
      ]
    },
    {
      "id_qa": "FMSH_PB188a_26-27_195_qa3_v3",
      "id_block": "block_3",
      "question": "Qu'est-ce que l'occupation ?",
      "answer": "de lutte",
      "answer_stringIds": [
        "string_33",
        "string_34"
      ]
    }
  ]
}