{
  "num": "autog_0338-7259_1970_num_11_1",
  "article": "autog_0338-7259_1970_num_11_1_968",
  "page_name": "FMSH_PB188a_11-12_193",
  "questions": [
    {
      "id_qa": "FMSH_PB188a_11-12_193_qa8_v3",
      "id_block": "block_1",
      "question": "A qui est confiée la réalisation des projets ?",
      "answer": "une équipe de spécialistes",
      "answer_stringIds": [
        "string_23",
        "string_24",
        "string_25",
        "string_26"
      ]
    },
    {
      "id_qa": "FMSH_PB188a_11-12_193_qa3_v3",
      "id_block": "block_1",
      "question": "Qu'est ce qui devrait être confié à une équipe de spécialistes ?",
      "answer": "réalisation des projets",
      "answer_stringIds": [
        "string_7",
        "string_8",
        "string_9"
      ]
    },
    {
      "id_qa": "FMSH_PB188a_11-12_193_qa30_v3",
      "id_block": "block_2",
      "question": "Qu'est-ce qui serait souhaitable dans une coopérative ?",
      "answer": "deux sphères de gestion différentes",
      "answer_stringIds": [
        "string_60",
        "string_61",
        "string_62",
        "string_63",
        "string_64"
      ]
    },
    {
      "id_qa": "FMSH_PB188a_11-12_193_qa13_v3",
      "id_block": "block_3",
      "question": "Quelle est la fonction de l'entrepreneur ?",
      "answer": "la sphère de gestion",
      "answer_stringIds": [
        "string_85",
        "string_86",
        "string_87",
        "string_88"
      ]
    },
    {
      "id_qa": "FMSH_PB188a_11-12_193_qa18_v3",
      "id_block": "block_5",
      "question": "Dans quel type d'entreprise se trouvent les coopératives ?",
      "answer": "les coopératives agricoles",
      "answer_stringIds": [
        "string_193",
        "string_194",
        "string_195",
        "string_196"
      ]
    },
    {
      "id_qa": "FMSH_PB188a_11-12_193_qa19_v3",
      "id_block": "block_5",
      "question": "Quel est le niveau de développement des coopératives agricoles ?",
      "answer": "degré",
      "answer_stringIds": [
        "string_203"
      ]
    },
    {
      "id_qa": "FMSH_PB188a_11-12_193_qa21_v3",
      "id_block": "block_5",
      "question": "Qu'est ce qui devrait être régulé dans les coopératives agricoles ?",
      "answer": "régir leur travail et la division de leurs tâches",
      "answer_stringIds": [
        "string_239",
        "string_240",
        "string_241",
        "string_242",
        "string_243",
        "string_244",
        "string_245",
        "string_246",
        "string_247"
      ]
    },
    {
      "id_qa": "FMSH_PB188a_11-12_193_qa24_v3",
      "id_block": "block_5",
      "question": "Quels sont les principes qui devraient régir les coopératives agricoles ?",
      "answer": "leur travail et",
      "answer_stringIds": [
        "string_240",
        "string_241",
        "string_242"
      ]
    }
  ]
}