{
  "num": "autog_0338-7259_1970_num_11_1",
  "article": "autog_0338-7259_1970_num_11_1_968",
  "page_name": "FMSH_PB188a_11-12_185",
  "questions": [
    {
      "id_qa": "FMSH_PB188a_11-12_185_qa16_v3",
      "id_block": "block_1",
      "question": "A qui appartiennent les compétences des responsables correspondants ?",
      "answer": "à la coopérative",
      "answer_stringIds": [
        "string_24",
        "string_25",
        "string_26"
      ]
    },
    {
      "id_qa": "FMSH_PB188a_11-12_185_qa0_v3",
      "id_block": "block_2",
      "question": "Quand le système coopératif a-t-il été développé ?",
      "answer": "avant guerre",
      "answer_stringIds": [
        "string_125",
        "string_126"
      ]
    },
    {
      "id_qa": "FMSH_PB188a_11-12_185_qa3_v3",
      "id_block": "block_2",
      "question": "Où s'est développé le système coopératif avant guerre ?",
      "answer": "dans nos villages",
      "answer_stringIds": [
        "string_127",
        "string_128",
        "string_129"
      ]
    },
    {
      "id_qa": "FMSH_PB188a_11-12_185_qa6_v3",
      "id_block": "block_2",
      "question": "Quel système a été développé avant guerre dans nos villages ?",
      "answer": "le système coopératif",
      "answer_stringIds": [
        "string_121",
        "string_122",
        "string_123"
      ]
    },
    {
      "id_qa": "FMSH_PB188a_11-12_185_qa11_v3",
      "id_block": "block_3",
      "question": "Quel est le plan de transformation socialiste de l'agriculture tchécoslovaque ?",
      "answer": "selon le plan coopératif de",
      "answer_stringIds": [
        "string_212",
        "string_213",
        "string_214",
        "string_215",
        "string_216"
      ]
    }
  ]
}