{
  "num": "autog_0338-7259_1970_num_11_1",
  "article": "autog_0338-7259_1970_num_11_1_968",
  "page_name": "FMSH_PB188a_11-12_187",
  "questions": [
    {
      "id_qa": "FMSH_PB188a_11-12_187_qa6_v3",
      "id_block": "block_1",
      "question": "Sur quoi repose l'activité des C.A.U. ?",
      "answer": "la production agricole",
      "answer_stringIds": [
        "string_52",
        "string_53",
        "string_54"
      ]
    },
    {
      "id_qa": "FMSH_PB188a_11-12_187_qa9_v3",
      "id_block": "block_1",
      "question": "Comment s'appelle la coopérative de type inférieur ?",
      "answer": "les C.A.U.",
      "answer_stringIds": [
        "string_21",
        "string_22"
      ]
    },
    {
      "id_qa": "FMSH_PB188a_11-12_187_qa12_v3",
      "id_block": "block_2",
      "question": "Qu'est-ce qui concerne les coopératives agricoles ?",
      "answer": "les décisions",
      "answer_stringIds": [
        "string_127",
        "string_128"
      ]
    }
  ]
}