{
  "num": "autog_0249-2563_1982_num_16_12",
  "article": "autog_0249-2563_1982_num_16_12_1539",
  "page_name": "autog_0249-2563_1982_num_16_12_T1_0142_0000",
  "questions": [
    "Quel type de recherche est-ce qui ne peut avoir sens que si les pédagogues sont dans l'ignorance ?",
    "Pourquoi les pédagogues doivent être dans l'ignorance pour participer à cette recherche ?",
    "Quel type d'apprentissage collectif est-ce qui pourrait prendre l'allure d'une longue marche ?",
    "Comment le savoir n'est-il pas défini dans ce type d'apprentissage collectif ?",
    "Comment la négativité peut-elle alimenter l'appétit de connaître dans ce type d'apprentissage collectif ?",
    "Dans quel contexte est-ce écrit (année, auteur, titre du texte) ?"
  ]
}