{
  "num": "autog_0249-2563_1982_num_16_12",
  "article": "autog_0249-2563_1982_num_16_12_1539",
  "page_name": "autog_0249-2563_1982_num_16_12_T1_0133_0000",
  "questions": [
    "Quels enseignants de l'Université de Paris VIII ont donné des cours à l'École Normale de Chartres chaque mardi durant la scolarité 82/83 ?",
    "Pourquoi ces cours ont-ils été appelés « mardis particuliers » ?",
    "Quels sujets étaient enseignés lors de ces « mardis » ?",
    "Comment ces « mardis » ont-ils servi de terrain pour des tentatives d'autogestion et de pratiques socianalytiques ?",
    "Quels malaises ont été exprimés à l'École Normale lors de ces « mardis » ?",
    "Comment l'expression de ces malaises a-t-elle été permise dans ce contexte ?",
    "Quel rôle a joué la direction de l'École Normale dans l'organisation de ces cours ?",
    "Comment l'institutionnalisation de l'enseignement universitaire a-t-elle influencé la naissance des « mardis particuliers » ?",
    "Comment l'opposition sociale a-t-elle contribué à la naissance des « mardis particuliers » ?",
    "Comment l'analyse institutionnelle, la pédagogie libertaire et la sociologie du dérangement ont-elles influencé les « mardis particuliers » ?",
    "Comment les « mardis particuliers » ont-ils contribué à la formation des instituteurs ?",
    "Comment les « mardis particuliers » ont-ils influencé la pédagogie et l'enseignement en général ?",
    "Comment les « mardis particuliers » ont-ils été perçus par les autorités scolaires et universitaires ?",
    "Comment les « mardis particuliers » ont-ils été perçus par les étudiants de l'École Normale ?",
    "Comment les « mardis particuliers » ont-ils été perçus par les étudiants des cours traditionnels de l'École Normale ?",
    "Comment les « mardis particuliers » ont-ils été perçus par les enseign?"
  ]
}