{
  "num": "autog_0005-0970_1966_num_1_1",
  "article": "autog_0005-0970_1966_num_1_1_886",
  "page_name": "FMSH_PB188a_00001_068",
  "questions": [
    "Quel rôle jouent les rapports juridiques dans la structure sociale selon Henri Lefebvre ?",
    "Dans quels cas et comment naît la tentative d'autogestion ?",
    "Quel lieu et quelle conjoncture sont privilégiés pour la naissance de l'autogestion ?",
    "Quels en sont les contradictions révélées et cristallisées devant l'autogestion ?",
    "Comment se constitue une bureaucratie dans l'autogestion ?",
    "Quel est le conflit principal entre l'autogestion et l'État selon Henri Lefebvre ?"
  ]
}