{
  "num": "autog_0005-0970_1966_num_1_1",
  "article": "autog_0005-0970_1966_num_1_1_886",
  "page_name": "FMSH_PB188a_00001_062",
  "questions": [
    "Quels spécialistes ont-ils répandu la thèse d'une scission du mouvement ouvrier en deux tendances ?",
    "Quel est la théorie sous-jacente à la thèse de la scission en deux tendances ?",
    "Quels aspects indissolubles et indissociables devaient-ils marquer la période de transition selon Marx et Lénine ?",
    "Quel était l'objectif de Marx en matière de fin de l'État et des hiérarchies politiques ?",
    "Quels accents ont mis les révolutionnaires sur la dictature du prolétariat et la démocratie approfondie ?",
    "Quels accents ont mis les réformistes sur la démocratie et la dictature du prolétariat ?",
    "Quels accords tacites ont-ils faits sur le non-dépérissement de l'État ?",
    "Quel sens avait le réformisme dans la lutte contre la transformation radicale des rapports sociaux ?",
    "Quels résultats a obtenu le réformisme dans les grands pays industriels ?",
    "Pourquoi la transformation de la société ne peut pas se définir comme une coupure absolue ou une révolution totale ?"
  ]
}