{
  "num": "autog_0249-2563_1981_num_14_6",
  "article": "autog_0249-2563_1981_num_14_6_1906",
  "page_name": "FMSH_PB188a_NS_00006_145",
  "questions": [
    "Quels sont les thèmes abordés dans les précédents numéros de la revue autogestions ?",
    "Quels auteurs ont abordé le thème de l'autogestion dans le numéro 1 ?",
    "Quels sont les modèles et expériences autogestionnaires au Japon ?",
    "Quand parle-t-on de l'autogestion yougoslave, où en est-elle ?",
    "Quels sont les mouvements alternatifs et initiatives civiques en RFA ?",
    "Quels sont les principes et pratiques de la cogestion ?",
    "Quels sont les défis technologiques et pièges productivistes dans le débat autogestion et écologie ?",
    "Qu'est-ce qu'un syndicat indépendant et autogéré en Pologne ?",
    "Quels sont les tâches des personnes impliquées dans l'autogestion en Pologne ?",
    "Quelles sont les perspectives de la Pologne entre 1956 et 1980 ?",
    "Qu'est-ce que la nouvelle culture politique en RFA ?",
    "Quels sont les voyages en autogestion ?",
    "Quels sont les débats autour de Rudolf Bahro ?",
    "Quels sont les régions et pratiques de la cogestion ?",
    "Quels sont les choix nucléaires et exigences autogestionnaires ?",
    "Quels sont les matériaux sur l'expérience autogestionnaire au Pérou ?",
    "Quels sont les débats autour de l'autogestion et de l'écologie ?",
    "Quels sont les chroniques sur l'autogestion sans Tito et le kibboutz autogestionnaire ?",
    "Quels sont les documents en direct de Gdansk ?",
    "Quels sont les débats autour de la leçon d'autogestion en Pologne ?",
    "Quels sont les auteurs de la table ronde sur les continuités?"
  ]
}