{
  "num": "autog_0005-0970_1967_num_2_1",
  "article": "autog_0005-0970_1967_num_2_1_903",
  "page_name": "FMSH_PB188a_00002_108",
  "questions": [
    "Quels principes sous-tendent la démocratie du kibboutz ?",
    "Comment le volontariat permet de respecter les décisions du kibboutz ?",
    "Quel est le rôle de la coopération totale dans la structure sociale et organisationnelle du kibboutz ?",
    "Comment l'égalitarisme est-il mis en œuvre dans la démocratie du kibboutz ?",
    "Quel est le type de rapport social communautaire du kibboutz ?",
    "Comment l'opinion publique est-elle utilisée dans la formation des décisions au kibboutz ?",
    "Quel est le rôle des discussions en Assemblée générale dans le processus de formation des décisions ?",
    "Comment la faible importance attribuée à la procédure réglementaire et formelle se reflète dans la démocratie du kibboutz ?"
  ]
}