{
  "num": "autog_0005-0970_1967_num_2_1",
  "article": "autog_0005-0970_1967_num_2_1_903",
  "page_name": "FMSH_PB188a_00002_114",
  "questions": [
    "Quels sont les domaines d'activité où l'appréciation de la fonction de l'Assemblée générale était différente ?",
    "Pourquoi l'Assemblée générale ne remplissait-elle pas sa fonction particulièrement dans le domaine économique ?",
    "Comment la spécialisation dans un secteur d'activité économique affecte-t-elle la connaissance des membres des autres secteurs ?",
    "Comment les décisions économiques étaient prises dans le kibboutz ?",
    "Quels sont les inquiétudes des personnes occupées à la conduite sociale dans le mouvement kibboutz en ce qui concerne cette situation ?",
    "Quelles sont les propositions faites pour arrêter une telle évolution ?",
    "Quel système de communication modernes ont été proposés pour informer les membres sur les questions sur lesquelles l'assemblée aura à se prononcer ?",
    "Quels sont les types de réunions des commissions économiques spécialisées proposées ?",
    "Quels sont les types de clubs, de groupes d'études, de groupes culturels proposés pour permettre aux membres de se rencontrer librement ?",
    "Quels sont les principaux changements dans la structure organisationnelle du kibboutz dans les domaines des organisations auxiliaires ?",
    "Comment les fonctions des secrétariats économique et social ont-elles évolué ?",
    "Quels sont les aspects de l'activité du kibboutz représentés par le Secrétaire à l'Économie, le Trésorier et le Directeur des Travaux ?",
    "Quels sont les aspects de l'activité du kibboutz représentés par le chef de la Commission Sociale ?",
    "Quels sont les autres institutions ayant des fonctions d'intégration qui ont vu leur nombre s'élever ?"
  ]
}