{
  "num": "autog_0338-7259_1977_num_37_1",
  "article": "autog_0338-7259_1977_num_37_1_1245_t1_0183_0000_1",
  "page_name": "FMSH_PB188a_37-38_185",
  "questions": [
    "Quel est le titre de l'ouvrage de Robert Lafont ?",
    "Quel est le rôle de Robert Lafont dans les domaines de la littérature et des sciences humaines ?",
    "Quel est le contenu des trois parties de l'ouvrage ?",
    "Quel est le but de la première partie de l'ouvrage ?",
    "Qu'y trouve-t-on de promesses d'avenir dans les luttes régionales actuelles ?",
    "Qu'est-ce que la France des autonomies selon Robert Lafont ?",
    "Quel est le sujet de la deuxième partie de l'ouvrage ?",
    "Quel est le but de la troisième partie de l'ouvrage ?",
    "Pourquoi Robert Lafont a-t-il décidé d'abord parler de l'autogestion dans ce projet ?",
    "Qu'est-ce que la région socialiste selon Robert Lafont ?",
    "Comment la promotion du pays peut-elle être une clef possible du problème de l'autogestion ?"
  ]
}