{
  "num": "autog_0338-7259_1977_num_37_1",
  "article": "autog_0338-7259_1977_num_37_1_1245_t1_0183_0000_1",
  "page_name": "FMSH_PB188a_37-38_187",
  "questions": [
    "Quel type de décentralisation est envisagée par l'auteur : réelle ou apparente ?",
    "Quels sont les acteurs qui devraient mener cette décentralisation ?",
    "Quel rôle jouerait l'autonomie régionale socialiste dans cette décentralisation ?",
    "Quels sont les objectifs de l'autonomisation régionale socialiste ?",
    "Comment l'autonomisation régionale socialiste pourrait-elle affecter l'édifice social ?",
    "Quels sont les autres niveaux de l'autonomisation envisagés par l'auteur ?",
    "Comment l'autonomisation diversifiée pourrait-elle remettre en question les rapports entre l'ouvrier et son outil ?",
    "Quels sont les mouvements qui pourraient accompagner une victoire électorale de la gauche et favoriser l'expérimentation historique ?"
  ]
}