{
  "num": "autog_0249-2563_1982_num_16_12",
  "article": "autog_0249-2563_1982_num_16_12_1523",
  "page_name": "autog_0249-2563_1982_num_16_12_T1_0026_0000",
  "questions": [
    "Quels sont les origines de la distinction entre l'autogestion et la psychothérapie institutionnelle ?",
    "Qu'est-ce que l'autogestion dans le contexte de la psychothérapie institutionnelle ?",
    "Quel est le rôle du terme « club » dans l'autogestion psychothérapeutique ?",
    "Qu'est-ce que l'autogestion pédagogique ?",
    "Qu'est-ce que la pédagogie institutionnelle ?",
    "Pourquoi on a préféré parler de « pédagogie institutionnelle » plutôt qu'« autogestion pédagogique » dans le passé ?",
    "Quels sont les nouveaux développements de l'autogestion pédagogique à l'échelle des établissements ?",
    "Comment l'autogestion pédagogique s'est-elle installée dans divers milieux de formation ?",
    "Comment l'autogestion pédagogique a-t-elle évolué depuis vingt ans ?"
  ]
}