{
  "num": "autog_0249-2563_1982_num_16_12",
  "article": "autog_0249-2563_1982_num_16_12_1523",
  "page_name": "autog_0249-2563_1982_num_16_12_T1_0023_0000",
  "questions": [
    "Quel rôle jouait le T. Group dans l'avancement du chemin de la psychosociologie des groupes dans le domaine de la formation des adultes ?",
    "En quels contextes s'est produit le premier énoncé de l'autogestion pédagogique ?",
    "Quelles étaient les finalités du stage organisé par les étudiants dirigeants de l'UNEF ?",
    "Comment l'idée de l'autogestion a-t-elle renforcé la nouvelle pédagogie autogestionnaire ?",
    "Quel lien y a-t-il entre l'idée politique et syndicale de l'autogestion et la nouvelle pédagogie autogestionnaire ?",
    "Comment l'autogestionnaire à l'UNEF et le contexte des années 60 ont-ils contribué à intéresser la gauche des années 60 à la pédagogie autogestionnaire ?"
  ]
}