{
  "num": "autog_0249-2563_1982_num_16_12",
  "article": "autog_0249-2563_1982_num_16_12_1523",
  "page_name": "autog_0249-2563_1982_num_16_12_T1_0028_0000",
  "questions": [
    "Quel montant représente ce document ?",
    "Quel type de document est-ce ?",
    "Est-ce qu'il y a une date ou une localisation associée à ce document ?",
    "Quel est le rôle de ce document dans l'histoire ?",
    "Quel est le contexte historique de ce document ?",
    "Quels sont les acteurs impliqués dans la création ou la transmission de ce document ?",
    "Quels sont les principaux termes ou concepts mentionnés dans ce document ?",
    "Quels sont les enjeux ou les conséquences possibles de ce document ?",
    "Quels sont les sources secondaires ou secondaires utiles pour en savoir plus sur ce document ?",
    "Annotations:?",
    "What does this document represent in terms of value?",
    "What type of document is it?",
    "Is there a date or a location associated with this document?",
    "What is the role of this document in history?",
    "What is the historical context of this document?",
    "Who were the actors involved in the creation or transmission of this document?",
    "What are the main terms or concepts mentioned in this document?",
    "What are the stakes or potential consequences of this document?",
    "What secondary sources or references would be useful to learn more about this document?",
    "Note: The given paragraph is not provided, it's just an example of open questions that could be asked while annotating a document in the field of human and social sciences. The questions are designed to be open-ended and to encourage further research and exploration of the document's content.?"
  ]
}