{
  "num": "autog_0338-7259_1974_num_28_1",
  "article": "autog_0338-7259_1974_num_28_1_1206_t1_0175_0000_2",
  "page_name": "FMSH_PB188a_28-29_178",
  "questions": [
    {
      "id_qa": "FMSH_PB188a_28-29_178_qa6_v3",
      "id_block": "block_1",
      "question": "D'où viennent les analyses de Trotsky ?",
      "answer": "de Lénine et même de Marx",
      "answer_stringIds": [
        "string_96",
        "string_97",
        "string_98",
        "string_99",
        "string_100",
        "string_101"
      ]
    },
    {
      "id_qa": "FMSH_PB188a_28-29_178_qa0_v3",
      "id_block": "block_3",
      "question": "Qui a écrit La Société éclatée ?",
      "answer": "David Rousset",
      "answer_stringIds": [
        "string_36",
        "string_37"
      ]
    },
    {
      "id_qa": "FMSH_PB188a_28-29_178_qa2_v3",
      "id_block": "block_3",
      "question": "Dans quel ouvrage David Rousset met en lumière le rôle des forces productives dans le projet du socialisme ?",
      "answer": "Dans La Société",
      "answer_stringIds": [
        "string_208",
        "string_209",
        "string_210"
      ]
    },
    {
      "id_qa": "FMSH_PB188a_28-29_178_qa4_v3",
      "id_block": "block_3",
      "question": "Quelle était la conséquence de la bureaucratisation accélérée de l'U.RS ?",
      "answer": "le règne absolutiste et sanglant de Staline",
      "answer_stringIds": [
        "string_201",
        "string_202",
        "string_203",
        "string_204",
        "string_205",
        "string_206",
        "string_207"
      ]
    },
    {
      "id_qa": "FMSH_PB188a_28-29_178_qa11_v3",
      "id_block": "block_4",
      "question": "Durant quelle période le Léninisme a-t-il été étudié ?",
      "answer": "durant la vie de Lénine",
      "answer_stringIds": [
        "string_290",
        "string_291",
        "string_292",
        "string_293",
        "string_294"
      ]
    },
    {
      "id_qa": "FMSH_PB188a_28-29_178_qa13_v3",
      "id_block": "block_4",
      "question": "Quelle est la qualité de l'ouvrage de Marcel Liebman ?",
      "answer": "un ouvrage très dense",
      "answer_stringIds": [
        "string_256",
        "string_257",
        "string_258",
        "string_259"
      ]
    },
    {
      "id_qa": "FMSH_PB188a_28-29_178_qa17_v3",
      "id_block": "block_5",
      "question": "A quoi est consacrée la critique du N. 61 ?",
      "answer": "à cet ouvrage très important",
      "answer_stringIds": [
        "string_326",
        "string_327",
        "string_328",
        "string_329",
        "string_330"
      ]
    }
  ]
}