{
  "num": "autog_0338-7259_1974_num_28_1",
  "article": "autog_0338-7259_1974_num_28_1_1206_t1_0175_0000_2",
  "page_name": "FMSH_PB188a_28-29_179",
  "questions": [
    {
      "id_qa": "FMSH_PB188a_28-29_179_qa27_v3",
      "id_block": "block_2",
      "question": "Qui a élaboré ses conceptions initiales concernant le parti révolutionnaire ?",
      "answer": "Lénine",
      "answer_stringIds": [
        "string_64"
      ]
    },
    {
      "id_qa": "FMSH_PB188a_28-29_179_qa28_v3",
      "id_block": "block_2",
      "question": "Quelle était la conception initiale de Lénine ?",
      "answer": "ses conceptions initiales concernant le « parti révolutionnaire",
      "answer_stringIds": [
        "string_66",
        "string_67",
        "string_68",
        "string_69",
        "string_70",
        "string_71",
        "string_72",
        "string_73"
      ]
    },
    {
      "id_qa": "FMSH_PB188a_28-29_179_qa29_v3",
      "id_block": "block_2",
      "question": "Qu'est-ce que le bolchévisme ?",
      "answer": "le « parti révolutionnaire",
      "answer_stringIds": [
        "string_70",
        "string_71",
        "string_72",
        "string_73"
      ]
    },
    {
      "id_qa": "FMSH_PB188a_28-29_179_qa23_v3",
      "id_block": "block_3",
      "question": "Qui a écrit Que faire ?",
      "answer": "Lénine",
      "answer_stringIds": [
        "string_64"
      ]
    },
    {
      "id_qa": "FMSH_PB188a_28-29_179_qa24_v3",
      "id_block": "block_3",
      "question": "Qu'est ce que Lénine a codifié ?",
      "answer": "Ces conceptions",
      "answer_stringIds": [
        "string_88",
        "string_89"
      ]
    },
    {
      "id_qa": "FMSH_PB188a_28-29_179_qa19_v3",
      "id_block": "block_4",
      "question": "Quand l'organisation léniniste voit-elle ses principes battus en brèche ?",
      "answer": "par la Révolution de 1905",
      "answer_stringIds": [
        "string_161",
        "string_162",
        "string_163",
        "string_164",
        "string_165"
      ]
    },
    {
      "id_qa": "FMSH_PB188a_28-29_179_qa4_v3",
      "id_block": "block_5",
      "question": "Qu'est ce qui ne se développe pas au détriment du Parti ?",
      "answer": "les soviets",
      "answer_stringIds": [
        "string_183",
        "string_184"
      ]
    },
    {
      "id_qa": "FMSH_PB188a_28-29_179_qa0_v3",
      "id_block": "block_6",
      "question": "Par qui Lénine a-t-il pris ses distances ?",
      "answer": "par les bolcheviks",
      "answer_stringIds": [
        "string_257",
        "string_258",
        "string_259"
      ]
    },
    {
      "id_qa": "FMSH_PB188a_28-29_179_qa1_v3",
      "id_block": "block_6",
      "question": "Qui a pris ses distances vis-à-vis de la question du Soviet ?",
      "answer": "Lénine",
      "answer_stringIds": [
        "string_64"
      ]
    },
    {
      "id_qa": "FMSH_PB188a_28-29_179_qa13_v3",
      "id_block": "block_6",
      "question": "Qui plaide pour l'autonomie du soviet à l'égard des partis politiques ?",
      "answer": "Lénine",
      "answer_stringIds": [
        "string_64"
      ]
    },
    {
      "id_qa": "FMSH_PB188a_28-29_179_qa32_v3",
      "id_block": "block_6",
      "question": "Quel est le programme du Soviet des députés ouvriers ?",
      "answer": "le programme social-démocrate",
      "answer_stringIds": [
        "string_298",
        "string_299",
        "string_300"
      ]
    },
    {
      "id_qa": "FMSH_PB188a_28-29_179_qa33_v3",
      "id_block": "block_6",
      "question": "Comment Lénine qualifie-t-il le Soviet ?",
      "answer": "le Soviet devait « être considéré comme un embryon du gouvernement révolutionnaire provisoire",
      "answer_stringIds": [
        "string_312",
        "string_313",
        "string_314",
        "string_315",
        "string_316",
        "string_317",
        "string_318",
        "string_319",
        "string_320",
        "string_321",
        "string_322",
        "string_323",
        "string_324"
      ]
    },
    {
      "id_qa": "FMSH_PB188a_28-29_179_qa34_v3",
      "id_block": "block_6",
      "question": "A quel parti adhérait Lénine ?",
      "answer": "au Parti ouvrier social-démocrate de Russie",
      "answer_stringIds": [
        "string_303",
        "string_304",
        "string_305",
        "string_306",
        "string_307",
        "string_308"
      ]
    },
    {
      "id_qa": "FMSH_PB188a_28-29_179_qa35_v3",
      "id_block": "block_6",
      "question": "Qui adhère au parti social-démocrate de Russie ?",
      "answer": "des députés ouvriers",
      "answer_stringIds": [
        "string_293",
        "string_294",
        "string_295"
      ]
    },
    {
      "id_qa": "FMSH_PB188a_28-29_179_qa36_v3",
      "id_block": "block_6",
      "question": "A qui Lénine conseille-t-il d'adhérer au parti social-démocrate ?",
      "answer": "du Soviet des députés ouvriers",
      "answer_stringIds": [
        "string_291",
        "string_292",
        "string_293",
        "string_294",
        "string_295"
      ]
    },
    {
      "id_qa": "FMSH_PB188a_28-29_179_qa37_v3",
      "id_block": "block_6",
      "question": "Qui déclarait que le Soviet devait être considéré comme un embryon du gouvernement révolutionnaire provisoire ?",
      "answer": "Lénine",
      "answer_stringIds": [
        "string_64"
      ]
    },
    {
      "id_qa": "FMSH_PB188a_28-29_179_qa38_v3",
      "id_block": "block_6",
      "question": "Qui a déclaré que le Soviet devait être considéré comme un embryon du gouvernement révolutionnaire provisoire ?",
      "answer": "Lénine",
      "answer_stringIds": [
        "string_64"
      ]
    },
    {
      "id_qa": "FMSH_PB188a_28-29_179_qa40_v3",
      "id_block": "block_6",
      "question": "Qu'est ce qui devait être considéré comme un embryon du gouvernement révolutionnaire provisoire ?",
      "answer": "le Soviet",
      "answer_stringIds": [
        "string_312",
        "string_313"
      ]
    }
  ]
}