{
  "num": "autog_0338-7259_1978_num_41_1",
  "article": "autog_0338-7259_1978_num_41_1_1325",
  "page_name": "FMSH_PB188a_41-42_236",
  "questions": [
    "Quels auteurs sont cités dans ce paragraphe ?",
    "Dans quel pays sont publiés les ouvrages d'Attali, Baudrillard et Berthoud et Sabelli ?",
    "En quels années sont parus les ouvrages d'Attali, Chesneaux et Jaulin ?",
    "Dans quels éditeurs sont parus les ouvrages de Baudrillard et LeFebvre ?",
    "Quel est le titre de l'ouvrage de Tanner ?",
    "Est-ce que tous les ouvrages cités sont des livres ?",
    "Quel est le titre de la série dans laquelle est paru l'ouvrage de Berthoud et Sabelli ?",
    "Quel est le thème principal des travaux d'Attali ?",
    "Quel est le thème principal des travaux de Baudrillard ?",
    "Quel est le thème principal des travaux de Berthoud et Sabelli ?",
    "Quel est le thème principal des travaux de Chesneaux ?",
    "Quel est le thème principal des travaux de Jaulin ?",
    "Quel est le thème principal des travaux de LeFebvre ?",
    "Quel est le thème principal des travaux de Tanner ?",
    "Est-ce que l'ouvrage de Tanner est un livre ou un film ?",
    "Dans quel pays est sorti le film de Tanner ?",
    "En quelle période est sorti le film de Tanner ?",
    "Quel est le titre original du film de Tanner ?",
    "Quel est le titre français du film de Tanner ?"
  ]
}