{
  "num": "autog_0249-2563_1982_num_16_12",
  "article": "autog_0249-2563_1982_num_16_12_1546",
  "page_name": "autog_0249-2563_1982_num_16_12_T1_0187_0000",
  "questions": [
    "Quels sont les conditions nécessaires pour qu'un mandat impératif soit pris en considération lors d'un vote dans l'assemblée des représentants ?",
    "Quel est le délai maximal pour une décision provisoire d'exclusion d'un groupe ?",
    "Quelle majorité est nécessaire pour prendre une décision d'exclusion d'un groupe ?",
    "Quel est le rôle des principes organisationnels dans l'élaboration des Statuts du SMOT ?",
    "Dans quelles conditions l'assemblée du SR peut prendre des décisions ?",
    "Quels sont les conditions actuelles en URSS qui ont poussé le SMOT à appeler tous les citoyens de Russie et des républiques nationales ?",
    "Quels sont les pays dont les régimes sont soutenus par le Parti et le Gouvernement en URSS ?",
    "Quels sont les produits qui font défaut à la population russe et quelles régions sont menacées par une famine ?",
    "Quel est le sort des travailleurs dans certains endroits ?",
    "Quel type de dialogue le peuple attend-il du Parti et du Gouvernement pour résoudre la crise ?"
  ]
}