{
  "num": "autog_0249-2563_1984_num_17_17",
  "article": "autog_0249-2563_1984_num_17_17_1916_t1_0133_0000_3",
  "page_name": "autog_0249-2563_1984_num_17_17_T1_0135_0000",
  "questions": [
    {
      "id_qa": "autog_0249-2563_1984_num_17_17_T1_0135_0000_qa29_v3",
      "id_block": "block_2",
      "question": "Sur quoi s'exerce l'influence de la société ?",
      "answer": "sur la double tendance productiviste et étatiste de la société",
      "answer_stringIds": [
        "string_41",
        "string_42",
        "string_43",
        "string_44",
        "string_45",
        "string_46",
        "string_47",
        "string_48",
        "string_49",
        "string_50",
        "string_51"
      ]
    },
    {
      "id_qa": "autog_0249-2563_1984_num_17_17_T1_0135_0000_qa23_v3",
      "id_block": "block_3",
      "question": "A partir de quel moment G. Berthoud se livre-t-il à une critique radicale des processus qui visent à étendre indéfiniment le champ de l'homogène ?",
      "answer": "de ce renversement complet",
      "answer_stringIds": [
        "string_80",
        "string_81",
        "string_82",
        "string_83"
      ]
    },
    {
      "id_qa": "autog_0249-2563_1984_num_17_17_T1_0135_0000_qa26_v3",
      "id_block": "block_3",
      "question": "Qu'est ce qui vient insidieusement napper d'idéologie ?",
      "answer": "des analogies",
      "answer_stringIds": [
        "string_141",
        "string_142"
      ]
    },
    {
      "id_qa": "autog_0249-2563_1984_num_17_17_T1_0135_0000_qa27_v3",
      "id_block": "block_3",
      "question": "Que dénonce-t-il au passage ?",
      "answer": "limprégnation de notre vocabulaire",
      "answer_stringIds": [
        "string_133",
        "string_134",
        "string_135",
        "string_136"
      ]
    },
    {
      "id_qa": "autog_0249-2563_1984_num_17_17_T1_0135_0000_qa28_v3",
      "id_block": "block_4",
      "question": "Qui voit le cours vertueux ?",
      "answer": "G. Berthoud",
      "answer_stringIds": [
        "string_84",
        "string_85"
      ]
    },
    {
      "id_qa": "autog_0249-2563_1984_num_17_17_T1_0135_0000_qa8_v3",
      "id_block": "block_5",
      "question": "Qui est l'auteur de la réflexion sur l'ethno-résistance ?",
      "answer": "la réflexion de G. Berthoud",
      "answer_stringIds": [
        "string_494",
        "string_495",
        "string_496",
        "string_497",
        "string_498",
        "string_499"
      ]
    },
    {
      "id_qa": "autog_0249-2563_1984_num_17_17_T1_0135_0000_qa13_v3",
      "id_block": "block_6",
      "question": "Qui a écrit La Condition post-moderne ?",
      "answer": "JeanFrançois Lyotard",
      "answer_stringIds": [
        "string_574",
        "string_575",
        "string_576"
      ]
    },
    {
      "id_qa": "autog_0249-2563_1984_num_17_17_T1_0135_0000_qa18_v3",
      "id_block": "block_6",
      "question": "Qu'est-ce que Plaidoyer pour l'Autre ?",
      "answer": "un ouvrage important",
      "answer_stringIds": [
        "string_608",
        "string_609",
        "string_610"
      ]
    }
  ]
}