{
  "num": "autog_0338-7259_1971_num_16_1",
  "article": "autog_0338-7259_1971_num_16_1_1014",
  "page_name": "FMSH_PB188a_16-17_075",
  "questions": [
    "Qu'est-ce que l'Institut pour le contrôle des ouvriers (IWC) s'oppose à ?",
    "En quoi la révocabilité des responsables par la base et l'interchangeabilité des postes contribuent-elles à lutter contre la « bureaucratisation irresponsable » ?",
    "Quels sont les liens de l'IWC avec le Parti travailliste social-démocrate ?",
    "Pourquoi les organisations politiques d'extrême-gauche reprochent-elles à l'IWC ses liens avec le Parti travailliste ?",
    "Comment l'IWC agit-elle dans le cadre des structures existantes (syndicats et parti travailliste) ?",
    "Qu'est-il nécessaire de créer un parti révolutionnaire pour l'IWC ?",
    "Comment l'autogestion serait-elle la forme naturelle d'administration du socialisme selon l'IWC ?"
  ]
}