{
  "num": "autog_0338-7259_1971_num_16_1",
  "article": "autog_0338-7259_1971_num_16_1_1014",
  "page_name": "FMSH_PB188a_16-17_070",
  "questions": [
    "Quel rôle joue Andree Hoyles dans la critique des négociations de productivité ?",
    "Quels sont les titres des brochures de l'ILW.C. mentionnées dans le texte ?",
    "Quel syndicat est le plus influent dans la définition de la politique des négociations de salaires à la base ?",
    "Quels sont les critiques formulées par Andree Hoyles à l'égard des négociations de productivité ?",
    "Dans quelle mesure les négociations de productivité sont-elles une technique importée des États-Unis ?",
    "Comment les militants ont réagie aux accords de productivité ?",
    "Quel rôle joue l'ILW.C. dans la résistance aux accords de productivité ?",
    "Comment les négociations de productivité sont-elles présentées par les patrons ?",
    "Quel est le but des négociations de productivité selon les patrons ?",
    "Comment les négociations de productivité affectent-elles le pouvoir des shop stewards ?",
    "Comment les dirigeants syndicaux ont réagi aux critiques des militants contre les accords de productivité ?",
    "Comment l'ILW.C. contribue-t-elle à la défense de la démocratie industrielle ?"
  ]
}