{
  "num": "autog_0338-7259_1971_num_16_1",
  "article": "autog_0338-7259_1971_num_16_1_1014",
  "page_name": "FMSH_PB188a_16-17_063",
  "questions": [
    "Quels sont les tentatives de déviation participationnistes que l'Institut pour le contrôle des ouvriers a réussi à contrer ?",
    "Comment l'Institut pour le contrôle des ouvriers a-t-il influencé les luttes des travailleurs révolutionnaires en Europe ?",
    "Quel est le rôle des Conférences, groupes de travail et publications de l'Institut pour le contrôle des ouvriers dans la diffusion des idées sur le contrôle ouvrier ?",
    "Quels sont les organisations qui ont repris les idées sur le contrôle ouvrier et comment les ont-elles déformées ?",
    "Quel débat a eu lieu au Parlement entre un député conservateur et un député travailliste sur le contrôle ouvrier ?",
    "Qu'est-ce que le gouvernement travailliste entend par « démocratie industrielle » ?",
    "Quel est l'exemple le plus récent de l'application du contrôle ouvrier ?",
    "Comment ont répondu Ken Coates et Tony Topham à l'ancien ministre de la technologie M. Anthony Wedgwood-Benn sur le contrôle ouvrier ?",
    "En quelle publication ont été publiés les articles de Ken Coates et Tony Topham sur le contrôle ouvrier ?"
  ]
}