{
  "num": "autog_0338-7259_1971_num_16_1",
  "article": "autog_0338-7259_1971_num_16_1_1014",
  "page_name": "FMSH_PB188a_16-17_066",
  "questions": [
    "Quel est le rôle de Andree Hoyles dans les conférences annuelles des groupes industriels ?",
    "Quel est le nombre approximatif de groupes industriels et de participants à chaque conférence ?",
    "Comment la structure de ces conférences peut-elle être décrite ?",
    "Quel est l'importance de l'Institut du Contrôle ouvrier selon Andree Hoyles ?",
    "Quels sont les principaux sujets de discussion dans ces conférences ?",
    "Quels sont les principaux syndicats impliqués dans les débats sur le contrôle ouvrier ?",
    "Quels sont les titres de quelques publications liées au sujet du contrôle ouvrier ?",
    "Quel est le rôle du Comité de coordination des shop stewards de l'industrie automobile ?",
    "Quels sont les noms des trois shop stewards interviewés par la B.B.C. et par quelles entreprises sont-ils liés ?",
    "Dans quels domaines les commissions se réunissaient-elles pour discuter ?",
    "Quel rapport parlementaire est cité par M. Taylor (MP Glasgow) ?"
  ]
}