{
  "num": "autog_0338-7259_1978_num_40_1",
  "article": "autog_0338-7259_1978_num_40_1_1279",
  "page_name": "FMSH_PB188a_00040_097",
  "questions": [
    {
      "id_qa": "FMSH_PB188a_00040_097_qa25_v3",
      "id_block": "block_2",
      "question": "Qu'est ce qui est en train de mettre en place ?",
      "answer": "un centre",
      "answer_stringIds": [
        "string_43",
        "string_44"
      ]
    },
    {
      "id_qa": "FMSH_PB188a_00040_097_qa5_v3",
      "id_block": "block_3",
      "question": "A quoi sert la section sportive ?",
      "answer": "de centre de culture populaire",
      "answer_stringIds": [
        "string_125",
        "string_126",
        "string_127",
        "string_128",
        "string_129"
      ]
    },
    {
      "id_qa": "FMSH_PB188a_00040_097_qa33_v3",
      "id_block": "block_3",
      "question": "Combien de temps dure le centre aéré ?",
      "answer": "que 3 mois",
      "answer_stringIds": [
        "string_106",
        "string_107",
        "string_108"
      ]
    },
    {
      "id_qa": "FMSH_PB188a_00040_097_qa34_v3",
      "id_block": "block_3",
      "question": "Qu'est ce qui ne va tourner que 3 mois ?",
      "answer": "ce centre aéré",
      "answer_stringIds": [
        "string_99",
        "string_100",
        "string_101"
      ]
    },
    {
      "id_qa": "FMSH_PB188a_00040_097_qa13_v3",
      "id_block": "block_4",
      "question": "Qui pourra se détendre dans un endroit boisé ?",
      "answer": "les enfants",
      "answer_stringIds": [
        "string_258",
        "string_259"
      ]
    },
    {
      "id_qa": "FMSH_PB188a_00040_097_qa16_v3",
      "id_block": "block_4",
      "question": "Qui pourra être gardé dans un endroit boisé ?",
      "answer": "les enfants",
      "answer_stringIds": [
        "string_258",
        "string_259"
      ]
    },
    {
      "id_qa": "FMSH_PB188a_00040_097_qa17_v3",
      "id_block": "block_4",
      "question": "Dans quel endroit les enfants peuvent-ils être gardés ?",
      "answer": "un endroit boisé",
      "answer_stringIds": [
        "string_312",
        "string_313",
        "string_314"
      ]
    },
    {
      "id_qa": "FMSH_PB188a_00040_097_qa24_v3",
      "id_block": "block_5",
      "question": "Qu'est ce qui est important pour les associations ?",
      "answer": "les nombreuses activités",
      "answer_stringIds": [
        "string_367",
        "string_368",
        "string_369"
      ]
    }
  ]
}