{
  "num": "autog_0338-7259_1978_num_40_1",
  "article": "autog_0338-7259_1978_num_40_1_1279",
  "page_name": "FMSH_PB188a_00040_093",
  "questions": [
    {
      "id_qa": "FMSH_PB188a_00040_093_qa20_v3",
      "id_block": "block_2",
      "question": "Qu'a envoyé le préfet au préfet ?",
      "answer": "cette délibération",
      "answer_stringIds": [
        "string_86",
        "string_87"
      ]
    },
    {
      "id_qa": "FMSH_PB188a_00040_093_qa1_v3",
      "id_block": "block_5",
      "question": "Qu'est ce qui est là finalement pour faire en sorte que tout aille comme par le passé ?",
      "answer": "le système administratif",
      "answer_stringIds": [
        "string_239",
        "string_240",
        "string_241",
        "string_242"
      ]
    },
    {
      "id_qa": "FMSH_PB188a_00040_093_qa2_v3",
      "id_block": "block_5",
      "question": "Qui va continuer à gérer le système tel qu'il est ?",
      "answer": "les communes",
      "answer_stringIds": [
        "string_222",
        "string_223"
      ]
    },
    {
      "id_qa": "FMSH_PB188a_00040_093_qa3_v3",
      "id_block": "block_5",
      "question": "Qui va accepter de gérer le système tel qu'il est ?",
      "answer": "les communes",
      "answer_stringIds": [
        "string_222",
        "string_223"
      ]
    },
    {
      "id_qa": "FMSH_PB188a_00040_093_qa10_v3",
      "id_block": "block_6",
      "question": "Où peut-on vivre très gentiment ?",
      "answer": "dans notre village",
      "answer_stringIds": [
        "string_330",
        "string_331",
        "string_332"
      ]
    },
    {
      "id_qa": "FMSH_PB188a_00040_093_qa24_v3",
      "id_block": "block_7",
      "question": "Qu'est-ce qui est donné au public ?",
      "answer": "notre avis sur ce beau projet",
      "answer_stringIds": [
        "string_387",
        "string_388",
        "string_389",
        "string_390",
        "string_391",
        "string_392"
      ]
    }
  ]
}