{
  "num": "autog_0338-7259_1978_num_40_1",
  "article": "autog_0338-7259_1978_num_40_1_1279",
  "page_name": "FMSH_PB188a_00040_083",
  "questions": [
    {
      "id_qa": "FMSH_PB188a_00040_083_qa34_v2",
      "id_block": "block_1",
      "question": "Qui a fait un programme au moment de l'élection ?",
      "answer": "les gens",
      "answer_stringIds": [
        "string_15",
        "string_16"
      ]
    },
    {
      "id_qa": "FMSH_PB188a_00040_083_qa36_v2",
      "id_block": "block_1",
      "question": "Qu'est ce qui avait été fait au moment de l'élection ?",
      "answer": "un programme",
      "answer_stringIds": [
        "string_8",
        "string_9"
      ]
    },
    {
      "id_qa": "FMSH_PB188a_00040_083_qa21_v2",
      "id_block": "block_2",
      "question": "Qui peut-on faire un sondage ?",
      "answer": "les gens",
      "answer_stringIds": [
        "string_15",
        "string_16"
      ]
    },
    {
      "id_qa": "FMSH_PB188a_00040_083_qa24_v2",
      "id_block": "block_2",
      "question": "Qu'est ce qui peut être intéressant ?",
      "answer": "un sondage",
      "answer_stringIds": [
        "string_84",
        "string_85"
      ]
    },
    {
      "id_qa": "FMSH_PB188a_00040_083_qa32_v2",
      "id_block": "block_2",
      "question": "Qui a construit le programme d'après les besoins ?",
      "answer": "les gens",
      "answer_stringIds": [
        "string_15",
        "string_16"
      ]
    },
    {
      "id_qa": "FMSH_PB188a_00040_083_qa33_v2",
      "id_block": "block_2",
      "question": "Selon quoi a été bâti le programme ?",
      "answer": "les besoins",
      "answer_stringIds": [
        "string_314",
        "string_315"
      ]
    },
    {
      "id_qa": "FMSH_PB188a_00040_083_qa37_v2",
      "id_block": "block_3",
      "question": "Quand se passe-t-il quelque chose à Vandoncourt ?",
      "answer": "Toutes les semaines",
      "answer_stringIds": [
        "string_370",
        "string_371",
        "string_372"
      ]
    },
    {
      "id_qa": "FMSH_PB188a_00040_083_qa38_v2",
      "id_block": "block_3",
      "question": "Où se passe-t-il toutes les semaines ?",
      "answer": "à Vandoncourt",
      "answer_stringIds": [
        "string_378",
        "string_379"
      ]
    },
    {
      "id_qa": "FMSH_PB188a_00040_083_qa9_v2",
      "id_block": "block_5",
      "question": "Qui participe à la gestion ?",
      "answer": "les gens",
      "answer_stringIds": [
        "string_15",
        "string_16"
      ]
    },
    {
      "id_qa": "FMSH_PB188a_00040_083_qa11_v2",
      "id_block": "block_5",
      "question": "Qu'est ce qui permet que les gens participent à la gestion ?",
      "answer": "les structures",
      "answer_stringIds": [
        "string_389",
        "string_390"
      ]
    },
    {
      "id_qa": "FMSH_PB188a_00040_083_qa12_v2",
      "id_block": "block_5",
      "question": "A quoi servent les structures que vous avez mises en place pour que les gens participent ?",
      "answer": "à la gestion",
      "answer_stringIds": [
        "string_402",
        "string_403",
        "string_404"
      ]
    },
    {
      "id_qa": "FMSH_PB188a_00040_083_qa1_v2",
      "id_block": "block_6",
      "question": "Qu'a nécessité le conseil des anciens ?",
      "answer": "une véritable relance",
      "answer_stringIds": [
        "string_443",
        "string_444",
        "string_445"
      ]
    }
  ]
}