{
  "num": "autog_0249-2563_1981_num_14_5",
  "article": "autog_0249-2563_1981_num_14_5_1412",
  "page_name": "autog_0249-2563_1981_num_14_5_T1_0068_0000",
  "questions": [
    {
      "id_qa": "autog_0249-2563_1981_num_14_5_T1_0068_0000_qa11_v3",
      "id_block": "block_1",
      "question": "Avec qui travaille W. Gruszecki ?",
      "answer": "les experts de Solidarité",
      "answer_stringIds": [
        "string_43",
        "string_44",
        "string_45",
        "string_46"
      ]
    },
    {
      "id_qa": "autog_0249-2563_1981_num_14_5_T1_0068_0000_qa23_v3",
      "id_block": "block_1",
      "question": "Sur quoi s'appuie le mouvement polonais dans les prochains mois ?",
      "answer": "le plan institutionnel et légal",
      "answer_stringIds": [
        "string_89",
        "string_90",
        "string_91",
        "string_92",
        "string_93"
      ]
    },
    {
      "id_qa": "autog_0249-2563_1981_num_14_5_T1_0068_0000_qa24_v3",
      "id_block": "block_1",
      "question": "Quelles sont les tâches qui attendent le mouvement polonais ?",
      "answer": "les prochains mois pour traduire sur le plan institutionnel et légal les aspirations à de profonds changements",
      "answer_stringIds": [
        "string_82",
        "string_83",
        "string_84",
        "string_85",
        "string_86",
        "string_87",
        "string_88",
        "string_89",
        "string_90",
        "string_91",
        "string_92",
        "string_93",
        "string_94",
        "string_95",
        "string_96",
        "string_97",
        "string_98",
        "string_99"
      ]
    },
    {
      "id_qa": "autog_0249-2563_1981_num_14_5_T1_0068_0000_qa40_v3",
      "id_block": "block_10",
      "question": "Qu'est ce qui n'est plus possible en Pologne ?",
      "answer": "de grèves",
      "answer_stringIds": [
        "string_349",
        "string_350"
      ]
    },
    {
      "id_qa": "autog_0249-2563_1981_num_14_5_T1_0068_0000_qa39_v3",
      "id_block": "block_3",
      "question": "Quand les attaques contre les éléments anti-socialistes se multiplient-elles ?",
      "answer": "Ces derniers jours",
      "answer_stringIds": [
        "string_120",
        "string_121",
        "string_122"
      ]
    },
    {
      "id_qa": "autog_0249-2563_1981_num_14_5_T1_0068_0000_qa2_v3",
      "id_block": "block_4",
      "question": "Qu'est ce qui a effacé d'anciennes lois ?",
      "answer": "De nouvelles lois",
      "answer_stringIds": [
        "string_190",
        "string_191",
        "string_192"
      ]
    },
    {
      "id_qa": "autog_0249-2563_1981_num_14_5_T1_0068_0000_qa17_v3",
      "id_block": "block_4",
      "question": "Qui a élaboré la loi instituant des conseils ouvriers ?",
      "answer": "le parlement polonais",
      "answer_stringIds": [
        "string_161",
        "string_162",
        "string_163"
      ]
    },
    {
      "id_qa": "autog_0249-2563_1981_num_14_5_T1_0068_0000_qa18_v3",
      "id_block": "block_4",
      "question": "Qu'est ce qui a été élaboré en 1945 ?",
      "answer": "une loi",
      "answer_stringIds": [
        "string_166",
        "string_167"
      ]
    },
    {
      "id_qa": "autog_0249-2563_1981_num_14_5_T1_0068_0000_qa19_v3",
      "id_block": "block_4",
      "question": "Qu'est ce que le parlement polonais a adopté en 1945 ?",
      "answer": "des conseils ouvriers",
      "answer_stringIds": [
        "string_169",
        "string_170",
        "string_171"
      ]
    },
    {
      "id_qa": "autog_0249-2563_1981_num_14_5_T1_0068_0000_qa21_v3",
      "id_block": "block_4",
      "question": "Quand le parlement polonais a-t-il élaboré une loi instituant des conseils ouvriers ?",
      "answer": "En 1945",
      "answer_stringIds": [
        "string_159",
        "string_160"
      ]
    },
    {
      "id_qa": "autog_0249-2563_1981_num_14_5_T1_0068_0000_qa26_v3",
      "id_block": "block_4",
      "question": "Qu'est-ce que le socialisme ?",
      "answer": "à un retour aux sources du socialisme",
      "answer_stringIds": [
        "string_151",
        "string_152",
        "string_153",
        "string_154",
        "string_155",
        "string_156",
        "string_157",
        "string_158"
      ]
    },
    {
      "id_qa": "autog_0249-2563_1981_num_14_5_T1_0068_0000_qa9_v3",
      "id_block": "block_6",
      "question": "Qu'est ce qui permettrait de réactiver ces conseils ?",
      "answer": "un rôle effectif",
      "answer_stringIds": [
        "string_262",
        "string_263",
        "string_264"
      ]
    },
    {
      "id_qa": "autog_0249-2563_1981_num_14_5_T1_0068_0000_qa7_v3",
      "id_block": "block_9",
      "question": "Qui a pris conscience de cette puissance ?",
      "answer": "le gouvernement",
      "answer_stringIds": [
        "string_336",
        "string_337"
      ]
    },
    {
      "id_qa": "autog_0249-2563_1981_num_14_5_T1_0068_0000_qa8_v3",
      "id_block": "block_9",
      "question": "Qu'est ce que le gouvernement a pris conscience ?",
      "answer": "une puissance",
      "answer_stringIds": [
        "string_333",
        "string_334"
      ]
    },
    {
      "id_qa": "autog_0249-2563_1981_num_14_5_T1_0068_0000_qa28_v3",
      "id_block": "block_9",
      "question": "Qui a proposé d'entrer dans la direction des anciens syndicats ?",
      "answer": "à Walesa",
      "answer_stringIds": [
        "string_297",
        "string_298"
      ]
    }
  ]
}