{
  "num": "autog_0249-2563_1981_num_14_5",
  "article": "autog_0249-2563_1981_num_14_5_1412",
  "page_name": "autog_0249-2563_1981_num_14_5_T1_0063_0000",
  "questions": [
    {
      "id_qa": "autog_0249-2563_1981_num_14_5_T1_0063_0000_qa37_v3",
      "id_block": "block_1",
      "question": "Quel est le nom du secteur qui absorbe une grande partie des moyens de production ?",
      "answer": "Le secteur nationalisé",
      "answer_stringIds": [
        "string_32",
        "string_33",
        "string_34"
      ]
    },
    {
      "id_qa": "autog_0249-2563_1981_num_14_5_T1_0063_0000_qa38_v3",
      "id_block": "block_1",
      "question": "Qu'est-ce qui absorbe le secteur nationalisé ?",
      "answer": "une grande partie des moyens de production",
      "answer_stringIds": [
        "string_48",
        "string_49",
        "string_50",
        "string_51",
        "string_52",
        "string_53",
        "string_54"
      ]
    },
    {
      "id_qa": "autog_0249-2563_1981_num_14_5_T1_0063_0000_qa11_v3",
      "id_block": "block_2",
      "question": "Qu'est-ce qui dissuade la population de dépenser ?",
      "answer": "dépenser immédiatement ses revenus",
      "answer_stringIds": [
        "string_126",
        "string_127",
        "string_128",
        "string_129"
      ]
    },
    {
      "id_qa": "autog_0249-2563_1981_num_14_5_T1_0063_0000_qa15_v3",
      "id_block": "block_2",
      "question": "Qu'est-ce que le pouvoir parvient à gagner grâce à l'emprunt ?",
      "answer": "gagner une confiance notable de la société",
      "answer_stringIds": [
        "string_178",
        "string_179",
        "string_180",
        "string_181",
        "string_182",
        "string_183",
        "string_184"
      ]
    },
    {
      "id_qa": "autog_0249-2563_1981_num_14_5_T1_0063_0000_qa17_v3",
      "id_block": "block_2",
      "question": "Qu'est-ce qui parvient à gagner une confiance notable de la société ?",
      "answer": "le pouvoir",
      "answer_stringIds": [
        "string_174",
        "string_175"
      ]
    },
    {
      "id_qa": "autog_0249-2563_1981_num_14_5_T1_0063_0000_qa30_v3",
      "id_block": "block_2",
      "question": "Quelle est l'idée d'un système de paiement d'avance des biens de consommation qui font défaut ?",
      "answer": "un emprunt national",
      "answer_stringIds": [
        "string_158",
        "string_159",
        "string_160"
      ]
    },
    {
      "id_qa": "autog_0249-2563_1981_num_14_5_T1_0063_0000_qa31_v3",
      "id_block": "block_2",
      "question": "Qu'est ce qui fait défaut dans les caisses d'épargne ?",
      "answer": "biens de consommation",
      "answer_stringIds": [
        "string_150",
        "string_151",
        "string_152"
      ]
    },
    {
      "id_qa": "autog_0249-2563_1981_num_14_5_T1_0063_0000_qa34_v3",
      "id_block": "block_3",
      "question": "Qu'est-ce que la réforme du système des prix ?",
      "answer": "un nouveau mécanisme économique",
      "answer_stringIds": [
        "string_266",
        "string_267",
        "string_268",
        "string_269",
        "string_270"
      ]
    },
    {
      "id_qa": "autog_0249-2563_1981_num_14_5_T1_0063_0000_qa4_v3",
      "id_block": "block_4",
      "question": "Avec qui doit être négocié le noyau d'une politique de stabilisation ?",
      "answer": "avec les syndicats",
      "answer_stringIds": [
        "string_308",
        "string_309",
        "string_310"
      ]
    },
    {
      "id_qa": "autog_0249-2563_1981_num_14_5_T1_0063_0000_qa23_v3",
      "id_block": "block_4",
      "question": "Qu'est ce qui n'est pas à même, aujourd'hui, de mettre en œuvre véritablement cet ensemble de mesures ?",
      "answer": "Le pouvoir",
      "answer_stringIds": [
        "string_271",
        "string_272"
      ]
    },
    {
      "id_qa": "autog_0249-2563_1981_num_14_5_T1_0063_0000_qa24_v3",
      "id_block": "block_4",
      "question": "A quoi servent les dispositions des syndicats ?",
      "answer": "les intérêts des travailleurs",
      "answer_stringIds": [
        "string_334",
        "string_335",
        "string_336",
        "string_337"
      ]
    },
    {
      "id_qa": "autog_0249-2563_1981_num_14_5_T1_0063_0000_qa26_v3",
      "id_block": "block_4",
      "question": "Qu'est ce qui va à l'encontre des fonctions habituelles des syndicats ?",
      "answer": "les dispositions qui serviraient le mieux les intérêts des travailleurs",
      "answer_stringIds": [
        "string_327",
        "string_328",
        "string_329",
        "string_330",
        "string_331",
        "string_332",
        "string_333",
        "string_334",
        "string_335",
        "string_336",
        "string_337"
      ]
    },
    {
      "id_qa": "autog_0249-2563_1981_num_14_5_T1_0063_0000_qa27_v3",
      "id_block": "block_4",
      "question": "A partir de quand les syndicats se constituent-ils ?",
      "answer": "à un moment",
      "answer_stringIds": [
        "string_323",
        "string_324",
        "string_325"
      ]
    }
  ]
}