{
  "num": "autog_0249-2563_1981_num_14_5",
  "article": "autog_0249-2563_1981_num_14_5_1412",
  "page_name": "autog_0249-2563_1981_num_14_5_T1_0064_0000",
  "questions": [
    {
      "id_qa": "autog_0249-2563_1981_num_14_5_T1_0064_0000_qa3_v3",
      "id_block": "block_0",
      "question": "Qu'est-ce que le programme de stabilisation ?",
      "answer": "des mesures",
      "answer_stringIds": [
        "string_34",
        "string_35"
      ]
    },
    {
      "id_qa": "autog_0249-2563_1981_num_14_5_T1_0064_0000_qa5_v3",
      "id_block": "block_0",
      "question": "Combien de temps dure le programme de stabilisation ?",
      "answer": "sur plusieurs années",
      "answer_stringIds": [
        "string_25",
        "string_26",
        "string_27"
      ]
    },
    {
      "id_qa": "autog_0249-2563_1981_num_14_5_T1_0064_0000_qa19_v3",
      "id_block": "block_2",
      "question": "Qui ne se lassent pas de réclamer les réformes économiques ?",
      "answer": "la société et les économistes",
      "answer_stringIds": [
        "string_125",
        "string_126",
        "string_127",
        "string_128",
        "string_129"
      ]
    },
    {
      "id_qa": "autog_0249-2563_1981_num_14_5_T1_0064_0000_qa22_v3",
      "id_block": "block_2",
      "question": "A quoi devrait s'intégrer les réformes économiques ?",
      "answer": "programme de lutte contre la crise",
      "answer_stringIds": [
        "string_139",
        "string_140",
        "string_141",
        "string_142",
        "string_143",
        "string_144",
        "string_145"
      ]
    },
    {
      "id_qa": "autog_0249-2563_1981_num_14_5_T1_0064_0000_qa11_v3",
      "id_block": "block_5",
      "question": "A quoi est soumis l'élargissement de la propriété et de l'initiative privées ?",
      "answer": "un contrôle",
      "answer_stringIds": [
        "string_323",
        "string_324"
      ]
    }
  ]
}