{
  "num": "autog_0338-7259_1970_num_11_1",
  "article": "autog_0338-7259_1970_num_11_1_959",
  "page_name": "FMSH_PB188a_11-12_019",
  "questions": [
    "Quels événements militaires massifs ont été livrés à Prague à cette époque ?",
    "Comment la population a-t-elle réagé à cette intervention armée ?",
    "Quels chercheurs ont mené cette enquête et comment ont-ils choisi les personnes interroquées ?",
    "Dans quels lieux a-t-elle été pratiquée cette enquête ?",
    "Quels sujets politiques les plus actuels ont été abordés dans le questionnaire ?",
    "Quels pourcentages des réponses obtenues concernent les différentes options attendues des pourparlers de la délégation tchécoslovaque avec Moscou ?"
  ]
}