{
  "num": "autog_0249-2563_1984_num_17_17",
  "article": "autog_0249-2563_1984_num_17_17_1618_t1_0122_0000_4",
  "page_name": "autog_0249-2563_1984_num_17_17_T1_0122_0000",
  "questions": [
    {
      "id_qa": "autog_0249-2563_1984_num_17_17_T1_0122_0000_qa34_v3",
      "id_block": "block_1",
      "question": "Qu'est ce qui éclaire les rayons du soleil ?",
      "answer": "le sigle « Solagro",
      "answer_stringIds": [
        "string_24",
        "string_25",
        "string_26",
        "string_27"
      ]
    },
    {
      "id_qa": "autog_0249-2563_1984_num_17_17_T1_0122_0000_qa35_v3",
      "id_block": "block_1",
      "question": "Qu'est ce qui éclaire le sigle « Solagro » ?",
      "answer": "les rayons du soleil qui",
      "answer_stringIds": [
        "string_18",
        "string_19",
        "string_20",
        "string_21",
        "string_22"
      ]
    },
    {
      "id_qa": "autog_0249-2563_1984_num_17_17_T1_0122_0000_qa37_v3",
      "id_block": "block_1",
      "question": "Que signifie le sigle « Solagro » ?",
      "answer": "« Pour un développement approprié des énergies renouvelables en agriculture",
      "answer_stringIds": [
        "string_3",
        "string_4",
        "string_5",
        "string_6",
        "string_7",
        "string_8",
        "string_9",
        "string_10",
        "string_11",
        "string_12"
      ]
    },
    {
      "id_qa": "autog_0249-2563_1984_num_17_17_T1_0122_0000_qa20_v3",
      "id_block": "block_3",
      "question": "Quel est l'objectif principal de l'association ?",
      "answer": "maintien",
      "answer_stringIds": [
        "string_75"
      ]
    },
    {
      "id_qa": "autog_0249-2563_1984_num_17_17_T1_0122_0000_qa1_v3",
      "id_block": "block_5",
      "question": "Qu'est ce qui n'a pas été mis en place au niveau régional ?",
      "answer": "aucune politique cohérente et volontariste",
      "answer_stringIds": [
        "string_191",
        "string_192",
        "string_193",
        "string_194",
        "string_195"
      ]
    },
    {
      "id_qa": "autog_0249-2563_1984_num_17_17_T1_0122_0000_qa8_v3",
      "id_block": "block_6",
      "question": "Qu'est ce qui suscite la création de commissions ?",
      "answer": "les problèmes",
      "answer_stringIds": [
        "string_218",
        "string_219"
      ]
    },
    {
      "id_qa": "autog_0249-2563_1984_num_17_17_T1_0122_0000_qa44_v3",
      "id_block": "block_6",
      "question": "Quel est l'état actuel de la situation ?",
      "answer": "actuellement",
      "answer_stringIds": [
        "string_242"
      ]
    },
    {
      "id_qa": "autog_0249-2563_1984_num_17_17_T1_0122_0000_qa12_v3",
      "id_block": "block_9",
      "question": "Quel journal rend compte de la vie interne de l'association ?",
      "answer": "Le Bulletin de Solagro",
      "answer_stringIds": [
        "string_394",
        "string_395",
        "string_396",
        "string_397"
      ]
    }
  ]
}