{
  "num": "autog_0249-2563_1984_num_17_17",
  "article": "autog_0249-2563_1984_num_17_17_1618_t1_0122_0000_4",
  "page_name": "autog_0249-2563_1984_num_17_17_T1_0124_0000",
  "questions": [
    {
      "id_qa": "autog_0249-2563_1984_num_17_17_T1_0124_0000_qa14_v3",
      "id_block": "block_0",
      "question": "Que prévoit la loi de reconstruction ?",
      "answer": "des mesures de protection adéquates et leur financement",
      "answer_stringIds": [
        "string_31",
        "string_32",
        "string_33",
        "string_34",
        "string_35",
        "string_36",
        "string_37",
        "string_38"
      ]
    },
    {
      "id_qa": "autog_0249-2563_1984_num_17_17_T1_0124_0000_qa37_v3",
      "id_block": "block_10",
      "question": "Qui sont les parties prenantes du FSE ?",
      "answer": "les autorités régionales et nationales",
      "answer_stringIds": [
        "string_413",
        "string_414",
        "string_415",
        "string_416",
        "string_417"
      ]
    },
    {
      "id_qa": "autog_0249-2563_1984_num_17_17_T1_0124_0000_qa43_v3",
      "id_block": "block_2",
      "question": "Combien y a-t-il de coopératives nouvelles et déjà existantes ?",
      "answer": "160 qui",
      "answer_stringIds": [
        "string_134",
        "string_135"
      ]
    },
    {
      "id_qa": "autog_0249-2563_1984_num_17_17_T1_0124_0000_qa26_v3",
      "id_block": "block_3",
      "question": "A quoi s'est intégrée la fédération méridionale des coopératives ?",
      "answer": "à la fédération nationale",
      "answer_stringIds": [
        "string_159",
        "string_160",
        "string_161",
        "string_162"
      ]
    },
    {
      "id_qa": "autog_0249-2563_1984_num_17_17_T1_0124_0000_qa0_v3",
      "id_block": "block_4",
      "question": "A qui sont attribués les crédits d'Etat ?",
      "answer": "des entreprises",
      "answer_stringIds": [
        "string_273",
        "string_274"
      ]
    },
    {
      "id_qa": "autog_0249-2563_1984_num_17_17_T1_0124_0000_qa2_v3",
      "id_block": "block_4",
      "question": "A qui les crédits d'Etat sont-ils attribués ?",
      "answer": "des entreprises associant initiatives locales et acteurs économiques extérieurs",
      "answer_stringIds": [
        "string_273",
        "string_274",
        "string_275",
        "string_276",
        "string_277",
        "string_278",
        "string_279",
        "string_280",
        "string_281",
        "string_282"
      ]
    },
    {
      "id_qa": "autog_0249-2563_1984_num_17_17_T1_0124_0000_qa3_v3",
      "id_block": "block_4",
      "question": "Qui propose que les crédits d'Etat soient désormais attribués à des entreprises ?",
      "answer": "le CRESM",
      "answer_stringIds": [
        "string_18",
        "string_19"
      ]
    },
    {
      "id_qa": "autog_0249-2563_1984_num_17_17_T1_0124_0000_qa30_v3",
      "id_block": "block_4",
      "question": "Qu'est-ce que la loi régionale d'initiative populaire en Campanie ?",
      "answer": "la participation du secteur coopératif aux travaux de reconstruction",
      "answer_stringIds": [
        "string_198",
        "string_199",
        "string_200",
        "string_201",
        "string_202",
        "string_203",
        "string_204",
        "string_205",
        "string_206",
        "string_207"
      ]
    }
  ]
}