{
  "num": "autog_0249-2563_1982_num_15_10",
  "article": "autog_0249-2563_1982_num_15_10_1499",
  "page_name": "autog_0249-2563_1982_num_15_10_T1_0077_0000",
  "questions": [
    "Quel est le nouveau pouvoir qui a déçu les classes?",
    "Pourquoi le pouvoir préfère tenter l'équilibre à droite plutôt qu'à gauche?",
    "Qu'est le rôle du réformisme dans ce contexte?",
    "Quels sont les méthodes d'action et les objectifs des défenseurs du réformisme?",
    "Quel type de changement est-il possible de réaliser sur la base de l'ordre existant?",
    "Qu'est ce que Eduard Bernstein demande à la jeune social-démocratie allemande?",
    "Qu'est ce qui va montrer l'histoire des partis se réclamant du socialisme?",
    "Quels sont les thèmes abordés dans la revue Nouvelles Campagnes?"
  ]
}