{
  "num": "autog_0249-2563_1982_num_15_10",
  "article": "autog_0249-2563_1982_num_15_10_1499",
  "page_name": "autog_0249-2563_1982_num_15_10_T1_0073_0000",
  "questions": [
    "Quel groupe social est promu par le personnage mentionné dans le texte ?",
    "Quels critiques s'adressent-il et pour quels raisons ?",
    "Quel projet social est associé à ce personnage ?",
    "Quel est le rôle de l'État et des organes politiques dans les différents courants du socialisme ?",
    "Quel est le rôle de la classe médiane dans la société et comment elle se voit-elle ?",
    "Quels privilèges tire-t-elle de la société actuelle ?",
    "Quels moyens utilise-t-elle pour agir sur les rapports sociaux ?",
    "Quels sont les objectifs déclarés de ce groupe social ?",
    "Comment les intentions du socialisme français se sont-elles déroulées ?",
    "Quel lien existe-t-il entre la production d'armements et le capitalisme ?",
    "Quel rôle joue le nationalisme dans le fonctionnement de l'État ?",
    "Quel est le rôle de Mitterrand dans ce contexte ?"
  ]
}