{
  "num": "autog_0005-0970_1967_num_4_1",
  "article": "autog_0005-0970_1967_num_4_1_911",
  "page_name": "FMSH_PB188a_00004_126",
  "questions": [
    "Quel rôle joua la grève dans les plans de Lénine pour prévenir la croissance de la bureaucratie au congrès bolchevique ?",
    "Quel était le but initial de la N.E.P. selon ses promoteurs ?",
    "Comment l'échec de la révolution allemande en octobre 1923 affecta la Russie des Soviets et la démocratie ouvrière ?",
    "Comment s'est développée la bureaucratie ouvrière dans l'appareil politique et économique ?",
    "Qu'explique Lenine dans \"L'État et la Révolution\" sur l'existence de la bureaucratie ouvrière ?",
    "Comment la révolution d'Octobre a-t-elle changé la signification de la démocratie ouvrière ?",
    "Quel est le rôle de l'action internationale du prolétariat dans la révolution d'Octobre et aujourd'hui ?",
    "Comment la révolution d'Octobre a-t-elle contribué à la réorganisation socialiste de l'économie mondiale ?"
  ]
}