{
  "num": "autog_0005-0970_1967_num_4_1",
  "article": "autog_0005-0970_1967_num_4_1_911",
  "page_name": "FMSH_PB188a_00004_117",
  "questions": [
    "Quels accusations formulent les mencheviks à l'égard des partisans du contrôle ouvrier ?",
    "Dans quels conditions, selon Lénine, le contrôle ouvrier est-il indispensable ?",
    "Quel rôle doit la classe ouvrière jouer dans la gestion économique selon Lénine ?",
    "Quels profits doivent être rendus publics selon Lénine ?",
    "Comment réagit le gouvernement et les mencheviks face au contrôle ouvrier ?",
    "Quel est le rôle des masses ouvrières et paysannes dans la situation décrite ?",
    "Quel est le statut politique de l'État à laquelle s'en réfère Lénine lorsqu'il parle du contrôle ouvrier ?",
    "Quels événements marquent la fin de la majorité des conciliateurs dans les organisations des masses ?",
    "Quand se produit-il l'heure de l'insurrection selon le texte ?",
    "Quel est le rôle des journées de juillet dans le contexte décrit ?"
  ]
}