{
  "num": "autog_0338-7259_1970_num_11_1",
  "article": "autog_0338-7259_1970_num_11_1_966",
  "page_name": "FMSH_PB188a_11-12_144",
  "questions": [
    {
      "id_qa": "FMSH_PB188a_11-12_144_qa0_v3",
      "id_block": "block_1",
      "question": "Quelle est la priorité des conseils ouvriers ?",
      "answer": "quels sujets",
      "answer_stringIds": [
        "string_64",
        "string_65"
      ]
    },
    {
      "id_qa": "FMSH_PB188a_11-12_144_qa5_v3",
      "id_block": "block_1",
      "question": "Qu'attendent les membres des conseils ouvriers ?",
      "answer": "les pouvoirs",
      "answer_stringIds": [
        "string_84",
        "string_85"
      ]
    },
    {
      "id_qa": "FMSH_PB188a_11-12_144_qa17_v3",
      "id_block": "block_1",
      "question": "Qui a écrit l'article sur les attitudes et les attentes ?",
      "answer": "les membres des conseils ouvriers",
      "answer_stringIds": [
        "string_42",
        "string_43",
        "string_44",
        "string_45",
        "string_46"
      ]
    },
    {
      "id_qa": "FMSH_PB188a_11-12_144_qa18_v3",
      "id_block": "block_1",
      "question": "Quel est le nom du second organe d'autogestion ?",
      "answer": "celur",
      "answer_stringIds": [
        "string_22"
      ]
    }
  ]
}