{
  "num": "autog_0338-7259_1970_num_11_1",
  "article": "autog_0338-7259_1970_num_11_1_966",
  "page_name": "FMSH_PB188a_11-12_150",
  "questions": [
    {
      "id_qa": "FMSH_PB188a_11-12_150_qa0_v3",
      "id_block": "block_7",
      "question": "Qui sait désormais ce qu'on attendra d'eux ?",
      "answer": "les conseils ouvriers",
      "answer_stringIds": [
        "string_66",
        "string_67",
        "string_68"
      ]
    },
    {
      "id_qa": "FMSH_PB188a_11-12_150_qa1_v3",
      "id_block": "block_7",
      "question": "Qui sait ce qu'on attendra d'eux en tant qu'entrepreneurs collectifs ?",
      "answer": "les conseils ouvriers",
      "answer_stringIds": [
        "string_66",
        "string_67",
        "string_68"
      ]
    },
    {
      "id_qa": "FMSH_PB188a_11-12_150_qa5_v3",
      "id_block": "block_7",
      "question": "Quelle est la conséquence de l'activité des conseils oùvriers ?",
      "answer": "leur activité coïncide souvent avec les attentes de nos conseils oùvriers",
      "answer_stringIds": [
        "string_199",
        "string_200",
        "string_201",
        "string_202",
        "string_203",
        "string_204",
        "string_205",
        "string_206",
        "string_207",
        "string_208",
        "string_209"
      ]
    },
    {
      "id_qa": "FMSH_PB188a_11-12_150_qa10_v3",
      "id_block": "block_7",
      "question": "Combien d'entreprises ont participé à l'analyse ?",
      "answer": "entreprises yougoslaves plus importantes",
      "answer_stringIds": [
        "string_174",
        "string_175",
        "string_176",
        "string_177",
        "string_178"
      ]
    },
    {
      "id_qa": "FMSH_PB188a_11-12_150_qa9_v3",
      "id_block": "block_9",
      "question": "Qu'est ce qui indique le système de direction ?",
      "answer": "Les abréviations",
      "answer_stringIds": [
        "string_224",
        "string_225"
      ]
    }
  ]
}