{
  "num": "autog_0338-7259_1970_num_11_1",
  "article": "autog_0338-7259_1970_num_11_1_966",
  "page_name": "FMSH_PB188a_11-12_147",
  "questions": [
    {
      "id_qa": "FMSH_PB188a_11-12_147_qa17_v3",
      "id_block": "block_1",
      "question": "Quelles étaient les branches de production les plus représentées ?",
      "answer": "les mines et la sidérurgie",
      "answer_stringIds": [
        "string_37",
        "string_38",
        "string_39",
        "string_40",
        "string_41"
      ]
    },
    {
      "id_qa": "FMSH_PB188a_11-12_147_qa12_v3",
      "id_block": "block_2",
      "question": "Où se situe l'autre enquête ?",
      "answer": "à Pizeñ",
      "answer_stringIds": [
        "string_144",
        "string_145"
      ]
    },
    {
      "id_qa": "FMSH_PB188a_11-12_147_qa0_v3",
      "id_block": "block_4",
      "question": "A quoi procéda l'évaluation ?",
      "answer": "à la quantification nécessaire des résulats",
      "answer_stringIds": [
        "string_228",
        "string_229",
        "string_230",
        "string_231",
        "string_232",
        "string_233"
      ]
    },
    {
      "id_qa": "FMSH_PB188a_11-12_147_qa19_v3",
      "id_block": "block_4",
      "question": "Qu'est ce qui a été utilisé dans ce cas ?",
      "answer": "des questions non standardisées avec réponses ouvertes",
      "answer_stringIds": [
        "string_213",
        "string_214",
        "string_215",
        "string_216",
        "string_217",
        "string_218",
        "string_219"
      ]
    },
    {
      "id_qa": "FMSH_PB188a_11-12_147_qa5_v3",
      "id_block": "block_5",
      "question": "Qu'est ce qui était donné par des réponses standardisées des mêmes dimensions ?",
      "answer": "La conséquence de la standardisation",
      "answer_stringIds": [
        "string_270",
        "string_271",
        "string_272",
        "string_273",
        "string_274"
      ]
    },
    {
      "id_qa": "FMSH_PB188a_11-12_147_qa6_v3",
      "id_block": "block_5",
      "question": "Quelle était la conséquence de la standardisation ?",
      "answer": "par des réponses standardisées des mêmes dimensions",
      "answer_stringIds": [
        "string_277",
        "string_278",
        "string_279",
        "string_280",
        "string_281",
        "string_282",
        "string_283",
        "string_284"
      ]
    }
  ]
}