{
  "num": "autog_0338-7259_1970_num_11_1",
  "article": "autog_0338-7259_1970_num_11_1_966",
  "page_name": "FMSH_PB188a_11-12_152",
  "questions": [
    {
      "id_qa": "FMSH_PB188a_11-12_152_qa0_v3",
      "id_block": "block_1",
      "question": "Qu'est ce que les conseils ouvriers s'occuperont très souvent ?",
      "answer": "cette problématique",
      "answer_stringIds": [
        "string_73",
        "string_74"
      ]
    },
    {
      "id_qa": "FMSH_PB188a_11-12_152_qa1_v3",
      "id_block": "block_1",
      "question": "Qui s'occupera de cette problématique ?",
      "answer": "les conseils ouvriers",
      "answer_stringIds": [
        "string_66",
        "string_67",
        "string_68"
      ]
    }
  ]
}