{
  "num": "autog_0338-7259_1973_num_22_1",
  "article": "autog_0338-7259_1973_num_22_1_1097",
  "page_name": "FMSH_PB188a_22-23_240",
  "questions": [
    {
      "id_qa": "FMSH_PB188a_22-23_240_qa18_v3",
      "id_block": "block_1",
      "question": "Qui conclut l'Autogestion pedagogique ?",
      "answer": "Lapassade",
      "answer_stringIds": [
        "string_27"
      ]
    },
    {
      "id_qa": "FMSH_PB188a_22-23_240_qa1_v3",
      "id_block": "block_2",
      "question": "Qu'est-ce qui rapprocherait la classe ouvrière contre les manipulations ?",
      "answer": "théoriquement",
      "answer_stringIds": [
        "string_368"
      ]
    },
    {
      "id_qa": "FMSH_PB188a_22-23_240_qa2_v3",
      "id_block": "block_2",
      "question": "Contre quoi la classe ouvrière ne protestait-elle pas ?",
      "answer": "les dispositions et dispositifs spatiaux",
      "answer_stringIds": [
        "string_348",
        "string_349",
        "string_350",
        "string_351",
        "string_352"
      ]
    },
    {
      "id_qa": "FMSH_PB188a_22-23_240_qa5_v3",
      "id_block": "block_2",
      "question": "Qui protestait contre les dispositions et dispositifs spatiaux qui se mettaient en place ?",
      "answer": "La classe ouvrière",
      "answer_stringIds": [
        "string_273",
        "string_274",
        "string_275"
      ]
    },
    {
      "id_qa": "FMSH_PB188a_22-23_240_qa11_v3",
      "id_block": "block_2",
      "question": "Qu'est ce qui a ébranlé le système ?",
      "answer": "fissuré",
      "answer_stringIds": [
        "string_320"
      ]
    },
    {
      "id_qa": "FMSH_PB188a_22-23_240_qa21_v3",
      "id_block": "block_2",
      "question": "Qui analyse les mouvements sociaux urbains dans les Luttes Urbaines ?",
      "answer": "Manuel Castells",
      "answer_stringIds": [
        "string_174",
        "string_175"
      ]
    }
  ]
}