{
  "num": "autog_0338-7259_1978_num_40_1",
  "article": "autog_0338-7259_1978_num_40_1_1286_t1_0132_0000_2",
  "page_name": "FMSH_PB188a_00040_133",
  "questions": [
    {
      "id_qa": "FMSH_PB188a_00040_133_qa1_v3",
      "id_block": "block_2",
      "question": "Qu'a fait H. Fischer dans le conformisme sclérosant ?",
      "answer": "ses preuves",
      "answer_stringIds": [
        "string_141",
        "string_142"
      ]
    },
    {
      "id_qa": "FMSH_PB188a_00040_133_qa7_v3",
      "id_block": "block_2",
      "question": "Qui décrit l'art dans une société devenue révolutionnaire ?",
      "answer": "H. Fischer",
      "answer_stringIds": [
        "string_78",
        "string_79"
      ]
    },
    {
      "id_qa": "FMSH_PB188a_00040_133_qa11_v3",
      "id_block": "block_2",
      "question": "Que doit faire l'art dans l'économie capitaliste actuelle ?",
      "answer": "le dénoncer",
      "answer_stringIds": [
        "string_40",
        "string_41"
      ]
    },
    {
      "id_qa": "FMSH_PB188a_00040_133_qa14_v3",
      "id_block": "block_2",
      "question": "Par qui l'art est-il reçu passivement d'une élite ?",
      "answer": "par les galeries",
      "answer_stringIds": [
        "string_23",
        "string_24",
        "string_25"
      ]
    },
    {
      "id_qa": "FMSH_PB188a_00040_133_qa31_v3",
      "id_block": "block_3",
      "question": "Qu'est-ce que l'art ?",
      "answer": "la société",
      "answer_stringIds": [
        "string_190",
        "string_191"
      ]
    },
    {
      "id_qa": "FMSH_PB188a_00040_133_qa37_v3",
      "id_block": "block_3",
      "question": "Qu'est ce qui milite pour le pouvoir des réponses ?",
      "answer": "le droit aux questions et",
      "answer_stringIds": [
        "string_201",
        "string_202",
        "string_203",
        "string_204",
        "string_205"
      ]
    },
    {
      "id_qa": "FMSH_PB188a_00040_133_qa35_v3",
      "id_block": "block_5",
      "question": "Qu'est-ce qui questionne H. Fischer ?",
      "answer": "la société",
      "answer_stringIds": [
        "string_190",
        "string_191"
      ]
    },
    {
      "id_qa": "FMSH_PB188a_00040_133_qa36_v3",
      "id_block": "block_5",
      "question": "Qui questionne la société par le biais de son art ?",
      "answer": "H. Fischer",
      "answer_stringIds": [
        "string_78",
        "string_79"
      ]
    },
    {
      "id_qa": "FMSH_PB188a_00040_133_qa16_v3",
      "id_block": "block_8",
      "question": "A qui ne fait pas plaisir la photographie ?",
      "answer": "à ceux qui se font encore illusion",
      "answer_stringIds": [
        "string_399",
        "string_400",
        "string_401",
        "string_402",
        "string_403",
        "string_404",
        "string_405"
      ]
    },
    {
      "id_qa": "FMSH_PB188a_00040_133_qa17_v3",
      "id_block": "block_8",
      "question": "Qu'est ce qui ne fait pas plaisir à ceux qui se font encore illusion ?",
      "answer": "des toiles « géniales",
      "answer_stringIds": [
        "string_408",
        "string_409",
        "string_410",
        "string_411"
      ]
    },
    {
      "id_qa": "FMSH_PB188a_00040_133_qa23_v3",
      "id_block": "block_8",
      "question": "Où les stéréotypes envahissent-ils déjà ?",
      "answer": "les rayons des bibliothèques bourgeoises",
      "answer_stringIds": [
        "string_438",
        "string_439",
        "string_440",
        "string_441",
        "string_442"
      ]
    },
    {
      "id_qa": "FMSH_PB188a_00040_133_qa25_v3",
      "id_block": "block_8",
      "question": "Qu'est ce qui envahit les rayons des bibliothèques bourgeoises ?",
      "answer": "les stéréotypes",
      "answer_stringIds": [
        "string_434",
        "string_435"
      ]
    },
    {
      "id_qa": "FMSH_PB188a_00040_133_qa28_v3",
      "id_block": "block_8",
      "question": "A qui profite cette constatation ?",
      "answer": "à ceux",
      "answer_stringIds": [
        "string_399",
        "string_400"
      ]
    },
    {
      "id_qa": "FMSH_PB188a_00040_133_qa30_v3",
      "id_block": "block_9",
      "question": "Qui est à l'origine de la vanité infantile de « créateurs » ?",
      "answer": "ceux qui",
      "answer_stringIds": [
        "string_400",
        "string_401"
      ]
    },
    {
      "id_qa": "FMSH_PB188a_00040_133_qa33_v3",
      "id_block": "block_9",
      "question": "Qu'est-ce que ressasser à la manière de ?",
      "answer": "du kitsch",
      "answer_stringIds": [
        "string_473",
        "string_474"
      ]
    },
    {
      "id_qa": "FMSH_PB188a_00040_133_qa34_v3",
      "id_block": "block_9",
      "question": "Qu'est-ce que la photo d'imitation ?",
      "answer": "les mystères de leur irréductible subjectivité moderne",
      "answer_stringIds": [
        "string_499",
        "string_500",
        "string_501",
        "string_502",
        "string_503",
        "string_504",
        "string_505"
      ]
    }
  ]
}