{
  "num": "autog_0249-2563_1982_num_16_12",
  "article": "autog_0249-2563_1982_num_16_12_1545",
  "page_name": "autog_0249-2563_1982_num_16_12_T1_0175_0000",
  "questions": [
    {
      "id_qa": "autog_0249-2563_1982_num_16_12_T1_0175_0000_qa20_v3",
      "id_block": "block_4",
      "question": "Qu'est ce qui a été publié entre 1968 et 1975 ?",
      "answer": "une révolution dyula",
      "answer_stringIds": [
        "string_86",
        "string_87",
        "string_88"
      ]
    },
    {
      "id_qa": "autog_0249-2563_1982_num_16_12_T1_0175_0000_qa31_v3",
      "id_block": "block_4",
      "question": "Combien de pages a duré ce travail ?",
      "answer": "Ce travail de plus de 2300 pages",
      "answer_stringIds": [
        "string_101",
        "string_102",
        "string_103",
        "string_104",
        "string_105",
        "string_106",
        "string_107"
      ]
    },
    {
      "id_qa": "autog_0249-2563_1982_num_16_12_T1_0175_0000_qa5_v3",
      "id_block": "block_5",
      "question": "Qu'est ce qui ne devait en aucun cas enfermer dans l'érudition historiographique ?",
      "answer": "Son savoir de spécialiste",
      "answer_stringIds": [
        "string_179",
        "string_180",
        "string_181",
        "string_182"
      ]
    }
  ]
}