{
  "num": "autog_0249-2563_1982_num_16_12",
  "article": "autog_0249-2563_1982_num_16_12_1545",
  "page_name": "autog_0249-2563_1982_num_16_12_T1_0176_0000",
  "questions": [
    {
      "id_qa": "autog_0249-2563_1982_num_16_12_T1_0176_0000_qa36_v3",
      "id_block": "block_0",
      "question": "Par qui la logique individualiste et productiviste est-elle généralisée ?",
      "answer": "par le capitalisme",
      "answer_stringIds": [
        "string_46",
        "string_47",
        "string_48"
      ]
    },
    {
      "id_qa": "autog_0249-2563_1982_num_16_12_T1_0176_0000_qa37_v3",
      "id_block": "block_0",
      "question": "A quoi travaille l'histoire aujourd'hui ?",
      "answer": "à la reconstruction des différences",
      "answer_stringIds": [
        "string_21",
        "string_22",
        "string_23",
        "string_24",
        "string_25"
      ]
    },
    {
      "id_qa": "autog_0249-2563_1982_num_16_12_T1_0176_0000_qa5_v3",
      "id_block": "block_3",
      "question": "Qui dénonce la logique profonde de notre société actuelle ?",
      "answer": "Person",
      "answer_stringIds": [
        "string_68"
      ]
    },
    {
      "id_qa": "autog_0249-2563_1982_num_16_12_T1_0176_0000_qa19_v3",
      "id_block": "block_3",
      "question": "Quel est le but de la souveraineté de la mort ?",
      "answer": "chacun",
      "answer_stringIds": [
        "string_221"
      ]
    },
    {
      "id_qa": "autog_0249-2563_1982_num_16_12_T1_0176_0000_qa21_v3",
      "id_block": "block_3",
      "question": "Qu'est-ce qui s'exprimait pour lui dans le registre économique ?",
      "answer": "Cette souveraineté de la mort",
      "answer_stringIds": [
        "string_174",
        "string_175",
        "string_176",
        "string_177",
        "string_178"
      ]
    },
    {
      "id_qa": "autog_0249-2563_1982_num_16_12_T1_0176_0000_qa30_v3",
      "id_block": "block_5",
      "question": "Qui a construit sa réflexion sur l'identité culturelle ?",
      "answer": "Person",
      "answer_stringIds": [
        "string_68"
      ]
    },
    {
      "id_qa": "autog_0249-2563_1982_num_16_12_T1_0176_0000_qa32_v3",
      "id_block": "block_5",
      "question": "Sur quoi s'appuie la réflexion sur l'identité culturelle ?",
      "answer": "sur un courant épistémologique particulièrement novateur et sur une conception anthropologique de la culture",
      "answer_stringIds": [
        "string_314",
        "string_315",
        "string_316",
        "string_317",
        "string_318",
        "string_319",
        "string_320",
        "string_321",
        "string_322",
        "string_323",
        "string_324",
        "string_325",
        "string_326",
        "string_327",
        "string_328"
      ]
    },
    {
      "id_qa": "autog_0249-2563_1982_num_16_12_T1_0176_0000_qa23_v3",
      "id_block": "block_6",
      "question": "Qui était à l'encontre de toute une tradition marxiste ?",
      "answer": "Person",
      "answer_stringIds": [
        "string_68"
      ]
    },
    {
      "id_qa": "autog_0249-2563_1982_num_16_12_T1_0176_0000_qa24_v3",
      "id_block": "block_6",
      "question": "Qui a écrit l'oeuvre de Serres ?",
      "answer": "Person",
      "answer_stringIds": [
        "string_68"
      ]
    }
  ]
}