{
  "num": "autog_0338-7259_1979_num_43_1",
  "article": "autog_0338-7259_1979_num_43_1_1294",
  "page_name": "FMSH_PB188a_00043_035",
  "questions": [
    {
      "id_qa": "FMSH_PB188a_00043_035_qa3_v3",
      "id_block": "block_1",
      "question": "Qui est l'auteur de l'anthropologie économique ?",
      "answer": "Gérald Berthoud et Fabrizio Sabelli",
      "answer_stringIds": [
        "string_82",
        "string_83",
        "string_84",
        "string_85",
        "string_86"
      ]
    },
    {
      "id_qa": "FMSH_PB188a_00043_035_qa5_v3",
      "id_block": "block_1",
      "question": "Qui met fortement en évidence l'anthropologie économique ?",
      "answer": "Gérald Berthoud et Fabrizio Sabelli",
      "answer_stringIds": [
        "string_82",
        "string_83",
        "string_84",
        "string_85",
        "string_86"
      ]
    },
    {
      "id_qa": "FMSH_PB188a_00043_035_qa12_v3",
      "id_block": "block_1",
      "question": "Par quoi se distinguent les sociétés humaines ?",
      "answer": "par leur symbolisme",
      "answer_stringIds": [
        "string_23",
        "string_24",
        "string_25"
      ]
    },
    {
      "id_qa": "FMSH_PB188a_00043_035_qa14_v3",
      "id_block": "block_1",
      "question": "Quel est le rôle de l'économie ?",
      "answer": "son autonomie et sa déterminance",
      "answer_stringIds": [
        "string_46",
        "string_47",
        "string_48",
        "string_49",
        "string_50",
        "string_51"
      ]
    },
    {
      "id_qa": "FMSH_PB188a_00043_035_qa11_v3",
      "id_block": "block_2",
      "question": "Qu'est ce qui a permis de transformer la structure de la société ?",
      "answer": "un groupe bureaucratique aux capitalistes",
      "answer_stringIds": [
        "string_309",
        "string_310",
        "string_311",
        "string_312",
        "string_313"
      ]
    },
    {
      "id_qa": "FMSH_PB188a_00043_035_qa15_v3",
      "id_block": "block_2",
      "question": "Que veut dire prise de pouvoir par des communautés organiques ?",
      "answer": "socialisation",
      "answer_stringIds": [
        "string_141"
      ]
    },
    {
      "id_qa": "FMSH_PB188a_00043_035_qa17_v3",
      "id_block": "block_2",
      "question": "Que peut changer l'Etat en termes marxistes ?",
      "answer": "les formes juridiques et non les rapports de production",
      "answer_stringIds": [
        "string_213",
        "string_214",
        "string_215",
        "string_216",
        "string_217",
        "string_218",
        "string_219",
        "string_220",
        "string_221"
      ]
    },
    {
      "id_qa": "FMSH_PB188a_00043_035_qa21_v3",
      "id_block": "block_2",
      "question": "Qu'est ce qui étouffe la société civile ?",
      "answer": "une instance politique incontrôlée",
      "answer_stringIds": [
        "string_250",
        "string_251",
        "string_252",
        "string_253",
        "string_254"
      ]
    },
    {
      "id_qa": "FMSH_PB188a_00043_035_qa23_v3",
      "id_block": "block_2",
      "question": "Qui a perdu la liberté en moins ?",
      "answer": "les travailleurs",
      "answer_stringIds": [
        "string_326",
        "string_327",
        "string_328"
      ]
    },
    {
      "id_qa": "FMSH_PB188a_00043_035_qa8_v3",
      "id_block": "block_3",
      "question": "Que doit considérer l'autogestion ?",
      "answer": "la considérer comme le seul projet crédible de socialisme pour notre temps",
      "answer_stringIds": [
        "string_350",
        "string_351",
        "string_352",
        "string_353",
        "string_354",
        "string_355",
        "string_356",
        "string_357",
        "string_358",
        "string_359",
        "string_360",
        "string_361"
      ]
    }
  ]
}