{
  "num": "autog_0249-2563_1982_num_15_11",
  "article": "autog_0249-2563_1982_num_15_11_1516",
  "page_name": "autog_0249-2563_1982_num_15_11_T1_0078_0000",
  "questions": [
    {
      "id_qa": "autog_0249-2563_1982_num_15_11_T1_0078_0000_qa6_v3",
      "id_block": "block_2",
      "question": "Par qui le niveau d'études a-t-il été élevé ?",
      "answer": "par les enfants",
      "answer_stringIds": [
        "string_128",
        "string_129",
        "string_130"
      ]
    },
    {
      "id_qa": "autog_0249-2563_1982_num_15_11_T1_0078_0000_qa7_v3",
      "id_block": "block_2",
      "question": "A quoi correspond le niveau d'études atteint par les enfants ?",
      "answer": "à la progression générale",
      "answer_stringIds": [
        "string_138",
        "string_139",
        "string_140",
        "string_141"
      ]
    },
    {
      "id_qa": "autog_0249-2563_1982_num_15_11_T1_0078_0000_qa14_v3",
      "id_block": "block_2",
      "question": "Quelle profession est plus élevée que celle du père ?",
      "answer": "Les professions",
      "answer_stringIds": [
        "string_142",
        "string_143"
      ]
    },
    {
      "id_qa": "autog_0249-2563_1982_num_15_11_T1_0078_0000_qa12_v3",
      "id_block": "block_3",
      "question": "Quelle est la caractéristique de la profession du père ?",
      "answer": "une mobilité sociale ascensionnelle assez importante",
      "answer_stringIds": [
        "string_180",
        "string_181",
        "string_182",
        "string_183",
        "string_184",
        "string_185"
      ]
    },
    {
      "id_qa": "autog_0249-2563_1982_num_15_11_T1_0078_0000_qa3_v3",
      "id_block": "block_4",
      "question": "Qu'est ce qui épuisait les hommes ?",
      "answer": "cette stratégie",
      "answer_stringIds": [
        "string_314",
        "string_315"
      ]
    },
    {
      "id_qa": "autog_0249-2563_1982_num_15_11_T1_0078_0000_qa9_v3",
      "id_block": "block_4",
      "question": "Qu'est ce qui permet à la petite bourgeoisie d'acquérir les caractéristiques les plus apparentes de la bourgeoisie ?",
      "answer": "un capital familial",
      "answer_stringIds": [
        "string_286",
        "string_287",
        "string_288"
      ]
    },
    {
      "id_qa": "autog_0249-2563_1982_num_15_11_T1_0078_0000_qa17_v3",
      "id_block": "block_5",
      "question": "De quoi résulte la mobilité sociale des enfants d'origine populaire ?",
      "answer": "une ambition parentale volontaire",
      "answer_stringIds": [
        "string_376",
        "string_377",
        "string_378",
        "string_379",
        "string_380"
      ]
    }
  ]
}