{
  "num": "autog_0338-7259_1971_num_16_1",
  "article": "autog_0338-7259_1971_num_16_1_1021",
  "page_name": "FMSH_PB188a_16-17_178",
  "questions": [
    {
      "id_qa": "FMSH_PB188a_16-17_178_qa1_v3",
      "id_block": "block_1",
      "question": "Qu'est-ce que le parti structuré sur la base des champs de lutte ?",
      "answer": "la coordination",
      "answer_stringIds": [
        "string_92",
        "string_93"
      ]
    },
    {
      "id_qa": "FMSH_PB188a_16-17_178_qa2_v3",
      "id_block": "block_1",
      "question": "Pour quelle raison le parti est-il structuré sur la base des champs de lutte ?",
      "answer": "pour en assurer la coordination",
      "answer_stringIds": [
        "string_89",
        "string_90",
        "string_91",
        "string_92",
        "string_93"
      ]
    },
    {
      "id_qa": "FMSH_PB188a_16-17_178_qa8_v3",
      "id_block": "block_1",
      "question": "Qui a dit qu'il n'y a pas de problèmes entre le parti révolutionnaire ?",
      "answer": "Lénine et Trotsky",
      "answer_stringIds": [
        "string_163",
        "string_164",
        "string_165"
      ]
    },
    {
      "id_qa": "FMSH_PB188a_16-17_178_qa14_v3",
      "id_block": "block_1",
      "question": "Qui rejette la thèse du néo-syndicalisme révolutionnaire ?",
      "answer": "Mallet",
      "answer_stringIds": [
        "string_42"
      ]
    },
    {
      "id_qa": "FMSH_PB188a_16-17_178_qa15_v3",
      "id_block": "block_1",
      "question": "Quelle est la thèse de Mallet ?",
      "answer": "du néo-syndicalisme révolutionnaire",
      "answer_stringIds": [
        "string_52",
        "string_53",
        "string_54"
      ]
    },
    {
      "id_qa": "FMSH_PB188a_16-17_178_qa19_v3",
      "id_block": "block_1",
      "question": "Quel est le rôle du néo-syndicalisme révolutionnaire ?",
      "answer": "son rôle politique",
      "answer_stringIds": [
        "string_59",
        "string_60",
        "string_61"
      ]
    },
    {
      "id_qa": "FMSH_PB188a_16-17_178_qa26_v3",
      "id_block": "block_1",
      "question": "Qui souligne la transformation radicale de ses movens d'organisation ?",
      "answer": "par Ÿ.B.",
      "answer_stringIds": [
        "string_16",
        "string_17"
      ]
    }
  ]
}