{
  "num": "autog_0338-7259_1971_num_16_1",
  "article": "autog_0338-7259_1971_num_16_1_1021",
  "page_name": "FMSH_PB188a_16-17_170",
  "questions": [
    {
      "id_qa": "FMSH_PB188a_16-17_170_qa11_v3",
      "id_block": "block_1",
      "question": "Qui affirme que ne pas être contre n'équivaut pas à être pour ?",
      "answer": "Daniel Guérin",
      "answer_stringIds": [
        "string_69",
        "string_70"
      ]
    },
    {
      "id_qa": "FMSH_PB188a_16-17_170_qa12_v3",
      "id_block": "block_1",
      "question": "Qui faisait remarquer que ne pas être contre n'équivaut pas à être pour ?",
      "answer": "Daniel Guérin",
      "answer_stringIds": [
        "string_69",
        "string_70"
      ]
    },
    {
      "id_qa": "FMSH_PB188a_16-17_170_qa16_v3",
      "id_block": "block_1",
      "question": "Qui ne veut pas faire de l'autogestion un mot d'ordre immédiat ?",
      "answer": "le P.S.U.",
      "answer_stringIds": [
        "string_57",
        "string_58"
      ]
    },
    {
      "id_qa": "FMSH_PB188a_16-17_170_qa1_v3",
      "id_block": "block_2",
      "question": "Qu'est-ce que la marche technique et économique ?",
      "answer": "les unes des autres",
      "answer_stringIds": [
        "string_148",
        "string_149",
        "string_150",
        "string_151"
      ]
    },
    {
      "id_qa": "FMSH_PB188a_16-17_170_qa4_v3",
      "id_block": "block_2",
      "question": "Qu'est-ce qui est secondaire ?",
      "answer": "le sens étymologique",
      "answer_stringIds": [
        "string_182",
        "string_183",
        "string_184"
      ]
    },
    {
      "id_qa": "FMSH_PB188a_16-17_170_qa5_v3",
      "id_block": "block_2",
      "question": "Qu'est-ce qui est secondaire dans le sens étymologique ?",
      "answer": "les mots",
      "answer_stringIds": [
        "string_190",
        "string_191"
      ]
    },
    {
      "id_qa": "FMSH_PB188a_16-17_170_qa6_v3",
      "id_block": "block_2",
      "question": "Quel est le sens étymologique de l'expérience historique ?",
      "answer": "les mots",
      "answer_stringIds": [
        "string_190",
        "string_191"
      ]
    }
  ]
}