{
  "num": "autog_0338-7259_1971_num_16_1",
  "article": "autog_0338-7259_1971_num_16_1_1021",
  "page_name": "FMSH_PB188a_16-17_176",
  "questions": [
    {
      "id_qa": "FMSH_PB188a_16-17_176_qa6_v3",
      "id_block": "block_2",
      "question": "Quel parti doit mettre en garde les ouvriers inconscients ?",
      "answer": "le « parti révolutionnaire central",
      "answer_stringIds": [
        "string_259",
        "string_260",
        "string_261",
        "string_262",
        "string_263"
      ]
    },
    {
      "id_qa": "FMSH_PB188a_16-17_176_qa9_v3",
      "id_block": "block_2",
      "question": "Qui est à l'origine de ces grèves ?",
      "answer": "les ouvriers",
      "answer_stringIds": [
        "string_206",
        "string_207"
      ]
    },
    {
      "id_qa": "FMSH_PB188a_16-17_176_qa13_v3",
      "id_block": "block_2",
      "question": "Qui est capable de renverser le contrôle ouvrier ?",
      "answer": "la bourgeoisie",
      "answer_stringIds": [
        "string_37",
        "string_38"
      ]
    },
    {
      "id_qa": "FMSH_PB188a_16-17_176_qa16_v3",
      "id_block": "block_2",
      "question": "Qui considère le contrôle ouvrier comme une simple lutte de résistance à l'exploitation capitaliste ?",
      "answer": "Mallet",
      "answer_stringIds": [
        "string_24"
      ]
    },
    {
      "id_qa": "FMSH_PB188a_16-17_176_qa17_v3",
      "id_block": "block_2",
      "question": "Qui décrit le contrôle ouvrier ?",
      "answer": "Mallet",
      "answer_stringIds": [
        "string_24"
      ]
    },
    {
      "id_qa": "FMSH_PB188a_16-17_176_qa3_v3",
      "id_block": "block_3",
      "question": "Qui a lancé le thème \"contrôle ouvrier\" ?",
      "answer": "le P.S.U.",
      "answer_stringIds": [
        "string_321",
        "string_322"
      ]
    },
    {
      "id_qa": "FMSH_PB188a_16-17_176_qa4_v3",
      "id_block": "block_3",
      "question": "Qui a lancé le thème contrôle ouvrier ?",
      "answer": "le P.S.U.",
      "answer_stringIds": [
        "string_321",
        "string_322"
      ]
    },
    {
      "id_qa": "FMSH_PB188a_16-17_176_qa21_v3",
      "id_block": "block_3",
      "question": "Qui pense que le mot d'ordre de \"contrôle ouvrier\" n'est pas valable en tous temps et tous lieux ?",
      "answer": "certains talmudistes patentés du mouvement ouvrier",
      "answer_stringIds": [
        "string_369",
        "string_370",
        "string_371",
        "string_372",
        "string_373",
        "string_374"
      ]
    }
  ]
}