{
  "num": "autog_0338-7259_1978_num_40_1",
  "article": "autog_0338-7259_1978_num_40_1_1270",
  "page_name": "FMSH_PB188a_00040_007",
  "questions": [
    {
      "id_qa": "FMSH_PB188a_00040_007_qa16_v3",
      "id_block": "block_0",
      "question": "Qui décrivait en effet des sociétés sans Etat ?",
      "answer": "Pierre Clastres",
      "answer_stringIds": [
        "string_30",
        "string_31"
      ]
    },
    {
      "id_qa": "FMSH_PB188a_00040_007_qa18_v3",
      "id_block": "block_0",
      "question": "Qu'est-ce que les discours électoraux sur les choix de société ?",
      "answer": "un contenu",
      "answer_stringIds": [
        "string_52",
        "string_53"
      ]
    },
    {
      "id_qa": "FMSH_PB188a_00040_007_qa19_v3",
      "id_block": "block_0",
      "question": "Qui décrivait les sociétés sans Etat ?",
      "answer": "Pierre Clastres",
      "answer_stringIds": [
        "string_30",
        "string_31"
      ]
    },
    {
      "id_qa": "FMSH_PB188a_00040_007_qa22_v3",
      "id_block": "block_0",
      "question": "Quand est mort Pierre Clastres ?",
      "answer": "cet été",
      "answer_stringIds": [
        "string_34",
        "string_35"
      ]
    },
    {
      "id_qa": "FMSH_PB188a_00040_007_qa23_v3",
      "id_block": "block_0",
      "question": "Comment s'appelle le décès de Pierre Clastres ?",
      "answer": "accidentellement",
      "answer_stringIds": [
        "string_33"
      ]
    },
    {
      "id_qa": "FMSH_PB188a_00040_007_qa9_v3",
      "id_block": "block_1",
      "question": "Qui s'est félicité de ce ralliement du PC à l'autogestion ?",
      "answer": "le PS",
      "answer_stringIds": [
        "string_107",
        "string_108"
      ]
    },
    {
      "id_qa": "FMSH_PB188a_00040_007_qa1_v3",
      "id_block": "block_2",
      "question": "Qui a changé sa position à l'égard de l'autogestion ?",
      "answer": "le PC",
      "answer_stringIds": [
        "string_126",
        "string_127"
      ]
    },
    {
      "id_qa": "FMSH_PB188a_00040_007_qa3_v3",
      "id_block": "block_2",
      "question": "Quel est l'option choisie par le PC pour rattraper le PS ?",
      "answer": "son option autogestionnaire",
      "answer_stringIds": [
        "string_222",
        "string_223",
        "string_224"
      ]
    },
    {
      "id_qa": "FMSH_PB188a_00040_007_qa10_v3",
      "id_block": "block_2",
      "question": "Quand les élections ont-elles un effet analyseur sur les partis ?",
      "answer": "la victoire en mars 78",
      "answer_stringIds": [
        "string_267",
        "string_268",
        "string_269",
        "string_270",
        "string_271"
      ]
    },
    {
      "id_qa": "FMSH_PB188a_00040_007_qa11_v3",
      "id_block": "block_2",
      "question": "Qu'est ce qui a un effet analyseur sur les partis qui visent la victoire en mars 78.",
      "answer": "les élections",
      "answer_stringIds": [
        "string_251",
        "string_252"
      ]
    },
    {
      "id_qa": "FMSH_PB188a_00040_007_qa12_v3",
      "id_block": "block_2",
      "question": "Qu'est ce qui a un effet analyseur sur les partis en mars 78.",
      "answer": "les élections",
      "answer_stringIds": [
        "string_251",
        "string_252"
      ]
    },
    {
      "id_qa": "FMSH_PB188a_00040_007_qa15_v3",
      "id_block": "block_2",
      "question": "Quel est l'effet de l'autogestion en mars 78.",
      "answer": "les partis",
      "answer_stringIds": [
        "string_263",
        "string_264"
      ]
    },
    {
      "id_qa": "FMSH_PB188a_00040_007_qa24_v3",
      "id_block": "block_2",
      "question": "Quel parti s'est déclaré plus autogestionnaire que le PS ?",
      "answer": "le PC",
      "answer_stringIds": [
        "string_126",
        "string_127"
      ]
    }
  ]
}