{
  "num": "autog_0249-2563_1982_num_15_8",
  "article": "autog_0249-2563_1982_num_15_8_1489_t1_0238_0000_1",
  "page_name": "autog_0249-2563_1982_num_15_8_T1_0239_0000",
  "questions": [
    "Quel est le sujet de l'auteur D. Jones dans son livre sur les autogestions occidentales ?",
    "Quel est le rôle du présentateur dans le texte ?",
    "Quels sont les deux écoles d'idées discutées dans le texte ?",
    "Quel est l'opinion de l'auteur Dallemagne sur le rôle de l'État dans la réalisation du socialisme ?",
    "Quel est l'opinion de l'auteur Lepage sur le système autogestionnaire ?",
    "Quel est le rôle de Rosanvallon dans le texte et quelle est sa contribution à l'analyse des autogestions ?",
    "Pourquoi le présentateur attend-il la Science économique dans la troisième partie du texte ?",
    "Quel est le point de vue du présentateur sur les idées utopiques ?",
    "Quand et comment l'État est-il décrit comme dépérant dans le texte ?",
    "Quels sont les objectifs atteignables au coût minimal selon l'auteur Lepage ?",
    "Quel est le lien entre la rationalité économique et les idées utopiques selon le présentateur ?"
  ]
}