{
  "num": "autog_0338-7259_1979_num_43_1",
  "article": "autog_0338-7259_1979_num_43_1_1302_t1_0124_0000_1",
  "page_name": "FMSH_PB188a_00043_126",
  "questions": [
    {
      "id_qa": "FMSH_PB188a_00043_126_qa0_v3",
      "id_block": "block_2",
      "question": "Qui vient de publier un ouvrage de qualité ?",
      "answer": "René Lourau",
      "answer_stringIds": [
        "string_13",
        "string_14"
      ]
    },
    {
      "id_qa": "FMSH_PB188a_00043_126_qa1_v3",
      "id_block": "block_2",
      "question": "Qu'est ce qui est publié pour la seconde fois dans la prestigieuse collection «Arguments» de Kostas Axelos ?",
      "answer": "un ouvrage de qualité",
      "answer_stringIds": [
        "string_18",
        "string_19",
        "string_20",
        "string_21"
      ]
    },
    {
      "id_qa": "FMSH_PB188a_00043_126_qa2_v3",
      "id_block": "block_2",
      "question": "Qui a publié un ouvrage de qualité ?",
      "answer": "René Lourau",
      "answer_stringIds": [
        "string_13",
        "string_14"
      ]
    },
    {
      "id_qa": "FMSH_PB188a_00043_126_qa3_v3",
      "id_block": "block_2",
      "question": "Quelle est la récompense de René Lourau ?",
      "answer": "de publier un ouvrage de qualité",
      "answer_stringIds": [
        "string_16",
        "string_17",
        "string_18",
        "string_19",
        "string_20",
        "string_21"
      ]
    },
    {
      "id_qa": "FMSH_PB188a_00043_126_qa18_v3",
      "id_block": "block_2",
      "question": "Qui a étudié l'Etat-inconscient ?",
      "answer": "Lourau",
      "answer_stringIds": [
        "string_14"
      ]
    },
    {
      "id_qa": "FMSH_PB188a_00043_126_qa19_v3",
      "id_block": "block_2",
      "question": "Qui a écrit l'État-inconscient ?",
      "answer": "Lourau",
      "answer_stringIds": [
        "string_14"
      ]
    },
    {
      "id_qa": "FMSH_PB188a_00043_126_qa17_v3",
      "id_block": "block_3",
      "question": "Qu'est-ce que l'inconscient étatique ?",
      "answer": "la forme",
      "answer_stringIds": [
        "string_103",
        "string_104"
      ]
    },
    {
      "id_qa": "FMSH_PB188a_00043_126_qa5_v3",
      "id_block": "block_4",
      "question": "Qui a écrit la troisième partie intitulée \"les analyseurs de l'Etat\"?",
      "answer": "Lourau",
      "answer_stringIds": [
        "string_14"
      ]
    },
    {
      "id_qa": "FMSH_PB188a_00043_126_qa6_v3",
      "id_block": "block_4",
      "question": "Qui est l'auteur de \"les analyseurs de l'Etat\"?",
      "answer": "Lourau",
      "answer_stringIds": [
        "string_14"
      ]
    },
    {
      "id_qa": "FMSH_PB188a_00043_126_qa8_v3",
      "id_block": "block_4",
      "question": "Qui a écrit ce livre ?",
      "answer": "Lourau",
      "answer_stringIds": [
        "string_14"
      ]
    }
  ]
}