{
  "num": "autog_0338-7259_1979_num_43_1",
  "article": "autog_0338-7259_1979_num_43_1_1300",
  "page_name": "FMSH_PB188a_00043_082",
  "questions": [
    "Quels sont les auteurs mentionnés dans le paragraphe et quels sont leurs positions politiques ?",
    "Quel est le jeu de questions-réponses auquel se livrent ces auteurs et quelle question peut-elle arrêter leur parole ?",
    "Quel est le rapport entre la fonction d'intellectuel et les métamorphoses politiques des auteurs mentionnés ?",
    "Qu'est ce qui menace les engagements politiques des auteurs et leur marxisme militant d'antan ou leur antimarxisme professionnel ?",
    "Qu'est le jeu stérile entre ces auteurs et quelle est la place de l'intellectuel dans ce jeu ?",
    "Comment Marx a-t-il perçu la fonction mystificatrice des intellectuels et qu'est-ce qui les rend co-détenteurs de la puissance sociale ?",
    "Dans quelle catégorie rangeait Marx les idéologies, y compris la philosophie, et quelle fonction mystificatrice percevait-il chez les intellectuels ?",
    "Quels privilèges exorbitants sont-ils condamnés à porter en ne mettant pas en question la fonction particulière des intellectuels ?"
  ]
}