{
  "num": "autog_0249-2563_1980_num_13_1",
  "article": "autog_0249-2563_1980_num_13_1_1353_t1_0129_0000_1",
  "page_name": "autog_0249-2563_1980_num_13_1_T1_0129_0000",
  "questions": [
    {
      "id_qa": "autog_0249-2563_1980_num_13_1_T1_0129_0000_qa2_v3",
      "id_block": "block_1",
      "question": "Qu'est ce qui donne libre cours à la créativité de l'individu ?",
      "answer": "un système étatique",
      "answer_stringIds": [
        "string_115",
        "string_116",
        "string_117"
      ]
    },
    {
      "id_qa": "autog_0249-2563_1980_num_13_1_T1_0129_0000_qa6_v3",
      "id_block": "block_1",
      "question": "Qu'est-ce qu'un système étatique ?",
      "answer": "libre cours",
      "answer_stringIds": [
        "string_119",
        "string_120"
      ]
    },
    {
      "id_qa": "autog_0249-2563_1980_num_13_1_T1_0129_0000_qa7_v3",
      "id_block": "block_1",
      "question": "Qu'est-ce que demander à un système étatique ?",
      "answer": "des poires à un arbre mort",
      "answer_stringIds": [
        "string_129",
        "string_130",
        "string_131",
        "string_132",
        "string_133",
        "string_134"
      ]
    },
    {
      "id_qa": "autog_0249-2563_1980_num_13_1_T1_0129_0000_qa14_v3",
      "id_block": "block_2",
      "question": "Dans quel ouvrage Chomsky aborde-t-il l'autogestion comme but ?",
      "answer": "dans Seven Days",
      "answer_stringIds": [
        "string_168",
        "string_169",
        "string_170"
      ]
    },
    {
      "id_qa": "autog_0249-2563_1980_num_13_1_T1_0129_0000_qa26_v3",
      "id_block": "block_3",
      "question": "Qu'est-ce qui peut étendre la démocratie industrielle ?",
      "answer": "une meilleure formation technique des travailleurs",
      "answer_stringIds": [
        "string_270",
        "string_271",
        "string_272",
        "string_273",
        "string_274",
        "string_275"
      ]
    },
    {
      "id_qa": "autog_0249-2563_1980_num_13_1_T1_0129_0000_qa28_v3",
      "id_block": "block_3",
      "question": "Qu'est ce qui peut être amélioré par une meilleure formation technique des travailleurs ?",
      "answer": "étendre la démocratie industrielle",
      "answer_stringIds": [
        "string_277",
        "string_278",
        "string_279",
        "string_280"
      ]
    },
    {
      "id_qa": "autog_0249-2563_1980_num_13_1_T1_0129_0000_qa30_v3",
      "id_block": "block_3",
      "question": "Qu'est-ce que la formation technique des travailleurs ?",
      "answer": "la démocratie industrielle",
      "answer_stringIds": [
        "string_278",
        "string_279",
        "string_280"
      ]
    },
    {
      "id_qa": "autog_0249-2563_1980_num_13_1_T1_0129_0000_qa17_v3",
      "id_block": "block_4",
      "question": "Qui est favorable à la participation des travailleurs à des expériences de gestion dans la société capitaliste ?",
      "answer": "par les dirigeants",
      "answer_stringIds": [
        "string_319",
        "string_320",
        "string_321"
      ]
    },
    {
      "id_qa": "autog_0249-2563_1980_num_13_1_T1_0129_0000_qa19_v3",
      "id_block": "block_4",
      "question": "A quoi peut donner lieu la participation des travailleurs à des expériences de gestion ?",
      "answer": "à un mouvement",
      "answer_stringIds": [
        "string_355",
        "string_356",
        "string_357"
      ]
    },
    {
      "id_qa": "autog_0249-2563_1980_num_13_1_T1_0129_0000_qa22_v3",
      "id_block": "block_4",
      "question": "Qu'est-ce que l'expérience acquise dans une participation limitée ?",
      "answer": "la prise de conscience des pouvoirs",
      "answer_stringIds": [
        "string_329",
        "string_330",
        "string_331",
        "string_332",
        "string_333",
        "string_334"
      ]
    },
    {
      "id_qa": "autog_0249-2563_1980_num_13_1_T1_0129_0000_qa23_v3",
      "id_block": "block_4",
      "question": "Qu'est-ce que le mouvement ?",
      "answer": "de donner une forme nouvelle à la société industrielle",
      "answer_stringIds": [
        "string_361",
        "string_362",
        "string_363",
        "string_364",
        "string_365",
        "string_366",
        "string_367",
        "string_368",
        "string_369"
      ]
    },
    {
      "id_qa": "autog_0249-2563_1980_num_13_1_T1_0129_0000_qa32_v3",
      "id_block": "block_5",
      "question": "Qui émet une hypothèse toute personnelle ?",
      "answer": "Chomsky",
      "answer_stringIds": [
        "string_1"
      ]
    }
  ]
}