{
  "num": "autog_0249-2563_1982_num_15_8",
  "article": "autog_0249-2563_1982_num_15_8_1478",
  "page_name": "autog_0249-2563_1982_num_15_8_T1_0122_0000",
  "questions": [
    "Quels sont les principaux problèmes que se posent dans le Tiers Monde, particulièrement en matière de famine ?",
    "Comment ces problèmes ne peuvent-ils pas être imputés au sous-développement et au niveau trop bas des techniques de production ?",
    "Quelles transformations politiques, économiques et sociales sont engagées au titre du développement et quels sont leurs conséquences ?",
    "Comment les technologies importées doivent-elles être payées et quels sont les produits qui peuvent être exportés pour cela ?",
    "Comment les nouvelles technologies contribuent-elles à concentrer la richesse entre les mains de minorités ?",
    "Quels sont les revendications des minorités du Tiers Monde sur la scène internationale en matière de transferts de technologies ?",
    "Quels groupes de personnes sont représentés par ces minorités et quels sont leurs intérêts ?",
    "Comment les classes moyennes se forment-elles et comment la majorité des populations s'enfonce-t-elle dans la misère ?",
    "Quels textes sont cités dans le document pour en apprendre plus sur ces questions ?"
  ]
}