{
  "num": "autog_0249-2563_1982_num_15_8",
  "article": "autog_0249-2563_1982_num_15_8_1478",
  "page_name": "autog_0249-2563_1982_num_15_8_T1_0128_0000",
  "questions": [
    "Quels sont les nations industrialisées qui refusent de renoncer à leurs conditions d'existence et sont satisfaites de leur niveau de vie ?",
    "Quel est le rôle des nations industrialisées dans le système actuel ?",
    "Quels sont les ultra-minoritaires qui peuvent être convaincus de changer de genre de vie ?",
    "Comment évolutionne le système ?",
    "Quels sont les problèmes résultant de la crise actuelle ?",
    "Quels sont les emplois les plus mal rémunérés qui ont augmenté régulièrement ?",
    "Quel est le nombre total d'emplois qui a progressé, stagné ou régressé selon les pays ?",
    "Comment s'étend la classe des pauvres ?",
    "Quel est le progrès du travail précaire ou à temps partiel ?",
    "Quelles régions entières se paupérisent en Europe ?",
    "Comment se produit le processus de sous-développement dans les pays capitalistes industrialisés ?",
    "Comment le sous-développement résulte-t-il ?",
    "Quelles activités productives cessent-elles d'être rentables ?",
    "Comment le système de prix affecte-t-il les activités productives ?"
  ]
}