{
  "num": "autog_0249-2563_1982_num_15_8",
  "article": "autog_0249-2563_1982_num_15_8_1478",
  "page_name": "autog_0249-2563_1982_num_15_8_T1_0126_0000",
  "questions": [
    "Quel est le rôle de Yona Friedman dans ce texte ?",
    "Comment les horaires d'entreprise sont-ils déterminés ?",
    "Quels sont les impératifs techniques et financiers qui influencent les horaires d'entreprise ?",
    "Comment les charges sociales sont-elles calculées et qui les paye ?",
    "Comment les deux travailleurs pourraient partager un même poste de travail ?",
    "Quels avantages sociaux assurent les charges sociales ?",
    "Comment la transformation du Droit du travail pourrait résoudre le problème des charges sociales ?",
    "Quel est le système politique, économique et social décrit dans le texte ?",
    "Pourquoi ce système est-il considéré comme irréformable ?",
    "Quels sont les exemples donnés dans le texte pour illustrer les contradictions du système ?",
    "Quel coût aurait l'État allemand à payer pour assurer la gratuité des chemins de fer si les voitures privées étaient interdites ?",
    "Comment les millions d'habitants des mégapoles pourraient obtenir les 200 m2 nécessaires pour produire leur nourriture ?",
    "Quels seraient les conséquences pour les agriculteurs, les travailleurs des industries et ceux des agro-industries si chacun produisait sa nourriture ?"
  ]
}