{
  "num": "autog_0249-2563_1984_num_17_16",
  "article": "autog_0249-2563_1984_num_17_16_1590_t1_0036_0000_1",
  "page_name": "autog_0249-2563_1984_num_17_16_T1_0036_0000",
  "questions": [
    {
      "id_qa": "autog_0249-2563_1984_num_17_16_T1_0036_0000_qa7_v3",
      "id_block": "block_1",
      "question": "Quel pays aura un nouveau gouvernement ?",
      "answer": "la France",
      "answer_stringIds": [
        "string_9",
        "string_10"
      ]
    },
    {
      "id_qa": "autog_0249-2563_1984_num_17_16_T1_0036_0000_qa25_v3",
      "id_block": "block_1",
      "question": "Qu'est ce qui suivra les communistes ?",
      "answer": "la fournée gouvernementale",
      "answer_stringIds": [
        "string_34",
        "string_35",
        "string_36",
        "string_37"
      ]
    },
    {
      "id_qa": "autog_0249-2563_1984_num_17_16_T1_0036_0000_qa0_v3",
      "id_block": "block_3",
      "question": "Qui propose de faire advenir la société d'économie mixte ?",
      "answer": "nos gouvernants",
      "answer_stringIds": [
        "string_417",
        "string_418"
      ]
    },
    {
      "id_qa": "autog_0249-2563_1984_num_17_16_T1_0036_0000_qa2_v3",
      "id_block": "block_3",
      "question": "Qu'est-ce que la gauche ?",
      "answer": "le politique",
      "answer_stringIds": [
        "string_250",
        "string_251"
      ]
    },
    {
      "id_qa": "autog_0249-2563_1984_num_17_16_T1_0036_0000_qa5_v3",
      "id_block": "block_3",
      "question": "A quoi la gauche travaille-t-elle ?",
      "answer": "la résolution des contradictions",
      "answer_stringIds": [
        "string_242",
        "string_243",
        "string_244",
        "string_245",
        "string_246"
      ]
    },
    {
      "id_qa": "autog_0249-2563_1984_num_17_16_T1_0036_0000_qa6_v3",
      "id_block": "block_3",
      "question": "Qui est à l'origine du débat permanent entre les citoyens ?",
      "answer": "la gauche",
      "answer_stringIds": [
        "string_247",
        "string_248"
      ]
    }
  ]
}