{
  "num": "autog_0249-2563_1982_num_15_10",
  "article": "autog_0249-2563_1982_num_15_10_1493",
  "page_name": "autog_0249-2563_1982_num_15_10_T1_0005_0000",
  "questions": [
    {
      "id_qa": "autog_0249-2563_1982_num_15_10_T1_0005_0000_qa21_v3",
      "id_block": "block_1",
      "question": "Qu'est-ce qui vient de la pensée ?",
      "answer": "une grande stratégie",
      "answer_stringIds": [
        "string_77",
        "string_78",
        "string_79"
      ]
    },
    {
      "id_qa": "autog_0249-2563_1982_num_15_10_T1_0005_0000_qa22_v3",
      "id_block": "block_1",
      "question": "D'où vient la grande stratégie ?",
      "answer": "un projet",
      "answer_stringIds": [
        "string_73",
        "string_74"
      ]
    },
    {
      "id_qa": "autog_0249-2563_1982_num_15_10_T1_0005_0000_qa31_v3",
      "id_block": "block_1",
      "question": "Qui n'a plus de culture politique ?",
      "answer": "la gauche",
      "answer_stringIds": [
        "string_128",
        "string_129"
      ]
    },
    {
      "id_qa": "autog_0249-2563_1982_num_15_10_T1_0005_0000_qa32_v3",
      "id_block": "block_1",
      "question": "Qu'est ce qui caractérise la gauche ?",
      "answer": "la gauche n'a plus de culture politique, plus de pensée mobilisatrice, plus d'idéologie",
      "answer_stringIds": [
        "string_473"
      ]
    },
    {
      "id_qa": "autog_0249-2563_1982_num_15_10_T1_0005_0000_qa0_v3",
      "id_block": "block_2",
      "question": "Que relierait une culture politique à élaborer ?",
      "answer": "la théorie et la pratique, le possible",
      "answer_stringIds": [
        "string_473"
      ]
    },
    {
      "id_qa": "autog_0249-2563_1982_num_15_10_T1_0005_0000_qa1_v3",
      "id_block": "block_2",
      "question": "Qu'est ce qui relierait la théorie et la pratique ?",
      "answer": "une culture politique",
      "answer_stringIds": [
        "string_331",
        "string_332",
        "string_333"
      ]
    },
    {
      "id_qa": "autog_0249-2563_1982_num_15_10_T1_0005_0000_qa4_v3",
      "id_block": "block_2",
      "question": "Qu'est ce qui reste à faire ?",
      "answer": "Cette culture politique",
      "answer_stringIds": [
        "string_223",
        "string_224",
        "string_225"
      ]
    },
    {
      "id_qa": "autog_0249-2563_1982_num_15_10_T1_0005_0000_qa14_v3",
      "id_block": "block_2",
      "question": "Qu'est-ce que la technique va devenir ?",
      "answer": "une force autonome",
      "answer_stringIds": [
        "string_439",
        "string_440",
        "string_441"
      ]
    },
    {
      "id_qa": "autog_0249-2563_1982_num_15_10_T1_0005_0000_qa23_v3",
      "id_block": "block_2",
      "question": "Qui fait de l'empirisme et du positivisme ?",
      "answer": "Les gens",
      "answer_stringIds": [
        "string_359",
        "string_360"
      ]
    },
    {
      "id_qa": "autog_0249-2563_1982_num_15_10_T1_0005_0000_qa25_v3",
      "id_block": "block_2",
      "question": "Qu'est ce qui ne peut se dégager qu'à la lumière d'une pensée critique ?",
      "answer": "les possibilités",
      "answer_stringIds": [
        "string_376",
        "string_377"
      ]
    },
    {
      "id_qa": "autog_0249-2563_1982_num_15_10_T1_0005_0000_qa26_v3",
      "id_block": "block_2",
      "question": "Qu'est ce qui ébranle la confiance dans la raison ?",
      "answer": "la technique",
      "answer_stringIds": [
        "string_275",
        "string_276"
      ]
    }
  ]
}