{
  "num": "autog_0249-2563_1982_num_15_10",
  "article": "autog_0249-2563_1982_num_15_10_1493",
  "page_name": "autog_0249-2563_1982_num_15_10_T1_0004_0000",
  "questions": [
    {
      "id_qa": "autog_0249-2563_1982_num_15_10_T1_0004_0000_qa18_v3",
      "id_block": "block_0",
      "question": "Où sont tués les éléments théoriques ?",
      "answer": "sur place",
      "answer_stringIds": [
        "string_48",
        "string_49"
      ]
    },
    {
      "id_qa": "autog_0249-2563_1982_num_15_10_T1_0004_0000_qa39_v3",
      "id_block": "block_0",
      "question": "Qu'est-ce qui me semble étouffante ?",
      "answer": "Cette méfiance vis-à-vis de la pensée théorique",
      "answer_stringIds": [
        "string_18",
        "string_19",
        "string_20",
        "string_21",
        "string_22",
        "string_23",
        "string_24"
      ]
    },
    {
      "id_qa": "autog_0249-2563_1982_num_15_10_T1_0004_0000_qa4_v3",
      "id_block": "block_1",
      "question": "Que continue la confusion entre croissance et développement qualitatif ?",
      "answer": "à sévir",
      "answer_stringIds": [
        "string_219",
        "string_220"
      ]
    },
    {
      "id_qa": "autog_0249-2563_1982_num_15_10_T1_0004_0000_qa5_v3",
      "id_block": "block_1",
      "question": "Qu'est ce qui continue à sévir ?",
      "answer": "La confusion entre croissance et développement qualitatif",
      "answer_stringIds": [
        "string_208",
        "string_209",
        "string_210",
        "string_211",
        "string_212",
        "string_213",
        "string_214"
      ]
    },
    {
      "id_qa": "autog_0249-2563_1982_num_15_10_T1_0004_0000_qa6_v3",
      "id_block": "block_1",
      "question": "Qu'est-ce qui continue à sévir ?",
      "answer": "La confusion entre croissance et développement qualitatif",
      "answer_stringIds": [
        "string_208",
        "string_209",
        "string_210",
        "string_211",
        "string_212",
        "string_213",
        "string_214"
      ]
    },
    {
      "id_qa": "autog_0249-2563_1982_num_15_10_T1_0004_0000_qa13_v3",
      "id_block": "block_1",
      "question": "Qu'est ce qui a été récupéré par le centre et par la droite politiques ?",
      "answer": "cette notion de croissance des forces productives",
      "answer_stringIds": [
        "string_188",
        "string_189",
        "string_190",
        "string_191",
        "string_192",
        "string_193",
        "string_194"
      ]
    },
    {
      "id_qa": "autog_0249-2563_1982_num_15_10_T1_0004_0000_qa31_v3",
      "id_block": "block_2",
      "question": "Qu'est-ce qui saisit la droite ?",
      "answer": "les points faibles de la gauche",
      "answer_stringIds": [
        "string_277",
        "string_278",
        "string_279",
        "string_280",
        "string_281",
        "string_282"
      ]
    },
    {
      "id_qa": "autog_0249-2563_1982_num_15_10_T1_0004_0000_qa36_v3",
      "id_block": "block_2",
      "question": "A quoi cherche-t-elle ?",
      "answer": "à se donner une idéologie",
      "answer_stringIds": [
        "string_285",
        "string_286",
        "string_287",
        "string_288",
        "string_289"
      ]
    },
    {
      "id_qa": "autog_0249-2563_1982_num_15_10_T1_0004_0000_qa27_v3",
      "id_block": "block_5",
      "question": "Qui ne souhaite pas devenir conseillers du Prince ?",
      "answer": "certains",
      "answer_stringIds": [
        "string_240"
      ]
    },
    {
      "id_qa": "autog_0249-2563_1982_num_15_10_T1_0004_0000_qa28_v3",
      "id_block": "block_5",
      "question": "Qui ne renoncent pas à devenir conseillers du Prince ?",
      "answer": "certains",
      "answer_stringIds": [
        "string_240"
      ]
    }
  ]
}