{
  "num": "autog_0249-2563_1982_num_15_10",
  "article": "autog_0249-2563_1982_num_15_10_1493",
  "page_name": "autog_0249-2563_1982_num_15_10_T1_0010_0000",
  "questions": [
    {
      "id_qa": "autog_0249-2563_1982_num_15_10_T1_0010_0000_qa42_v3",
      "id_block": "block_0",
      "question": "De quoi vient l'aspiration à des biens non marchands ?",
      "answer": "de la vie quotidienne",
      "answer_stringIds": [
        "string_9",
        "string_10",
        "string_11",
        "string_12"
      ]
    },
    {
      "id_qa": "autog_0249-2563_1982_num_15_10_T1_0010_0000_qa16_v3",
      "id_block": "block_2",
      "question": "Qu'est-ce qui est important pour les dirigeants ?",
      "answer": "ce projet",
      "answer_stringIds": [
        "string_199",
        "string_200"
      ]
    },
    {
      "id_qa": "autog_0249-2563_1982_num_15_10_T1_0010_0000_qa3_v3",
      "id_block": "block_2",
      "question": "Que demande le pouvoir ?",
      "answer": "nous le",
      "answer_stringIds": [
        "string_179",
        "string_180"
      ]
    },
    {
      "id_qa": "autog_0249-2563_1982_num_15_10_T1_0010_0000_qa8_v3",
      "id_block": "block_2",
      "question": "Qui est à l'origine de ce projet ?",
      "answer": "dirigeants",
      "answer_stringIds": [
        "string_202"
      ]
    },
    {
      "id_qa": "autog_0249-2563_1982_num_15_10_T1_0010_0000_qa10_v3",
      "id_block": "block_2",
      "question": "Qu'est-ce qui permet de faire ce travail de réflexion ?",
      "answer": "le pouvoir",
      "answer_stringIds": [
        "string_177",
        "string_178"
      ]
    },
    {
      "id_qa": "autog_0249-2563_1982_num_15_10_T1_0010_0000_qa31_v3",
      "id_block": "block_4",
      "question": "Quel est le lieu idéal pour moi ?",
      "answer": "le jardin",
      "answer_stringIds": [
        "string_424",
        "string_425"
      ]
    }
  ]
}