{
  "num": "autog_0249-2563_1982_num_15_10",
  "article": "autog_0249-2563_1982_num_15_10_1493",
  "page_name": "autog_0249-2563_1982_num_15_10_T1_0006_0000",
  "questions": [
    {
      "id_qa": "autog_0249-2563_1982_num_15_10_T1_0006_0000_qa20_v3",
      "id_block": "block_2",
      "question": "Quelle est l'idéologie de l'Etat et pratique étatiste ?",
      "answer": "le jacobinisme",
      "answer_stringIds": [
        "string_154",
        "string_155"
      ]
    },
    {
      "id_qa": "autog_0249-2563_1982_num_15_10_T1_0006_0000_qa10_v3",
      "id_block": "block_3",
      "question": "A quoi est dû le pragmatisme actuel ?",
      "answer": "ces échecs ou ces faibles tentatives et ces abandons",
      "answer_stringIds": [
        "string_259",
        "string_260",
        "string_261",
        "string_262",
        "string_263",
        "string_264",
        "string_265",
        "string_266",
        "string_267"
      ]
    },
    {
      "id_qa": "autog_0249-2563_1982_num_15_10_T1_0006_0000_qa25_v3",
      "id_block": "block_4",
      "question": "Qu'est ce qui n'est pas immédiatement chiffrable ?",
      "answer": "dans une législation immédiatement adoptable",
      "answer_stringIds": [
        "string_427",
        "string_428",
        "string_429",
        "string_430",
        "string_431"
      ]
    }
  ]
}