{
  "num": "autog_0249-2563_1982_num_15_10",
  "article": "autog_0249-2563_1982_num_15_10_1493",
  "page_name": "autog_0249-2563_1982_num_15_10_T1_0009_0000",
  "questions": [
    {
      "id_qa": "autog_0249-2563_1982_num_15_10_T1_0009_0000_qa0_v3",
      "id_block": "block_0",
      "question": "Quel est le besoin d'en sortir ?",
      "answer": "cette logique",
      "answer_stringIds": [
        "string_16",
        "string_17"
      ]
    },
    {
      "id_qa": "autog_0249-2563_1982_num_15_10_T1_0009_0000_qa11_v3",
      "id_block": "block_1",
      "question": "Qui est marginalisé par rapport à la nouvelle forme d'être-ensemble ?",
      "answer": "les groupes sociaux",
      "answer_stringIds": [
        "string_31",
        "string_32",
        "string_33"
      ]
    },
    {
      "id_qa": "autog_0249-2563_1982_num_15_10_T1_0009_0000_qa12_v3",
      "id_block": "block_1",
      "question": "Qui est marginalisé par rapport aux autres ?",
      "answer": "les groupes sociaux",
      "answer_stringIds": [
        "string_31",
        "string_32",
        "string_33"
      ]
    },
    {
      "id_qa": "autog_0249-2563_1982_num_15_10_T1_0009_0000_qa19_v3",
      "id_block": "block_3",
      "question": "Qu'est-ce que les intellectuels peuvent faire dans la situation présente ?",
      "answer": "des projets",
      "answer_stringIds": [
        "string_366",
        "string_367"
      ]
    }
  ]
}