{
  "num": "autog_0249-2563_1981_num_14_7",
  "article": "autog_0249-2563_1981_num_14_7_1456_t1_0372_0000_2",
  "page_name": "autog_0249-2563_1981_num_14_7_T1_0372_0000",
  "questions": [
    "Quels sont les personnes que Chabrol qualifie de \"drôles d'oiseaux\" et pourquoi ?",
    "Quel est le nombre de ces personnes prévu pour augmenter rapidement ?",
    "Quels sont les raisons pour lesquelles Bergeron s'oppose à l'autogestion ?",
    "Est-ce que Bergeron exagère la menace de l'autogestion pour les travailleurs ?",
    "Quel ministre est favorable à l'autogestion et dans quelle domaine ?",
    "Quels sont les espaces que le Conservatoire du littoral achète et pourquoi les collectivités locales ne veulent pas les prendre en charge ?",
    "Quelles associations pourraient étudier l'aménagement de ces espaces ?",
    "Comment le ministre Crépeau justifie l'innovation et l'autogestion dans le domaine de l'environnement ?"
  ]
}