{
  "num": "autog_0338-7259_1975_num_30_1",
  "article": "autog_0338-7259_1975_num_30_1_1133",
  "page_name": "FMSH_PB188a_30-31_179",
  "questions": [
    {
      "id_qa": "FMSH_PB188a_30-31_179_qa6_v3",
      "id_block": "block_1",
      "question": "Qui a créé la Coopérative de l'Enseignement laïc ?",
      "answer": "Freinet",
      "answer_stringIds": [
        "string_6"
      ]
    },
    {
      "id_qa": "FMSH_PB188a_30-31_179_qa19_v3",
      "id_block": "block_5",
      "question": "Comment s'appelle le parti tchécoslovaque clandestin ?",
      "answer": "le Parti des Conseils Ouvriers",
      "answer_stringIds": [
        "string_138",
        "string_139",
        "string_140",
        "string_141",
        "string_142"
      ]
    },
    {
      "id_qa": "FMSH_PB188a_30-31_179_qa20_v3",
      "id_block": "block_5",
      "question": "Quel est le nom du parti tchécoslovaque clandestin ?",
      "answer": "le Parti des Conseils Ouvriers",
      "answer_stringIds": [
        "string_138",
        "string_139",
        "string_140",
        "string_141",
        "string_142"
      ]
    },
    {
      "id_qa": "FMSH_PB188a_30-31_179_qa21_v3",
      "id_block": "block_5",
      "question": "Quelle est la nationalité du parti des Conseils Ouvriers ?",
      "answer": "un parti tchécoslovaque clandestin",
      "answer_stringIds": [
        "string_124",
        "string_125",
        "string_126",
        "string_127"
      ]
    },
    {
      "id_qa": "FMSH_PB188a_30-31_179_qa13_v3",
      "id_block": "block_6",
      "question": "Qu'est-ce qui rejette les travailleurs des pays de VPEst ?",
      "answer": "la sujétion capitaliste",
      "answer_stringIds": [
        "string_160",
        "string_161",
        "string_162",
        "string_163"
      ]
    },
    {
      "id_qa": "FMSH_PB188a_30-31_179_qa14_v3",
      "id_block": "block_6",
      "question": "Avec qui il exprime-t-il sa solidarité ?",
      "answer": "sa solidarité avec tous les travailleurs des pays de VPEst",
      "answer_stringIds": [
        "string_167",
        "string_168",
        "string_169",
        "string_170",
        "string_171",
        "string_172",
        "string_173",
        "string_174",
        "string_175",
        "string_176"
      ]
    },
    {
      "id_qa": "FMSH_PB188a_30-31_179_qa17_v3",
      "id_block": "block_8",
      "question": "Qui a inventé l'idée des conseils spontanés ou formels ?",
      "answer": "par quelques théoriciens",
      "answer_stringIds": [
        "string_295",
        "string_296",
        "string_297"
      ]
    }
  ]
}