{
  "num": "autog_0338-7259_1975_num_30_1",
  "article": "autog_0338-7259_1975_num_30_1_1133",
  "page_name": "FMSH_PB188a_30-31_172",
  "questions": [
    {
      "id_qa": "FMSH_PB188a_30-31_172_qa32_v3",
      "id_block": "block_1",
      "question": "Par qui sont formées les bandes enseignantes ?",
      "answer": "des éducateurs de tous degrés",
      "answer_stringIds": [
        "string_17",
        "string_18",
        "string_19",
        "string_20",
        "string_21"
      ]
    },
    {
      "id_qa": "FMSH_PB188a_30-31_172_qa25_v3",
      "id_block": "block_2",
      "question": "A qui s'adresse la coopération avec cogestion, auto-contrôle et auto-évaluation des plannings ?",
      "answer": "aux étudiants",
      "answer_stringIds": [
        "string_107",
        "string_108"
      ]
    },
    {
      "id_qa": "FMSH_PB188a_30-31_172_qa26_v3",
      "id_block": "block_2",
      "question": "A qui est destiné le grand élan de libération ?",
      "answer": "la jeunesse de tous les âges",
      "answer_stringIds": [
        "string_132",
        "string_133",
        "string_134",
        "string_135",
        "string_136",
        "string_137"
      ]
    },
    {
      "id_qa": "FMSH_PB188a_30-31_172_qa28_v3",
      "id_block": "block_2",
      "question": "Qu'est-ce qui agite la jeunesse de tous les âges ?",
      "answer": "de libération qui",
      "answer_stringIds": [
        "string_127",
        "string_128",
        "string_129"
      ]
    },
    {
      "id_qa": "FMSH_PB188a_30-31_172_qa35_v3",
      "id_block": "block_2",
      "question": "Qu'est-ce que la documentation et les bandes enseignantes ?",
      "answer": "un travail individualisé",
      "answer_stringIds": [
        "string_63",
        "string_64",
        "string_65"
      ]
    },
    {
      "id_qa": "FMSH_PB188a_30-31_172_qa16_v3",
      "id_block": "block_4",
      "question": "Comment se place Freinet après avoir provoqué un mouvement ?",
      "answer": "à contre-courant",
      "answer_stringIds": [
        "string_187",
        "string_188"
      ]
    },
    {
      "id_qa": "FMSH_PB188a_30-31_172_qa19_v3",
      "id_block": "block_4",
      "question": "Qu'a provoqué Freinet au début ?",
      "answer": "un mouvement",
      "answer_stringIds": [
        "string_169",
        "string_170"
      ]
    },
    {
      "id_qa": "FMSH_PB188a_30-31_172_qa3_v3",
      "id_block": "block_6",
      "question": "Qui est en quête des \" traits essentiels du jeu-travail\"?",
      "answer": "Freinet",
      "answer_stringIds": [
        "string_145"
      ]
    },
    {
      "id_qa": "FMSH_PB188a_30-31_172_qa0_v3",
      "id_block": "block_9",
      "question": "Quand a été publiée l'étude \"Pour une véritable réforme de l'enseignement\" ?",
      "answer": "du ler octobre 1966",
      "answer_stringIds": [
        "string_401",
        "string_402",
        "string_403",
        "string_404"
      ]
    }
  ]
}