{
  "num": "autog_0338-7259_1975_num_30_1",
  "article": "autog_0338-7259_1975_num_30_1_1133",
  "page_name": "FMSH_PB188a_30-31_159",
  "questions": [
    {
      "id_qa": "FMSH_PB188a_30-31_159_qa1_v3",
      "id_block": "block_2",
      "question": "Où s'est déroulé le congrès du P.S ?",
      "answer": "à Pau",
      "answer_stringIds": [
        "string_17",
        "string_18"
      ]
    },
    {
      "id_qa": "FMSH_PB188a_30-31_159_qa14_v3",
      "id_block": "block_3",
      "question": "Qui soutient le PS dans les luttes sociales ?",
      "answer": "travailleurs",
      "answer_stringIds": [
        "string_123"
      ]
    },
    {
      "id_qa": "FMSH_PB188a_30-31_159_qa2_v3",
      "id_block": "block_4",
      "question": "Qu'est ce qui a été adopté par le Congrès ?",
      "answer": "la motion finale",
      "answer_stringIds": [
        "string_158",
        "string_159",
        "string_160"
      ]
    },
    {
      "id_qa": "FMSH_PB188a_30-31_159_qa9_v3",
      "id_block": "block_4",
      "question": "Qui a approuvé la motion finale ?",
      "answer": "le Congrès",
      "answer_stringIds": [
        "string_163",
        "string_164"
      ]
    },
    {
      "id_qa": "FMSH_PB188a_30-31_159_qa12_v3",
      "id_block": "block_4",
      "question": "Grâce à quoi le projet d'autogestion trouve-t-il son point d'application ?",
      "answer": "grâce aux luttes sociales menées dans une perspective de contrôle et au soutien apporté à ces luttes par le PS",
      "answer_stringIds": [
        "string_214",
        "string_215",
        "string_216",
        "string_217",
        "string_218",
        "string_219",
        "string_220",
        "string_221",
        "string_222",
        "string_223",
        "string_224",
        "string_225",
        "string_226",
        "string_227",
        "string_228",
        "string_229",
        "string_230",
        "string_231",
        "string_232",
        "string_233"
      ]
    }
  ]
}