{
  "num": "autog_0338-7259_1975_num_30_1",
  "article": "autog_0338-7259_1975_num_30_1_1133",
  "page_name": "FMSH_PB188a_30-31_175",
  "questions": [
    {
      "id_qa": "FMSH_PB188a_30-31_175_qa44_v3",
      "id_block": "block_2",
      "question": "Qu'est ce que les fraternités de travail et de destin ?",
      "answer": "aider",
      "answer_stringIds": [
        "string_23"
      ]
    },
    {
      "id_qa": "FMSH_PB188a_30-31_175_qa3_v3",
      "id_block": "block_4",
      "question": "Qu'est-ce que la Méthode Freinet ?",
      "answer": "un enseignement antiautoritaire",
      "answer_stringIds": [
        "string_74",
        "string_75",
        "string_76"
      ]
    },
    {
      "id_qa": "FMSH_PB188a_30-31_175_qa4_v3",
      "id_block": "block_4",
      "question": "Quel est le nom de l'enseignement antiautoritaire ?",
      "answer": "la Méthode Freinet",
      "answer_stringIds": [
        "string_68",
        "string_69",
        "string_70"
      ]
    },
    {
      "id_qa": "FMSH_PB188a_30-31_175_qa23_v3",
      "id_block": "block_5",
      "question": "Qu'est ce que nous avons fait à ce moment-là ?",
      "answer": "des progrès",
      "answer_stringIds": [
        "string_221",
        "string_222"
      ]
    },
    {
      "id_qa": "FMSH_PB188a_30-31_175_qa28_v3",
      "id_block": "block_5",
      "question": "Qu'est ce qui a pris sur nous après la grève ?",
      "answer": "les enfants que les parents pouvaient garder",
      "answer_stringIds": [
        "string_237",
        "string_238",
        "string_239",
        "string_240",
        "string_241",
        "string_242",
        "string_243"
      ]
    },
    {
      "id_qa": "FMSH_PB188a_30-31_175_qa8_v3",
      "id_block": "block_6",
      "question": "Avec qui les maîtres pouvaient-ils assister à la demi-journée ?",
      "answer": "des enfants",
      "answer_stringIds": [
        "string_314",
        "string_315"
      ]
    },
    {
      "id_qa": "FMSH_PB188a_30-31_175_qa9_v3",
      "id_block": "block_6",
      "question": "Quelle était la durée de la garderie pour les maîtres ?",
      "answer": "la demi-journée",
      "answer_stringIds": [
        "string_300",
        "string_301"
      ]
    },
    {
      "id_qa": "FMSH_PB188a_30-31_175_qa11_v3",
      "id_block": "block_6",
      "question": "Qu'organisait la demi-journée pour les enfants restants ?",
      "answer": "une garderie",
      "answer_stringIds": [
        "string_268",
        "string_269"
      ]
    },
    {
      "id_qa": "FMSH_PB188a_30-31_175_qa13_v3",
      "id_block": "block_6",
      "question": "Pour qui était organisée la garderie ?",
      "answer": "pour les enfants",
      "answer_stringIds": [
        "string_270",
        "string_271",
        "string_272"
      ]
    },
    {
      "id_qa": "FMSH_PB188a_30-31_175_qa19_v3",
      "id_block": "block_6",
      "question": "Où se déroulait la pause-café ?",
      "answer": "dans la salle des maîtres",
      "answer_stringIds": [
        "string_346",
        "string_347",
        "string_348",
        "string_349",
        "string_350"
      ]
    },
    {
      "id_qa": "FMSH_PB188a_30-31_175_qa20_v3",
      "id_block": "block_6",
      "question": "Qu'est ce qui a été abordé lors de la pause-café ?",
      "answer": "une question de pédagogie posée par les uns ou les autres",
      "answer_stringIds": [
        "string_359",
        "string_360",
        "string_361",
        "string_362",
        "string_363",
        "string_364",
        "string_365",
        "string_366",
        "string_367",
        "string_368",
        "string_369"
      ]
    },
    {
      "id_qa": "FMSH_PB188a_30-31_175_qa21_v3",
      "id_block": "block_6",
      "question": "Qui a posé une question de pédagogie ?",
      "answer": "par les uns ou les autres",
      "answer_stringIds": [
        "string_364",
        "string_365",
        "string_366",
        "string_367",
        "string_368",
        "string_369"
      ]
    },
    {
      "id_qa": "FMSH_PB188a_30-31_175_qa40_v3",
      "id_block": "block_6",
      "question": "Qui nous a donné l'impression d'avancer ?",
      "answer": "les maîtres",
      "answer_stringIds": [
        "string_249",
        "string_250"
      ]
    },
    {
      "id_qa": "FMSH_PB188a_30-31_175_qa42_v3",
      "id_block": "block_6",
      "question": "Qu'est ce que les maîtres avaient sous les yeux ?",
      "answer": "exemples",
      "answer_stringIds": [
        "string_394"
      ]
    },
    {
      "id_qa": "FMSH_PB188a_30-31_175_qa16_v3",
      "id_block": "block_8",
      "question": "Qui sont les directeurs de deux groupes scolaires à Choisy-le-Roi ?",
      "answer": "Lucien et Emilienne Reuge",
      "answer_stringIds": [
        "string_402",
        "string_403",
        "string_404",
        "string_405"
      ]
    },
    {
      "id_qa": "FMSH_PB188a_30-31_175_qa18_v3",
      "id_block": "block_8",
      "question": "Qui sont les directeurs de deux groupes scolaires iumcelés à Choisy-le-Roi ?",
      "answer": "Lucien et Emilienne Reuge",
      "answer_stringIds": [
        "string_402",
        "string_403",
        "string_404",
        "string_405"
      ]
    }
  ]
}