{
  "num": "autog_0338-7259_1975_num_30_1",
  "article": "autog_0338-7259_1975_num_30_1_1133",
  "page_name": "FMSH_PB188a_30-31_174",
  "questions": [
    {
      "id_qa": "FMSH_PB188a_30-31_174_qa21_v3",
      "id_block": "block_1",
      "question": "Qu'est ce qui cherche l'unanimité artificielle ?",
      "answer": "Des kermesses",
      "answer_stringIds": [
        "string_16",
        "string_17"
      ]
    },
    {
      "id_qa": "FMSH_PB188a_30-31_174_qa9_v3",
      "id_block": "block_13",
      "question": "Qu'est ce qui ne remplace pas les vements d'Ecole Moderne ?",
      "answer": "les autres mouvements internationaux",
      "answer_stringIds": [
        "string_334",
        "string_335",
        "string_336",
        "string_337"
      ]
    },
    {
      "id_qa": "FMSH_PB188a_30-31_174_qa4_v3",
      "id_block": "block_14",
      "question": "Quand a eu lieu le Congrès de lIC.E.M. de Pau ?",
      "answer": "en 1968",
      "answer_stringIds": [
        "string_354",
        "string_355"
      ]
    },
    {
      "id_qa": "FMSH_PB188a_30-31_174_qa13_v3",
      "id_block": "block_3",
      "question": "Par quoi se distinguent les statuts des organisations volontaires ?",
      "answer": "par leur caractère ouvrier et coopératif",
      "answer_stringIds": [
        "string_75",
        "string_76",
        "string_77",
        "string_78",
        "string_79",
        "string_80"
      ]
    },
    {
      "id_qa": "FMSH_PB188a_30-31_174_qa2_v3",
      "id_block": "block_4",
      "question": "Qu'est-ce que la coopérative ?",
      "answer": "notre chantier",
      "answer_stringIds": [
        "string_123",
        "string_124"
      ]
    },
    {
      "id_qa": "FMSH_PB188a_30-31_174_qa1_v3",
      "id_block": "block_4",
      "question": "Contre qui est prêt à défendre la coopérative ?",
      "answer": "quiconque",
      "answer_stringIds": [
        "string_146"
      ]
    },
    {
      "id_qa": "FMSH_PB188a_30-31_174_qa3_v3",
      "id_block": "block_4",
      "question": "A quoi nous nous intéressons-nous profondément ?",
      "answer": "la vie de notre coopérative",
      "answer_stringIds": [
        "string_113",
        "string_114",
        "string_115",
        "string_116",
        "string_117"
      ]
    },
    {
      "id_qa": "FMSH_PB188a_30-31_174_qa15_v3",
      "id_block": "block_5",
      "question": "Quel est le titre du paragraphe 9 de la charte ?",
      "answer": "Nos relations avec Padministration",
      "answer_stringIds": [
        "string_170",
        "string_171",
        "string_172",
        "string_173"
      ]
    },
    {
      "id_qa": "FMSH_PB188a_30-31_174_qa16_v3",
      "id_block": "block_5",
      "question": "Qu'est ce qui est prêt à apporter à nos collègues ?",
      "answer": "notre expérience",
      "answer_stringIds": [
        "string_205",
        "string_206"
      ]
    },
    {
      "id_qa": "FMSH_PB188a_30-31_174_qa17_v3",
      "id_block": "block_5",
      "question": "Quel est le but de nos relations avec Padministration ?",
      "answer": "pour la modernisation pédagogique",
      "answer_stringIds": [
        "string_210",
        "string_211",
        "string_212",
        "string_213",
        "string_214"
      ]
    },
    {
      "id_qa": "FMSH_PB188a_30-31_174_qa19_v3",
      "id_block": "block_5",
      "question": "A qui nous sommes prêts à apporter notre expérience ?",
      "answer": "à nos collègues",
      "answer_stringIds": [
        "string_207",
        "string_208",
        "string_209"
      ]
    },
    {
      "id_qa": "FMSH_PB188a_30-31_174_qa11_v3",
      "id_block": "block_6",
      "question": "Quel est le métier de l'ouvrier ?",
      "answer": "louvrier au travail",
      "answer_stringIds": [
        "string_225",
        "string_226",
        "string_227"
      ]
    },
    {
      "id_qa": "FMSH_PB188a_30-31_174_qa20_v3",
      "id_block": "block_7",
      "question": "Qu'est ce qui souligne le caractère international de la pédagogie ?",
      "answer": "le paragraphe 10",
      "answer_stringIds": [
        "string_251",
        "string_252",
        "string_253"
      ]
    },
    {
      "id_qa": "FMSH_PB188a_30-31_174_qa7_v3",
      "id_block": "block_9",
      "question": "Qu'est ce que nous essayons de développer à l'échelle interna ?",
      "answer": "notre effort",
      "answer_stringIds": [
        "string_133",
        "string_134"
      ]
    }
  ]
}