{
  "num": "autog_0338-7259_1975_num_30_1",
  "article": "autog_0338-7259_1975_num_30_1_1133",
  "page_name": "FMSH_PB188a_30-31_164",
  "questions": [
    {
      "id_qa": "FMSH_PB188a_30-31_164_qa6_v3",
      "id_block": "block_1",
      "question": "Où a été mélé le mélé de 1940 à 1944 ?",
      "answer": "à Lyon",
      "answer_stringIds": [
        "string_7",
        "string_8"
      ]
    },
    {
      "id_qa": "FMSH_PB188a_30-31_164_qa7_v3",
      "id_block": "block_1",
      "question": "De quand date le mélé de Lyon ?",
      "answer": "de 1940 à 1944",
      "answer_stringIds": [
        "string_95",
        "string_96",
        "string_97",
        "string_98"
      ]
    },
    {
      "id_qa": "FMSH_PB188a_30-31_164_qa12_v3",
      "id_block": "block_1",
      "question": "Qui était le responsable de ville à Lyon ?",
      "answer": "André Plai",
      "answer_stringIds": [
        "string_13",
        "string_14"
      ]
    },
    {
      "id_qa": "FMSH_PB188a_30-31_164_qa1_v3",
      "id_block": "block_2",
      "question": "Qui est membre de la « Jeune République » ?",
      "answer": "Plaisantin",
      "answer_stringIds": [
        "string_76"
      ]
    },
    {
      "id_qa": "FMSH_PB188a_30-31_164_qa2_v3",
      "id_block": "block_2",
      "question": "Qui est membre de la Jeune République ?",
      "answer": "Plaisantin",
      "answer_stringIds": [
        "string_76"
      ]
    },
    {
      "id_qa": "FMSH_PB188a_30-31_164_qa19_v3",
      "id_block": "block_2",
      "question": "Qui a eu l'idée de regrouper les cellules du mouvement ?",
      "answer": "Plaisantin",
      "answer_stringIds": [
        "string_76"
      ]
    },
    {
      "id_qa": "FMSH_PB188a_30-31_164_qa33_v3",
      "id_block": "block_2",
      "question": "Qu'est-ce qui était un des fréquents sujets de commentaires ironiques de notre Centre National ?",
      "answer": "Sa collaboration",
      "answer_stringIds": [
        "string_151",
        "string_152"
      ]
    },
    {
      "id_qa": "FMSH_PB188a_30-31_164_qa25_v3",
      "id_block": "block_3",
      "question": "Qui créa les groupes d'Action Ouvrière ?",
      "answer": "Marcel Degliame",
      "answer_stringIds": [
        "string_361",
        "string_362"
      ]
    },
    {
      "id_qa": "FMSH_PB188a_30-31_164_qa28_v3",
      "id_block": "block_3",
      "question": "Pourquoi personne n'y avait-il pensé ?",
      "answer": "pius tôt",
      "answer_stringIds": [
        "string_406",
        "string_407"
      ]
    },
    {
      "id_qa": "FMSH_PB188a_30-31_164_qa9_v3",
      "id_block": "block_5",
      "question": "Qui a compris l'importance historique de l'autogestion ouvrière ?",
      "answer": "premiers qui",
      "answer_stringIds": [
        "string_409",
        "string_410"
      ]
    }
  ]
}