{
  "num": "autog_0249-2563_1983_num_16_14",
  "article": "autog_0249-2563_1983_num_16_14_1556",
  "page_name": "autog_0249-2563_1983_num_16_14_T1_0047_0000",
  "questions": [
    {
      "id_qa": "autog_0249-2563_1983_num_16_14_T1_0047_0000_qa19_v3",
      "id_block": "block_0",
      "question": "Qui souhaite intervenir plus comme acteurs de leur vie quotidienne dans l'entreprise ?",
      "answer": "beaucoup de travailleurs",
      "answer_stringIds": [
        "string_24",
        "string_25",
        "string_26"
      ]
    },
    {
      "id_qa": "autog_0249-2563_1983_num_16_14_T1_0047_0000_qa20_v3",
      "id_block": "block_0",
      "question": "Qui souhaite intervenir plus au niveau des problèmes de leur vie quotidienne dans l'entreprise ?",
      "answer": "beaucoup de travailleurs",
      "answer_stringIds": [
        "string_24",
        "string_25",
        "string_26"
      ]
    },
    {
      "id_qa": "autog_0249-2563_1983_num_16_14_T1_0047_0000_qa21_v3",
      "id_block": "block_0",
      "question": "Avec qui les exécutants passent-ils le plus souvent ?",
      "answer": "avec leurs dirigeants",
      "answer_stringIds": [
        "string_65",
        "string_66",
        "string_67"
      ]
    },
    {
      "id_qa": "autog_0249-2563_1983_num_16_14_T1_0047_0000_qa22_v3",
      "id_block": "block_0",
      "question": "Qu'est-ce qui remplace le contrat psychologique ?",
      "answer": "Une nouvelle transaction",
      "answer_stringIds": [
        "string_44",
        "string_45",
        "string_46",
        "string_47"
      ]
    },
    {
      "id_qa": "autog_0249-2563_1983_num_16_14_T1_0047_0000_qa1_v3",
      "id_block": "block_1",
      "question": "De qui nous obéissons-ils ?",
      "answer": "des exécutants",
      "answer_stringIds": [
        "string_75",
        "string_76"
      ]
    },
    {
      "id_qa": "autog_0249-2563_1983_num_16_14_T1_0047_0000_qa4_v3",
      "id_block": "block_1",
      "question": "Qu'exige-t-on vis-à-vis des exécutants ?",
      "answer": "de rester libres",
      "answer_stringIds": [
        "string_94",
        "string_95",
        "string_96"
      ]
    },
    {
      "id_qa": "autog_0249-2563_1983_num_16_14_T1_0047_0000_qa5_v3",
      "id_block": "block_1",
      "question": "Qu'exige-t-on en échange de nos décisions ?",
      "answer": "libres",
      "answer_stringIds": [
        "string_96"
      ]
    },
    {
      "id_qa": "autog_0249-2563_1983_num_16_14_T1_0047_0000_qa16_v3",
      "id_block": "block_3",
      "question": "Qu'est ce qui permet aux hommes de s'épanouir dans l'entreprise ?",
      "answer": "leurs capacités intellectuelles",
      "answer_stringIds": [
        "string_316",
        "string_317",
        "string_318"
      ]
    },
    {
      "id_qa": "autog_0249-2563_1983_num_16_14_T1_0047_0000_qa24_v3",
      "id_block": "block_4",
      "question": "Quel est le métier de Michel Crozier ?",
      "answer": "La Société",
      "answer_stringIds": [
        "string_354",
        "string_355"
      ]
    }
  ]
}