{
  "num": "autog_0249-2563_1983_num_16_14",
  "article": "autog_0249-2563_1983_num_16_14_1556",
  "page_name": "autog_0249-2563_1983_num_16_14_T1_0040_0000",
  "questions": [
    {
      "id_qa": "autog_0249-2563_1983_num_16_14_T1_0040_0000_qa5_v3",
      "id_block": "block_0",
      "question": "Qu'est-ce que les cercles de qualité ?",
      "answer": "autogestion",
      "answer_stringIds": [
        "string_37"
      ]
    },
    {
      "id_qa": "autog_0249-2563_1983_num_16_14_T1_0040_0000_qa11_v3",
      "id_block": "block_2",
      "question": "Qui est pris à leur propre piège ?",
      "answer": "les ouvriers",
      "answer_stringIds": [
        "string_338",
        "string_339"
      ]
    },
    {
      "id_qa": "autog_0249-2563_1983_num_16_14_T1_0040_0000_qa19_v3",
      "id_block": "block_2",
      "question": "Qu'est ce qui renforce la subordination des travailleurs au patronat ?",
      "answer": "ces groupes",
      "answer_stringIds": [
        "string_349",
        "string_350"
      ]
    },
    {
      "id_qa": "autog_0249-2563_1983_num_16_14_T1_0040_0000_qa21_v3",
      "id_block": "block_2",
      "question": "Pourquoi les groupes renforcent-ils la subordination des travailleurs ?",
      "answer": "la subordination des travailleurs au patronat au lieu de développer leur autonomie",
      "answer_stringIds": [
        "string_352",
        "string_353",
        "string_354",
        "string_355",
        "string_356",
        "string_357",
        "string_358",
        "string_359",
        "string_360",
        "string_361",
        "string_362",
        "string_363"
      ]
    }
  ]
}