{
  "num": "autog_0005-0970_1968_num_7_1",
  "article": "autog_0005-0970_1968_num_7_1_940",
  "page_name": "FMSH_PB188a_00007_136",
  "questions": [
    {
      "id_qa": "FMSH_PB188a_00007_136_qa17_v3",
      "id_block": "block_2",
      "question": "Qu'est-ce qui se débarrasse de ses voiles mystérieux ?",
      "answer": "la cogestion",
      "answer_stringIds": [
        "string_161",
        "string_162"
      ]
    },
    {
      "id_qa": "FMSH_PB188a_00007_136_qa18_v3",
      "id_block": "block_2",
      "question": "De quoi la cogestion se débarrasse-t-elle ?",
      "answer": "ses voiles mystérieux et de son masque grimaçant",
      "answer_stringIds": [
        "string_166",
        "string_167",
        "string_168",
        "string_169",
        "string_170",
        "string_171",
        "string_172",
        "string_173",
        "string_174"
      ]
    },
    {
      "id_qa": "FMSH_PB188a_00007_136_qa24_v3",
      "id_block": "block_2",
      "question": "Qu'est ce qui ne lui est pas reconnu en temps normal ?",
      "answer": "la parcelle de pouvoir",
      "answer_stringIds": [
        "string_97",
        "string_98",
        "string_99",
        "string_100"
      ]
    },
    {
      "id_qa": "FMSH_PB188a_00007_136_qa39_v3",
      "id_block": "block_2",
      "question": "Que devient le thème de la solidarité indispensable entre dirigeants et dirigés ?",
      "answer": "une réalité",
      "answer_stringIds": [
        "string_130",
        "string_131"
      ]
    },
    {
      "id_qa": "FMSH_PB188a_00007_136_qa20_v3",
      "id_block": "block_3",
      "question": "Qu'est-ce que le travailleur collectif ?",
      "answer": "la puissance",
      "answer_stringIds": [
        "string_191",
        "string_192"
      ]
    },
    {
      "id_qa": "FMSH_PB188a_00007_136_qa21_v3",
      "id_block": "block_3",
      "question": "Qu'oppose les impératifs techniques de la production ?",
      "answer": "une manifestation intégrale de la puissance détenue par le travailleur collectif",
      "answer_stringIds": [
        "string_187",
        "string_188",
        "string_189",
        "string_190",
        "string_191",
        "string_192",
        "string_193",
        "string_194",
        "string_195",
        "string_196",
        "string_197"
      ]
    },
    {
      "id_qa": "FMSH_PB188a_00007_136_qa22_v3",
      "id_block": "block_3",
      "question": "Qui détient la puissance ?",
      "answer": "le travailleur collectif",
      "answer_stringIds": [
        "string_195",
        "string_196",
        "string_197"
      ]
    },
    {
      "id_qa": "FMSH_PB188a_00007_136_qa27_v3",
      "id_block": "block_3",
      "question": "Quel est le but de la grève ?",
      "answer": "le procès de production",
      "answer_stringIds": [
        "string_217",
        "string_218",
        "string_219",
        "string_220"
      ]
    },
    {
      "id_qa": "FMSH_PB188a_00007_136_qa28_v3",
      "id_block": "block_3",
      "question": "Qui contrôle les entrées et les sorties ?",
      "answer": "les grévistes",
      "answer_stringIds": [
        "string_36",
        "string_37"
      ]
    },
    {
      "id_qa": "FMSH_PB188a_00007_136_qa29_v3",
      "id_block": "block_3",
      "question": "Qu'est ce qui n'atteint pas dans son essence le procès de production ?",
      "answer": "la grève",
      "answer_stringIds": [
        "string_210",
        "string_211"
      ]
    },
    {
      "id_qa": "FMSH_PB188a_00007_136_qa30_v3",
      "id_block": "block_3",
      "question": "Qu'est ce qui est contrôlé par les grévistes ?",
      "answer": "les entrées et les sorties",
      "answer_stringIds": [
        "string_205",
        "string_206",
        "string_207",
        "string_208",
        "string_209"
      ]
    },
    {
      "id_qa": "FMSH_PB188a_00007_136_qa0_v3",
      "id_block": "block_4",
      "question": "Quel mouvement s'oppose à l'arrêt illimité ?",
      "answer": "le mouvement étudiant",
      "answer_stringIds": [
        "string_246",
        "string_247",
        "string_248"
      ]
    },
    {
      "id_qa": "FMSH_PB188a_00007_136_qa1_v3",
      "id_block": "block_4",
      "question": "Quand le comité intersyndical réfléchit-il sur une solution ?",
      "answer": "En mai",
      "answer_stringIds": [
        "string_229",
        "string_230"
      ]
    },
    {
      "id_qa": "FMSH_PB188a_00007_136_qa2_v3",
      "id_block": "block_4",
      "question": "Qu'est ce que le comité intersyndical réfléchit ?",
      "answer": "une solution",
      "answer_stringIds": [
        "string_255",
        "string_256"
      ]
    },
    {
      "id_qa": "FMSH_PB188a_00007_136_qa8_v3",
      "id_block": "block_4",
      "question": "Quand le comité intersyndical réfléchit-il ?",
      "answer": "En mai",
      "answer_stringIds": [
        "string_229",
        "string_230"
      ]
    },
    {
      "id_qa": "FMSH_PB188a_00007_136_qa10_v3",
      "id_block": "block_6",
      "question": "Que maintiennent les ouvriers en grève ?",
      "answer": "la production",
      "answer_stringIds": [
        "string_183",
        "string_184"
      ]
    },
    {
      "id_qa": "FMSH_PB188a_00007_136_qa12_v3",
      "id_block": "block_6",
      "question": "Que décide le Comité intersyndical ?",
      "answer": "les ouvriers en grève maintiennent la production",
      "answer_stringIds": [
        "string_302",
        "string_303",
        "string_304",
        "string_305",
        "string_306",
        "string_307",
        "string_308"
      ]
    },
    {
      "id_qa": "FMSH_PB188a_00007_136_qa13_v3",
      "id_block": "block_6",
      "question": "Qui décide que les ouvriers maintiennent la production ?",
      "answer": "le Comité intersyndical",
      "answer_stringIds": [
        "string_22",
        "string_23",
        "string_24"
      ]
    },
    {
      "id_qa": "FMSH_PB188a_00007_136_qa37_v3",
      "id_block": "block_6",
      "question": "Que subira l'outil de travail lors de la production ?",
      "answer": "aucune détérioration",
      "answer_stringIds": [
        "string_354",
        "string_355"
      ]
    },
    {
      "id_qa": "FMSH_PB188a_00007_136_qa41_v3",
      "id_block": "block_7",
      "question": "Qui n'est pas certain de pouvoir ?",
      "answer": "les grévistes",
      "answer_stringIds": [
        "string_36",
        "string_37"
      ]
    },
    {
      "id_qa": "FMSH_PB188a_00007_136_qa40_v3",
      "id_block": "block_8",
      "question": "Qu'est-ce que fabriquer dès le premier essai ?",
      "answer": "des produits parfaits",
      "answer_stringIds": [
        "string_391",
        "string_392",
        "string_393"
      ]
    }
  ]
}