{
  "num": "autog_0338-7259_1977_num_39_1",
  "article": "autog_0338-7259_1977_num_39_1_1253",
  "page_name": "FMSH_PB188a_00039_066",
  "questions": [
    "Quels groupes sociaux sont-ils en conflit avec l'État dominante selon Sennen Andriamirado ?",
    "Pourquoi est-il illusoire que l'État puisse mener une offensive contre lui-même ?",
    "Quel est la différence entre un État dominateur par essence et une organisation révolutionnaire ?",
    "Quels sont les deux options proposées aux idéologues de la révolution malgache ?",
    "Comment la séparation entre l'État-appareil et le Front des partis révolutionnaires pourrait-elle fonctionner ?",
    "Quels sont les Fokonolona et quelle est leur mission dans le contexte de la révolution malgache ?",
    "Comment les deux options proposées s'opposent-elles à un monolithisme étatique ?"
  ]
}