{
  "num": "autog_0338-7259_1977_num_39_1",
  "article": "autog_0338-7259_1977_num_39_1_1253",
  "page_name": "FMSH_PB188a_00039_064",
  "questions": [
    "Quels organisations ont remplacé les anciens notables dans le contexte des élections mentionnées?",
    "Quels partenaires politiques ont concouru aux élections de 1977 et quels résultats ont été obtenus par chacun?",
    "Quels sont les impératifs économiques cardinaux qui empêchent le changement dans l'économie malgache?",
    "Comment les Fokonolona socialistes sont-ils censés être des collectivités décentralisées et maîtres des moyens de production?",
    "Quels choix économiques ont été imposés par l'assainissement et la survie économique?",
    "Comment l'option socialiste et autogestionnaire risque-t-elle d'être étouffée?",
    "Comment le bureaucratisme s'étend et est-il capable de gérer efficacement le système?",
    "Quels sont les qualificatifs utilisés pour décrire l'économie malgache et comment elle devrait être transformée?",
    "Quels partis politiques ont existé avant les élections de 1977 et comment ont-ils été créés?",
    "Quel rôle ont les anciens administrateurs territoriaux joué dans l'implantation et la sélection des candidats de l'AREMA?"
  ]
}