{
  "num": "autog_0338-7259_1978_num_41_1",
  "article": "autog_0338-7259_1978_num_41_1_1331",
  "page_name": "FMSH_PB188a_41-42_262",
  "questions": [
    "Quels événements législatifs sont-ils en question dans le texte ?",
    "Quel est le fond des événements décrits dans le texte ?",
    "Y a-t-il des surprises attendues sur le plan politique ?",
    "Quels journalistes sont-ils mentionnés dans le texte ?",
    "Quels sont les rôles respectifs de Gaston Defferre et Jean Kanapa dans les événements décrits ?",
    "Quels sont les échéances électorales mentionnées dans le texte ?",
    "Quels sont les groupes politiques impliqués dans les colloques décrits ?",
    "Quel est le rôle de Yvon Bourdet dans le premier colloque ?",
    "Quel est le rôle de Gorz dans le second colloque ?",
    "Quels objets laissent-ils dans le vestiaire lors de la transition entre les deux colloques ?",
    "Quel est le titre du spectacle permanent décrit dans le texte ?"
  ]
}