{
  "num": "autog_0338-7259_1976_num_35_1",
  "article": "autog_0338-7259_1976_num_35_1_1175",
  "page_name": "FMSH_PB188a_35-36_008",
  "questions": [
    "Quel jour a-t-on appris que le patron de l'usine Putilov n'avait plus d'argent et demandait de l'aide au comité d'usine ?",
    "Quel décision a pris le comité d'usine en réponse à la demande du patron ?",
    "Quand a-t-il été annoncé que l'usine Brenner fermerait ?",
    "Quel montant avait le patron reçu en avance sur commandes récemment ?",
    "Pourquoi l'usine Putilov a-t-elle décidé de reprendre le travail sans la direction ?",
    "Quel montant a été accordé aux travailleurs de l'usine Brenner par le Comité de la Treugolnik ?",
    "Quel type de matériel a été envoyé par l'usine Putilov à l'usine Brenner ?",
    "Pourquoi les travailleurs de l'usine Brenner se sont adressés au ministère et au Soviet ?",
    "Quel était le but de l'avance demandée par le Comité Brenner ?",
    "Quel était le rôle du Comité central des comités d'usine dans cette situation ?"
  ]
}