{
  "num": "autog_0338-7259_1975_num_32_1",
  "article": "autog_0338-7259_1975_num_32_1_1141",
  "page_name": "FMSH_PB188a_00032_050",
  "questions": [
    {
      "id_qa": "FMSH_PB188a_00032_050_qa0_v3",
      "id_block": "block_1",
      "question": "Combien d'entreprises se créèrent par la suite ?",
      "answer": "plus quelques unes",
      "answer_stringIds": [
        "string_74",
        "string_75",
        "string_76"
      ]
    },
    {
      "id_qa": "FMSH_PB188a_00032_050_qa6_v3",
      "id_block": "block_1",
      "question": "Comment s'appelle la première coopérative de contreplaqué ?",
      "answer": "la pionnière",
      "answer_stringIds": [
        "string_21",
        "string_22"
      ]
    },
    {
      "id_qa": "FMSH_PB188a_00032_050_qa24_v3",
      "id_block": "block_1",
      "question": "Qu'est ce qui a constitué un secteur important au début ?",
      "answer": "les coopératives ouvrières",
      "answer_stringIds": [
        "string_7",
        "string_8",
        "string_9"
      ]
    },
    {
      "id_qa": "FMSH_PB188a_00032_050_qa28_v3",
      "id_block": "block_1",
      "question": "Quelle est la conséquence de l'absence de nouvelles coopératives ?",
      "answer": "la part du secteur coopératif",
      "answer_stringIds": [
        "string_62",
        "string_63",
        "string_64",
        "string_65",
        "string_66",
        "string_67"
      ]
    },
    {
      "id_qa": "FMSH_PB188a_00032_050_qa11_v3",
      "id_block": "block_5",
      "question": "Qu'est ce qui a tendance à perdre au XXème siècle ?",
      "answer": "leur caractère de coopérative",
      "answer_stringIds": [
        "string_322",
        "string_323",
        "string_324",
        "string_325",
        "string_326"
      ]
    },
    {
      "id_qa": "FMSH_PB188a_00032_050_qa16_v3",
      "id_block": "block_5",
      "question": "Par quoi furent victimes les coopératives de cette époque ?",
      "answer": "une concurrence capitaliste déloyale",
      "answer_stringIds": [
        "string_277",
        "string_278",
        "string_279",
        "string_280"
      ]
    },
    {
      "id_qa": "FMSH_PB188a_00032_050_qa29_v3",
      "id_block": "block_5",
      "question": "Combien de coopératives ont connu une brève existence ?",
      "answer": "la plupart des coopératives",
      "answer_stringIds": [
        "string_252",
        "string_253",
        "string_254",
        "string_255"
      ]
    }
  ]
}