{
  "num": "autog_0338-7259_1975_num_32_1",
  "article": "autog_0338-7259_1975_num_32_1_1141",
  "page_name": "FMSH_PB188a_00032_062",
  "questions": [
    {
      "id_qa": "FMSH_PB188a_00032_062_qa6_v3",
      "id_block": "block_1",
      "question": "Qui a réussi à acheter des actions d'une valeur élevée ?",
      "answer": "la coopérative",
      "answer_stringIds": [
        "string_128",
        "string_129"
      ]
    },
    {
      "id_qa": "FMSH_PB188a_00032_062_qa7_v3",
      "id_block": "block_1",
      "question": "Qui a réussi à acheter des actions ?",
      "answer": "la coopérative",
      "answer_stringIds": [
        "string_128",
        "string_129"
      ]
    },
    {
      "id_qa": "FMSH_PB188a_00032_062_qa32_v3",
      "id_block": "block_1",
      "question": "Que posent les transferts d'actions coopératives dans une économie capitaliste ?",
      "answer": "de nombreux problèmes",
      "answer_stringIds": [
        "string_120",
        "string_121",
        "string_122"
      ]
    },
    {
      "id_qa": "FMSH_PB188a_00032_062_qa33_v3",
      "id_block": "block_1",
      "question": "Qui pourrait aider la coopération ouvrière ?",
      "answer": "le gouvernement",
      "answer_stringIds": [
        "string_184",
        "string_185"
      ]
    },
    {
      "id_qa": "FMSH_PB188a_00032_062_qa34_v3",
      "id_block": "block_1",
      "question": "Que pourrait faire le gouvernement en suppléant les capitaux privés ?",
      "answer": "aider",
      "answer_stringIds": [
        "string_192"
      ]
    },
    {
      "id_qa": "FMSH_PB188a_00032_062_qa38_v3",
      "id_block": "block_1",
      "question": "Que pourrait aider le gouvernement en suppléant les capitaux privés ?",
      "answer": "la coopération ouvrière",
      "answer_stringIds": [
        "string_193",
        "string_194",
        "string_195"
      ]
    },
    {
      "id_qa": "FMSH_PB188a_00032_062_qa18_v3",
      "id_block": "block_2",
      "question": "Qu'est-ce que l'emploi généralisé de travailleurs salariés dans les coopératives de contreplaqué ?",
      "answer": "une nécessité",
      "answer_stringIds": [
        "string_213",
        "string_214"
      ]
    },
    {
      "id_qa": "FMSH_PB188a_00032_062_qa19_v3",
      "id_block": "block_2",
      "question": "Qu'est ce qui a été exceptionnel dans les coopératives de contreplaqué ?",
      "answer": "des entreprises où le travail salarié ait été exceptionnel",
      "answer_stringIds": [
        "string_218",
        "string_219",
        "string_220",
        "string_221",
        "string_222",
        "string_223",
        "string_224",
        "string_225",
        "string_226"
      ]
    },
    {
      "id_qa": "FMSH_PB188a_00032_062_qa40_v3",
      "id_block": "block_2",
      "question": "Quel type d'emplois occupe les sociétaires dans quelques entreprises ?",
      "answer": "Les emplois de bureau",
      "answer_stringIds": [
        "string_261",
        "string_262",
        "string_263",
        "string_264"
      ]
    },
    {
      "id_qa": "FMSH_PB188a_00032_062_qa42_v3",
      "id_block": "block_2",
      "question": "Qui occupe les emplois de bureau dans quelques entreprises ?",
      "answer": "des sociétaires",
      "answer_stringIds": [
        "string_65",
        "string_66"
      ]
    },
    {
      "id_qa": "FMSH_PB188a_00032_062_qa11_v3",
      "id_block": "block_3",
      "question": "Quelle est la conséquence d'une entreprise qui réussit ?",
      "answer": "le nombre",
      "answer_stringIds": [
        "string_304",
        "string_305"
      ]
    },
    {
      "id_qa": "FMSH_PB188a_00032_062_qa23_v3",
      "id_block": "block_3",
      "question": "Qui a succédé à Olympia ?",
      "answer": "coopératives",
      "answer_stringIds": [
        "string_7"
      ]
    },
    {
      "id_qa": "FMSH_PB188a_00032_062_qa22_v3",
      "id_block": "block_3",
      "question": "Que cherche-t-on dans le cas des coopératives qui ont succédé à Olympia ?",
      "answer": "quelque appui à _ affirmation",
      "answer_stringIds": [
        "string_340",
        "string_341",
        "string_342",
        "string_343",
        "string_344"
      ]
    },
    {
      "id_qa": "FMSH_PB188a_00032_062_qa24_v3",
      "id_block": "block_3",
      "question": "Qu'est-ce qui confond succès et expansion ?",
      "answer": "Cette opinion",
      "answer_stringIds": [
        "string_328",
        "string_329"
      ]
    },
    {
      "id_qa": "FMSH_PB188a_00032_062_qa25_v3",
      "id_block": "block_3",
      "question": "Qu'est-ce que cette opinion confond cependant ?",
      "answer": "succès et expansion",
      "answer_stringIds": [
        "string_332",
        "string_333",
        "string_334"
      ]
    }
  ]
}