{
  "num": "autog_0338-7259_1978_num_40_1",
  "article": "autog_0338-7259_1978_num_40_1_1277",
  "page_name": "FMSH_PB188a_00040_070",
  "questions": [
    "Quel est le problème que l'auteur veut aborder à long terme ?",
    "Quel est le point fondamental de l'étude de l'auteur ?",
    "Dans quelle situation se trouve le système actuel en France en termes de division du travail et de consommation ?",
    "Quel est le problème dans le court terme que l'auteur ne voit pas de réponse directe ?",
    "Qu'est-ce qui contient de l'autogestion et de l'inflation dans l'expérience yougoslave ?",
    "Comment l'inflation résulte-t-elle dans le système yougoslave ?",
    "Quel type d'autogestion est responsable de l'égoïsme des unités autogérées ?",
    "Quelles sont les alternatives possibles à la distribution du profit par le marché ou l'État ?",
    "Quel serait l'avantage de la redistribution matérielle au niveau local plutôt qu'à la capitale ?"
  ]
}