{
  "num": "autog_0338-7259_1973_num_22_1",
  "article": "autog_0338-7259_1973_num_22_1_1092",
  "page_name": "FMSH_PB188a_22-23_203",
  "questions": [
    {
      "id_qa": "FMSH_PB188a_22-23_203_qa14_v3",
      "id_block": "block_1",
      "question": "Quelle est l'utilité de la double consultation ?",
      "answer": "compte des possibilités des entreprises",
      "answer_stringIds": [
        "string_22",
        "string_23",
        "string_24",
        "string_25",
        "string_26"
      ]
    },
    {
      "id_qa": "FMSH_PB188a_22-23_203_qa0_v3",
      "id_block": "block_2",
      "question": "Quel type de démocratie peut-on choisir en cas de décentralisation des procédures ?",
      "answer": "la démocratie représentative",
      "answer_stringIds": [
        "string_98",
        "string_99",
        "string_100"
      ]
    },
    {
      "id_qa": "FMSH_PB188a_22-23_203_qa2_v3",
      "id_block": "block_2",
      "question": "Quel type de démocratie peut-on utiliser en cas de décentralisation des procédures ?",
      "answer": "avoir recours à la démocratie directe",
      "answer_stringIds": [
        "string_87",
        "string_88",
        "string_89",
        "string_90",
        "string_91",
        "string_92"
      ]
    },
    {
      "id_qa": "FMSH_PB188a_22-23_203_qa8_v3",
      "id_block": "block_2",
      "question": "Quel rôle joue l'organisme national chargé de la planification ?",
      "answer": "un rôle de décision",
      "answer_stringIds": [
        "string_109",
        "string_110",
        "string_111",
        "string_112"
      ]
    },
    {
      "id_qa": "FMSH_PB188a_22-23_203_qa23_v3",
      "id_block": "block_3",
      "question": "Qui est incitée à respecter les objectifs du plan ?",
      "answer": "les entreprises",
      "answer_stringIds": [
        "string_182",
        "string_183"
      ]
    },
    {
      "id_qa": "FMSH_PB188a_22-23_203_qa15_v3",
      "id_block": "block_4",
      "question": "Qu'accorde le système de l'économie socialiste de marché ?",
      "answer": "une plus grande indépendance des entreprises par",
      "answer_stringIds": [
        "string_270",
        "string_271",
        "string_272",
        "string_273",
        "string_274",
        "string_275",
        "string_276"
      ]
    },
    {
      "id_qa": "FMSH_PB188a_22-23_203_qa17_v3",
      "id_block": "block_4",
      "question": "Qui refuse le système de l'économie socialiste de marché ?",
      "answer": "Mandel",
      "answer_stringIds": [
        "string_258"
      ]
    },
    {
      "id_qa": "FMSH_PB188a_22-23_203_qa19_v3",
      "id_block": "block_4",
      "question": "Qui sont les pouvoirs de l'autogestion ?",
      "answer": "technocrates",
      "answer_stringIds": [
        "string_299"
      ]
    },
    {
      "id_qa": "FMSH_PB188a_22-23_203_qa29_v3",
      "id_block": "block_4",
      "question": "Qui déplace le problème de l'autonomie des entreprises autogérées ?",
      "answer": "La C.F.D.T.",
      "answer_stringIds": [
        "string_327",
        "string_328"
      ]
    },
    {
      "id_qa": "FMSH_PB188a_22-23_203_qa33_v3",
      "id_block": "block_5",
      "question": "Qui a adopté une position intermédiaire ?",
      "answer": "Chauvey",
      "answer_stringIds": [
        "string_357"
      ]
    },
    {
      "id_qa": "FMSH_PB188a_22-23_203_qa35_v3",
      "id_block": "block_5",
      "question": "Qu'est-ce qui est déterminé par l'entreprise ?",
      "answer": "un objectif",
      "answer_stringIds": [
        "string_368",
        "string_369"
      ]
    }
  ]
}