{
  "num": "autog_0338-7259_1973_num_22_1",
  "article": "autog_0338-7259_1973_num_22_1_1092",
  "page_name": "FMSH_PB188a_22-23_207",
  "questions": [
    {
      "id_qa": "FMSH_PB188a_22-23_207_qa35_v3",
      "id_block": "block_1",
      "question": "Qu'est ce qui sera fait place à l'ergonomie ?",
      "answer": "Les conditions de travail",
      "answer_stringIds": [
        "string_9",
        "string_10",
        "string_11",
        "string_12"
      ]
    },
    {
      "id_qa": "FMSH_PB188a_22-23_207_qa22_v3",
      "id_block": "block_2",
      "question": "A quoi devra se résoudre lautogestion ?",
      "answer": "à une certaine hiérarchie de rémunération",
      "answer_stringIds": [
        "string_93",
        "string_94",
        "string_95",
        "string_96",
        "string_97",
        "string_98"
      ]
    },
    {
      "id_qa": "FMSH_PB188a_22-23_207_qa23_v3",
      "id_block": "block_2",
      "question": "Qu'est-ce que lautogestion en matière de rémunération ?",
      "answer": "une égalité sur",
      "answer_stringIds": [
        "string_76",
        "string_77",
        "string_78"
      ]
    },
    {
      "id_qa": "FMSH_PB188a_22-23_207_qa26_v3",
      "id_block": "block_2",
      "question": "Sur quels points lautogestion doit-elle tenir compte ?",
      "answer": "compte des conditions locales",
      "answer_stringIds": [
        "string_85",
        "string_86",
        "string_87",
        "string_88"
      ]
    },
    {
      "id_qa": "FMSH_PB188a_22-23_207_qa27_v3",
      "id_block": "block_2",
      "question": "Que devra faire lautogestion en matière de rémunération ?",
      "answer": "se résoudre à une certaine hiérarchie de rémunération",
      "answer_stringIds": [
        "string_91",
        "string_92",
        "string_93",
        "string_94",
        "string_95",
        "string_96",
        "string_97",
        "string_98"
      ]
    },
    {
      "id_qa": "FMSH_PB188a_22-23_207_qa8_v3",
      "id_block": "block_3",
      "question": "Qu'est ce qui peut donner lieu à des regroupements contre entreprises ?",
      "answer": "un agencement judicieux des moyens technologiques de production",
      "answer_stringIds": [
        "string_229",
        "string_230",
        "string_231",
        "string_232",
        "string_233",
        "string_234",
        "string_235",
        "string_236"
      ]
    },
    {
      "id_qa": "FMSH_PB188a_22-23_207_qa15_v3",
      "id_block": "block_3",
      "question": "Qui établit l'objectif de l'entreprise autogérée ?",
      "answer": "Chauvey",
      "answer_stringIds": [
        "string_158"
      ]
    },
    {
      "id_qa": "FMSH_PB188a_22-23_207_qa31_v3",
      "id_block": "block_4",
      "question": "Qu'est-ce qui est à l'origine de cette situation ?",
      "answer": "son fonctionnement",
      "answer_stringIds": [
        "string_270",
        "string_271"
      ]
    },
    {
      "id_qa": "FMSH_PB188a_22-23_207_qa2_v3",
      "id_block": "block_5",
      "question": "A quoi les travailleurs seront-ils associés ?",
      "answer": "cette gesuon démocratique",
      "answer_stringIds": [
        "string_348",
        "string_349",
        "string_350",
        "string_351"
      ]
    },
    {
      "id_qa": "FMSH_PB188a_22-23_207_qa4_v3",
      "id_block": "block_5",
      "question": "A qui sera associé le Conseit d'Administration ?",
      "answer": "les travailleurs",
      "answer_stringIds": [
        "string_343",
        "string_344"
      ]
    },
    {
      "id_qa": "FMSH_PB188a_22-23_207_qa20_v3",
      "id_block": "block_5",
      "question": "Qu'est-ce qui décide de leur politique ?",
      "answer": "leur programme",
      "answer_stringIds": [
        "string_324",
        "string_325"
      ]
    },
    {
      "id_qa": "FMSH_PB188a_22-23_207_qa21_v3",
      "id_block": "block_5",
      "question": "Qu'est-ce qui détermine le programme de l'entreprise ?",
      "answer": "leur politique",
      "answer_stringIds": [
        "string_320",
        "string_321"
      ]
    },
    {
      "id_qa": "FMSH_PB188a_22-23_207_qa28_v3",
      "id_block": "block_5",
      "question": "De quoi parle IE ?",
      "answer": "gestion démocratique des entreprises nationalisées",
      "answer_stringIds": [
        "string_293",
        "string_294",
        "string_295",
        "string_296",
        "string_297"
      ]
    },
    {
      "id_qa": "FMSH_PB188a_22-23_207_qa29_v3",
      "id_block": "block_5",
      "question": "Qui parle de gestion démocratique des entreprises nationalisées ?",
      "answer": "IE",
      "answer_stringIds": [
        "string_287"
      ]
    },
    {
      "id_qa": "FMSH_PB188a_22-23_207_qa30_v3",
      "id_block": "block_5",
      "question": "Qu'est ce que IE qualifie de gestion démocratique ?",
      "answer": "entreprises",
      "answer_stringIds": [
        "string_244"
      ]
    }
  ]
}