{
  "num": "autog_0249-2563_1982_num_15_8",
  "article": "autog_0249-2563_1982_num_15_8_1863",
  "page_name": "autog_0249-2563_1982_num_15_8_T1_0211_0000",
  "questions": [
    "Quel est l'attitude de l'auteur vis-à-vis de l'irrédentisme et du cléricalisme albanais ?",
    "Quels sont les raisons pour lesquelles le conflit entre le groupuscule d'intellectuels et la Ligue des Communistes Yougoslaves est considéré comme une opposition résolue ?",
    "Quels sont les critiques formulées par Ljubomir Tadic envers le Parti communiste et les syndicats yougoslaves ?",
    "Pourquoi les idées avancées par Tadic ne coïncident-elles pas avec son concept de régression de la lutte des masses laborieuses ?",
    "Comment les manœuvres sous-terraines sont-elles encouragées par les auteurs yougoslaves ?",
    "Quel est le sujet de l'interview inventée et attribuée à Jovanov dans la revue Autogestions ?",
    "Quel est le rôle de la contestation gauchisante dans la définition de la vérité selon Drakulic ?",
    "Pourquoi le récit de Drakulic prend-il une signification différente pour lui et pour les autres ?"
  ]
}