{
  "num": "autog_0005-0970_1968_num_5_1",
  "article": "autog_0005-0970_1968_num_5_1_926",
  "page_name": "FMSH_PB188a_05-06_169",
  "questions": [
    {
      "id_qa": "FMSH_PB188a_05-06_169_qa18_v3",
      "id_block": "block_6",
      "question": "Que révèle l'histoire ?",
      "answer": "des subordinations et des aliénations constantes",
      "answer_stringIds": [
        "string_72",
        "string_73",
        "string_74",
        "string_75",
        "string_76",
        "string_77"
      ]
    },
    {
      "id_qa": "FMSH_PB188a_05-06_169_qa19_v3",
      "id_block": "block_6",
      "question": "Qu'est-ce que l'autonomie et l'existence même des groupes sociaux ?",
      "answer": "cette coordination non hiérarchique",
      "answer_stringIds": [
        "string_78",
        "string_79",
        "string_80",
        "string_81"
      ]
    },
    {
      "id_qa": "FMSH_PB188a_05-06_169_qa12_v3",
      "id_block": "block_7",
      "question": "Par quoi est régi le monde social ?",
      "answer": "par deux lois antinomiques élémentaires",
      "answer_stringIds": [
        "string_182",
        "string_183",
        "string_184",
        "string_185",
        "string_186",
        "string_187"
      ]
    },
    {
      "id_qa": "FMSH_PB188a_05-06_169_qa13_v3",
      "id_block": "block_7",
      "question": "Qu'est ce qui est régi par deux lois antinomiques élémentaires ?",
      "answer": "le monde social",
      "answer_stringIds": [
        "string_164",
        "string_165",
        "string_166"
      ]
    },
    {
      "id_qa": "FMSH_PB188a_05-06_169_qa16_v3",
      "id_block": "block_7",
      "question": "Quelle est la particularité de la société ?",
      "answer": "la société pluraliste",
      "answer_stringIds": [
        "string_112",
        "string_113",
        "string_114"
      ]
    },
    {
      "id_qa": "FMSH_PB188a_05-06_169_qa17_v3",
      "id_block": "block_7",
      "question": "Qu'est-ce que la loi sérielle ?",
      "answer": "processus fonctionnel",
      "answer_stringIds": [
        "string_125",
        "string_126",
        "string_127"
      ]
    },
    {
      "id_qa": "FMSH_PB188a_05-06_169_qa25_v3",
      "id_block": "block_7",
      "question": "Qui dénomme la loi d'équilibre réciproque ?",
      "answer": "Proudhon",
      "answer_stringIds": [
        "string_181"
      ]
    },
    {
      "id_qa": "FMSH_PB188a_05-06_169_qa23_v3",
      "id_block": "block_8",
      "question": "En quoi se développent les deux lois antinomiques ?",
      "answer": "en un mouvement",
      "answer_stringIds": [
        "string_252",
        "string_253",
        "string_254"
      ]
    },
    {
      "id_qa": "FMSH_PB188a_05-06_169_qa24_v3",
      "id_block": "block_8",
      "question": "Qu'est ce qui se développe en un mouvement dialectique réel ?",
      "answer": "ces deux lois antinomiques",
      "answer_stringIds": [
        "string_246",
        "string_247",
        "string_248",
        "string_249"
      ]
    },
    {
      "id_qa": "FMSH_PB188a_05-06_169_qa1_v3",
      "id_block": "block_9",
      "question": "Qu'est-ce que l'ordre social pluraliste ?",
      "answer": "entre deux lois antinomiques",
      "answer_stringIds": [
        "string_372",
        "string_373",
        "string_374",
        "string_375",
        "string_376"
      ]
    },
    {
      "id_qa": "FMSH_PB188a_05-06_169_qa3_v3",
      "id_block": "block_9",
      "question": "Qui a écrit les lois pluralistes sociales ?",
      "answer": "par Proudhon",
      "answer_stringIds": [
        "string_399",
        "string_400"
      ]
    },
    {
      "id_qa": "FMSH_PB188a_05-06_169_qa4_v3",
      "id_block": "block_9",
      "question": "Où sont présentées les lois pluralistes sociales de Proudhon ?",
      "answer": "dans leurs enseigneménts et leurs formulations",
      "answer_stringIds": [
        "string_388",
        "string_389",
        "string_390",
        "string_391",
        "string_392",
        "string_393"
      ]
    },
    {
      "id_qa": "FMSH_PB188a_05-06_169_qa5_v3",
      "id_block": "block_9",
      "question": "Qu'est ce qui est le fruit d'un systématisme ?",
      "answer": "les lois pluralistes sociales",
      "answer_stringIds": [
        "string_394",
        "string_395",
        "string_396",
        "string_397"
      ]
    },
    {
      "id_qa": "FMSH_PB188a_05-06_169_qa21_v3",
      "id_block": "block_9",
      "question": "Qui part de l'observation de la société travailleuse réelle ?",
      "answer": "Proudhon",
      "answer_stringIds": [
        "string_181"
      ]
    }
  ]
}