{
  "num": "autog_0005-0970_1968_num_5_1",
  "article": "autog_0005-0970_1968_num_5_1_926",
  "page_name": "FMSH_PB188a_05-06_155",
  "questions": [
    {
      "id_qa": "FMSH_PB188a_05-06_155_qa21_v3",
      "id_block": "block_4",
      "question": "Qu'exprime le peuple par des procédés élémentaires et anti-scientifiques ?",
      "answer": "la loi sociale qui lui est inhérente",
      "answer_stringIds": [
        "string_270",
        "string_271",
        "string_272",
        "string_273",
        "string_274",
        "string_275",
        "string_276"
      ]
    },
    {
      "id_qa": "FMSH_PB188a_05-06_155_qa22_v3",
      "id_block": "block_4",
      "question": "Qu'est-ce que le gouvernement de savants ?",
      "answer": "un aristocratisme",
      "answer_stringIds": [
        "string_206",
        "string_207"
      ]
    },
    {
      "id_qa": "FMSH_PB188a_05-06_155_qa23_v3",
      "id_block": "block_4",
      "question": "Qu'est-ce que l'aristocratie scientifique ou gouvernement de savants ?",
      "answer": "le monopole de la science et de la raison sociale — et",
      "answer_stringIds": [
        "string_228",
        "string_229",
        "string_230",
        "string_231",
        "string_232",
        "string_233",
        "string_234",
        "string_235",
        "string_236",
        "string_237",
        "string_238",
        "string_239"
      ]
    },
    {
      "id_qa": "FMSH_PB188a_05-06_155_qa24_v3",
      "id_block": "block_4",
      "question": "Qu'est-ce que l'aristocratisme scientifique ou gouvernement de savants ?",
      "answer": "le monopole de la science et de la raison sociale — et un démagogisme idéologue ou gouvernement des masses",
      "answer_stringIds": [
        "string_228",
        "string_229",
        "string_230",
        "string_231",
        "string_232",
        "string_233",
        "string_234",
        "string_235",
        "string_236",
        "string_237",
        "string_238",
        "string_239",
        "string_240",
        "string_241",
        "string_242",
        "string_243",
        "string_244",
        "string_245",
        "string_246"
      ]
    },
    {
      "id_qa": "FMSH_PB188a_05-06_155_qa26_v3",
      "id_block": "block_4",
      "question": "Qui est l'acteur même de la pratique sociale ?",
      "answer": "le peuple",
      "answer_stringIds": [
        "string_251",
        "string_252"
      ]
    },
    {
      "id_qa": "FMSH_PB188a_05-06_155_qa0_v3",
      "id_block": "block_5",
      "question": "Quelle est la conséquence de la souveraineté populaire ?",
      "answer": "la science attaque Ja liberté",
      "answer_stringIds": [
        "string_375",
        "string_376",
        "string_377",
        "string_378",
        "string_379",
        "string_380"
      ]
    },
    {
      "id_qa": "FMSH_PB188a_05-06_155_qa1_v3",
      "id_block": "block_5",
      "question": "Qu'est ce qui compromet l'égalité ?",
      "answer": "La science de quelques-uns commandant",
      "answer_stringIds": [
        "string_357",
        "string_358",
        "string_359",
        "string_360",
        "string_361",
        "string_362"
      ]
    },
    {
      "id_qa": "FMSH_PB188a_05-06_155_qa2_v3",
      "id_block": "block_5",
      "question": "Qu'est ce qui menace l'égalité ?",
      "answer": "La science de quelques-uns",
      "answer_stringIds": [
        "string_357",
        "string_358",
        "string_359",
        "string_360",
        "string_361"
      ]
    },
    {
      "id_qa": "FMSH_PB188a_05-06_155_qa3_v3",
      "id_block": "block_5",
      "question": "Qu'attaque la souveraineté populaire ?",
      "answer": "Ja liberté",
      "answer_stringIds": [
        "string_379",
        "string_380"
      ]
    },
    {
      "id_qa": "FMSH_PB188a_05-06_155_qa15_v3",
      "id_block": "block_5",
      "question": "Qui a écrit La Création de l'Ordre ?",
      "answer": "Proudhon",
      "answer_stringIds": [
        "string_92"
      ]
    },
    {
      "id_qa": "FMSH_PB188a_05-06_155_qa16_v3",
      "id_block": "block_5",
      "question": "Quel est le principe unique d'ordre et de certitude selon Proudhon ?",
      "answer": "le suffrage universel",
      "answer_stringIds": [
        "string_302",
        "string_303",
        "string_304"
      ]
    },
    {
      "id_qa": "FMSH_PB188a_05-06_155_qa10_v3",
      "id_block": "block_6",
      "question": "Qu'est-ce que le socialisme scientifique ?",
      "answer": "une science sociale",
      "answer_stringIds": [
        "string_11",
        "string_12",
        "string_13"
      ]
    }
  ]
}