{
  "num": "autog_0005-0970_1968_num_5_1",
  "article": "autog_0005-0970_1968_num_5_1_926",
  "page_name": "FMSH_PB188a_05-06_161",
  "questions": [
    {
      "id_qa": "FMSH_PB188a_05-06_161_qa6_v3",
      "id_block": "block_1",
      "question": "Qu'est ce qui se manifeste comme un être collectif réel ?",
      "answer": "la société",
      "answer_stringIds": [
        "string_27",
        "string_28"
      ]
    },
    {
      "id_qa": "FMSH_PB188a_05-06_161_qa8_v3",
      "id_block": "block_1",
      "question": "Qu'est ce qui a fait naître la société ?",
      "answer": "des individus",
      "answer_stringIds": [
        "string_64",
        "string_65"
      ]
    },
    {
      "id_qa": "FMSH_PB188a_05-06_161_qa17_v3",
      "id_block": "block_1",
      "question": "Dans quelle société sont intégrés les travailleurs ?",
      "answer": "dans la société travailleuse",
      "answer_stringIds": [
        "string_26",
        "string_27",
        "string_28",
        "string_29"
      ]
    },
    {
      "id_qa": "FMSH_PB188a_05-06_161_qa10_v3",
      "id_block": "block_10",
      "question": "A quoi sont soumis les hommes et les femmes ?",
      "answer": "mêmes lois du travail",
      "answer_stringIds": [
        "string_450",
        "string_451",
        "string_452",
        "string_453"
      ]
    },
    {
      "id_qa": "FMSH_PB188a_05-06_161_qa12_v3",
      "id_block": "block_4",
      "question": "Qu'est ce qui animera le socialisme scientifique de Proudhon ?",
      "answer": "la sociologie autogestionnaire",
      "answer_stringIds": [
        "string_137",
        "string_138",
        "string_139",
        "string_140"
      ]
    },
    {
      "id_qa": "FMSH_PB188a_05-06_161_qa1_v3",
      "id_block": "block_6",
      "question": "Où est-ce que l'individu est naturellement immergé ?",
      "answer": "dans la société",
      "answer_stringIds": [
        "string_26",
        "string_27",
        "string_28"
      ]
    },
    {
      "id_qa": "FMSH_PB188a_05-06_161_qa2_v3",
      "id_block": "block_6",
      "question": "Qui pense que l'individu est naturellement immergé dans la société ?",
      "answer": "Proudhon",
      "answer_stringIds": [
        "string_147"
      ]
    },
    {
      "id_qa": "FMSH_PB188a_05-06_161_qa18_v3",
      "id_block": "block_7",
      "question": "Qu'est ce qui soutient la société ?",
      "answer": "des forces",
      "answer_stringIds": [
        "string_62",
        "string_63"
      ]
    },
    {
      "id_qa": "FMSH_PB188a_05-06_161_qa22_v3",
      "id_block": "block_8",
      "question": "Qu'est-ce que le travail est un ?",
      "answer": "toutes ces « divisions",
      "answer_stringIds": [
        "string_310",
        "string_311",
        "string_312",
        "string_313",
        "string_314"
      ]
    }
  ]
}