{
  "num": "autog_0338-7259_1972_num_18_1",
  "article": "autog_0338-7259_1972_num_18_1_1033",
  "page_name": "FMSH_PB188a_18-19_100",
  "questions": [
    "Quel est le rôle de la liberté dans la conception scientifique du communisme anarchiste ?",
    "Quel principe est opposé à la liberté dans cette conception ?",
    "Quel est le rôle des syndicats confédéraux dans la confirmation de la mentalité communaliste ?",
    "Quels sont les rapports les plus intéressants en ce sens et qui syndicats sont concernés ?",
    "Comment le rapport définitif sur la conception du communisme libertaire de la Confédération peut-il être expliqué ?",
    "Quel rôle joue l'influence des cent cinquante rapports présentés au Congrès de Saragosse ?",
    "Quel est le poids du Syndicat des Manufactures et du textile de Barcelone dans la discussion du rapport définitif ?",
    "Quel est le rôle personnel de Federica Montseny dans cette discussion ?",
    "Quels sont les grandes lignes du rapport du Syndicat barcelonais et quelles modifications sont apportées ?",
    "Quels textes de La Revista Blanca sont cités dans le paragraphe et quels sont leurs thèmes ?"
  ]
}