{
  "num": "autog_0338-7259_1972_num_18_1",
  "article": "autog_0338-7259_1972_num_18_1_1033",
  "page_name": "FMSH_PB188a_18-19_102",
  "questions": [
    "Quels groupes de personnes sont envisagés pour former cette fédération nationale dans le texte ?",
    "Quel est le rôle prévu pour cette fédération dans le développement de l'économie ?",
    "Pourquoi les militants anarchistes attendaient une nouvelle définition du « communisme libertaire » ?",
    "Quel est le point de vue d'Abad de Santillán sur le rapport définitif du Congrès ?",
    "Quels sujets sont abordés dans le rapport, et quels en sont absents ?",
    "Quel est le lien entre le « communisme libertaire » et le « communalisme » selon Abad de Santillán ?",
    "Quel principe biologique est-il question de dans le texte ?",
    "Quel est le rôle de la famille, de la délinquance, de la jalousie amoureuse et du nudisme dans le rapport ?",
    "Pourquoi est-il important de parler de l'organisation du travail dans le rapport ?"
  ]
}