{
  "num": "autog_0249-2563_1984_num_17_17",
  "article": "autog_0249-2563_1984_num_17_17_1612",
  "page_name": "autog_0249-2563_1984_num_17_17_T1_0059_0000",
  "questions": [
    "Quel est le domaine de l'économie où existe déjà une solide école chilienne ?",
    "Quel phénomène observons-nous actuellement dans le domaine de l'information, de la réflexion et de l'analyse sur la vie sociale et culturelle au Chili ?",
    "Quels intellectuels considérons-nous ici, et quelles formes de parole utilisent-ils pour s'exprimer ?",
    "Comment peut-on opposer des idées à un État idéologue ?",
    "Comment peut-on réagir à un État autoritaire et répressif ?",
    "Quels aspects de la vie sociale se reconstruisent-ils au Chili ?",
    "Quels sont les risques de compromis dangereux et de révoltes redoutables que peut rencontrer le Chili ?",
    "Comment vit le Chili la vie publique actuellement ?",
    "Qu'est-ce qui est important pour le long avenir du Chili selon l'auteur ?",
    "Quel sens a l'appel à la morale selon l'auteur ?",
    "Quel état d'esprit est-il indispensable pour les Chiliens dans ces jours sombres ?",
    "Quel est le ton de l'auteur envers le Chili et sa situation actuelle ?",
    "Quels événements historiques se produisent-ils au Chili en 1984 ?",
    "Quels sont les caractéristiques de l'école chilienne d'économie mentionnée au début du paragraphe ?"
  ]
}