{
  "num": "autog_0249-2563_1984_num_17_17",
  "article": "autog_0249-2563_1984_num_17_17_1612",
  "page_name": "autog_0249-2563_1984_num_17_17_T1_0058_0000",
  "questions": [
    "Quels facteurs ont contribué à la facilité du développement de forces politiques et d'idéologies au Chili pendant longtemps ?",
    "Comment l'économique dépendance du Chili a-t-elle entraîné une extrême autonomie de la politique et de l'idéologie ?",
    "Quels sont les facteurs qui ont entraîné l'épuisement et la chute dramatique du populisme au Chili en 1973 ?",
    "Quels sont les facteurs qui ont permis à l'Église de devenir la force la plus active d'opposition au régime au Chili ?",
    "Quels sont les rôles des intellectuels dans l'opposition au régime au Chili et comment ils ont acquis une autorité morale et professionnelle ?",
    "Comment les médias sont-ils contrôlés dans ce contexte et comment les intellectuels ont-ils pu rester et avoir une influence significative ?",
    "Comment la production et les échanges intellectuels dans le domaine des sciences humaines au Chili sont-ils supérieurs à ce qu'ils étaient auparavant ?",
    "Quels domaines des sciences humaines sont-ils exclus de cette production et de ces échanges intellectuels supérieurs ?"
  ]
}