{
  "num": "autog_0338-7259_1979_num_43_1",
  "article": "autog_0338-7259_1979_num_43_1_1302_t1_0108_0000_2",
  "page_name": "FMSH_PB188a_00043_110",
  "questions": [
    "Quels aspects de l'organisation des luttes sont insuffisamment abordés dans le texte de gé ne ?",
    "Quel rôle structurel et centralisateur joue la CSCV dans les luttes ?",
    "En quelle manière le futur du SCV est-il lié aux luttes de classes hors de la production ?",
    "Comment le livre de Biermann contribue-t-il à la critique des pays socialistes ?",
    "Quel est le message de Biermann pour ceux qui ne sont pas encore «noyés dans le saindoux de la caste privilégiée » ?",
    "Comment la télévision des «vierges aseptisées» est-elle utilisée pour servir la propagande officielle ?"
  ]
}