{
  "num": "autog_0338-7259_1973_num_22_1",
  "article": "autog_0338-7259_1973_num_22_1_1079",
  "page_name": "FMSH_PB188a_22-23_051",
  "questions": [
    {
      "id_qa": "FMSH_PB188a_22-23_051_qa0_v3",
      "id_block": "block_2",
      "question": "Qui s'organiseront collectivement et librement ?",
      "answer": "les travailleurs",
      "answer_stringIds": [
        "string_19",
        "string_20"
      ]
    },
    {
      "id_qa": "FMSH_PB188a_22-23_051_qa1_v3",
      "id_block": "block_2",
      "question": "Qu'est ce que les travailleurs s'organiseront collectivement et librement ?",
      "answer": "les cadences du travail",
      "answer_stringIds": [
        "string_28",
        "string_29",
        "string_30",
        "string_31"
      ]
    },
    {
      "id_qa": "FMSH_PB188a_22-23_051_qa3_v3",
      "id_block": "block_2",
      "question": "Qui s'organiseront collectivement et librement pour régler les cadences du travail ?",
      "answer": "les travailleurs",
      "answer_stringIds": [
        "string_19",
        "string_20"
      ]
    },
    {
      "id_qa": "FMSH_PB188a_22-23_051_qa4_v3",
      "id_block": "block_2",
      "question": "Qui s'organisera collectivement et librement pour régler les cadences du travail ?",
      "answer": "les travailleurs",
      "answer_stringIds": [
        "string_19",
        "string_20"
      ]
    },
    {
      "id_qa": "FMSH_PB188a_22-23_051_qa7_v3",
      "id_block": "block_2",
      "question": "Comment s'organiseront les travailleurs pour régler les cadences du travail ?",
      "answer": "collectivement",
      "answer_stringIds": [
        "string_22",
        "string_23"
      ]
    },
    {
      "id_qa": "FMSH_PB188a_22-23_051_qa8_v3",
      "id_block": "block_2",
      "question": "Qui organisera les cadences du travail ?",
      "answer": "les travailleurs",
      "answer_stringIds": [
        "string_19",
        "string_20"
      ]
    },
    {
      "id_qa": "FMSH_PB188a_22-23_051_qa12_v3",
      "id_block": "block_4",
      "question": "Comment se réconcilie l'autogestion ?",
      "answer": "le travailleur et le citoyen",
      "answer_stringIds": [
        "string_139",
        "string_140",
        "string_141",
        "string_142",
        "string_143"
      ]
    },
    {
      "id_qa": "FMSH_PB188a_22-23_051_qa20_v3",
      "id_block": "block_5",
      "question": "Quelle est la conséquence de cette décision ?",
      "answer": "au niveau politique",
      "answer_stringIds": [
        "string_187",
        "string_188",
        "string_189"
      ]
    },
    {
      "id_qa": "FMSH_PB188a_22-23_051_qa19_v3",
      "id_block": "block_8",
      "question": "Quel est le stade ultime du communisme ?",
      "answer": "la société socialiste",
      "answer_stringIds": [
        "string_205",
        "string_206",
        "string_207"
      ]
    }
  ]
}