{
  "num": "autog_0338-7259_1973_num_22_1",
  "article": "autog_0338-7259_1973_num_22_1_1079",
  "page_name": "FMSH_PB188a_22-23_048",
  "questions": [
    {
      "id_qa": "FMSH_PB188a_22-23_048_qa21_v3",
      "id_block": "block_1",
      "question": "Par qui est reconnue la compétence ?",
      "answer": "le conseil des travailleurs",
      "answer_stringIds": [
        "string_53",
        "string_54",
        "string_55",
        "string_56",
        "string_57"
      ]
    },
    {
      "id_qa": "FMSH_PB188a_22-23_048_qa15_v3",
      "id_block": "block_2",
      "question": "Sur quoi doit se fonder une information aussi complète que possible ?",
      "answer": "Les décisions décentralisées des collectifs de travailleurs",
      "answer_stringIds": [
        "string_70",
        "string_71",
        "string_72",
        "string_73",
        "string_74",
        "string_75",
        "string_76",
        "string_77"
      ]
    },
    {
      "id_qa": "FMSH_PB188a_22-23_048_qa16_v3",
      "id_block": "block_2",
      "question": "Sur quoi doivent se fonder les décisions décentralisées des collectifs de travailleurs ?",
      "answer": "une information aussi complète que possible",
      "answer_stringIds": [
        "string_83",
        "string_84",
        "string_85",
        "string_86",
        "string_87",
        "string_88"
      ]
    },
    {
      "id_qa": "FMSH_PB188a_22-23_048_qa25_v3",
      "id_block": "block_3",
      "question": "Pour qui la science est-elle un instrument de pouvoir ?",
      "answer": "aux hommes",
      "answer_stringIds": [
        "string_162",
        "string_163"
      ]
    },
    {
      "id_qa": "FMSH_PB188a_22-23_048_qa27_v3",
      "id_block": "block_3",
      "question": "A qui la science est-elle un instrument de pouvoir ?",
      "answer": "aux hommes",
      "answer_stringIds": [
        "string_162",
        "string_163"
      ]
    },
    {
      "id_qa": "FMSH_PB188a_22-23_048_qa28_v3",
      "id_block": "block_3",
      "question": "Qu'a apporté le développement scientifique à la bourgeoisie ?",
      "answer": "des armes considérables",
      "answer_stringIds": [
        "string_117",
        "string_118",
        "string_119"
      ]
    },
    {
      "id_qa": "FMSH_PB188a_22-23_048_qa30_v3",
      "id_block": "block_3",
      "question": "A qui le développement scientifique a-t-il fourni des armes considérables ?",
      "answer": "à la bourgeoisie",
      "answer_stringIds": [
        "string_120",
        "string_121",
        "string_122"
      ]
    },
    {
      "id_qa": "FMSH_PB188a_22-23_048_qa7_v3",
      "id_block": "block_5",
      "question": "Qu'est-ce que la politique de la vulgarisation ?",
      "answer": "de participer au progrès scientifique",
      "answer_stringIds": [
        "string_261",
        "string_262",
        "string_263",
        "string_264",
        "string_265",
        "string_266"
      ]
    },
    {
      "id_qa": "FMSH_PB188a_22-23_048_qa9_v3",
      "id_block": "block_5",
      "question": "Qu'est ce qui permet à l'ensemble des travailleurs de participer ?",
      "answer": "au progrès scientifique",
      "answer_stringIds": [
        "string_263",
        "string_264",
        "string_265",
        "string_266"
      ]
    }
  ]
}