{
  "num": "autog_0338-7259_1973_num_22_1",
  "article": "autog_0338-7259_1973_num_22_1_1079",
  "page_name": "FMSH_PB188a_22-23_054",
  "questions": [
    {
      "id_qa": "FMSH_PB188a_22-23_054_qa7_v3",
      "id_block": "block_1",
      "question": "Qu'est-ce que l'exploitation, la domination et l'aliénation ?",
      "answer": "le salariat",
      "answer_stringIds": [
        "string_17",
        "string_18"
      ]
    },
    {
      "id_qa": "FMSH_PB188a_22-23_054_qa9_v3",
      "id_block": "block_3",
      "question": "Qu'est ce qui permet l'expression des préférences collectives ?",
      "answer": "la planification",
      "answer_stringIds": [
        "string_29",
        "string_30"
      ]
    },
    {
      "id_qa": "FMSH_PB188a_22-23_054_qa23_v3",
      "id_block": "block_3",
      "question": "Qu'est ce qui sera essentiel dans la période de transition ?",
      "answer": "la réalité du socialisme",
      "answer_stringIds": [
        "string_36",
        "string_37",
        "string_38",
        "string_39",
        "string_40"
      ]
    },
    {
      "id_qa": "FMSH_PB188a_22-23_054_qa0_v3",
      "id_block": "block_6",
      "question": "Qu'est-ce qui a une valeur d'usage réelle déclinante ?",
      "answer": "les marchandises",
      "answer_stringIds": [
        "string_211",
        "string_212"
      ]
    },
    {
      "id_qa": "FMSH_PB188a_22-23_054_qa1_v3",
      "id_block": "block_6",
      "question": "Qu'est ce qui a une valeur d'usage réelle déclinante ?",
      "answer": "les marchandises ainsi produites",
      "answer_stringIds": [
        "string_211",
        "string_212",
        "string_213",
        "string_214"
      ]
    },
    {
      "id_qa": "FMSH_PB188a_22-23_054_qa18_v3",
      "id_block": "block_6",
      "question": "A quoi est sacrifié l'automobile ?",
      "answer": "la croissance de sa production",
      "answer_stringIds": [
        "string_250",
        "string_251",
        "string_252",
        "string_253",
        "string_254"
      ]
    },
    {
      "id_qa": "FMSH_PB188a_22-23_054_qa19_v3",
      "id_block": "block_6",
      "question": "Que masque la croissance du niveau de vie ?",
      "answer": "une détérioration du mode de vie",
      "answer_stringIds": [
        "string_231",
        "string_232",
        "string_233",
        "string_234",
        "string_235",
        "string_236"
      ]
    }
  ]
}