{
  "num": "autog_0338-7259_1973_num_22_1",
  "article": "autog_0338-7259_1973_num_22_1_1079",
  "page_name": "FMSH_PB188a_22-23_060",
  "questions": [
    {
      "id_qa": "FMSH_PB188a_22-23_060_qa0_v3",
      "id_block": "block_1",
      "question": "Qu'est ce qui changera définitivement les mentalités des travailleurs ?",
      "answer": "le socialisme",
      "answer_stringIds": [
        "string_80",
        "string_81",
        "string_82"
      ]
    },
    {
      "id_qa": "FMSH_PB188a_22-23_060_qa2_v3",
      "id_block": "block_1",
      "question": "Par quoi s'incarnera le socialisme ?",
      "answer": "par une expérience collective radicalement différente",
      "answer_stringIds": [
        "string_86",
        "string_87",
        "string_88",
        "string_89",
        "string_90",
        "string_91"
      ]
    },
    {
      "id_qa": "FMSH_PB188a_22-23_060_qa18_v3",
      "id_block": "block_2",
      "question": "Qu'est ce qui servira de base à l'émergence d'un pouvoir bureaucratique ?",
      "answer": "un blocage",
      "answer_stringIds": [
        "string_127",
        "string_128"
      ]
    },
    {
      "id_qa": "FMSH_PB188a_22-23_060_qa12_v3",
      "id_block": "block_3",
      "question": "Qu'est ce qui permet aux travailleurs d'évoluer ?",
      "answer": "systèmes",
      "answer_stringIds": [
        "string_205"
      ]
    },
    {
      "id_qa": "FMSH_PB188a_22-23_060_qa20_v3",
      "id_block": "block_4",
      "question": "Que doit susciter l'Etat de transition vis à vis de lui-même ?",
      "answer": "la contestation",
      "answer_stringIds": [
        "string_248",
        "string_249",
        "string_250"
      ]
    },
    {
      "id_qa": "FMSH_PB188a_22-23_060_qa21_v3",
      "id_block": "block_4",
      "question": "Que doit créer l'Etat de transition ?",
      "answer": "les bases de son propre dépérissement",
      "answer_stringIds": [
        "string_258",
        "string_259",
        "string_260",
        "string_261",
        "string_262",
        "string_263"
      ]
    },
    {
      "id_qa": "FMSH_PB188a_22-23_060_qa22_v3",
      "id_block": "block_5",
      "question": "Qu'est-ce que le bouleversement de l'organisation actuelle du système capitaliste ?",
      "answer": "un levier",
      "answer_stringIds": [
        "string_288",
        "string_289"
      ]
    }
  ]
}