{
  "num": "autog_0338-7259_1979_num_43_1",
  "article": "autog_0338-7259_1979_num_43_1_1294",
  "page_name": "FMSH_PB188a_00043_030",
  "questions": [
    "Qu'implique l'abstraction de la marchandise dans la proclamation de l'égalité abstraite des citoyens ?",
    "Comment l'idéologie de l'État-Nation-Marché affecte l'individu dans la société ?",
    "Quels aspects de cette idéologie a Marx critiqué ?",
    "Comment Marx a-t-il traité les forces de production en relation avec la culture et le pouvoir ?",
    "Quel est le point de vue de Marx sur la dualité entre la production et la culture ?",
    "Quel est le point de vue de Marx sur l'évolution unilinéaire des sociétés humaines ?",
    "Comment la réalité actuelle diffère de l'idéologie froide et irresponsable du mécanisme et du positivisme ?",
    "Comment la révolution technique du XIXe siècle et le développement rapide des sciences fondamentales contredisent la cosmologie correspondant à la révolution scientifique du XVIIIe siècle ?",
    "Comment la technique contemporaine peut être décrite comme une cosmologie du feu, un transformisme de l'explosion et de l'expansion, une métaphore de la violence ?",
    "Comment la vie est-elle affectée par le second principe de la thermodynamique ?",
    "Comment la lutte contre la mort est-elle décrite dans le texte ?"
  ]
}