{
  "num": "autog_0249-2563_1980_num_13_2",
  "article": "autog_0249-2563_1980_num_13_2_1364",
  "page_name": "autog_0249-2563_1980_num_13_2_T1_0221_0000",
  "questions": [
    {
      "id_qa": "autog_0249-2563_1980_num_13_2_T1_0221_0000_qa2_v3",
      "id_block": "block_0",
      "question": "Qu'est-ce qui facilite la libération et l'indépendance ?",
      "answer": "Cette autonomie financière",
      "answer_stringIds": [
        "string_83",
        "string_84",
        "string_85"
      ]
    },
    {
      "id_qa": "autog_0249-2563_1980_num_13_2_T1_0221_0000_qa5_v3",
      "id_block": "block_1",
      "question": "Qui décide de la fondation des groupes de travail ?",
      "answer": "par nous",
      "answer_stringIds": [
        "string_62",
        "string_63"
      ]
    },
    {
      "id_qa": "autog_0249-2563_1980_num_13_2_T1_0221_0000_qa7_v3",
      "id_block": "block_2",
      "question": "Qui est à l'accueil du centre ?",
      "answer": "les nouvelles venues",
      "answer_stringIds": [
        "string_280",
        "string_281",
        "string_282"
      ]
    },
    {
      "id_qa": "autog_0249-2563_1980_num_13_2_T1_0221_0000_qa22_v3",
      "id_block": "block_2",
      "question": "Où sont situés les centres de garde d'enfants ?",
      "answer": "dans les quartiers populaires",
      "answer_stringIds": [
        "string_319",
        "string_320",
        "string_321",
        "string_322"
      ]
    }
  ]
}