{
  "num": "autog_0249-2563_1980_num_13_2",
  "article": "autog_0249-2563_1980_num_13_2_1364",
  "page_name": "autog_0249-2563_1980_num_13_2_T1_0227_0000",
  "questions": [
    {
      "id_qa": "autog_0249-2563_1980_num_13_2_T1_0227_0000_qa26_v3",
      "id_block": "block_0",
      "question": "Qui peut se préparer à porter plainte ?",
      "answer": "les femmes",
      "answer_stringIds": [
        "string_43",
        "string_44"
      ]
    },
    {
      "id_qa": "autog_0249-2563_1980_num_13_2_T1_0227_0000_qa27_v3",
      "id_block": "block_0",
      "question": "Que peut-on faire en cas d'urgence ?",
      "answer": "plainte",
      "answer_stringIds": [
        "string_58"
      ]
    },
    {
      "id_qa": "autog_0249-2563_1980_num_13_2_T1_0227_0000_qa28_v3",
      "id_block": "block_0",
      "question": "Que peuvent faire les femmes en cas d'urgence ?",
      "answer": "téléphoner",
      "answer_stringIds": [
        "string_46"
      ]
    },
    {
      "id_qa": "autog_0249-2563_1980_num_13_2_T1_0227_0000_qa30_v3",
      "id_block": "block_0",
      "question": "Qu'est-ce que les femmes peuvent faire en cas d'urgence ?",
      "answer": "porter plainte",
      "answer_stringIds": [
        "string_57",
        "string_58"
      ]
    },
    {
      "id_qa": "autog_0249-2563_1980_num_13_2_T1_0227_0000_qa0_v3",
      "id_block": "block_1",
      "question": "Qui a perdu sa crainte profonde et irréelle de la puissance physique de l'homme ?",
      "answer": "les femmes",
      "answer_stringIds": [
        "string_43",
        "string_44"
      ]
    },
    {
      "id_qa": "autog_0249-2563_1980_num_13_2_T1_0227_0000_qa1_v3",
      "id_block": "block_1",
      "question": "Qu'est-ce que le fan shen ?",
      "answer": "les attitudes des hommes",
      "answer_stringIds": [
        "string_223",
        "string_224",
        "string_225",
        "string_226"
      ]
    },
    {
      "id_qa": "autog_0249-2563_1980_num_13_2_T1_0227_0000_qa7_v3",
      "id_block": "block_1",
      "question": "Qui vient au secours d'une femme ?",
      "answer": "Les femmes",
      "answer_stringIds": [
        "string_110",
        "string_111"
      ]
    },
    {
      "id_qa": "autog_0249-2563_1980_num_13_2_T1_0227_0000_qa9_v3",
      "id_block": "block_1",
      "question": "Que font les femmes pour aider leur mari ?",
      "answer": "visite",
      "answer_stringIds": [
        "string_126"
      ]
    },
    {
      "id_qa": "autog_0249-2563_1980_num_13_2_T1_0227_0000_qa11_v3",
      "id_block": "block_1",
      "question": "Qu'est-ce que les femmes viennent au secours d'une femme ?",
      "answer": "des meubles ou autres ustensiles",
      "answer_stringIds": [
        "string_132",
        "string_133",
        "string_134",
        "string_135",
        "string_136"
      ]
    },
    {
      "id_qa": "autog_0249-2563_1980_num_13_2_T1_0227_0000_qa32_v3",
      "id_block": "block_1",
      "question": "Avec qui les femmes essaient-elles de convaincre qu'il a tort ?",
      "answer": "avec le mari",
      "answer_stringIds": [
        "string_142",
        "string_143",
        "string_144"
      ]
    },
    {
      "id_qa": "autog_0249-2563_1980_num_13_2_T1_0227_0000_qa33_v3",
      "id_block": "block_1",
      "question": "Qui essaye de convaincre le mari qu'il a tort ?",
      "answer": "Les femmes",
      "answer_stringIds": [
        "string_110",
        "string_111"
      ]
    },
    {
      "id_qa": "autog_0249-2563_1980_num_13_2_T1_0227_0000_qa36_v3",
      "id_block": "block_1",
      "question": "Qui essaye de discuter avec le mari ?",
      "answer": "Les femmes",
      "answer_stringIds": [
        "string_110",
        "string_111"
      ]
    },
    {
      "id_qa": "autog_0249-2563_1980_num_13_2_T1_0227_0000_qa43_v3",
      "id_block": "block_2",
      "question": "Qu'est-ce que l'autogestion existentielle ?",
      "answer": "une identité et une culture féminines",
      "answer_stringIds": [
        "string_264",
        "string_265",
        "string_266",
        "string_267",
        "string_268",
        "string_269"
      ]
    },
    {
      "id_qa": "autog_0249-2563_1980_num_13_2_T1_0227_0000_qa40_v3",
      "id_block": "block_3",
      "question": "Quels types de centres sont mis en place en France ?",
      "answer": "centres de femmes",
      "answer_stringIds": [
        "string_62",
        "string_63",
        "string_64"
      ]
    }
  ]
}