{
  "num": "autog_0249-2563_1980_num_13_2",
  "article": "autog_0249-2563_1980_num_13_2_1367",
  "page_name": "autog_0249-2563_1980_num_13_2_T1_0262_0000",
  "questions": [
    {
      "id_qa": "autog_0249-2563_1980_num_13_2_T1_0262_0000_qa15_v3",
      "id_block": "block_0",
      "question": "Qu'est-ce que les B.I. ont acquis d'une manière imprévue ?",
      "answer": "détruire le système",
      "answer_stringIds": [
        "string_83",
        "string_84",
        "string_85"
      ]
    },
    {
      "id_qa": "autog_0249-2563_1980_num_13_2_T1_0262_0000_qa20_v3",
      "id_block": "block_0",
      "question": "Qu'est-ce qui menace les B.I. ?",
      "answer": "le système établi",
      "answer_stringIds": [
        "string_84",
        "string_85",
        "string_86"
      ]
    },
    {
      "id_qa": "autog_0249-2563_1980_num_13_2_T1_0262_0000_qa13_v3",
      "id_block": "block_4",
      "question": "Qu'est-ce que le burnout ?",
      "answer": "ce phénomène très complexe",
      "answer_stringIds": [
        "string_285",
        "string_286",
        "string_287",
        "string_288"
      ]
    },
    {
      "id_qa": "autog_0249-2563_1980_num_13_2_T1_0262_0000_qa14_v3",
      "id_block": "block_4",
      "question": "Sur quoi se base les tentatives pour définir le phénomène très complexe ?",
      "answer": "sur le plan social",
      "answer_stringIds": [
        "string_293",
        "string_294",
        "string_295",
        "string_296"
      ]
    },
    {
      "id_qa": "autog_0249-2563_1980_num_13_2_T1_0262_0000_qa9_v3",
      "id_block": "block_5",
      "question": "De qui sont considérées les réactions d'autodéfense ?",
      "answer": "de citoyens",
      "answer_stringIds": [
        "string_311",
        "string_312"
      ]
    },
    {
      "id_qa": "autog_0249-2563_1980_num_13_2_T1_0262_0000_qa11_v3",
      "id_block": "block_5",
      "question": "Qu'est-ce qui dépasse la conception traditionnelle du « citoyen » ?",
      "answer": "Une telle interprétation",
      "answer_stringIds": [
        "string_334",
        "string_335",
        "string_336"
      ]
    }
  ]
}