{
  "num": "autog_0338-7259_1973_num_22_1",
  "article": "autog_0338-7259_1973_num_22_1_1084",
  "page_name": "FMSH_PB188a_22-23_126",
  "questions": [
    "Quel est le rôle de l'entrepreneur dans l'anarchosyndicalisme selon le texte ?",
    "Quels sont les causes de l'extension rapide d'une grève selon le texte ?",
    "Dans quels cas la grève s'étend-elle rapidement selon le texte ?",
    "Quels sont les premiers acteurs de la grève selon le texte ?",
    "Quand les travailleurs commencent-ils à douter des résultats de la grève selon le texte ?",
    "Comment les dirigeants réussissent-ils à reprendre la grève en main selon le texte ?",
    "Quels événements historiques sont cités dans le texte comme exemples de grèves générales avec occupation d'usines ?",
    "Quels sont les contradictions humaines retrouvées parmi le personnel autogestionnaire selon le texte ?",
    "Comment les politiciens et les hommes d'Etat sont décrits dans le texte ?",
    "Quel est le rôle des Centrales syndicales et de leurs directions dans la déscription du texte ?"
  ]
}