{
  "num": "autog_0338-7259_1970_num_11_1",
  "article": "autog_0338-7259_1970_num_11_1_962",
  "page_name": "FMSH_PB188a_11-12_075",
  "questions": [
    "Comment les dirigeants gèrent-ils les directives provenant du centre ?",
    "Quel est le rôle de la volontarisme dans la planification ?",
    "Comment sont élaborées les plans de haut en bas ?",
    "Quels sont les types de directives complémentaires émises par le centre ?",
    "Comment les éléments inférieurs sont-ils concernés par la décentralisation ?",
    "Comment perçoit la société le système des directives administratives ?",
    "Quel est le rôle du centre dans l'ignorance des possibilités du système ?",
    "Quels types de critiques sont adressées aux échelons inférieurs et au centre ?",
    "Comment l'appropriation fonctionne-t-elle dans le système des directives administratives ?",
    "Comment la propriété des moyens de production est-elle affectée dans ce système ?",
    "Quels sont les résultats de la production dans ce système ?",
    "Comment la propriété est-elle définie dans ce contexte ?",
    "Comment l'irrationalité et l'absence de critères et de pressions objectifs affectent le système ?",
    "Quel est le sort des moyens perdus dans le système ?",
    "Quel est le sort des moyens immobilisés dans le système ?",
    "Quel est le sort des moyens bloqués dans le système pendant une période prolongée ?"
  ]
}