{
  "num": "autog_0338-7259_1970_num_11_1",
  "article": "autog_0338-7259_1970_num_11_1_962",
  "page_name": "FMSH_PB188a_11-12_088",
  "questions": [
    "Quels sont les différents modes de constitution des entreprises mentionnés dans le texte ?",
    "Dans quelles circonstances les entreprises ont-elles été fondées avant la naissance de l'État socialiste ?",
    "Quels groupes ont fondé des entreprises et comment leur influence sur la gestion de ces dernières est-elle perçue ?",
    "Quel est le but de l'objectif de rendement des entreprises ?",
    "Comment est défini le critère d'autarcie économique des entreprises ?",
    "A-t-on atteint l'objectif de rendement des entreprises ?",
    "Quel est le degré de rentabilité atteint par les organisations économiques ?",
    "Comment l'indépendance relative des entreprises en matière d'exploitation est-elle affectée par le statut juridique du fondateur ?",
    "Comment les critères de constitution, d'autarcie, d'indivisibilité, de répartition des résultats, de gestion et de séparation des entreprises contribuent-ils à déterminer leur « caractère de groupe » ?"
  ]
}