{
  "num": "autog_0338-7259_1970_num_11_1",
  "article": "autog_0338-7259_1970_num_11_1_962",
  "page_name": "FMSH_PB188a_11-12_096",
  "questions": [
    "Quels sont les différences entre la propriété dans le socialisme et dans le capitalisme ?",
    "Comment les travailleurs dans les entreprises socialistes devraient-ils comprendre leur travail et ses possibilités de création ou non de valeurs ?",
    "Pourquoi devrait-il être inadmissible que l'ouvrier se fasse des illusions sur son travail ?",
    "Quels sont les rôles des propriétaires fictifs et de la « classe dirigeante » fictive dans le système des directives administratives ?",
    "Pourquoi les travailleurs devraient-ils avoir une image relativement exacte de leur lieu de travail ?",
    "Comment peut-on favoriser la formation de l'attitude de propriétaire des travailleurs ?",
    "Comment l'humanisation du travail peut-elle être opposée à la rationalisation ?",
    "Comment peut-on résoudre le problème de l'opposition entre l'humanisation du travail et la rationalisation ?",
    "Comment peut-on créer des fonds spéciaux pour résoudre ce problème ?",
    "Comment peut-on permettre aux travailleurs de s'identifier non seulement avec l'entreprise, mais avec le socialisme ?",
    "Comment peut-on renoncer aux considérations incessantes sur la restauration du capitalisme dans le socialisme ?"
  ]
}