{
  "num": "autog_0338-7259_1970_num_11_1",
  "article": "autog_0338-7259_1970_num_11_1_962",
  "page_name": "FMSH_PB188a_11-12_089",
  "questions": [
    "Quels sont les problèmes de la démocratie directe que l'auteur souhaite renforcer plutôt que d'affaiblir dans notre pays ?",
    "Quel caractère devrait avoir la propriété pour renforcer le « caractère de groupe » dans le cadre de la démocratie directe ?",
    "Quels fonds fonctionnent dans le cadre des entreprises et peuvent être divisibles individuellement ?",
    "Quels sont les difficultés liées à la division des fonds dans l'économie nationale ?",
    "Pourquoi la division des fonds ne serait pas équitable dans le cadre de la réforme économique ?",
    "Quels pourcentages des recettes et des revenus ont été individuellement répartis en 1966 et 1967 ?",
    "Quels pourcentages des recettes ou du revenu brut devraient être individuellement indivisibles si la propriété était réellement collective ?",
    "Quels types d'organisations économiques sont exclus des données fournies dans le tableau ?",
    "Note: The text is in French, and the paragraph is about the problems of collective property and the distribution of production in the context of democratic directive in a certain country. The questions should be open-ended and related to the key elements of the paragraph.?"
  ]
}