{
  "num": "autog_0249-2563_1982_num_16_12",
  "article": "autog_0249-2563_1982_num_16_12_1530",
  "page_name": "autog_0249-2563_1982_num_16_12_T1_0068_0000",
  "questions": [
    {
      "id_qa": "autog_0249-2563_1982_num_16_12_T1_0068_0000_qa10_v3",
      "id_block": "block_1",
      "question": "Comment s'appelle l'assemblée générale des ateliers ?",
      "answer": "une Assemblée générale",
      "answer_stringIds": [
        "string_193",
        "string_194",
        "string_195"
      ]
    },
    {
      "id_qa": "autog_0249-2563_1982_num_16_12_T1_0068_0000_qa32_v3",
      "id_block": "block_2",
      "question": "A quoi peut-on comparer notre travail ?",
      "answer": "à un immense chantier",
      "answer_stringIds": [
        "string_311",
        "string_312",
        "string_313",
        "string_314"
      ]
    },
    {
      "id_qa": "autog_0249-2563_1982_num_16_12_T1_0068_0000_qa33_v3",
      "id_block": "block_2",
      "question": "Quelle est l'idée même d'autogestion ?",
      "answer": "cette situation",
      "answer_stringIds": [
        "string_320",
        "string_321"
      ]
    },
    {
      "id_qa": "autog_0249-2563_1982_num_16_12_T1_0068_0000_qa36_v3",
      "id_block": "block_2",
      "question": "Qu'est-ce qui est comparé à un immense chantier ?",
      "answer": "notre travail",
      "answer_stringIds": [
        "string_304",
        "string_305"
      ]
    }
  ]
}