{
  "num": "autog_0338-7259_1970_num_13_1",
  "article": "autog_0338-7259_1970_num_13_1_1936",
  "page_name": "FMSH_PB188a_13-14_003",
  "questions": [
    "Quel est le rôle de R. L. dans le chapitre sur l'autogestion ?",
    "Quels sont les thèmes abordés dans la section \"A Autogestion et bilan institutionnel\" ?",
    "Quand a-t-il eu lieu la session au Québec mentionnée par Georges Lapassade ?",
    "Qu'est-ce que l'école de formation dans le mouvement étudiant de Rémy Hess ?",
    "Quel est l'expérience d'autogestion décrite par Guy Le Boterf ?",
    "Qu'en demande Dominique Schalchli sur la demande d'autogestion ?",
    "Quels sont les thèmes abordés dans la section \"B L'industrie — L'habitat — La formation\" ?",
    "Qu'est l'opinion de Jean Gray sur la formation et l'autogestion industrielle ?",
    "Qu'avance Jacques Guigou sur la relation d'autorité et le changement social ?"
  ]
}