{
  "num": "autog_0338-7259_1971_num_16_1",
  "article": "autog_0338-7259_1971_num_16_1_1024",
  "page_name": "FMSH_PB188a_16-17_224",
  "questions": [
    {
      "id_qa": "FMSH_PB188a_16-17_224_qa0_v3",
      "id_block": "block_5",
      "question": "Qu'est ce qui est géré par l'université d'Alger ?",
      "answer": "exploitations agricoles",
      "answer_stringIds": [
        "string_90",
        "string_91",
        "string_92"
      ]
    }
  ]
}