{
  "num": "autog_0338-7259_1971_num_16_1",
  "article": "autog_0338-7259_1971_num_16_1_1024",
  "page_name": "FMSH_PB188a_16-17_227",
  "questions": [
    {
      "id_qa": "FMSH_PB188a_16-17_227_qa0_v3",
      "id_block": "block_10",
      "question": "Qu'est-ce que Belibaste ?",
      "answer": "vivre en communauté",
      "answer_stringIds": [
        "string_173",
        "string_174",
        "string_175"
      ]
    },
    {
      "id_qa": "FMSH_PB188a_16-17_227_qa1_v3",
      "id_block": "block_10",
      "question": "Comment s'appelle la vie de Belibaste ?",
      "answer": "en communauté",
      "answer_stringIds": [
        "string_174",
        "string_175"
      ]
    }
  ]
}