{
  "num": "autog_0249-2563_1981_num_14_6",
  "article": "autog_0249-2563_1981_num_14_6_1423",
  "page_name": "autog_0249-2563_1981_num_14_6_T1_0142_0000",
  "questions": [
    "Quel rôle joue l'autogestion dans la constitution de la Cinquième République ?",
    "Quel est le lien entre l'élection de Mitterrand et l'autogestion ?",
    "Comment s'est déroulée l'éditorial autogéré du conseil de rédaction d'Autogestions ?",
    "Quel est le rôle de Mitterrand dans l'autogestion ?",
    "Quel est le lien entre l'autogestion et la dynamique de créativité ?",
    "Comment les auteurs perçoivent-ils l'impact de l'élection de Mitterrand sur l'autogestion ?",
    "Quel est le rôle de l'État dans l'autogestion selon Savoye ?",
    "Quel est le sentiment des auteurs à l'égard de l'élection de Mitterrand ?",
    "Quel est le sentiment des auteurs à l'égard de l'autogestion ?",
    "Quel est le rôle de la joie spontanée dans l'autogestion selon Weill ?",
    "Quel est le rôle de l'auto-censure dans l'autogestion selon les auteurs ?",
    "Quel est le rôle de l'impuissance dans l'autogestion selon les auteurs ?",
    "Quel est le rôle de l'inertie dans l'autogestion selon les auteurs ?",
    "Quel est le rôle de l'espoir dans l'autogestion selon les auteurs ?",
    "Quel est le rôle de l'utopie dans l'autogestion selon Weill ?"
  ]
}