{
  "num": "autog_0249-2563_1981_num_14_6",
  "article": "autog_0249-2563_1981_num_14_6_1423",
  "page_name": "autog_0249-2563_1981_num_14_6_T1_0147_0000",
  "questions": [
    "Quel événement historique amène le narrateur à se réjouir et à prendre l'enfant dans ses bras ?",
    "Quel personnage est annoncé comme le nouveau président de la France ?",
    "Quel rôle joue Mitterrand dans les événements décrits ?",
    "Quels institutions sont dissoutes par Mitterrand ?",
    "Quel titre abandonne-t-il ?",
    "Quels groupes ou personnes laisse-t-il gérer les affaires du pays ?",
    "Quel message adresse-t-il à Mitterrand dans la lettre post-scriptum ?",
    "Quel est le ton général de la lettre ?",
    "Quel est le sens de la métaphore \"le pouvoir est un fossile préhistorique\" ?",
    "Quel est le sens de la métaphore \"demain habite au creux de nos ventres\" ?",
    "Quel est le sens de la métaphore \"le sérieux ne passera pas\" ?",
    "Quel est le sens de la métaphore \"arrêtes de parler et viens danser\" ?",
    "Quel est le sens de la métaphore \"dire à Mitterrand qu'il nous laisse le temps de tisser des buissons avant de rendre l'école buissonnière obligatoire\" ?"
  ]
}