{
  "num": "autog_0005-0970_1968_num_7_1",
  "article": "autog_0005-0970_1968_num_7_1_937",
  "page_name": "FMSH_PB188a_00007_087",
  "questions": [
    "Quels objectifs avaient les ouvriers vis-à-vis du vieil appareil bureaucratique selon Lenine ?",
    "Quelles mesures Lenine a-t-il prévues pour empêcher les intellectuels et les révolutionnaires professionnels de devenir des bureaucrates ?",
    "Quels sont les rôles des intellectuels et des révolutionnaires professionnels selon Lenine ?",
    "Quels sont les avantages de l'électivité et de la révocabilité à tout moment selon Lenine ?",
    "Quel est le rôle de la Commune de Paris dans la théorie de Lenine sur l'autogestion ?",
    "Comment Lenine a-t-il pu mettre en pratique sa théorie de l'autogestion après la Révolution d'Octobre ?",
    "Quel était le pourcentage de la population russe vivant à Petrograd à cette époque ?",
    "Quels sont les critiques de Lenine envers ceux qui pensent que la plèbe ou les simples peuvent't s'autogouverner ?"
  ]
}