{
  "num": "autog_0338-7259_1972_num_20_1",
  "article": "autog_0338-7259_1972_num_20_1_1073_t1_0207_0000_2",
  "page_name": "FMSH_PB188a_20-21_212",
  "questions": [
    "Quels textes contiennent des arguments pour étayer l'idée d'un nouveau bloc historique avec la classe ouvrière ?",
    "Quels économistes marxistes sont impliqués dans la discussion actuelle sur la fonctionnement du système capitaliste et la contribution de la science dans la production de la valeur et de la plus-value ?",
    "En quoi les travaux actuels attirent-ils l'attention sur des questions peu élaborées dans l'œuvre économique de Marx concernant la mécanisation et l'automatisation extrêmes de l'industrie ?",
    "Comment les travaux actuels influencent la question capitale de la rémunération du travail dans un régime de transition du capitalisme au socialisme parachevé ?",
    "Quel mode de rémunération est défini par Marx dans la Critique du programme de Gotha pour l'époque de transition du capitalisme au socialisme ?",
    "Comment éviter une détermination arbitraire de la rémunération dans le cadre de cette transition ?",
    "Quels textes de Marx contiennent des anticipations sur le travail vivant du chercheur, du savant, de l'ingénieur dans la production de la valeur et de la plus-value ?",
    "Pourquoi est-il nécessaire de clarifier théoriquement ces questions avant de déterminer la contribution personnelle de chaque élément du travailleur collectif à la richesse produite par le travail ?",
    "Quel est le « saut» rejeté ici et vers quelle rémunération arbitraire il s'agit ?"
  ]
}