{
  "num": "autog_0338-7259_1972_num_20_1",
  "article": "autog_0338-7259_1972_num_20_1_1073_t1_0207_0000_2",
  "page_name": "FMSH_PB188a_20-21_215",
  "questions": [
    "Quels types de structures combinent occupation de lieux et début de gestion selon le texte ?",
    "Quel est le but que l'auteur définit comme le socialisme d'autogestion ?",
    "Dans quelle société l'auteur voit la réalisation de cette idée ?",
    "Quels sont les ennemis de l'autogestion selon le texte ?",
    "Comment l'autogestion est-elle liée à la tradition théorique et pratique du marxisme-révolutionnaire ?",
    "Quand et où l'autogestion a-t-elle émergé dans le contexte historique ?",
    "Quels sont les arguments contre l'autogestion et comment les contredisent-elles selon le texte ?",
    "Comment l'autogestion peut-elle conduire à la logique de l'informatique et des recherches de l'ergonomie ?",
    "Quel est le processus de l'autogestion selon le texte ?",
    "Pourquoi l'autogestion ne peut-elle pas être appliquée parfaitement du jour au lendemain ?"
  ]
}