{
  "num": "autog_0338-7259_1972_num_18_1",
  "article": "autog_0338-7259_1972_num_18_1_1029",
  "page_name": "FMSH_PB188a_18-19_062",
  "questions": [
    {
      "id_qa": "FMSH_PB188a_18-19_062_qa8_v3",
      "id_block": "block_1",
      "question": "Qu'est ce qui s'impose sans le discuter ?",
      "answer": "le centralisme",
      "answer_stringIds": [
        "string_16",
        "string_17",
        "string_18"
      ]
    },
    {
      "id_qa": "FMSH_PB188a_18-19_062_qa11_v3",
      "id_block": "block_1",
      "question": "Qu'est ce qui s'impose sans le déterminer ni le discuter ?",
      "answer": "le centralisme",
      "answer_stringIds": [
        "string_16",
        "string_17",
        "string_18"
      ]
    },
    {
      "id_qa": "FMSH_PB188a_18-19_062_qa10_v3",
      "id_block": "block_1",
      "question": "Qu'impose le fédéralisme sans le déterminer ni le discuter ?",
      "answer": "le centralisme",
      "answer_stringIds": [
        "string_16",
        "string_17",
        "string_18"
      ]
    },
    {
      "id_qa": "FMSH_PB188a_18-19_062_qa3_v3",
      "id_block": "block_2",
      "question": "Qui peut-il révoquer ?",
      "answer": "son mandataire",
      "answer_stringIds": [
        "string_66",
        "string_67",
        "string_68"
      ]
    },
    {
      "id_qa": "FMSH_PB188a_18-19_062_qa6_v3",
      "id_block": "block_2",
      "question": "Qui contrôle le sommet du système centraliste ?",
      "answer": "la base",
      "answer_stringIds": [
        "string_80",
        "string_81"
      ]
    },
    {
      "id_qa": "FMSH_PB188a_18-19_062_qa23_v3",
      "id_block": "block_2",
      "question": "Qui transmet tout ou partie de ses droits à des mandataires ?",
      "answer": "le travailleur",
      "answer_stringIds": [
        "string_31",
        "string_32"
      ]
    },
    {
      "id_qa": "FMSH_PB188a_18-19_062_qa12_v3",
      "id_block": "block_3",
      "question": "Qui rendent compte de leur mandat à ceux qui les ont mandatés ?",
      "answer": "Les mandataires",
      "answer_stringIds": [
        "string_91",
        "string_92"
      ]
    },
    {
      "id_qa": "FMSH_PB188a_18-19_062_qa13_v3",
      "id_block": "block_3",
      "question": "Qui rend compte de son mandat à ceux qui les ont mandatés ?",
      "answer": "Les mandataires",
      "answer_stringIds": [
        "string_91",
        "string_92"
      ]
    },
    {
      "id_qa": "FMSH_PB188a_18-19_062_qa14_v3",
      "id_block": "block_3",
      "question": "Qu'est ce qui rend compte à ceux qui les ont mandatés ?",
      "answer": "leur mandat",
      "answer_stringIds": [
        "string_95",
        "string_96"
      ]
    },
    {
      "id_qa": "FMSH_PB188a_18-19_062_qa16_v3",
      "id_block": "block_3",
      "question": "Qui rendent compte de leur mandat ?",
      "answer": "ceux qui les ont mandatés",
      "answer_stringIds": [
        "string_103",
        "string_104",
        "string_105",
        "string_106",
        "string_107"
      ]
    },
    {
      "id_qa": "FMSH_PB188a_18-19_062_qa17_v3",
      "id_block": "block_3",
      "question": "Qu'est ce qui a été respecté ?",
      "answer": "le mandat",
      "answer_stringIds": [
        "string_119",
        "string_120"
      ]
    },
    {
      "id_qa": "FMSH_PB188a_18-19_062_qa34_v3",
      "id_block": "block_4",
      "question": "Quel est le but du fédéralisme ?",
      "answer": "la représentation des intérêts collectifs des travailleurs",
      "answer_stringIds": [
        "string_135",
        "string_136",
        "string_137",
        "string_138",
        "string_139",
        "string_140",
        "string_141"
      ]
    },
    {
      "id_qa": "FMSH_PB188a_18-19_062_qa26_v3",
      "id_block": "block_5",
      "question": "Qu'est-ce qui a pour but d'éliminer les intérêts particuliers ?",
      "answer": "La discussion",
      "answer_stringIds": [
        "string_181",
        "string_182"
      ]
    },
    {
      "id_qa": "FMSH_PB188a_18-19_062_qa27_v3",
      "id_block": "block_5",
      "question": "Quel est le but de la discussion ?",
      "answer": "éliminer les intérêts particuliers",
      "answer_stringIds": [
        "string_186",
        "string_187",
        "string_188",
        "string_189"
      ]
    },
    {
      "id_qa": "FMSH_PB188a_18-19_062_qa29_v3",
      "id_block": "block_6",
      "question": "Quel mouvement permet de matérialiser les modalités générales d'organisation sociale ?",
      "answer": "le mouvement descendant",
      "answer_stringIds": [
        "string_263",
        "string_264",
        "string_265"
      ]
    },
    {
      "id_qa": "FMSH_PB188a_18-19_062_qa33_v3",
      "id_block": "block_7",
      "question": "A qui transmet la formule générale d'action ?",
      "answer": "échelons immédia",
      "answer_stringIds": [
        "string_306",
        "string_307"
      ]
    }
  ]
}