{
  "num": "autog_0338-7259_1972_num_18_1",
  "article": "autog_0338-7259_1972_num_18_1_1029",
  "page_name": "FMSH_PB188a_18-19_066",
  "questions": [
    {
      "id_qa": "FMSH_PB188a_18-19_066_qa15_v3",
      "id_block": "block_1",
      "question": "Qu'est ce qui relie les différents besoins des travailleurs ?",
      "answer": "les intérêts de groupes isolés",
      "answer_stringIds": [
        "string_37",
        "string_38",
        "string_39",
        "string_40",
        "string_41"
      ]
    },
    {
      "id_qa": "FMSH_PB188a_18-19_066_qa16_v3",
      "id_block": "block_1",
      "question": "Que doit faire le conseil d'usine ?",
      "answer": "la synthèse politique des différents besoins des travailleurs",
      "answer_stringIds": [
        "string_28",
        "string_29",
        "string_30",
        "string_31",
        "string_32",
        "string_33",
        "string_34",
        "string_35"
      ]
    },
    {
      "id_qa": "FMSH_PB188a_18-19_066_qa4_v3",
      "id_block": "block_2",
      "question": "Qu'est-ce qui est distribué aux ateliers ?",
      "answer": "le travail",
      "answer_stringIds": [
        "string_71",
        "string_72"
      ]
    },
    {
      "id_qa": "FMSH_PB188a_18-19_066_qa5_v3",
      "id_block": "block_2",
      "question": "Où le conseil d'usine a-t-il charge de distribuer le travail ?",
      "answer": "ateliers",
      "answer_stringIds": [
        "string_74"
      ]
    },
    {
      "id_qa": "FMSH_PB188a_18-19_066_qa6_v3",
      "id_block": "block_2",
      "question": "Qu'est ce que le conseil d'usine reçoit du syndicat d'industrie ?",
      "answer": "les instructions",
      "answer_stringIds": [
        "string_87",
        "string_88",
        "string_89"
      ]
    },
    {
      "id_qa": "FMSH_PB188a_18-19_066_qa7_v3",
      "id_block": "block_2",
      "question": "Qu'assure le conseil d'usine ?",
      "answer": "son exécution",
      "answer_stringIds": [
        "string_78",
        "string_79"
      ]
    },
    {
      "id_qa": "FMSH_PB188a_18-19_066_qa2_v3",
      "id_block": "block_3",
      "question": "Qu'est-ce qui doit être organisé entre les ateliers ?",
      "answer": "le travail",
      "answer_stringIds": [
        "string_71",
        "string_72"
      ]
    },
    {
      "id_qa": "FMSH_PB188a_18-19_066_qa18_v3",
      "id_block": "block_4",
      "question": "Qui représente l'union locale et au conseil économique local ?",
      "answer": "les travailleurs de son industrie à l'",
      "answer_stringIds": [
        "string_212",
        "string_213",
        "string_214",
        "string_215",
        "string_216",
        "string_217",
        "string_218"
      ]
    }
  ]
}