{
  "num": "autog_0005-0970_1969_num_9_1",
  "article": "autog_0005-0970_1969_num_9_1_958",
  "page_name": "FMSH_PB188a_09-10_234",
  "questions": [
    {
      "id_qa": "FMSH_PB188a_09-10_234_qa14_v3",
      "id_block": "block_2",
      "question": "Par quoi Pidéologie de l'état-dieu est-elle battue en brêche ?",
      "answer": "par les crises religieuses et par le scepticisme philosophique",
      "answer_stringIds": [
        "string_71",
        "string_72",
        "string_73",
        "string_74",
        "string_75",
        "string_76",
        "string_77",
        "string_78",
        "string_79",
        "string_80"
      ]
    },
    {
      "id_qa": "FMSH_PB188a_09-10_234_qa15_v3",
      "id_block": "block_2",
      "question": "Qui a écrit Pidéologie de l'état-dieu ?",
      "answer": "Proudhon",
      "answer_stringIds": [
        "string_58"
      ]
    },
    {
      "id_qa": "FMSH_PB188a_09-10_234_qa0_v3",
      "id_block": "block_3",
      "question": "Qu'est ce qui est en défaveur de l'état ?",
      "answer": "le droit divin qui",
      "answer_stringIds": [
        "string_186",
        "string_187",
        "string_188",
        "string_189"
      ]
    },
    {
      "id_qa": "FMSH_PB188a_09-10_234_qa1_v3",
      "id_block": "block_3",
      "question": "Quelle est la conséquence du droit divin qui fonde l'état ?",
      "answer": "tomber en défaveur",
      "answer_stringIds": [
        "string_193",
        "string_194",
        "string_195"
      ]
    },
    {
      "id_qa": "FMSH_PB188a_09-10_234_qa3_v3",
      "id_block": "block_3",
      "question": "Qui a écrit Justice, l'état ?",
      "answer": "Proudhon",
      "answer_stringIds": [
        "string_58"
      ]
    },
    {
      "id_qa": "FMSH_PB188a_09-10_234_qa4_v3",
      "id_block": "block_3",
      "question": "De quand date le droit divin qui fonde l'état ?",
      "answer": "de nos jours",
      "answer_stringIds": [
        "string_177",
        "string_178",
        "string_179"
      ]
    },
    {
      "id_qa": "FMSH_PB188a_09-10_234_qa9_v3",
      "id_block": "block_4",
      "question": "Qu'est-ce qui anime le gouvernementalisme ?",
      "answer": "Dans le mysticisome démocratique qui",
      "answer_stringIds": [
        "string_218",
        "string_219",
        "string_220",
        "string_221",
        "string_222"
      ]
    },
    {
      "id_qa": "FMSH_PB188a_09-10_234_qa10_v3",
      "id_block": "block_4",
      "question": "Qu'est ce qui anime le mysticisome démocratique ?",
      "answer": "le gouvernementalisme",
      "answer_stringIds": [
        "string_224",
        "string_225"
      ]
    },
    {
      "id_qa": "FMSH_PB188a_09-10_234_qa11_v3",
      "id_block": "block_4",
      "question": "Qu'est-ce que le peuple devenu Dieu-fils ?",
      "answer": "tout pouvoir sur lui",
      "answer_stringIds": [
        "string_287",
        "string_288",
        "string_289",
        "string_290"
      ]
    },
    {
      "id_qa": "FMSH_PB188a_09-10_234_qa13_v3",
      "id_block": "block_4",
      "question": "Qui est devenu Dieu-fils ?",
      "answer": "Le peuple",
      "answer_stringIds": [
        "string_275",
        "string_276"
      ]
    },
    {
      "id_qa": "FMSH_PB188a_09-10_234_qa20_v3",
      "id_block": "block_4",
      "question": "Qu'est-ce que le peuple ?",
      "answer": "la révélation du pouvoir",
      "answer_stringIds": [
        "string_253",
        "string_254",
        "string_255",
        "string_256",
        "string_257"
      ]
    },
    {
      "id_qa": "FMSH_PB188a_09-10_234_qa21_v3",
      "id_block": "block_4",
      "question": "Qu'est-ce que la révélation du pouvoir ?",
      "answer": "le peuple qui",
      "answer_stringIds": [
        "string_248",
        "string_249",
        "string_250"
      ]
    },
    {
      "id_qa": "FMSH_PB188a_09-10_234_qa16_v3",
      "id_block": "block_5",
      "question": "Quel est le nom du droit divin sacerdotal ?",
      "answer": "le droit divin populaire » ou souveraineté",
      "answer_stringIds": [
        "string_331",
        "string_332",
        "string_333",
        "string_334",
        "string_335",
        "string_336",
        "string_337",
        "string_338"
      ]
    },
    {
      "id_qa": "FMSH_PB188a_09-10_234_qa17_v3",
      "id_block": "block_5",
      "question": "Par quoi le droit divin sacerdotal devient-il un droit divin populaire ?",
      "answer": "Par ce mysticisme retourné",
      "answer_stringIds": [
        "string_317",
        "string_318",
        "string_319",
        "string_320"
      ]
    },
    {
      "id_qa": "FMSH_PB188a_09-10_234_qa18_v3",
      "id_block": "block_5",
      "question": "Par quoi est retourné le droit divin sacerdotal ?",
      "answer": "Par ce mysticisme",
      "answer_stringIds": [
        "string_317",
        "string_318",
        "string_319"
      ]
    }
  ]
}