{
  "num": "autog_0005-0970_1969_num_9_1",
  "article": "autog_0005-0970_1969_num_9_1_958",
  "page_name": "FMSH_PB188a_09-10_196",
  "questions": [
    {
      "id_qa": "FMSH_PB188a_09-10_196_qa6_v3",
      "id_block": "block_2",
      "question": "Quel est le but du gouvernementalisme ?",
      "answer": "un organisme supérieur",
      "answer_stringIds": [
        "string_100",
        "string_101",
        "string_102"
      ]
    },
    {
      "id_qa": "FMSH_PB188a_09-10_196_qa7_v3",
      "id_block": "block_2",
      "question": "Qu'est-ce qui est l'autorité en exercice ?",
      "answer": "le gouvernementalisme",
      "answer_stringIds": [
        "string_92",
        "string_93"
      ]
    },
    {
      "id_qa": "FMSH_PB188a_09-10_196_qa2_v3",
      "id_block": "block_4",
      "question": "Qui critique l'état usurpateur ?",
      "answer": "Proudhon",
      "answer_stringIds": [
        "string_155"
      ]
    },
    {
      "id_qa": "FMSH_PB188a_09-10_196_qa11_v3",
      "id_block": "block_4",
      "question": "Qui critique la propriété capitaliste ?",
      "answer": "Proudhon",
      "answer_stringIds": [
        "string_155"
      ]
    },
    {
      "id_qa": "FMSH_PB188a_09-10_196_qa10_v3",
      "id_block": "block_5",
      "question": "Quel est le but de l'état serviteur des démocrates ?",
      "answer": "le personnel du gouvernement",
      "answer_stringIds": [
        "string_231",
        "string_232",
        "string_233",
        "string_234"
      ]
    },
    {
      "id_qa": "FMSH_PB188a_09-10_196_qa1_v3",
      "id_block": "block_6",
      "question": "Qu'est-ce que l'état-serviteur ?",
      "answer": "délégation « irrévocable » de la puissance publique",
      "answer_stringIds": [
        "string_277",
        "string_278",
        "string_279",
        "string_280",
        "string_281",
        "string_282",
        "string_283",
        "string_284",
        "string_285"
      ]
    }
  ]
}