{
  "num": "autog_0005-0970_1969_num_9_1",
  "article": "autog_0005-0970_1969_num_9_1_958",
  "page_name": "FMSH_PB188a_09-10_241",
  "questions": [
    {
      "id_qa": "FMSH_PB188a_09-10_241_qa0_v3",
      "id_block": "block_3",
      "question": "Par quoi la société a-t-elle été transformée ?",
      "answer": "par le développement de son économie",
      "answer_stringIds": [
        "string_121",
        "string_122",
        "string_123",
        "string_124",
        "string_125",
        "string_126"
      ]
    },
    {
      "id_qa": "FMSH_PB188a_09-10_241_qa8_v3",
      "id_block": "block_3",
      "question": "A quoi ont abouti les révolutions les plus émancipatrices ?",
      "answer": "à un acte de foi et de soumission au pouvoir",
      "answer_stringIds": [
        "string_73",
        "string_74",
        "string_75",
        "string_76",
        "string_77",
        "string_78",
        "string_79",
        "string_80",
        "string_81",
        "string_82"
      ]
    },
    {
      "id_qa": "FMSH_PB188a_09-10_241_qa10_v3",
      "id_block": "block_3",
      "question": "Qu'est-ce qui a abouti à un acte de foi ?",
      "answer": "les révolutions les plus émancipatrices",
      "answer_stringIds": [
        "string_66",
        "string_67",
        "string_68",
        "string_69",
        "string_70"
      ]
    },
    {
      "id_qa": "FMSH_PB188a_09-10_241_qa6_v3",
      "id_block": "block_4",
      "question": "Qu'est ce qui a contribué à l'état despote ?",
      "answer": "La mythologie du pouvoir",
      "answer_stringIds": [
        "string_138",
        "string_139",
        "string_140",
        "string_141"
      ]
    },
    {
      "id_qa": "FMSH_PB188a_09-10_241_qa7_v3",
      "id_block": "block_4",
      "question": "Qu'est-ce qui a contribué à l'état despote ?",
      "answer": "La mythologie du pouvoir",
      "answer_stringIds": [
        "string_138",
        "string_139",
        "string_140",
        "string_141"
      ]
    },
    {
      "id_qa": "FMSH_PB188a_09-10_241_qa2_v3",
      "id_block": "block_5",
      "question": "A quoi sert l'âge industriel ?",
      "answer": "les mentalités des masses",
      "answer_stringIds": [
        "string_162",
        "string_163",
        "string_164",
        "string_165"
      ]
    },
    {
      "id_qa": "FMSH_PB188a_09-10_241_qa3_v3",
      "id_block": "block_8",
      "question": "Qui a étudié la propriété capitaliste ?",
      "answer": "Proudhon",
      "answer_stringIds": [
        "string_257"
      ]
    },
    {
      "id_qa": "FMSH_PB188a_09-10_241_qa5_v3",
      "id_block": "block_8",
      "question": "Quelle est la démarche de Proudhon ?",
      "answer": "sa pensée critique",
      "answer_stringIds": [
        "string_249",
        "string_250",
        "string_251"
      ]
    }
  ]
}