{
  "num": "autog_0005-0970_1969_num_9_1",
  "article": "autog_0005-0970_1969_num_9_1_958",
  "page_name": "FMSH_PB188a_09-10_228",
  "questions": [
    {
      "id_qa": "FMSH_PB188a_09-10_228_qa10_v3",
      "id_block": "block_1",
      "question": "Qu'est-ce que le gouvernement ?",
      "answer": "une force",
      "answer_stringIds": [
        "string_16",
        "string_17"
      ]
    },
    {
      "id_qa": "FMSH_PB188a_09-10_228_qa11_v3",
      "id_block": "block_1",
      "question": "Quel est le but de la force publique ?",
      "answer": "la nation.",
      "answer_stringIds": [
        "string_42",
        "string_43"
      ]
    },
    {
      "id_qa": "FMSH_PB188a_09-10_228_qa12_v3",
      "id_block": "block_1",
      "question": "Que se passe-t-il devant une force publique ?",
      "answer": "toute résistance",
      "answer_stringIds": [
        "string_28",
        "string_29"
      ]
    },
    {
      "id_qa": "FMSH_PB188a_09-10_228_qa9_v3",
      "id_block": "block_2",
      "question": "Quel est le but de l'état despote ?",
      "answer": "la révolte",
      "answer_stringIds": [
        "string_145",
        "string_146"
      ]
    },
    {
      "id_qa": "FMSH_PB188a_09-10_228_qa18_v3",
      "id_block": "block_3",
      "question": "Qui pense que tout gouvernement despotique est par nature contre-révolutionnaire ?",
      "answer": "Proudhon",
      "answer_stringIds": [
        "string_149"
      ]
    },
    {
      "id_qa": "FMSH_PB188a_09-10_228_qa7_v3",
      "id_block": "block_4",
      "question": "Pour quelle raison l'état despote est-il utilisé ?",
      "answer": "pour imposer la paix sociale et devenu le tyran des libertés collectives",
      "answer_stringIds": [
        "string_214",
        "string_215",
        "string_216",
        "string_217",
        "string_218",
        "string_219",
        "string_220",
        "string_221",
        "string_222",
        "string_223",
        "string_224",
        "string_225"
      ]
    }
  ]
}