{
  "num": "autog_0005-0970_1969_num_9_1",
  "article": "autog_0005-0970_1969_num_9_1_958",
  "page_name": "FMSH_PB188a_09-10_210",
  "questions": [
    {
      "id_qa": "FMSH_PB188a_09-10_210_qa9_v3",
      "id_block": "block_1",
      "question": "Qu'est-ce qui est soumis à la loi primordiale de l'antagonisme ?",
      "answer": "au travail qui les",
      "answer_stringIds": [
        "string_19",
        "string_20",
        "string_21",
        "string_22"
      ]
    },
    {
      "id_qa": "FMSH_PB188a_09-10_210_qa18_v3",
      "id_block": "block_2",
      "question": "Quel est l'organe naturel de la justice ?",
      "answer": "le gouvernement",
      "answer_stringIds": [
        "string_175",
        "string_176"
      ]
    },
    {
      "id_qa": "FMSH_PB188a_09-10_210_qa0_v3",
      "id_block": "block_3",
      "question": "Qu'est ce qui anime l'Etat ?",
      "answer": "son appareil",
      "answer_stringIds": [
        "string_227",
        "string_228"
      ]
    },
    {
      "id_qa": "FMSH_PB188a_09-10_210_qa13_v3",
      "id_block": "block_3",
      "question": "Qu'est-ce qui a abouti aux révolutions les plus émancipatrices ?",
      "answer": "un acte de soumission et de foi au pouvoir",
      "answer_stringIds": [
        "string_257",
        "string_258",
        "string_259",
        "string_260",
        "string_261",
        "string_262",
        "string_263",
        "string_264",
        "string_265"
      ]
    },
    {
      "id_qa": "FMSH_PB188a_09-10_210_qa15_v3",
      "id_block": "block_3",
      "question": "Qu'est ce qui a abouti à un acte de soumission et de foi au pouvoir ?",
      "answer": "toutes les effervescences du pouvoir",
      "answer_stringIds": [
        "string_249",
        "string_250",
        "string_251",
        "string_252",
        "string_253"
      ]
    }
  ]
}