{
  "num": "autog_0005-0970_1969_num_9_1",
  "article": "autog_0005-0970_1969_num_9_1_958",
  "page_name": "FMSH_PB188a_09-10_206",
  "questions": [
    {
      "id_qa": "FMSH_PB188a_09-10_206_qa13_v3",
      "id_block": "block_2",
      "question": "Qu'est ce qui ne peut se réaliser autrement que par la distribution de l'autorité ?",
      "answer": "La démocratie",
      "answer_stringIds": [
        "string_49",
        "string_50"
      ]
    },
    {
      "id_qa": "FMSH_PB188a_09-10_206_qa3_v3",
      "id_block": "block_3",
      "question": "Qu'est-ce qui résulte de l'Etat ?",
      "answer": "la société créée par le travail social",
      "answer_stringIds": [
        "string_206",
        "string_207",
        "string_208",
        "string_209",
        "string_210",
        "string_211",
        "string_212"
      ]
    },
    {
      "id_qa": "FMSH_PB188a_09-10_206_qa5_v3",
      "id_block": "block_3",
      "question": "Par quoi est créée la société Aïnsi ?",
      "answer": "par le travail social",
      "answer_stringIds": [
        "string_209",
        "string_210",
        "string_211",
        "string_212"
      ]
    },
    {
      "id_qa": "FMSH_PB188a_09-10_206_qa6_v3",
      "id_block": "block_3",
      "question": "Qu'est-ce qui est le produit de l'Etat ?",
      "answer": "la société créée par le travail social",
      "answer_stringIds": [
        "string_206",
        "string_207",
        "string_208",
        "string_209",
        "string_210",
        "string_211",
        "string_212"
      ]
    },
    {
      "id_qa": "FMSH_PB188a_09-10_206_qa8_v3",
      "id_block": "block_3",
      "question": "Qu'est ce qui permet l'exploitation de la puissance sociale ?",
      "answer": "du pouvoir",
      "answer_stringIds": [
        "string_11",
        "string_12",
        "string_13"
      ]
    },
    {
      "id_qa": "FMSH_PB188a_09-10_206_qa9_v3",
      "id_block": "block_3",
      "question": "Qu'est-ce qui naît du pouvoir ?",
      "answer": "la société",
      "answer_stringIds": [
        "string_143",
        "string_144"
      ]
    },
    {
      "id_qa": "FMSH_PB188a_09-10_206_qa10_v3",
      "id_block": "block_3",
      "question": "Qu'est ce qui est générateur, le créateur, l'acteur ?",
      "answer": "du pouvoir",
      "answer_stringIds": [
        "string_11",
        "string_12",
        "string_13"
      ]
    },
    {
      "id_qa": "FMSH_PB188a_09-10_206_qa12_v3",
      "id_block": "block_3",
      "question": "Qu'est ce qui naît de l'aliénation du pouvoir ?",
      "answer": "la société",
      "answer_stringIds": [
        "string_143",
        "string_144"
      ]
    },
    {
      "id_qa": "FMSH_PB188a_09-10_206_qa15_v3",
      "id_block": "block_3",
      "question": "Qu'est-ce qui naît de la société ?",
      "answer": "le pouvoir",
      "answer_stringIds": [
        "string_139",
        "string_140"
      ]
    },
    {
      "id_qa": "FMSH_PB188a_09-10_206_qa16_v3",
      "id_block": "block_3",
      "question": "De quoi naît le pouvoir dans l'ordre naturel ?",
      "answer": "de la société",
      "answer_stringIds": [
        "string_142",
        "string_143",
        "string_144"
      ]
    },
    {
      "id_qa": "FMSH_PB188a_09-10_206_qa17_v3",
      "id_block": "block_4",
      "question": "Qu'est-ce qui résulte fondamentalement de la connaissance de l'être collectif ?",
      "answer": "Cette « constitution artificielle du pouvoir",
      "answer_stringIds": [
        "string_239",
        "string_240",
        "string_241",
        "string_242",
        "string_243",
        "string_244"
      ]
    }
  ]
}