{
  "num": "autog_0338-7259_1975_num_30_1",
  "article": "autog_0338-7259_1975_num_30_1_1124",
  "page_name": "FMSH_PB188a_30-31_078",
  "questions": [
    {
      "id_qa": "FMSH_PB188a_30-31_078_qa6_v3",
      "id_block": "block_1",
      "question": "Qu'est-ce qui se passe à la direction de l'entreprise ?",
      "answer": "un rapport",
      "answer_stringIds": [
        "string_3",
        "string_4"
      ]
    },
    {
      "id_qa": "FMSH_PB188a_30-31_078_qa14_v3",
      "id_block": "block_2",
      "question": "Qu'est ce que la grande cogestion ?",
      "answer": "Ce système",
      "answer_stringIds": [
        "string_39",
        "string_40"
      ]
    },
    {
      "id_qa": "FMSH_PB188a_30-31_078_qa2_v3",
      "id_block": "block_3",
      "question": "Comment s'appelle le Conseil de Surveillance ?",
      "answer": "une cogestion au tiers",
      "answer_stringIds": [
        "string_78",
        "string_79",
        "string_80",
        "string_81"
      ]
    },
    {
      "id_qa": "FMSH_PB188a_30-31_078_qa7_v3",
      "id_block": "block_4",
      "question": "Qu'est ce que prévoit la loi ?",
      "answer": "toute une série de procédures de conciliation pour arbitrer les différends éventuels",
      "answer_stringIds": [
        "string_241",
        "string_242",
        "string_243",
        "string_244",
        "string_245",
        "string_246",
        "string_247",
        "string_248",
        "string_249",
        "string_250",
        "string_251",
        "string_252"
      ]
    },
    {
      "id_qa": "FMSH_PB188a_30-31_078_qa10_v3",
      "id_block": "block_4",
      "question": "Dans quelle entreprise les travailleurs désignent-ils un Conseil d'Entreprise ?",
      "answer": "Dans toutes les entreprises allemandes",
      "answer_stringIds": [
        "string_123",
        "string_124",
        "string_125",
        "string_126",
        "string_127"
      ]
    },
    {
      "id_qa": "FMSH_PB188a_30-31_078_qa11_v3",
      "id_block": "block_4",
      "question": "Qui nomme un Conseil d'Entreprise ?",
      "answer": "les travailleurs",
      "answer_stringIds": [
        "string_129",
        "string_130"
      ]
    },
    {
      "id_qa": "FMSH_PB188a_30-31_078_qa12_v3",
      "id_block": "block_4",
      "question": "Qu'est-ce qui est interdit tant à l'employeur qu'au Conseil d'Entreprise ?",
      "answer": "des mesures de lutte ouvrière",
      "answer_stringIds": [
        "string_229",
        "string_230",
        "string_231",
        "string_232",
        "string_233"
      ]
    }
  ]
}