{
  "num": "autog_0005-0970_1967_num_4_1",
  "article": "autog_0005-0970_1967_num_4_1_914",
  "page_name": "FMSH_PB188a_00004_150",
  "questions": [
    {
      "id_qa": "FMSH_PB188a_00004_150_qa0_v3",
      "id_block": "block_1",
      "question": "Qui a été incapable de conserver le pouvoir ?",
      "answer": "la plèbe",
      "answer_stringIds": [
        "string_113",
        "string_114"
      ]
    },
    {
      "id_qa": "FMSH_PB188a_00004_150_qa1_v3",
      "id_block": "block_1",
      "question": "Qui a jamais eu les moyens de conserver le pouvoir ?",
      "answer": "la plèbe",
      "answer_stringIds": [
        "string_113",
        "string_114"
      ]
    },
    {
      "id_qa": "FMSH_PB188a_00004_150_qa4_v3",
      "id_block": "block_1",
      "question": "Qu'est-ce que la plèbe n'a jamais eu ?",
      "answer": "le pouvoir",
      "answer_stringIds": [
        "string_125",
        "string_126"
      ]
    },
    {
      "id_qa": "FMSH_PB188a_00004_150_qa13_v3",
      "id_block": "block_1",
      "question": "Qui a écrit que la République bourgcoïise ne pouvait être fondée que par la bourgeoisie ?",
      "answer": "Otto Bauer",
      "answer_stringIds": [
        "string_16",
        "string_17"
      ]
    },
    {
      "id_qa": "FMSH_PB188a_00004_150_qa16_v3",
      "id_block": "block_1",
      "question": "Par qui la République bourgcoïise devait-elle être fondée ?",
      "answer": "par les paysans",
      "answer_stringIds": [
        "string_58",
        "string_59",
        "string_60"
      ]
    },
    {
      "id_qa": "FMSH_PB188a_00004_150_qa17_v3",
      "id_block": "block_1",
      "question": "Quelle était la forme de la révolution bourgeoise sans bourgeois ?",
      "answer": "la République bourgcoïise",
      "answer_stringIds": [
        "string_38",
        "string_39",
        "string_40"
      ]
    },
    {
      "id_qa": "FMSH_PB188a_00004_150_qa18_v3",
      "id_block": "block_1",
      "question": "Par qui devait être fondée la République bourgcoïise ?",
      "answer": "par les paysans",
      "answer_stringIds": [
        "string_58",
        "string_59",
        "string_60"
      ]
    },
    {
      "id_qa": "FMSH_PB188a_00004_150_qa27_v3",
      "id_block": "block_1",
      "question": "Qu'est ce que les sovicts n'étaient pas en mesure de réaliser ?",
      "answer": "une telle dictature du prolétariat",
      "answer_stringIds": [
        "string_274",
        "string_275",
        "string_276",
        "string_277",
        "string_278"
      ]
    },
    {
      "id_qa": "FMSH_PB188a_00004_150_qa30_v3",
      "id_block": "block_1",
      "question": "Qui a engagé le « Cours nouveau » ?",
      "answer": "le gouvernement des soviets",
      "answer_stringIds": [
        "string_469",
        "string_470",
        "string_471",
        "string_472",
        "string_473"
      ]
    },
    {
      "id_qa": "FMSH_PB188a_00004_150_qa37_v3",
      "id_block": "block_1",
      "question": "Qui affirme que la domination des ouvriers et des paysans prit désormais la forme de la dictature des soviets ?",
      "answer": "Otto Bauer",
      "answer_stringIds": [
        "string_16",
        "string_17"
      ]
    },
    {
      "id_qa": "FMSH_PB188a_00004_150_qa38_v3",
      "id_block": "block_1",
      "question": "Quelle est la forme de la dictature des soviets ?",
      "answer": "la domination des ouvriers et",
      "answer_stringIds": [
        "string_226",
        "string_227",
        "string_228",
        "string_229",
        "string_230"
      ]
    },
    {
      "id_qa": "FMSH_PB188a_00004_150_qa40_v3",
      "id_block": "block_1",
      "question": "Qui a été forcé d'abolir le monopole des blés ?",
      "answer": "le gouvernement",
      "answer_stringIds": [
        "string_394",
        "string_395"
      ]
    },
    {
      "id_qa": "FMSH_PB188a_00004_150_qa44_v3",
      "id_block": "block_1",
      "question": "Quand le gouvernement a-t-il abolit le monopole des blés ?",
      "answer": "le 21 mars 1921",
      "answer_stringIds": [
        "string_390",
        "string_391",
        "string_392",
        "string_393"
      ]
    },
    {
      "id_qa": "FMSH_PB188a_00004_150_qa46_v3",
      "id_block": "block_1",
      "question": "Qui a abolit le monopole des blés ?",
      "answer": "le gouvernement",
      "answer_stringIds": [
        "string_394",
        "string_395"
      ]
    },
    {
      "id_qa": "FMSH_PB188a_00004_150_qa49_v3",
      "id_block": "block_1",
      "question": "Qu'est-ce que Radek a voulu abolir le 21 mars 1921 ?",
      "answer": "le monopole des blés",
      "answer_stringIds": [
        "string_351",
        "string_352",
        "string_353",
        "string_354"
      ]
    },
    {
      "id_qa": "FMSH_PB188a_00004_150_qa51_v3",
      "id_block": "block_1",
      "question": "Qui précisera plus tard qu'on est en présence d'une révolution ?",
      "answer": "Otto Bauer",
      "answer_stringIds": [
        "string_16",
        "string_17"
      ]
    },
    {
      "id_qa": "FMSH_PB188a_00004_150_qa52_v3",
      "id_block": "block_1",
      "question": "Quand Bauer précisera-t-il qu'on est ainsi en présence d'une révolution ?",
      "answer": "plus tard",
      "answer_stringIds": [
        "string_85",
        "string_86"
      ]
    },
    {
      "id_qa": "FMSH_PB188a_00004_150_qa53_v3",
      "id_block": "block_1",
      "question": "Qu'est ce que la Révolution d'Octobre ?",
      "answer": "un changement radical du mode de gouvernement",
      "answer_stringIds": [
        "string_200",
        "string_201",
        "string_202",
        "string_203",
        "string_204",
        "string_205",
        "string_206"
      ]
    },
    {
      "id_qa": "FMSH_PB188a_00004_150_qa56_v3",
      "id_block": "block_1",
      "question": "Qui a écrit la deuxième phase de la révolution russe ?",
      "answer": "Otto Bauer",
      "answer_stringIds": [
        "string_16",
        "string_17"
      ]
    },
    {
      "id_qa": "FMSH_PB188a_00004_150_qa58_v3",
      "id_block": "block_1",
      "question": "Qui avait annoncé que la propriété individuelle paysanne ruinerait l'orga ?",
      "answer": "Bauer",
      "answer_stringIds": [
        "string_17"
      ]
    },
    {
      "id_qa": "FMSH_PB188a_00004_150_qa59_v3",
      "id_block": "block_1",
      "question": "Qu'est ce qui ruinerait l'orga ?",
      "answer": "la propriété individuelle paysanne",
      "answer_stringIds": [
        "string_310",
        "string_311",
        "string_312",
        "string_313"
      ]
    },
    {
      "id_qa": "FMSH_PB188a_00004_150_qa64_v3",
      "id_block": "block_1",
      "question": "Quand Bauer conclut-il que l'histoire a tranché en sa faveur ?",
      "answer": "le 12 novembre 1921",
      "answer_stringIds": [
        "string_438",
        "string_439",
        "string_440",
        "string_441"
      ]
    },
    {
      "id_qa": "FMSH_PB188a_00004_150_qa68_v3",
      "id_block": "block_3",
      "question": "Qui a écrit le dernier combat de Lénine ?",
      "answer": "Moshe Lewin",
      "answer_stringIds": [
        "string_552",
        "string_553"
      ]
    }
  ]
}