{
  "num": "autog_0338-7259_1977_num_37_1",
  "article": "autog_0338-7259_1977_num_37_1_1245_t1_0200_0000_1",
  "page_name": "FMSH_PB188a_37-38_204",
  "questions": [
    {
      "id_qa": "FMSH_PB188a_37-38_204_qa29_v3",
      "id_block": "block_1",
      "question": "Quel est le caractère hiérarchique et despotique du Dahomey ?",
      "answer": "les monarchies sacrées des Yoruba",
      "answer_stringIds": [
        "string_X"
      ]
    },
    {
      "id_qa": "FMSH_PB188a_37-38_204_qa30_v3",
      "id_block": "block_1",
      "question": "Quel est le caractère des monarchies sacrées des Yoruba ?",
      "answer": "le caractère hiérarchique et despotique du Dahomey",
      "answer_stringIds": [
        "string_X"
      ]
    },
    {
      "id_qa": "FMSH_PB188a_37-38_204_qa15_v3",
      "id_block": "block_2",
      "question": "Qu'a pu entraîner l'apparition d'un Etat au Dahomey ?",
      "answer": "la prise en main et le contrôle du phénomène",
      "answer_stringIds": [
        "string_X"
      ]
    },
    {
      "id_qa": "FMSH_PB188a_37-38_204_qa18_v3",
      "id_block": "block_2",
      "question": "Qu'est-ce que l'Etat au Dahomey ?",
      "answer": "religieuse",
      "answer_stringIds": [
        "string_X"
      ]
    },
    {
      "id_qa": "FMSH_PB188a_37-38_204_qa26_v3",
      "id_block": "block_2",
      "question": "Qui ne rend pas justice à l'extrême diversité des sociétés africaines ?",
      "answer": "Lapassade me",
      "answer_stringIds": [
        "string_X"
      ]
    },
    {
      "id_qa": "FMSH_PB188a_37-38_204_qa9_v3",
      "id_block": "block_3",
      "question": "Qu'est ce que la transe révèle ?",
      "answer": "des sociétés",
      "answer_stringIds": [
        "string_X"
      ]
    },
    {
      "id_qa": "FMSH_PB188a_37-38_204_qa10_v3",
      "id_block": "block_3",
      "question": "Qu'est-ce que la transe révèle ?",
      "answer": "sociétés",
      "answer_stringIds": [
        "string_X"
      ]
    }
  ]
}