{
  "num": "autog_0249-2563_1984_num_17_16",
  "article": "autog_0249-2563_1984_num_17_16_1897_t1_0129_0000_2",
  "page_name": "autog_0249-2563_1984_num_17_16_T1_0130_0000",
  "questions": [
    "Quels sont les retombées de la gestion selon les auteurs ?",
    "Comment la production est-elle dirigée selon les auteurs ?",
    "Quel est le niveau de la gestion où les auteurs observent l'incompétence et la bêtise ?",
    "Quels livres peuvent-on comparer à celui des auteurs ?",
    "Quel est le rôle des technologies et des sciences modernes dans les entreprises selon les auteurs ?",
    "Est-ce que le retour à la production du style « premier ordre » est suffisant selon les auteurs ?",
    "Pourquoi le pragmatisme anglo-saxon vise-t-il trop bas selon les auteurs ?",
    "Quel est le rôle de l'abstraction dans une révolution technologique ou sociale ?",
    "Pourquoi est-il utile de lire ce livre pour ceux qui n'ont pas vécu la vie des cadres dans une entreprise moderne ?"
  ]
}