{
  "num": "autog_0338-7259_1970_num_11_1",
  "article": "autog_0338-7259_1970_num_11_1_967",
  "page_name": "FMSH_PB188a_11-12_181",
  "questions": [
    {
      "id_qa": "FMSH_PB188a_11-12_181_qa12_v3",
      "id_block": "block_1",
      "question": "Qu'est-ce qui concerne les autres possibilités ?",
      "answer": "les questions du contact",
      "answer_stringIds": [
        "string_22",
        "string_23",
        "string_24",
        "string_25"
      ]
    },
    {
      "id_qa": "FMSH_PB188a_11-12_181_qa13_v3",
      "id_block": "block_1",
      "question": "Qu'est-ce qui concerne les questions du contact ?",
      "answer": "Les autres possibilités",
      "answer_stringIds": [
        "string_17",
        "string_18",
        "string_19"
      ]
    },
    {
      "id_qa": "FMSH_PB188a_11-12_181_qa0_v3",
      "id_block": "block_3",
      "question": "Qui doit se présenter aux différents secteurs de travail pour rendre compte de leur activité ?",
      "answer": "les membres du conseil ouvrier",
      "answer_stringIds": [
        "string_38",
        "string_39",
        "string_40",
        "string_41",
        "string_42"
      ]
    },
    {
      "id_qa": "FMSH_PB188a_11-12_181_qa3_v3",
      "id_block": "block_3",
      "question": "Que doivent faire les membres du conseil ouvrier ?",
      "answer": "le contact",
      "answer_stringIds": [
        "string_61",
        "string_62"
      ]
    },
    {
      "id_qa": "FMSH_PB188a_11-12_181_qa4_v3",
      "id_block": "block_3",
      "question": "Où les membres du conseil ouvrier doivent-ils se présenter ?",
      "answer": "aux différents secteurs de travail",
      "answer_stringIds": [
        "string_47",
        "string_48",
        "string_49",
        "string_50",
        "string_51"
      ]
    },
    {
      "id_qa": "FMSH_PB188a_11-12_181_qa21_v3",
      "id_block": "block_4",
      "question": "Sur qui le conseil ouvrier doit-il s'appuyer ?",
      "answer": "sur les ouvriers",
      "answer_stringIds": [
        "string_85",
        "string_86",
        "string_87"
      ]
    },
    {
      "id_qa": "FMSH_PB188a_11-12_181_qa14_v3",
      "id_block": "block_5",
      "question": "Qui doit rendre compte de son travail à ses électeurs ?",
      "answer": "le représentant du conseil ouvrier",
      "answer_stringIds": [
        "string_115",
        "string_116",
        "string_117",
        "string_118",
        "string_119"
      ]
    },
    {
      "id_qa": "FMSH_PB188a_11-12_181_qa15_v3",
      "id_block": "block_5",
      "question": "Avec qui les revendications portent-elles ?",
      "answer": "une coopération étroite avec les organisations syndicales",
      "answer_stringIds": [
        "string_94",
        "string_95",
        "string_96",
        "string_97",
        "string_98",
        "string_99",
        "string_100",
        "string_101"
      ]
    },
    {
      "id_qa": "FMSH_PB188a_11-12_181_qa10_v3",
      "id_block": "block_6",
      "question": "Qui a plus confiance dans ce nouvel organe de gestion démocratique de l'entreprise ?",
      "answer": "les travailleurs",
      "answer_stringIds": [
        "string_203",
        "string_204"
      ]
    },
    {
      "id_qa": "FMSH_PB188a_11-12_181_qa25_v3",
      "id_block": "block_6",
      "question": "Qu'est-ce que le conseil ouvrier ?",
      "answer": "le mode de communication entre le conseil ouvrier et les différents lieux de travail",
      "answer_stringIds": [
        "string_167",
        "string_168",
        "string_169",
        "string_170",
        "string_171",
        "string_172",
        "string_173",
        "string_174",
        "string_175",
        "string_176",
        "string_177",
        "string_178",
        "string_179",
        "string_180"
      ]
    }
  ]
}