{
  "num": "autog_0005-0970_1969_num_9_1",
  "article": "autog_0005-0970_1969_num_9_1_958",
  "page_name": "FMSH_PB188a_09-10_194",
  "questions": [
    "Quels deux idées sont-elles équivalentes selon Bancal ?",
    "Dans quelle propriété on trouve un démembrement de l'état ?",
    "Dans quelle forme l'état présente-t-il une souveraineté propriétaire ?",
    "Comment les états dominants et propriétés subordonnées sont-ils issus d'un même héritage ?",
    "Comment le capitalisme propriétaire et le gouvernementalisme étatique sont-ils liés selon Bancal ?",
    "Qu'est le rôle de la société dans la création de l'économie sociale selon Bancel ?",
    "Qu'est le socialisme selon Bancal ?",
    "Qu'est la démocratie selon Bancal ?",
    "Comment l'autorité de l'homme sur l'homme se manifeste selon Bancal ?",
    "Qu'est l'exploitation de l'homme par l'homme selon Bancal ?",
    "Comment le capitalisme propriétaire et le gouvernement arbitraire sont-ils des analogues selon Bancal ?"
  ]
}