{
  "num": "autog_0005-0970_1969_num_9_1",
  "article": "autog_0005-0970_1969_num_9_1_958",
  "page_name": "FMSH_PB188a_09-10_210",
  "questions": [
    "Quel rôle joue Jean Bancal selon la loi primordiale de l'antagonisme et de son équilibre ?",
    "Quel est le résultat de la faussse loi d'équilibre-justice et de l'intégration par le travail ?",
    "Quel est l'idole érigée par le mysticisme doctrinaire dans la pluralité sociale ?",
    "Comment se produit l'arbitrage des forces et leur équilibration mutuelle ?",
    "Qu'est la dégénérescence de la fonction de l'autorité arbitrale ?",
    "Quels sont les mythes précédents résumés sous le masque de la démocratie par l'État-justicier ?",
    "Comment se constitue et s'entretient l'État, ou plutôt la caste des hauts fonctionnaires ?",
    "Qu'est l'acte de soumission et de foi au pouvoir résultant des révolutions émancipatrices ?",
    "Qu'est l'aliénation étatique et comment constitue-t-elle la vraie tyrannie pour les sociétés modernes ?",
    "Quels groupes sont-ils dans la centralisation hiérarchique, dans l'indivision gouvernementale, et qu'est leur rôle dans la société ?"
  ]
}