{
  "num": "autog_0005-0970_1969_num_9_1",
  "article": "autog_0005-0970_1969_num_9_1_958",
  "page_name": "FMSH_PB188a_09-10_214",
  "questions": [
    "Quel rôle ignore cette constitution envers l'autonomie et la capacité de la société et de ses groupes constitutifs ?",
    "Comment la constitution capitaliste ignore l'autonomie et la capacité des mêmes collectivités sociales ?",
    "Qu'est-ce que cette constitution extra-sociale de la puissance collective ?",
    "Comment cette constitution est-elle la négation radicale des êtres collectifs doués d'autonomie et d'action ?",
    "Qu'est-ce que les Grecs appelaient cette constitution ?",
    "Sur quelle hypothèse cette constitution repose-t-elle ?",
    "Qu'est-ce que cette « fiction du gouvernement représentatif » permet ?",
    "Comment la collectivité sociale a-t-elle besoin de se faire représenter ?",
    "Comment l'être collectif est-il présenté dans cette constitution ?",
    "Comment cette constitution conteste ou interdit toute manifestation propre et personnelle à l'être collectif ?",
    "Comment Proudhon nie totalement cette notion de l'être collectif ?",
    "Comment la société est-elle décrite dans ce texte ?",
    "Quel est le rôle des intermédiaires dans cette constitution ?",
    "Comment l'autonomie et l'action directe de la puissance collective sont-elles empêchées selon cette constitution ?",
    "Comment l'être collectif est-il décrit dans ce texte ?",
    "Comment l'être collectif est-il présenté comme la source de tout pouvoir ?",
    "Comment l'être collectif est-il décrit dans les termes de mineur ou de prodigue ?"
  ]
}