{
  "num": "autog_0005-0970_1969_num_9_1",
  "article": "autog_0005-0970_1969_num_9_1_958",
  "page_name": "FMSH_PB188a_09-10_232",
  "questions": [
    "Quel est le rôle contesté de Jean Bancal dans une organisation pluraliste ?",
    "Quel est le lien entre la mise hors de tutelle de Jean Bancal et sa capacité à s'autogérer et s'auto-administrer ?",
    "Comment les idées de Proudhon sur le rôle de l'État changent selon le maître qu'il porte ?",
    "Quel est le lien entre la contrainte et le travail selon Cap. Pol. ?",
    "Comment les aberrations du pouvoir et la religion de la force dominent les intelligences et poussent la société vers la déception ?",
    "Comment peut-on transformer la société par l'initiative du capital ou par l'initiative de l'État ?",
    "Comment l'analyse idéologique ne suffit-elle pas à expliquer la dévotion populaire et des vrais démocrates à l'État ?",
    "Comment il faut confronter l'analyse idéologique à une analyse de la mystique du pouvoir étatique ?",
    "Comment Proudhon critique l'État-despote en termes de constitution extra sociale, concentration hiérarchique des pouvoirs et religion de la force ?"
  ]
}