{
  "num": "autog_0005-0970_1969_num_9_1",
  "article": "autog_0005-0970_1969_num_9_1_958",
  "page_name": "FMSH_PB188a_09-10_248",
  "questions": [
    "Quel est le contexte et la signification ignoreés dans le texte de Mélanges III ?",
    "Quelles sont les deux questions que Proudhon discute ici ?",
    "Qu'avait accusé Leroux de Prdidhon ?",
    "Quelle est la conclusion de Proudhon sur l'identité des questions politiques et économiques ?",
    "Quelles sont les différentes solutions possibles pour résoudre les questions sociales ?",
    "Comment Proudhon voit les aspects politiques et économiques de la libération de la société du travail contre l'aliénation capitaliste et étatique ?",
    "Quel est le résultat final de Proudhon sur l'organisation de l'état ?",
    "Comment Proudhon considère l'organisation économique et l'organisation politique dans sa pensée ?"
  ]
}