{
  "num": "autog_0005-0970_1969_num_9_1",
  "article": "autog_0005-0970_1969_num_9_1_958",
  "page_name": "FMSH_PB188a_09-10_217",
  "questions": [
    "Quels schémas d'action pratiques développe-t-Proudhon dans cette critique étatique violente ?",
    "Comment l'extension et la généralisation de la notion de personne, du moi, s'opère-t-elle selon Proudhon ?",
    "Qu'est-ce que cette organisation selon Proudhon ?",
    "Comment cette organisation est-elle liée à la vie et à l'action ?",
    "Comment cette saisie sociale permet-elle une construction scientifique selon Proudhon ?",
    "Qu'est-ce que ce socialisme scientifique et critique selon Proudhon ?",
    "Quels critères socio-politiques dégage cette science selon Proudhon ?",
    "L'État restant organisé sur le type de l'administration domestique et féodale, est-il irréformable selon Proudhon ?",
    "Le gouvernement étatique, doit-il être aboli pour être remplacé par un nouvel état social selon Proudhon ?",
    "Quel est le genre général d'organisation politique selon Proudhon et qu'est-ce que le gouvernement étatique en est qu'une espèce ?",
    "Quelles sont les façons de penser la politique selon Proudhon malgré la fascination de l'intelligence politique et le conservatisme des mentalités ?"
  ]
}