{
  "num": "autog_0005-0970_1969_num_9_1",
  "article": "autog_0005-0970_1969_num_9_1_958",
  "page_name": "FMSH_PB188a_09-10_216",
  "questions": [
    "Quel rôle joue Jean Bancal dans la constitution sociale réelle selon Proudhon ?",
    "Quel est le nouveau rôle de la famille dans la société selon Proudhon ?",
    "Quel devient le rôle du tuteur paternel pour éviter de devenir un tyran domestique ?",
    "Qu'affirme Proudhon en niant l'état et le gouvernement ?",
    "Qu'entend Proudhon par l'anarchie ?",
    "Quels sont les principes de la constitution des êtres collectifs et des lois selon Proudhon ?",
    "Qu'est la contradiction entre la société officielle et la constitution réelle de la société selon Proudhon ?",
    "Comment le peuple passe-t-il de l'âge infantile à l'âge adulte selon Proudhon ?",
    "Qu'est la vautogestion et comment elle se manifeste selon Proudhon ?",
    "Quels sont les trois aspects de la vautogestion selon Proudhon ?",
    "Comment la réforme économique s'effectue selon Proudhon ?",
    "Comment s'établit l'organisation fédérative de la solidarité industrielle selon Proudhon ?",
    "Comment s'organise le suffrage universel selon Proudhon ?"
  ]
}