{
  "num": "autog_0005-0970_1969_num_9_1",
  "article": "autog_0005-0970_1969_num_9_1_958",
  "page_name": "FMSH_PB188a_09-10_251",
  "questions": [
    "Quel est le rôle politique de la société travailleuse selon Proudhon ?",
    "Quel est l'objectif de l'opposition libérale face au régime politique en place ?",
    "Comment décrit-on le régime capitaliste selon Proudhon ?",
    "Quel est le résultat de l'abolition du régime de la propriété capitaliste selon Proudhon ?",
    "Quel est le but de l'organisation économique selon Proudhon ?",
    "Quel est le risque d'un état dictatorial dans le cadre du socialisme selon Proudhon ?",
    "Comment Proudhon caractérise-t-il le collectivisme libéral et décentralisé ?",
    "Quel est le lien entre la centralisation des fonctions agricoles et industrielles et l'état selon Proudhon ?"
  ]
}