{
  "num": "autog_0338-7259_1977_num_37_1",
  "article": "autog_0338-7259_1977_num_37_1_1221",
  "page_name": "FMSH_PB188a_37-38_061",
  "questions": [
    "Quel projet collectif d'analyse institutionnelle a été tenté à Vincennes ?",
    "Quels sont les militants et théoriciens engagés dans le combat pour un socialisme autogestionnaire que l'auteur souhaite discuter avec au sein du comité de rédaction ?",
    "Quel sujet théorique a l'enseignant abordé l'an passé à Vincennes ?",
    "Quels liens unissent les courants autogestionnaire et institutionnel selon les auteurs cités ?",
    "Quels sont les revues qui se sont ouvertes aux thèses de l'analyse institutionnelle récemment ?",
    "Quels sont les points de vue psychosociologiques que les institutionnalistes ont approfondis récemment ?",
    "Quel est le problème posé par le financement de la revue ?",
    "Quel élément financier a été obtenu par Bourdet auprès du ÆC.N.R.S. ?"
  ]
}