{
  "num": "autog_0005-0970_1967_num_2_1",
  "article": "autog_0005-0970_1967_num_2_1_903",
  "page_name": "FMSH_PB188a_00002_116",
  "questions": [
    {
      "id_qa": "FMSH_PB188a_00002_116_qa0_v3",
      "id_block": "block_12",
      "question": "De quoi dépendent les privilèges et les droits ?",
      "answer": "la personnalité du fonctionnaire",
      "answer_stringIds": [
        "string_104",
        "string_105",
        "string_106",
        "string_107",
        "string_108"
      ]
    },
    {
      "id_qa": "FMSH_PB188a_00002_116_qa1_v3",
      "id_block": "block_12",
      "question": "A quoi sont attachés les privilèges et les droits ?",
      "answer": "à la fonction",
      "answer_stringIds": [
        "string_96",
        "string_97",
        "string_98"
      ]
    },
    {
      "id_qa": "FMSH_PB188a_00002_116_qa2_v3",
      "id_block": "block_12",
      "question": "Qu'est ce qui n'est pas attaché à la fonction ?",
      "answer": "les privilèges et les droits",
      "answer_stringIds": [
        "string_85",
        "string_86",
        "string_87",
        "string_88",
        "string_89"
      ]
    },
    {
      "id_qa": "FMSH_PB188a_00002_116_qa16_v3",
      "id_block": "block_14",
      "question": "Qui sont élus et non nommés ?",
      "answer": "Les responsables",
      "answer_stringIds": [
        "string_128",
        "string_129"
      ]
    },
    {
      "id_qa": "FMSH_PB188a_00002_116_qa22_v3",
      "id_block": "block_14",
      "question": "Qu'est ce qui est plus important pour être élu ?",
      "answer": "les qualités",
      "answer_stringIds": [
        "string_143",
        "string_144"
      ]
    },
    {
      "id_qa": "FMSH_PB188a_00002_116_qa23_v3",
      "id_block": "block_15",
      "question": "Qu'est ce qui s'exerce en plus de l'occupation ?",
      "answer": "La fonction",
      "answer_stringIds": [
        "string_16",
        "string_17"
      ]
    },
    {
      "id_qa": "FMSH_PB188a_00002_116_qa6_v3",
      "id_block": "block_17",
      "question": "Quel est le but du système bureaucratique ?",
      "answer": "buts de fonction",
      "answer_stringIds": [
        "string_243",
        "string_244",
        "string_245"
      ]
    },
    {
      "id_qa": "FMSH_PB188a_00002_116_qa15_v3",
      "id_block": "block_18",
      "question": "Qu'est ce qui caractérise le mode de vie du kibboutz ?",
      "answer": "les principes de la bureaucratie",
      "answer_stringIds": [
        "string_273",
        "string_274",
        "string_275",
        "string_276",
        "string_277"
      ]
    },
    {
      "id_qa": "FMSH_PB188a_00002_116_qa7_v3",
      "id_block": "block_20",
      "question": "Qu'est ce qui constitue une menace possible à la marche régulière et efficace de l'organisation ?",
      "answer": "les rapports directs et personnels entre les citoyens et les responsables",
      "answer_stringIds": [
        "string_309",
        "string_310",
        "string_311",
        "string_312",
        "string_313",
        "string_314",
        "string_315",
        "string_316",
        "string_317",
        "string_318",
        "string_319"
      ]
    },
    {
      "id_qa": "FMSH_PB188a_00002_116_qa9_v3",
      "id_block": "block_5",
      "question": "Qu'est ce qui comporte des droits et des privilèges impersonnels ?",
      "answer": "La fonction",
      "answer_stringIds": [
        "string_16",
        "string_17"
      ]
    },
    {
      "id_qa": "FMSH_PB188a_00002_116_qa21_v3",
      "id_block": "block_6",
      "question": "Par quoi se traduit l'autorité des fonctionnaires ?",
      "answer": "Hiérarchie des autorités fonctionnelles",
      "answer_stringIds": [
        "string_30",
        "string_31",
        "string_32",
        "string_33"
      ]
    },
    {
      "id_qa": "FMSH_PB188a_00002_116_qa11_v3",
      "id_block": "block_7",
      "question": "Sur quoi repose la désignation des responsables ?",
      "answer": "des qualifications objectives",
      "answer_stringIds": [
        "string_50",
        "string_51",
        "string_52"
      ]
    }
  ]
}