{
  "num": "autog_0249-2563_1980_num_13_4",
  "article": "autog_0249-2563_1980_num_13_4_1388",
  "page_name": "autog_0249-2563_1980_num_13_4_T1_0398_0000",
  "questions": [
    {
      "id_qa": "autog_0249-2563_1980_num_13_4_T1_0398_0000_qa23_v3",
      "id_block": "block_1",
      "question": "A quoi servent les organismes secondaires ?",
      "answer": "à la coordination des organisations de base",
      "answer_stringIds": [
        "string_15",
        "string_16",
        "string_17",
        "string_18",
        "string_19",
        "string_20",
        "string_21"
      ]
    },
    {
      "id_qa": "autog_0249-2563_1980_num_13_4_T1_0398_0000_qa2_v3",
      "id_block": "block_2",
      "question": "Qui établit les plans de culture ?",
      "answer": "Ce comité",
      "answer_stringIds": [
        "string_132",
        "string_133"
      ]
    },
    {
      "id_qa": "autog_0249-2563_1980_num_13_4_T1_0398_0000_qa3_v3",
      "id_block": "block_2",
      "question": "Quel est le métier du comité ?",
      "answer": "un gérant",
      "answer_stringIds": [
        "string_166",
        "string_167"
      ]
    },
    {
      "id_qa": "autog_0249-2563_1980_num_13_4_T1_0398_0000_qa16_v3",
      "id_block": "block_2",
      "question": "De qui dépendent les coopératives et sAIS ?",
      "answer": "leur gérant",
      "answer_stringIds": [
        "string_238",
        "string_239"
      ]
    },
    {
      "id_qa": "autog_0249-2563_1980_num_13_4_T1_0398_0000_qa17_v3",
      "id_block": "block_2",
      "question": "De quoi dépendent les coopératives et sAIS ?",
      "answer": "capacités",
      "answer_stringIds": [
        "string_233"
      ]
    },
    {
      "id_qa": "autog_0249-2563_1980_num_13_4_T1_0398_0000_qa8_v3",
      "id_block": "block_3",
      "question": "Qui a le droit de présenter des candidats ?",
      "answer": "les conseils de surveillance des coopératives",
      "answer_stringIds": [
        "string_256",
        "string_257",
        "string_258",
        "string_259",
        "string_260",
        "string_261"
      ]
    },
    {
      "id_qa": "autog_0249-2563_1980_num_13_4_T1_0398_0000_qa19_v3",
      "id_block": "block_3",
      "question": "Qu'exprime la direction de la réforme agraire ?",
      "answer": "une volonté de contrôle politique",
      "answer_stringIds": [
        "string_295",
        "string_296",
        "string_297",
        "string_298",
        "string_299"
      ]
    }
  ]
}