{
  "num": "autog_0249-2563_1982_num_15_8",
  "article": "autog_0249-2563_1982_num_15_8_1485",
  "page_name": "autog_0249-2563_1982_num_15_8_T1_0193_0000",
  "questions": [
    {
      "id_qa": "autog_0249-2563_1982_num_15_8_T1_0193_0000_qa19_v3",
      "id_block": "block_0",
      "question": "Où sont situées les sociétés tribales ?",
      "answer": "en Amazonie",
      "answer_stringIds": [
        "string_26",
        "string_27"
      ]
    },
    {
      "id_qa": "autog_0249-2563_1982_num_15_8_T1_0193_0000_qa21_v3",
      "id_block": "block_0",
      "question": "A quand remonte l'apparition des sociétés tribales ?",
      "answer": "encore récemment",
      "answer_stringIds": [
        "string_18",
        "string_19"
      ]
    },
    {
      "id_qa": "autog_0249-2563_1982_num_15_8_T1_0193_0000_qa0_v3",
      "id_block": "block_1",
      "question": "Qu'échange-t-on en échange de valeurs d'usage ?",
      "answer": "des heures de travail",
      "answer_stringIds": [
        "string_363",
        "string_364",
        "string_365",
        "string_366"
      ]
    },
    {
      "id_qa": "autog_0249-2563_1982_num_15_8_T1_0193_0000_qa2_v3",
      "id_block": "block_1",
      "question": "Qu'achète-t-on pour mes heures de travail ?",
      "answer": "des choses",
      "answer_stringIds": [
        "string_389",
        "string_390"
      ]
    },
    {
      "id_qa": "autog_0249-2563_1982_num_15_8_T1_0193_0000_qa9_v3",
      "id_block": "block_1",
      "question": "Qu'est-ce qui se fait avec une majorité d'instruments très perfomants et sophistiqués ?",
      "answer": "La production autonome",
      "answer_stringIds": [
        "string_28",
        "string_29",
        "string_30"
      ]
    },
    {
      "id_qa": "autog_0249-2563_1982_num_15_8_T1_0193_0000_qa11_v3",
      "id_block": "block_1",
      "question": "Quand la production autonome se fait-elle ?",
      "answer": "aujourd'hui",
      "answer_stringIds": [
        "string_103"
      ]
    },
    {
      "id_qa": "autog_0249-2563_1982_num_15_8_T1_0193_0000_qa12_v3",
      "id_block": "block_1",
      "question": "Quel groupe peut avoir la maîtrise de la production autonome ?",
      "answer": "chaque groupe ou individu",
      "answer_stringIds": [
        "string_119",
        "string_120",
        "string_121",
        "string_122"
      ]
    },
    {
      "id_qa": "autog_0249-2563_1982_num_15_8_T1_0193_0000_qa18_v3",
      "id_block": "block_1",
      "question": "Qu'est ce qui n'y change rien ?",
      "answer": "Le socialisme",
      "answer_stringIds": [
        "string_427",
        "string_428"
      ]
    }
  ]
}