{
  "num": "autog_0249-2563_1981_num_14_7",
  "article": "autog_0249-2563_1981_num_14_7_1771",
  "page_name": "autog_0249-2563_1981_num_14_7_T1_0378_0000",
  "questions": [
    {
      "id_qa": "autog_0249-2563_1981_num_14_7_T1_0378_0000_qa32_v3",
      "id_block": "block_0",
      "question": "Dans quelles institutions les veaux notables roses s'emploient-ils aujourd'hui ?",
      "answer": "les commissions et comités",
      "answer_stringIds": [
        "string_13",
        "string_14",
        "string_15",
        "string_16"
      ]
    },
    {
      "id_qa": "autog_0249-2563_1981_num_14_7_T1_0378_0000_qa44_v3",
      "id_block": "block_0",
      "question": "Qui a d'ores et déjà conquis l'hégémonie dans les nouveaux mouvements sociaux ?",
      "answer": "les élites néo-petites-bourgeoises",
      "answer_stringIds": [
        "string_51",
        "string_52",
        "string_53",
        "string_54"
      ]
    },
    {
      "id_qa": "autog_0249-2563_1981_num_14_7_T1_0378_0000_qa10_v3",
      "id_block": "block_1",
      "question": "Comment la Gauche entend-elle s'y atteler ?",
      "answer": "année après année",
      "answer_stringIds": [
        "string_180",
        "string_181",
        "string_182"
      ]
    },
    {
      "id_qa": "autog_0249-2563_1981_num_14_7_T1_0378_0000_qa11_v3",
      "id_block": "block_1",
      "question": "Qui a réussi à réaliser cette tâche historique ?",
      "answer": "représentants de la Droite française",
      "answer_stringIds": [
        "string_147",
        "string_148",
        "string_149",
        "string_150",
        "string_151"
      ]
    },
    {
      "id_qa": "autog_0249-2563_1981_num_14_7_T1_0378_0000_qa13_v3",
      "id_block": "block_1",
      "question": "Qui veut s'attaquer à cette tâche historique ?",
      "answer": "la Gauche",
      "answer_stringIds": [
        "string_164",
        "string_165"
      ]
    },
    {
      "id_qa": "autog_0249-2563_1981_num_14_7_T1_0378_0000_qa23_v3",
      "id_block": "block_1",
      "question": "Qu'est-ce que le socialisme à la française ?",
      "answer": "ses réformes",
      "answer_stringIds": [
        "string_194",
        "string_195"
      ]
    },
    {
      "id_qa": "autog_0249-2563_1981_num_14_7_T1_0378_0000_qa46_v3",
      "id_block": "block_5",
      "question": "Qu'est-ce que le socialisme veut supprimer ?",
      "answer": "ces organes",
      "answer_stringIds": [
        "string_338",
        "string_339"
      ]
    }
  ]
}