{
  "num": "autog_0249-2563_1984_num_17_16",
  "article": "autog_0249-2563_1984_num_17_16_1587",
  "page_name": "autog_0249-2563_1984_num_17_16_T1_0011_0000",
  "questions": [
    "Quels comportements des employés sont-ils incapables ou refusent-ils d'adapter aux modes de relations professionnelles de l'entreprise classique ?",
    "Quels sont les nouvelles aspirations sociales liées à un autre rapport au travail ?",
    "Comment les nouveaux comportements des employés peuvent-ils être plus adaptés aux besoins de la clientèle que les normes de l'entrepreneur classique ?",
    "Dans quels cas peut-on considérer que les clients demandent explicitement des relations de travail différentes ?",
    "Comment les clients et les employés sont-ils associés dans une relation de travail payée ?",
    "Quels échanges peuvent résulter de ces nouvelles formes de sociabilité ?",
    "Quels sont les nouveaux \"timings\" de production implicites dans le travail au noir ?",
    "Comment les filles participent-elles à la prestation d'entreprise qualifiée ?",
    "Quels sont les avantages pour les clients de travailler avec des employés dans des endroits relativement banalisés ?",
    "Comment les comportements au travail qualifiés de \"mutants\" sont-ils autorisés par l'entreprise et acceptés par le client ?"
  ]
}