{
  "num": "autog_0338-7259_1970_num_11_1",
  "article": "autog_0338-7259_1970_num_11_1_965",
  "page_name": "FMSH_PB188a_11-12_129",
  "questions": [
    {
      "id_qa": "FMSH_PB188a_11-12_129_qa12_v3",
      "id_block": "block_3",
      "question": "Quel est le seul modèle du socialisme scientifique ?",
      "answer": "avec un seul modèle — celui fondé sur des directives",
      "answer_stringIds": [
        "string_25",
        "string_26",
        "string_27",
        "string_28",
        "string_29",
        "string_30",
        "string_31",
        "string_32",
        "string_33",
        "string_34"
      ]
    },
    {
      "id_qa": "FMSH_PB188a_11-12_129_qa11_v3",
      "id_block": "block_3",
      "question": "Sur quoi repose le socialisme scientifique ?",
      "answer": "sur des directives",
      "answer_stringIds": [
        "string_32",
        "string_33",
        "string_34"
      ]
    },
    {
      "id_qa": "FMSH_PB188a_11-12_129_qa0_v3",
      "id_block": "block_4",
      "question": "Qu'est-ce qui est désormais stabilisé ?",
      "answer": "Ce système",
      "answer_stringIds": [
        "string_185",
        "string_186"
      ]
    },
    {
      "id_qa": "FMSH_PB188a_11-12_129_qa1_v3",
      "id_block": "block_4",
      "question": "Qu'est-ce qui parvient à transformer le système ?",
      "answer": "transformer tout succès partiel du mouvement",
      "answer_stringIds": [
        "string_202",
        "string_203",
        "string_204",
        "string_205",
        "string_206",
        "string_207"
      ]
    },
    {
      "id_qa": "FMSH_PB188a_11-12_129_qa3_v3",
      "id_block": "block_4",
      "question": "Qu'est-ce qui est désormais tellement stabilisé ?",
      "answer": "Ce système",
      "answer_stringIds": [
        "string_185",
        "string_186"
      ]
    },
    {
      "id_qa": "FMSH_PB188a_11-12_129_qa4_v3",
      "id_block": "block_4",
      "question": "De quoi est doté le système ?",
      "answer": "telles relations mutuelles multiples",
      "answer_stringIds": [
        "string_194",
        "string_195",
        "string_196",
        "string_197"
      ]
    },
    {
      "id_qa": "FMSH_PB188a_11-12_129_qa15_v3",
      "id_block": "block_4",
      "question": "Quels sont les espoirs qu'on attache dans une partie du mouvement ouvrier des pays occidentaux ?",
      "answer": "possibilités de participation à la gestion de la production et",
      "answer_stringIds": [
        "string_92",
        "string_93",
        "string_94",
        "string_95",
        "string_96",
        "string_97",
        "string_98",
        "string_99",
        "string_100",
        "string_101"
      ]
    }
  ]
}