{
  "num": "autog_0338-7259_1970_num_11_1",
  "article": "autog_0338-7259_1970_num_11_1_965",
  "page_name": "FMSH_PB188a_11-12_137",
  "questions": [
    {
      "id_qa": "FMSH_PB188a_11-12_137_qa19_v3",
      "id_block": "block_1",
      "question": "Quelle est la force potentielle de l'homme selon Marx ?",
      "answer": "la force potentielle appelée à surmonter les paramètres de la société industrielle du type bourgeois",
      "answer_stringIds": [
        "string_113",
        "string_114",
        "string_115",
        "string_116",
        "string_117",
        "string_118",
        "string_119",
        "string_120",
        "string_121",
        "string_122",
        "string_123",
        "string_124",
        "string_125",
        "string_126",
        "string_127"
      ]
    },
    {
      "id_qa": "FMSH_PB188a_11-12_137_qa0_v3",
      "id_block": "block_2",
      "question": "Qu'est ce qui ne peut en lui-même résoudre les intérêts contradictoires des groupes ?",
      "answer": "un élément de la collectivité",
      "answer_stringIds": [
        "string_131",
        "string_132",
        "string_133",
        "string_134",
        "string_135"
      ]
    },
    {
      "id_qa": "FMSH_PB188a_11-12_137_qa1_v3",
      "id_block": "block_2",
      "question": "Qu'est-ce qu'un élément de la collectivité ne peut pas résoudre ?",
      "answer": "les intérêts contradictoires des groupes",
      "answer_stringIds": [
        "string_141",
        "string_142",
        "string_143",
        "string_144",
        "string_145"
      ]
    },
    {
      "id_qa": "FMSH_PB188a_11-12_137_qa7_v3",
      "id_block": "block_2",
      "question": "Qu'est-ce qui permet d'obtenir des résultats peu stables ?",
      "answer": "Îles moyens de nature manipulatrice",
      "answer_stringIds": [
        "string_243",
        "string_244",
        "string_245",
        "string_246",
        "string_247"
      ]
    },
    {
      "id_qa": "FMSH_PB188a_11-12_137_qa8_v3",
      "id_block": "block_2",
      "question": "Qu'est-ce qui est peu stable ?",
      "answer": "les résultats",
      "answer_stringIds": [
        "string_253",
        "string_254"
      ]
    },
    {
      "id_qa": "FMSH_PB188a_11-12_137_qa10_v3",
      "id_block": "block_2",
      "question": "Qu'est ce qui peut être gravement et inopinément compromise ?",
      "answer": "la stabilité",
      "answer_stringIds": [
        "string_263",
        "string_264"
      ]
    },
    {
      "id_qa": "FMSH_PB188a_11-12_137_qa14_v3",
      "id_block": "block_2",
      "question": "Quel est l'intérêt de groupe qui s'oppose à l'union organique d'un ordre supérieur ?",
      "answer": "le besoin objectif",
      "answer_stringIds": [
        "string_205",
        "string_206",
        "string_207"
      ]
    },
    {
      "id_qa": "FMSH_PB188a_11-12_137_qa15_v3",
      "id_block": "block_2",
      "question": "Qu'est ce qui s'oppose à l'avant-garde sociale ?",
      "answer": "un intérêt de",
      "answer_stringIds": [
        "string_212",
        "string_213",
        "string_214"
      ]
    },
    {
      "id_qa": "FMSH_PB188a_11-12_137_qa21_v3",
      "id_block": "block_4",
      "question": "Quelle est la conception de l'autogestion de la production ?",
      "answer": "notre conception globale",
      "answer_stringIds": [
        "string_277",
        "string_278",
        "string_279"
      ]
    }
  ]
}