{
  "num": "autog_0338-7259_1970_num_11_1",
  "article": "autog_0338-7259_1970_num_11_1_965",
  "page_name": "FMSH_PB188a_11-12_140",
  "questions": [
    {
      "id_qa": "FMSH_PB188a_11-12_140_qa17_v3",
      "id_block": "block_1",
      "question": "A qui les représentants de l'autogestion se soumet-ils ?",
      "answer": "la direction économique et technique",
      "answer_stringIds": [
        "string_18",
        "string_19",
        "string_20",
        "string_21",
        "string_22",
        "string_23"
      ]
    },
    {
      "id_qa": "FMSH_PB188a_11-12_140_qa18_v3",
      "id_block": "block_1",
      "question": "A quoi succombe les représentants de l'autogestion ?",
      "answer": "arguments « politiques",
      "answer_stringIds": [
        "string_5",
        "string_6",
        "string_7"
      ]
    },
    {
      "id_qa": "FMSH_PB188a_11-12_140_qa20_v3",
      "id_block": "block_1",
      "question": "En quoi les représentants de l'autogestion sont-ils incapables de juger ?",
      "answer": "en spécialistes des problèmes qui leur sont soumis",
      "answer_stringIds": [
        "string_28",
        "string_29",
        "string_30",
        "string_31",
        "string_32",
        "string_33",
        "string_34",
        "string_35"
      ]
    },
    {
      "id_qa": "FMSH_PB188a_11-12_140_qa21_v3",
      "id_block": "block_1",
      "question": "Que masque l'organe d'autogestion par son consentement ?",
      "answer": "les insuffisances de la direction",
      "answer_stringIds": [
        "string_54",
        "string_55",
        "string_56",
        "string_57",
        "string_58"
      ]
    },
    {
      "id_qa": "FMSH_PB188a_11-12_140_qa11_v3",
      "id_block": "block_2",
      "question": "Quel est le meilleur soutien du principe d'autogestion ?",
      "answer": "absolu",
      "answer_stringIds": [
        "string_98"
      ]
    },
    {
      "id_qa": "FMSH_PB188a_11-12_140_qa12_v3",
      "id_block": "block_2",
      "question": "Qu'est-ce que l'autogestion ?",
      "answer": "tous les problèmes de notre vie économique et politique",
      "answer_stringIds": [
        "string_107",
        "string_108",
        "string_109",
        "string_110",
        "string_111",
        "string_112",
        "string_113",
        "string_114",
        "string_115"
      ]
    },
    {
      "id_qa": "FMSH_PB188a_11-12_140_qa0_v3",
      "id_block": "block_3",
      "question": "Qui prend la direction de l'entreprise par la voie d'un concours ?",
      "answer": "le conseil ouvrier",
      "answer_stringIds": [
        "string_241",
        "string_242",
        "string_243"
      ]
    },
    {
      "id_qa": "FMSH_PB188a_11-12_140_qa2_v3",
      "id_block": "block_3",
      "question": "Combien de travailleurs connaissent les défauts et les insuffisances du processus de production ?",
      "answer": "une majorité écrasante de nos travailleurs",
      "answer_stringIds": [
        "string_122",
        "string_123",
        "string_124",
        "string_125",
        "string_126",
        "string_127"
      ]
    },
    {
      "id_qa": "FMSH_PB188a_11-12_140_qa3_v3",
      "id_block": "block_3",
      "question": "A qui doivent être réservées les prérogatives du conseil ouvrier ?",
      "answer": "la direction",
      "answer_stringIds": [
        "string_18",
        "string_19",
        "string_20"
      ]
    },
    {
      "id_qa": "FMSH_PB188a_11-12_140_qa9_v3",
      "id_block": "block_3",
      "question": "A quoi sont prêts les travailleurs ?",
      "answer": "à leur réparation",
      "answer_stringIds": [
        "string_152",
        "string_153",
        "string_154"
      ]
    },
    {
      "id_qa": "FMSH_PB188a_11-12_140_qa22_v3",
      "id_block": "block_4",
      "question": "Qu'est ce qui est interprété par le conseil ouvrier ?",
      "answer": "les exigences des travailleurs",
      "answer_stringIds": [
        "string_307",
        "string_308",
        "string_309",
        "string_310",
        "string_311"
      ]
    }
  ]
}