{
  "num": "autog_0338-7259_1970_num_11_1",
  "article": "autog_0338-7259_1970_num_11_1_965",
  "page_name": "FMSH_PB188a_11-12_134",
  "questions": [
    {
      "id_qa": "FMSH_PB188a_11-12_134_qa4_v3",
      "id_block": "block_2",
      "question": "Qu'est ce qui est représenté par des ensembles d'intégration supérieurs aux Etats ?",
      "answer": "Le degré suprême de la collectivité",
      "answer_stringIds": [
        "string_63",
        "string_64",
        "string_65",
        "string_66",
        "string_67",
        "string_68"
      ]
    },
    {
      "id_qa": "FMSH_PB188a_11-12_134_qa14_v3",
      "id_block": "block_2",
      "question": "A quoi s'ajoutent les interactions inextricables des pouvoirs ?",
      "answer": "des facteurs culturels et civilisateurs",
      "answer_stringIds": [
        "string_130",
        "string_131",
        "string_132",
        "string_133",
        "string_134"
      ]
    },
    {
      "id_qa": "FMSH_PB188a_11-12_134_qa15_v3",
      "id_block": "block_2",
      "question": "Qu'est ce qui voit au-delà de ce cadre ?",
      "answer": "une élite intellectuelle peu nombreuse",
      "answer_stringIds": [
        "string_152",
        "string_153",
        "string_154",
        "string_155",
        "string_156"
      ]
    },
    {
      "id_qa": "FMSH_PB188a_11-12_134_qa16_v3",
      "id_block": "block_2",
      "question": "Où se situe l'élite intellectuelle peu nombreuse ?",
      "answer": "de ce cadre",
      "answer_stringIds": [
        "string_159",
        "string_160",
        "string_161"
      ]
    },
    {
      "id_qa": "FMSH_PB188a_11-12_134_qa5_v3",
      "id_block": "block_3",
      "question": "Quelle est la caractéristique de la société dans son ensemble ?",
      "answer": "une société industrielle évoluée",
      "answer_stringIds": [
        "string_223",
        "string_224",
        "string_225",
        "string_226"
      ]
    },
    {
      "id_qa": "FMSH_PB188a_11-12_134_qa6_v3",
      "id_block": "block_3",
      "question": "Qu'est ce qui influence les rapports engendrés à l'intérieur d'une entreprise industrielle ?",
      "answer": "exigences plus générales",
      "answer_stringIds": [
        "string_253",
        "string_254",
        "string_255"
      ]
    },
    {
      "id_qa": "FMSH_PB188a_11-12_134_qa9_v3",
      "id_block": "block_3",
      "question": "Quelle est la conséquence de conditions plus larges que les conditions économiques ?",
      "answer": "Les unités de production",
      "answer_stringIds": [
        "string_268",
        "string_269",
        "string_270",
        "string_271"
      ]
    },
    {
      "id_qa": "FMSH_PB188a_11-12_134_qa11_v3",
      "id_block": "block_3",
      "question": "Qu'est ce qui influence les unités de production ?",
      "answer": "les conditions économiques",
      "answer_stringIds": [
        "string_280",
        "string_281",
        "string_282"
      ]
    }
  ]
}