{
  "num": "autog_0338-7259_1970_num_11_1",
  "article": "autog_0338-7259_1970_num_11_1_965",
  "page_name": "FMSH_PB188a_11-12_133",
  "questions": [
    {
      "id_qa": "FMSH_PB188a_11-12_133_qa14_v3",
      "id_block": "block_1",
      "question": "Qu'est-ce qui distingue les collectivités selon l'étendue des collectivités ?",
      "answer": "la netteté",
      "answer_stringIds": [
        "string_12",
        "string_13"
      ]
    },
    {
      "id_qa": "FMSH_PB188a_11-12_133_qa5_v3",
      "id_block": "block_2",
      "question": "Qui peut se faire directement valoir dans les unités de production ?",
      "answer": "les travailleurs",
      "answer_stringIds": [
        "string_55",
        "string_56"
      ]
    },
    {
      "id_qa": "FMSH_PB188a_11-12_133_qa6_v3",
      "id_block": "block_2",
      "question": "Qui peut se faire directement valoir et développer ses activités ?",
      "answer": "les travailleurs",
      "answer_stringIds": [
        "string_55",
        "string_56"
      ]
    },
    {
      "id_qa": "FMSH_PB188a_11-12_133_qa7_v3",
      "id_block": "block_2",
      "question": "Qu'est ce qui caractérise les petites unités de production ?",
      "answer": "un personnel",
      "answer_stringIds": [
        "string_79",
        "string_80"
      ]
    },
    {
      "id_qa": "FMSH_PB188a_11-12_133_qa15_v3",
      "id_block": "block_2",
      "question": "Qu'est-ce qui permet d'atteindre l'activité créatrice des masses ?",
      "answer": "les possibilités",
      "answer_stringIds": [
        "string_21",
        "string_22"
      ]
    },
    {
      "id_qa": "FMSH_PB188a_11-12_133_qa17_v3",
      "id_block": "block_2",
      "question": "Qui escompte l'activité créatrice des masses ?",
      "answer": "le système social",
      "answer_stringIds": [
        "string_132",
        "string_133",
        "string_134"
      ]
    },
    {
      "id_qa": "FMSH_PB188a_11-12_133_qa21_v3",
      "id_block": "block_2",
      "question": "Qu'est ce qui représente le degré fondamental du modèle d'autogestion ?",
      "answer": "Ces petites unités de production",
      "answer_stringIds": [
        "string_103",
        "string_104",
        "string_105",
        "string_106",
        "string_107"
      ]
    }
  ]
}