{
  "num": "autog_0249-2563_1982_num_15_10",
  "article": "autog_0249-2563_1982_num_15_10_1503",
  "page_name": "autog_0249-2563_1982_num_15_10_T1_0097_0000",
  "questions": [
    {
      "id_qa": "autog_0249-2563_1982_num_15_10_T1_0097_0000_qa8_v3",
      "id_block": "block_1",
      "question": "Quel mouvement social a bénéficié de l'émergence de leaders naturels ?",
      "answer": "le mouvement social héritier de la révolution",
      "answer_stringIds": [
        "string_204",
        "string_205",
        "string_206",
        "string_207",
        "string_208",
        "string_209",
        "string_210"
      ]
    },
    {
      "id_qa": "autog_0249-2563_1982_num_15_10_T1_0097_0000_qa9_v3",
      "id_block": "block_1",
      "question": "Quel mouvement social a bénéficié de l'émergence de « leaders naturels » ?",
      "answer": "le mouvement social héritier de la révolution",
      "answer_stringIds": [
        "string_204",
        "string_205",
        "string_206",
        "string_207",
        "string_208",
        "string_209",
        "string_210"
      ]
    },
    {
      "id_qa": "autog_0249-2563_1982_num_15_10_T1_0097_0000_qa31_v3",
      "id_block": "block_3",
      "question": "Sur quoi se centre son analyse ?",
      "answer": "sur le rôle et la composition des classes moyennes",
      "answer_stringIds": [
        "string_320",
        "string_321",
        "string_322",
        "string_323",
        "string_324",
        "string_325",
        "string_326",
        "string_327",
        "string_328"
      ]
    },
    {
      "id_qa": "autog_0249-2563_1982_num_15_10_T1_0097_0000_qa25_v3",
      "id_block": "block_4",
      "question": "Quelles catégories ont bénéficié de la redistribution des revenus ?",
      "answer": "catégories socio-professionnelles",
      "answer_stringIds": [
        "string_341",
        "string_342"
      ]
    },
    {
      "id_qa": "autog_0249-2563_1982_num_15_10_T1_0097_0000_qa26_v3",
      "id_block": "block_4",
      "question": "Qu'est ce qui a bénéficié aux catégories socio-professionnelles ?",
      "answer": "la redistribution des revenus",
      "answer_stringIds": [
        "string_333",
        "string_334",
        "string_335",
        "string_336"
      ]
    }
  ]
}