{
  "num": "autog_0249-2563_1982_num_15_10",
  "article": "autog_0249-2563_1982_num_15_10_1503",
  "page_name": "autog_0249-2563_1982_num_15_10_T1_0094_0000",
  "questions": [
    {
      "id_qa": "autog_0249-2563_1982_num_15_10_T1_0094_0000_qa7_v3",
      "id_block": "block_0",
      "question": "Qui a toujours été cohérent avec lui-même ?",
      "answer": "A. Meister",
      "answer_stringIds": [
        "string_0",
        "string_1"
      ]
    },
    {
      "id_qa": "autog_0249-2563_1982_num_15_10_T1_0094_0000_qa19_v3",
      "id_block": "block_0",
      "question": "Sur quoi l'auteur n'a pas écrit ?",
      "answer": "sur des problèmes",
      "answer_stringIds": [
        "string_55",
        "string_56",
        "string_57"
      ]
    },
    {
      "id_qa": "autog_0249-2563_1982_num_15_10_T1_0094_0000_qa20_v3",
      "id_block": "block_0",
      "question": "Sur quoi a-t-il écrit ?",
      "answer": "sur des problèmes",
      "answer_stringIds": [
        "string_55",
        "string_56",
        "string_57"
      ]
    },
    {
      "id_qa": "autog_0249-2563_1982_num_15_10_T1_0094_0000_qa0_v3",
      "id_block": "block_1",
      "question": "Qu'est-ce qui périt toujours ?",
      "answer": "les autogestions",
      "answer_stringIds": [
        "string_172",
        "string_173"
      ]
    },
    {
      "id_qa": "autog_0249-2563_1982_num_15_10_T1_0094_0000_qa1_v3",
      "id_block": "block_1",
      "question": "Qu'est-ce qui l'amène à affirmer que les autogestions périssent toujours ?",
      "answer": "une sorte de réalisme pessimiste",
      "answer_stringIds": [
        "string_163",
        "string_164",
        "string_165",
        "string_166",
        "string_167"
      ]
    },
    {
      "id_qa": "autog_0249-2563_1982_num_15_10_T1_0094_0000_qa2_v3",
      "id_block": "block_1",
      "question": "Quelle est la conséquence d'un excès de liberté ?",
      "answer": "les autogestions périssent toujours",
      "answer_stringIds": [
        "string_172",
        "string_173",
        "string_174",
        "string_175"
      ]
    },
    {
      "id_qa": "autog_0249-2563_1982_num_15_10_T1_0094_0000_qa13_v3",
      "id_block": "block_1",
      "question": "Qu'est-ce qui influence le jugement sur toutes les expériences d'autogestion ?",
      "answer": "sa réduction du processus de développement à la seule croissance économique et du changement social à la simple modernisation",
      "answer_stringIds": [
        "string_126",
        "string_127",
        "string_128",
        "string_129",
        "string_130",
        "string_131",
        "string_132",
        "string_133",
        "string_134",
        "string_135",
        "string_136",
        "string_137",
        "string_138",
        "string_139",
        "string_140",
        "string_141",
        "string_142",
        "string_143",
        "string_144"
      ]
    },
    {
      "id_qa": "autog_0249-2563_1982_num_15_10_T1_0094_0000_qa14_v3",
      "id_block": "block_1",
      "question": "Qu'est-ce qui va influencer son jugement sur toutes les expériences d'autogestion ?",
      "answer": "sa réduction du processus de développement",
      "answer_stringIds": [
        "string_126",
        "string_127",
        "string_128",
        "string_129",
        "string_130",
        "string_131"
      ]
    },
    {
      "id_qa": "autog_0249-2563_1982_num_15_10_T1_0094_0000_qa16_v3",
      "id_block": "block_3",
      "question": "Entre qui est défini le machiavélisme génial ?",
      "answer": "les SAIS et les communautés",
      "answer_stringIds": [
        "string_330",
        "string_331",
        "string_332",
        "string_333",
        "string_334"
      ]
    }
  ]
}