{
  "num": "autog_0249-2563_1982_num_15_10",
  "article": "autog_0249-2563_1982_num_15_10_1503",
  "page_name": "autog_0249-2563_1982_num_15_10_T1_0095_0000",
  "questions": [
    {
      "id_qa": "autog_0249-2563_1982_num_15_10_T1_0095_0000_qa2_v3",
      "id_block": "block_1",
      "question": "Quelle est l'aspect le plus contestable des CAP ?",
      "answer": "la part considérable",
      "answer_stringIds": [
        "string_65",
        "string_66",
        "string_67"
      ]
    },
    {
      "id_qa": "autog_0249-2563_1982_num_15_10_T1_0095_0000_qa3_v3",
      "id_block": "block_2",
      "question": "Qui a critiqué la participation aux bénéfices et au capital ?",
      "answer": "les entrepreneurs",
      "answer_stringIds": [
        "string_159",
        "string_160"
      ]
    },
    {
      "id_qa": "autog_0249-2563_1982_num_15_10_T1_0095_0000_qa5_v3",
      "id_block": "block_2",
      "question": "Qui a contesté la participation aux bénéfices et au capital ?",
      "answer": "les entrepreneurs",
      "answer_stringIds": [
        "string_159",
        "string_160"
      ]
    },
    {
      "id_qa": "autog_0249-2563_1982_num_15_10_T1_0095_0000_qa6_v3",
      "id_block": "block_2",
      "question": "Quelle est la conséquence de la participation aux bénéfices et au capital ?",
      "answer": "leur marge de liberté",
      "answer_stringIds": [
        "string_185",
        "string_186",
        "string_187",
        "string_188"
      ]
    },
    {
      "id_qa": "autog_0249-2563_1982_num_15_10_T1_0095_0000_qa17_v3",
      "id_block": "block_2",
      "question": "Pour quelle raison des entrepreneurs ont-ils décidé d'échapper à la législation sur les Comunidades Laborales ?",
      "answer": "ce contrôle et ses conséquences",
      "answer_stringIds": [
        "string_264",
        "string_265",
        "string_266",
        "string_267",
        "string_268"
      ]
    },
    {
      "id_qa": "autog_0249-2563_1982_num_15_10_T1_0095_0000_qa21_v3",
      "id_block": "block_2",
      "question": "Qui est responsable de la limitation du pouvoir patronal ?",
      "answer": "les organisations syndicales",
      "answer_stringIds": [
        "string_223",
        "string_224",
        "string_225"
      ]
    },
    {
      "id_qa": "autog_0249-2563_1982_num_15_10_T1_0095_0000_qa23_v3",
      "id_block": "block_2",
      "question": "Qu'est ce qui était très diverse selon les branches d'activité et la dimension des entreprises ?",
      "answer": "Cette limitation du pouvoir",
      "answer_stringIds": [
        "string_193",
        "string_194",
        "string_195",
        "string_196"
      ]
    },
    {
      "id_qa": "autog_0249-2563_1982_num_15_10_T1_0095_0000_qa31_v3",
      "id_block": "block_2",
      "question": "Qu'est-ce qui n'aurait pas limité les pouvoirs des chefs d'entreprise ?",
      "answer": "son implantation",
      "answer_stringIds": [
        "string_132",
        "string_133"
      ]
    },
    {
      "id_qa": "autog_0249-2563_1982_num_15_10_T1_0095_0000_qa10_v3",
      "id_block": "block_3",
      "question": "Par qui sont administrées les EAT ?",
      "answer": "leurs travailleurs",
      "answer_stringIds": [
        "string_179",
        "string_180"
      ]
    },
    {
      "id_qa": "autog_0249-2563_1982_num_15_10_T1_0095_0000_qa26_v3",
      "id_block": "block_3",
      "question": "Quelle est la forme juridique adoptée par les coopératives de production et de travail dans le secteur industriel ?",
      "answer": "de véritables entreprises autogestionnaires",
      "answer_stringIds": [
        "string_335",
        "string_336",
        "string_337",
        "string_338"
      ]
    },
    {
      "id_qa": "autog_0249-2563_1982_num_15_10_T1_0095_0000_qa29_v3",
      "id_block": "block_3",
      "question": "Où l'autogestion a-t-elle été construite ?",
      "answer": "Dans les EAT",
      "answer_stringIds": [
        "string_387",
        "string_388",
        "string_389"
      ]
    }
  ]
}