{
  "num": "autog_0338-7259_1977_num_39_1",
  "article": "autog_0338-7259_1977_num_39_1_1255",
  "page_name": "FMSH_PB188a_00039_096",
  "questions": [
    {
      "id_qa": "FMSH_PB188a_00039_096_qa8_v3",
      "id_block": "block_1",
      "question": "Qu'est-ce que l'autogestion ?",
      "answer": "parler",
      "answer_stringIds": [
        "string_18"
      ]
    },
    {
      "id_qa": "FMSH_PB188a_00039_096_qa10_v3",
      "id_block": "block_1",
      "question": "Qui s'attachent à accumuler ?",
      "answer": "les détenteurs du capital",
      "answer_stringIds": [
        "string_116",
        "string_117",
        "string_118",
        "string_119"
      ]
    },
    {
      "id_qa": "FMSH_PB188a_00039_096_qa11_v3",
      "id_block": "block_1",
      "question": "Que brisent les détenteurs du capital dans la société du profit ?",
      "answer": "le mouvement de développement historique du grand ensemble social",
      "answer_stringIds": [
        "string_133",
        "string_134",
        "string_135",
        "string_136",
        "string_137",
        "string_138",
        "string_139",
        "string_140",
        "string_141",
        "string_142"
      ]
    },
    {
      "id_qa": "FMSH_PB188a_00039_096_qa12_v3",
      "id_block": "block_1",
      "question": "A qui la société du profit s'attache-t-elle ?",
      "answer": "les détenteurs du capital",
      "answer_stringIds": [
        "string_116",
        "string_117",
        "string_118",
        "string_119"
      ]
    },
    {
      "id_qa": "FMSH_PB188a_00039_096_qa13_v3",
      "id_block": "block_1",
      "question": "Qu'est-ce qui a vécu dans un univers a-historique ?",
      "answer": "les sociétés africaines pré-capitalistes",
      "answer_stringIds": [
        "string_78",
        "string_79",
        "string_80",
        "string_81"
      ]
    },
    {
      "id_qa": "FMSH_PB188a_00039_096_qa15_v3",
      "id_block": "block_1",
      "question": "Qu'est ce que le groupe social met en oeuvre dans ses jeux de pouvoir ?",
      "answer": "la stratégie",
      "answer_stringIds": [
        "string_39",
        "string_40"
      ]
    },
    {
      "id_qa": "FMSH_PB188a_00039_096_qa17_v3",
      "id_block": "block_3",
      "question": "Qui a exploité systématiquement à leur profit par la force et la supériorité des armes les navigateurs portugais ?",
      "answer": "les grandes entreprises coloniales",
      "answer_stringIds": [
        "string_200",
        "string_201",
        "string_202",
        "string_203"
      ]
    },
    {
      "id_qa": "FMSH_PB188a_00039_096_qa19_v3",
      "id_block": "block_3",
      "question": "A qui le système a-t-il été mis en place ?",
      "answer": "les grandes entreprises coloniales",
      "answer_stringIds": [
        "string_200",
        "string_201",
        "string_202",
        "string_203"
      ]
    },
    {
      "id_qa": "FMSH_PB188a_00039_096_qa23_v3",
      "id_block": "block_3",
      "question": "A quoi les grandes entreprises coloniales se sont-elles attachées ?",
      "answer": "leur profit",
      "answer_stringIds": [
        "string_218",
        "string_219"
      ]
    },
    {
      "id_qa": "FMSH_PB188a_00039_096_qa0_v3",
      "id_block": "block_4",
      "question": "A partir de quand les systèmes étatiques se sont-ils formés ?",
      "answer": "dès que",
      "answer_stringIds": [
        "string_291",
        "string_292"
      ]
    }
  ]
}