{
  "num": "autog_0338-7259_1973_num_22_1",
  "article": "autog_0338-7259_1973_num_22_1_1086",
  "page_name": "FMSH_PB188a_22-23_143",
  "questions": [
    {
      "id_qa": "FMSH_PB188a_22-23_143_qa1_v3",
      "id_block": "block_0",
      "question": "Par quoi l'autogestion est-elle vue ?",
      "answer": "par « Perspectives syndicalistes",
      "answer_stringIds": [
        "string_2",
        "string_3",
        "string_4",
        "string_5"
      ]
    },
    {
      "id_qa": "FMSH_PB188a_22-23_143_qa0_v3",
      "id_block": "block_5",
      "question": "Quel est l'objectif principal de l'entreprise autogérée yougoslave ?",
      "answer": "la rentabilité",
      "answer_stringIds": [
        "string_115",
        "string_116"
      ]
    },
    {
      "id_qa": "FMSH_PB188a_22-23_143_qa2_v3",
      "id_block": "block_5",
      "question": "Qu'est-ce que l'entreprise autogérée dans le cadre d'une société marchande ?",
      "answer": "une entreprise capitaliste",
      "answer_stringIds": [
        "string_102",
        "string_103",
        "string_104"
      ]
    },
    {
      "id_qa": "FMSH_PB188a_22-23_143_qa3_v3",
      "id_block": "block_6",
      "question": "Qu'est-ce que l'achat et la vente en tant que mouvements économiques ?",
      "answer": "mouvements économiques impliquant le profit",
      "answer_stringIds": [
        "string_171",
        "string_172",
        "string_173",
        "string_174",
        "string_175",
        "string_176"
      ]
    }
  ]
}