{
  "num": "autog_0338-7259_1972_num_20_1",
  "article": "autog_0338-7259_1972_num_20_1_1067",
  "page_name": "FMSH_PB188a_20-21_117",
  "questions": [
    {
      "id_qa": "FMSH_PB188a_20-21_117_qa6_v3",
      "id_block": "block_4",
      "question": "Qu'est-ce qui m'est d'un précieux secours ?",
      "answer": "Cette cohabitation",
      "answer_stringIds": [
        "string_25",
        "string_26"
      ]
    },
    {
      "id_qa": "FMSH_PB188a_20-21_117_qa8_v3",
      "id_block": "block_5",
      "question": "Qu'est ce qui compose ce recueil ?",
      "answer": "les longues citations",
      "answer_stringIds": [
        "string_95",
        "string_96",
        "string_97"
      ]
    },
    {
      "id_qa": "FMSH_PB188a_20-21_117_qa9_v3",
      "id_block": "block_5",
      "question": "Qu'est ce qui s'opère en moi chaque jour et de mille manières ?",
      "answer": "la fusion",
      "answer_stringIds": [
        "string_104",
        "string_105"
      ]
    },
    {
      "id_qa": "FMSH_PB188a_20-21_117_qa11_v3",
      "id_block": "block_7",
      "question": "Qui a étudié la Démocratie ?",
      "answer": "Tous les traités qui ont étudié la Démocratie",
      "answer_stringIds": [
        "string_120",
        "string_121",
        "string_122",
        "string_123",
        "string_124",
        "string_125",
        "string_126",
        "string_127"
      ]
    },
    {
      "id_qa": "FMSH_PB188a_20-21_117_qa13_v3",
      "id_block": "block_9",
      "question": "Qu'est ce qui fait partie d'un essai que Jean Christian nous a adressé ?",
      "answer": "Les pages",
      "answer_stringIds": [
        "string_141",
        "string_142"
      ]
    },
    {
      "id_qa": "FMSH_PB188a_20-21_117_qa15_v3",
      "id_block": "block_9",
      "question": "Qui a écrit les pages qui suivent ?",
      "answer": "Jean Christian",
      "answer_stringIds": [
        "string_150",
        "string_151"
      ]
    }
  ]
}