{
  "num": "autog_0338-7259_1972_num_20_1",
  "article": "autog_0338-7259_1972_num_20_1_1067",
  "page_name": "FMSH_PB188a_20-21_151",
  "questions": [
    {
      "id_qa": "FMSH_PB188a_20-21_151_qa34_v3",
      "id_block": "block_1",
      "question": "Qu'est ce qui a permis le hasard, l'abdication et la veulerie ?",
      "answer": "autour de nous",
      "answer_stringIds": [
        "string_20",
        "string_21",
        "string_22"
      ]
    },
    {
      "id_qa": "FMSH_PB188a_20-21_151_qa28_v3",
      "id_block": "block_2",
      "question": "Qu'est ce qui est important pour nos enfants ?",
      "answer": "cette chaîne",
      "answer_stringIds": [
        "string_44",
        "string_45"
      ]
    },
    {
      "id_qa": "FMSH_PB188a_20-21_151_qa29_v3",
      "id_block": "block_2",
      "question": "Qu'est ce qui est grave pour nos enfants ?",
      "answer": "cette chaîne",
      "answer_stringIds": [
        "string_44",
        "string_45"
      ]
    },
    {
      "id_qa": "FMSH_PB188a_20-21_151_qa32_v3",
      "id_block": "block_2",
      "question": "Par quoi nous sommes-nous dominés ?",
      "answer": "par une chaîne",
      "answer_stringIds": [
        "string_30",
        "string_31",
        "string_32"
      ]
    },
    {
      "id_qa": "FMSH_PB188a_20-21_151_qa33_v3",
      "id_block": "block_2",
      "question": "Par quoi est-ce que nous sommes dominés ?",
      "answer": "par une chaîne",
      "answer_stringIds": [
        "string_30",
        "string_31",
        "string_32"
      ]
    },
    {
      "id_qa": "FMSH_PB188a_20-21_151_qa1_v3",
      "id_block": "block_3",
      "question": "Qu'est-ce qui a changé d'esclavage ?",
      "answer": "Notre siècle",
      "answer_stringIds": [
        "string_62",
        "string_63"
      ]
    },
    {
      "id_qa": "FMSH_PB188a_20-21_151_qa2_v3",
      "id_block": "block_3",
      "question": "Qu'est ce qui a changé d'esclavage ?",
      "answer": "Notre siècle",
      "answer_stringIds": [
        "string_62",
        "string_63"
      ]
    },
    {
      "id_qa": "FMSH_PB188a_20-21_151_qa4_v3",
      "id_block": "block_4",
      "question": "Qu'est-ce qui semble approcher ?",
      "answer": "la vérité",
      "answer_stringIds": [
        "string_95",
        "string_96"
      ]
    },
    {
      "id_qa": "FMSH_PB188a_20-21_151_qa35_v3",
      "id_block": "block_4",
      "question": "Qui sent confusément la possibilité d'une autre préparation à tout cela ?",
      "answer": "notre jeunesse",
      "answer_stringIds": [
        "string_119",
        "string_120"
      ]
    },
    {
      "id_qa": "FMSH_PB188a_20-21_151_qa26_v3",
      "id_block": "block_5",
      "question": "Par quoi Freinet a-t-il été effrayé ?",
      "answer": "par le conditionnement scolastique",
      "answer_stringIds": [
        "string_146",
        "string_147",
        "string_148",
        "string_149"
      ]
    },
    {
      "id_qa": "FMSH_PB188a_20-21_151_qa27_v3",
      "id_block": "block_5",
      "question": "Par quoi les enfants de cette époque étaient-ils soumis ?",
      "answer": "par le conditionnement scolastique",
      "answer_stringIds": [
        "string_146",
        "string_147",
        "string_148",
        "string_149"
      ]
    },
    {
      "id_qa": "FMSH_PB188a_20-21_151_qa13_v3",
      "id_block": "block_6",
      "question": "Qu'est-ce qui est à l'honneur dans nos démocraties ?",
      "answer": "la liberté",
      "answer_stringIds": [
        "string_258",
        "string_259"
      ]
    },
    {
      "id_qa": "FMSH_PB188a_20-21_151_qa36_v3",
      "id_block": "block_8",
      "question": "Où est situé Julien Clarac ?",
      "answer": "plus haut",
      "answer_stringIds": [
        "string_324",
        "string_325"
      ]
    }
  ]
}