{
  "num": "autog_0338-7259_1972_num_20_1",
  "article": "autog_0338-7259_1972_num_20_1_1067",
  "page_name": "FMSH_PB188a_20-21_140",
  "questions": [
    {
      "id_qa": "FMSH_PB188a_20-21_140_qa4_v3",
      "id_block": "block_2",
      "question": "Qu'est-ce que l'Etoile de vue ?",
      "answer": "notre charrue",
      "answer_stringIds": [
        "string_71",
        "string_72"
      ]
    },
    {
      "id_qa": "FMSH_PB188a_20-21_140_qa6_v3",
      "id_block": "block_2",
      "question": "Qu'est-ce que nous avons fait ou que nous pourrons encore faire ?",
      "answer": "rapprochements",
      "answer_stringIds": [
        "string_28"
      ]
    },
    {
      "id_qa": "FMSH_PB188a_20-21_140_qa8_v3",
      "id_block": "block_2",
      "question": "A partir de quoi peut-on faire une tentative d'assimilation ?",
      "answer": "des rapprochements que nous avons faits",
      "answer_stringIds": [
        "string_27",
        "string_28",
        "string_29",
        "string_30",
        "string_31",
        "string_32"
      ]
    },
    {
      "id_qa": "FMSH_PB188a_20-21_140_qa16_v3",
      "id_block": "block_4",
      "question": "Qu'est-ce que la réconciliation avec elle-même ?",
      "answer": "une enfance",
      "answer_stringIds": [
        "string_107",
        "string_108"
      ]
    },
    {
      "id_qa": "FMSH_PB188a_20-21_140_qa12_v3",
      "id_block": "block_5",
      "question": "Qui se pose la question de l'utilité de ses méthodes ?",
      "answer": "Fourier",
      "answer_stringIds": [
        "string_96"
      ]
    },
    {
      "id_qa": "FMSH_PB188a_20-21_140_qa2_v3",
      "id_block": "block_7",
      "question": "Qu'est ce que l'enfance assumera pleinement ?",
      "answer": "son rôle",
      "answer_stringIds": [
        "string_277",
        "string_278"
      ]
    },
    {
      "id_qa": "FMSH_PB188a_20-21_140_qa13_v3",
      "id_block": "block_8",
      "question": "Qu'est-ce qui est visible dans la nature ?",
      "answer": "de son",
      "answer_stringIds": [
        "string_301",
        "string_302"
      ]
    }
  ]
}