{
  "num": "autog_0338-7259_1972_num_20_1",
  "article": "autog_0338-7259_1972_num_20_1_1067",
  "page_name": "FMSH_PB188a_20-21_125",
  "questions": [
    {
      "id_qa": "FMSH_PB188a_20-21_125_qa18_v3",
      "id_block": "block_1",
      "question": "Quand Elise Freinet a-t-elle écrit que les jeunes n'accepteront plus les choses que ni les uns ni les autres ?",
      "answer": "en Mai 68",
      "answer_stringIds": [
        "string_75",
        "string_76",
        "string_77"
      ]
    },
    {
      "id_qa": "FMSH_PB188a_20-21_125_qa20_v3",
      "id_block": "block_1",
      "question": "Qu'est ce qui est fait de femmes, d'enfants et de jeunes gens ?",
      "answer": "Ce Mouvement",
      "answer_stringIds": [
        "string_8",
        "string_9"
      ]
    },
    {
      "id_qa": "FMSH_PB188a_20-21_125_qa16_v3",
      "id_block": "block_2",
      "question": "Qui a pris la succession de Célestin Freinet ?",
      "answer": "Fernand Déléam",
      "answer_stringIds": [
        "string_114",
        "string_115"
      ]
    },
    {
      "id_qa": "FMSH_PB188a_20-21_125_qa3_v3",
      "id_block": "block_3",
      "question": "Qu'est-ce qui a progressé en nombre ?",
      "answer": "le Mouvement",
      "answer_stringIds": [
        "string_145",
        "string_146"
      ]
    },
    {
      "id_qa": "FMSH_PB188a_20-21_125_qa4_v3",
      "id_block": "block_3",
      "question": "Qui a écrit que le Mouvement a progressé en nombre ?",
      "answer": "Déléam",
      "answer_stringIds": [
        "string_115"
      ]
    },
    {
      "id_qa": "FMSH_PB188a_20-21_125_qa5_v3",
      "id_block": "block_3",
      "question": "Qu'est ce qui est une erreur profonde pour les méthodes Freinet ?",
      "answer": "si la « pédagogie de masse",
      "answer_stringIds": [
        "string_164",
        "string_165",
        "string_166",
        "string_167",
        "string_168",
        "string_169"
      ]
    },
    {
      "id_qa": "FMSH_PB188a_20-21_125_qa6_v3",
      "id_block": "block_3",
      "question": "Qu'est-ce qui est une erreur profonde pour les méthodes Freinet ?",
      "answer": "à se demander si la « pédagogie de masse",
      "answer_stringIds": [
        "string_161",
        "string_162",
        "string_163",
        "string_164",
        "string_165",
        "string_166",
        "string_167",
        "string_168",
        "string_169"
      ]
    },
    {
      "id_qa": "FMSH_PB188a_20-21_125_qa11_v3",
      "id_block": "block_3",
      "question": "Qui a été spoliée par Hitler ?",
      "answer": "Elise Freinet",
      "answer_stringIds": [
        "string_73",
        "string_74"
      ]
    },
    {
      "id_qa": "FMSH_PB188a_20-21_125_qa12_v3",
      "id_block": "block_3",
      "question": "Qui ne désavouerait pas Elise Freinet ?",
      "answer": "Hitler",
      "answer_stringIds": [
        "string_222"
      ]
    },
    {
      "id_qa": "FMSH_PB188a_20-21_125_qa7_v3",
      "id_block": "block_4",
      "question": "Qui n'a pas l'habitude d'excès de langage ?",
      "answer": "Déléam",
      "answer_stringIds": [
        "string_115"
      ]
    }
  ]
}