{
  "num": "autog_0338-7259_1972_num_20_1",
  "article": "autog_0338-7259_1972_num_20_1_1067",
  "page_name": "FMSH_PB188a_20-21_146",
  "questions": [
    {
      "id_qa": "FMSH_PB188a_20-21_146_qa42_v3",
      "id_block": "block_1",
      "question": "Qui n'est jamais venu ?",
      "answer": "personne",
      "answer_stringIds": [
        "string_10"
      ]
    },
    {
      "id_qa": "FMSH_PB188a_20-21_146_qa35_v3",
      "id_block": "block_2",
      "question": "Qui a proposé une Phalange expérimentale ?",
      "answer": "Fourier",
      "answer_stringIds": [
        "string_29"
      ]
    },
    {
      "id_qa": "FMSH_PB188a_20-21_146_qa37_v3",
      "id_block": "block_2",
      "question": "Qui a proposé une tentative beaucoup plus modeste que Fourier ?",
      "answer": "Lehouk",
      "answer_stringIds": [
        "string_38"
      ]
    },
    {
      "id_qa": "FMSH_PB188a_20-21_146_qa38_v3",
      "id_block": "block_2",
      "question": "Comment Fourier a-t-il proposé sa Phalange expérimentale ?",
      "answer": "une tentative beaucoup plus modeste",
      "answer_stringIds": [
        "string_32",
        "string_33",
        "string_34",
        "string_35",
        "string_36"
      ]
    },
    {
      "id_qa": "FMSH_PB188a_20-21_146_qa39_v3",
      "id_block": "block_2",
      "question": "Qu'est ce qui est désespérant à la fin de sa vie ?",
      "answer": "de voir jamais se réaliser sa Phalange expérimentale",
      "answer_stringIds": [
        "string_21",
        "string_22",
        "string_23",
        "string_24",
        "string_25",
        "string_26",
        "string_27",
        "string_28"
      ]
    },
    {
      "id_qa": "FMSH_PB188a_20-21_146_qa40_v3",
      "id_block": "block_2",
      "question": "Dans quel ouvrage Fourier a-t-il proposé une tentative beaucoup plus modeste ?",
      "answer": "dans son livre",
      "answer_stringIds": [
        "string_41",
        "string_42",
        "string_43"
      ]
    },
    {
      "id_qa": "FMSH_PB188a_20-21_146_qa41_v3",
      "id_block": "block_2",
      "question": "Quelle est la première tentative de Fourier ?",
      "answer": "sa Phalange expérimentale",
      "answer_stringIds": [
        "string_26",
        "string_27",
        "string_28"
      ]
    },
    {
      "id_qa": "FMSH_PB188a_20-21_146_qa27_v3",
      "id_block": "block_3",
      "question": "Combien d'heures les petits esclaves travaillaient-ils sous le fouet ?",
      "answer": "quinze heures par jour",
      "answer_stringIds": [
        "string_99",
        "string_100",
        "string_101",
        "string_102"
      ]
    },
    {
      "id_qa": "FMSH_PB188a_20-21_146_qa34_v3",
      "id_block": "block_3",
      "question": "Qu'est-ce qui est interdit aujourd'hui ?",
      "answer": "le travail enfantin",
      "answer_stringIds": [
        "string_112",
        "string_113",
        "string_114"
      ]
    },
    {
      "id_qa": "FMSH_PB188a_20-21_146_qa28_v3",
      "id_block": "block_4",
      "question": "Qu'est ce qui proclame avec force que l'enfance abandonnée doit être malheureuse ?",
      "answer": "un postulat de notre morale",
      "answer_stringIds": [
        "string_139",
        "string_140",
        "string_141",
        "string_142",
        "string_143"
      ]
    },
    {
      "id_qa": "FMSH_PB188a_20-21_146_qa30_v3",
      "id_block": "block_4",
      "question": "Qu'est-ce que l'existence d'enfants sans parents et heureux ?",
      "answer": "notre système familial",
      "answer_stringIds": [
        "string_169",
        "string_170",
        "string_171"
      ]
    },
    {
      "id_qa": "FMSH_PB188a_20-21_146_qa11_v3",
      "id_block": "block_5",
      "question": "Qu'est-ce qui est abandonné par la famille ?",
      "answer": "des enfants",
      "answer_stringIds": [
        "string_196",
        "string_197"
      ]
    },
    {
      "id_qa": "FMSH_PB188a_20-21_146_qa12_v3",
      "id_block": "block_5",
      "question": "Qu'est-ce qui est recueilli dans les établissements ?",
      "answer": "des enfants sans famille ou abandonnés",
      "answer_stringIds": [
        "string_196",
        "string_197",
        "string_198",
        "string_199",
        "string_200",
        "string_201"
      ]
    },
    {
      "id_qa": "FMSH_PB188a_20-21_146_qa16_v3",
      "id_block": "block_5",
      "question": "Qu'est-ce qui entoure les établissements recueillant des enfants sans famille ou abandonnés par celle-ci ?",
      "answer": "les réussites",
      "answer_stringIds": [
        "string_188",
        "string_189"
      ]
    },
    {
      "id_qa": "FMSH_PB188a_20-21_146_qa1_v3",
      "id_block": "block_6",
      "question": "Qu'est ce que les élèves doivent faire à la fin de l'année ?",
      "answer": "à certains « tests",
      "answer_stringIds": [
        "string_275",
        "string_276",
        "string_277",
        "string_278"
      ]
    },
    {
      "id_qa": "FMSH_PB188a_20-21_146_qa2_v3",
      "id_block": "block_6",
      "question": "Qu'est-ce qui serait à la fois une école technique et un lycée ?",
      "answer": "de vastes bâtiments qui",
      "answer_stringIds": [
        "string_244",
        "string_245",
        "string_246",
        "string_247"
      ]
    },
    {
      "id_qa": "FMSH_PB188a_20-21_146_qa3_v3",
      "id_block": "block_6",
      "question": "Qu'est-ce qui pourrait être envisagé par Fourier ?",
      "answer": "la création de vastes bâtiments qui abriteraient à la fois une école technique et un",
      "answer_stringIds": [
        "string_242",
        "string_243",
        "string_244",
        "string_245",
        "string_246",
        "string_247",
        "string_248",
        "string_249",
        "string_250",
        "string_251",
        "string_252",
        "string_253",
        "string_254",
        "string_255",
        "string_256"
      ]
    },
    {
      "id_qa": "FMSH_PB188a_20-21_146_qa4_v3",
      "id_block": "block_6",
      "question": "Qui suggère la création de vastes bâtiments qui abriteraient à la fois une école technique et un lycée ?",
      "answer": "certains",
      "answer_stringIds": [
        "string_240"
      ]
    },
    {
      "id_qa": "FMSH_PB188a_20-21_146_qa5_v3",
      "id_block": "block_6",
      "question": "Quels types d'écoles pourraient abriter les vastes bâtiments de Fourier ?",
      "answer": "une école technique et un lycée",
      "answer_stringIds": [
        "string_252",
        "string_253",
        "string_254",
        "string_255",
        "string_256",
        "string_257"
      ]
    },
    {
      "id_qa": "FMSH_PB188a_20-21_146_qa7_v3",
      "id_block": "block_6",
      "question": "A qui s'intéresse la création de vastes bâtiments ?",
      "answer": "aux idées de Fourier",
      "answer_stringIds": [
        "string_231",
        "string_232",
        "string_233",
        "string_234"
      ]
    }
  ]
}