{
  "num": "autog_0338-7259_1970_num_13_1",
  "article": "autog_0338-7259_1970_num_13_1_982",
  "page_name": "FMSH_PB188a_13-14_145",
  "questions": [
    {
      "id_qa": "FMSH_PB188a_13-14_145_qa2_v3",
      "id_block": "block_2",
      "question": "Comment est qualifiée la situation des communautés rurales des Aurès ?",
      "answer": "de « traditionalisme par excès de modernité",
      "answer_stringIds": [
        "string_75",
        "string_76",
        "string_77",
        "string_78",
        "string_79",
        "string_80",
        "string_81"
      ]
    },
    {
      "id_qa": "FMSH_PB188a_13-14_145_qa7_v3",
      "id_block": "block_3",
      "question": "Qu'est ce qui éclaire les recherches théoriques et empiriques récentes ?",
      "answer": "les actions de formation",
      "answer_stringIds": [
        "string_155",
        "string_156",
        "string_157",
        "string_158"
      ]
    },
    {
      "id_qa": "FMSH_PB188a_13-14_145_qa12_v3",
      "id_block": "block_4",
      "question": "A quoi s'articulent le rapport de commandement ?",
      "answer": "de nombreux signes du changement",
      "answer_stringIds": [
        "string_252",
        "string_253",
        "string_254",
        "string_255",
        "string_256"
      ]
    }
  ]
}