{
  "num": "autog_0338-7259_1975_num_32_1",
  "article": "autog_0338-7259_1975_num_32_1_1148_t1_0125_0000_1",
  "page_name": "FMSH_PB188a_00032_130",
  "questions": [
    {
      "id_qa": "FMSH_PB188a_00032_130_qa3_v3",
      "id_block": "block_1",
      "question": "Qui remet en question le système capitaliste ?",
      "answer": "les travailleurs",
      "answer_stringIds": [
        "string_159",
        "string_160"
      ]
    },
    {
      "id_qa": "FMSH_PB188a_00032_130_qa5_v3",
      "id_block": "block_1",
      "question": "Qui s'intéresse au socialisme ?",
      "answer": "les employés",
      "answer_stringIds": [
        "string_140",
        "string_141"
      ]
    },
    {
      "id_qa": "FMSH_PB188a_00032_130_qa7_v3",
      "id_block": "block_1",
      "question": "Qui pense que les travailleurs remettent en question les fondements du système capitaliste ?",
      "answer": "M. Jenkins",
      "answer_stringIds": [
        "string_147",
        "string_148"
      ]
    },
    {
      "id_qa": "FMSH_PB188a_00032_130_qa13_v3",
      "id_block": "block_1",
      "question": "Que rend le milieu de travail si heureux ?",
      "answer": "le monde",
      "answer_stringIds": [
        "string_202",
        "string_203"
      ]
    },
    {
      "id_qa": "FMSH_PB188a_00032_130_qa14_v3",
      "id_block": "block_1",
      "question": "Qu'est-ce que libéraliser le milieu de travail ?",
      "answer": "les décisions importantes",
      "answer_stringIds": [
        "string_196",
        "string_197",
        "string_198"
      ]
    },
    {
      "id_qa": "FMSH_PB188a_00032_130_qa15_v3",
      "id_block": "block_1",
      "question": "Qu'est-ce qui permet de rendre heureux le monde ?",
      "answer": "moyen de libéraliser le milieu de travail",
      "answer_stringIds": [
        "string_185",
        "string_186",
        "string_187",
        "string_188",
        "string_189",
        "string_190",
        "string_191"
      ]
    },
    {
      "id_qa": "FMSH_PB188a_00032_130_qa20_v3",
      "id_block": "block_1",
      "question": "Qu'est-ce que l'autogestion ?",
      "answer": "la syndicalisation des travailleurs",
      "answer_stringIds": [
        "string_49",
        "string_50",
        "string_51",
        "string_52",
        "string_53"
      ]
    },
    {
      "id_qa": "FMSH_PB188a_00032_130_qa21_v3",
      "id_block": "block_1",
      "question": "Pour quelle raison l'autogestion apparaît-elle périodiquement ?",
      "answer": "une situation financière difficile",
      "answer_stringIds": [
        "string_57",
        "string_58",
        "string_59",
        "string_60"
      ]
    },
    {
      "id_qa": "FMSH_PB188a_00032_130_qa22_v3",
      "id_block": "block_1",
      "question": "Qui a évoqué l'autogestion ?",
      "answer": "Gerry Hunnius",
      "answer_stringIds": [
        "string_30",
        "string_31"
      ]
    },
    {
      "id_qa": "FMSH_PB188a_00032_130_qa24_v3",
      "id_block": "block_1",
      "question": "Qu'est-ce qui est bien reçu par les travailleurs ?",
      "answer": "cette pratique",
      "answer_stringIds": [
        "string_6",
        "string_7"
      ]
    },
    {
      "id_qa": "FMSH_PB188a_00032_130_qa39_v3",
      "id_block": "block_1",
      "question": "Par qui l'orientation est-elle donnée ?",
      "answer": "des entreprises déjà florissantes",
      "answer_stringIds": [
        "string_84",
        "string_85",
        "string_86",
        "string_87"
      ]
    },
    {
      "id_qa": "FMSH_PB188a_00032_130_qa40_v3",
      "id_block": "block_1",
      "question": "Qu'est ce qui est nouveau pour les entreprises florissantes ?",
      "answer": "une telle orientation",
      "answer_stringIds": [
        "string_78",
        "string_79",
        "string_80"
      ]
    },
    {
      "id_qa": "FMSH_PB188a_00032_130_qa1_v3",
      "id_block": "block_2",
      "question": "Qui utilise le mot démocratie industrielle ?",
      "answer": "les employeurs",
      "answer_stringIds": [
        "string_216",
        "string_217"
      ]
    },
    {
      "id_qa": "FMSH_PB188a_00032_130_qa2_v3",
      "id_block": "block_2",
      "question": "Quel est le mot employé par les employeurs ?",
      "answer": "le mot de démocratie industrielle",
      "answer_stringIds": [
        "string_220",
        "string_221",
        "string_222",
        "string_223",
        "string_224"
      ]
    }
  ]
}