{
  "num": "autog_0338-7259_1972_num_18_1",
  "article": "autog_0338-7259_1972_num_18_1_1057",
  "page_name": "FMSH_PB188a_18-19_301",
  "questions": [
    "Quel est le titre et l'auteur de cette bibliographie sur l'anarchisme entre 1968 et 1971 ?",
    "Quel est le caractère de la liste présentée dans le texte ?",
    "Quels types de documents sont inclus dans cette bibliographie ?",
    "Quel est le nom et l'adresse du Centre international de recherches sur l'anarchisme mentionné dans le texte ?",
    "Quels articles de Jean Maitron sont cités dans le texte et dans quels numéros du Mouvement social ?",
    "Dans quels domaines de langue est-il utile de se reporter pour des publications sur l'anarchisme ?",
    "Quels sources bibliographiques ont été consultées pour la compilation de cette bibliographie ?",
    "Quel est le nom et l'adresse du Groupe de travail pour l'histoire du mouvement ouvrier en Suisse mentionné dans le texte ?"
  ]
}