{
  "num": "autog_0338-7259_1972_num_18_1",
  "article": "autog_0338-7259_1972_num_18_1_1057",
  "page_name": "FMSH_PB188a_18-19_309",
  "questions": [
    "Quels documents sont cités dans ce passage concernant la Commune de Cronstadt ?",
    "Dans quels villes ont été publiés certains de ces documents ?",
    "Qui est l'auteur de l'ouvrage intitulé \"La Commune de Cronstadt\" paru en 1971 à Tours ?",
    "Dans quelle revue a été publié un article intitulé \"L'Anarchisme dans les montagnes\" en 1971 ?",
    "Quel livre sur l'anarchisme en Suisse a été publié en 1972 par La Cité ?",
    "Quel article sur le syndicalisme révolutionnaire a été publié dans les Cahiers Vilfredo Pareto en 1969 ?",
    "Quel livre sur la Première Internationale a été publié sous la direction d'Ernest Eabrousse en 1968 ?",
    "Quels auteurs ont écrit des articles sur le syndicalisme révolutionnaire dans des revues ou des livres entre 1968 et 1971 ?",
    "Quels ouvrages sur l'anarchisme sont cités avant la liste des références ?",
    "Quels thèmes sont abordés dans les ouvrages cités sur la Commune de Cronstadt ?",
    "Quels thèmes sont abordés dans les ouvrages cités sur la Première Internationale ?",
    "Quels thèmes sont abordés dans les ouvrages cités sur le syndicalisme révolutionnaire ?"
  ]
}