{
  "num": "autog_0338-7259_1972_num_18_1",
  "article": "autog_0338-7259_1972_num_18_1_1057",
  "page_name": "FMSH_PB188a_18-19_313",
  "questions": [
    "Quels auteurs sont cités dans ce passage concernant l'anarchisme entre 1968 et 1971 ?",
    "Quels titres de livres sont mentionnés pour chacun de ces auteurs ?",
    "Dans quels éditions ont été publiés les livres de Louise Michel et Edith Thomas ?",
    "Quel est le titre de l'étude consacrée à Max Nettlau par Rudolf de Jong ?",
    "Dans quelle revue a été publiée l'étude de Rudolf de Jong sur Max Nettlau ?",
    "Quel est le titre de l'étude de Jacques Julliard sur Fernand Pelloutier ?",
    "Dans quelle maison d'édition a été publié le livre de Fernand Pelloutier sur l'histoire des bourses du travail ?",
    "Quel est le titre de l'étude de Jean Bancal sur Proudhon ?",
    "Dans quels volumes est-ce publié ?",
    "Quels autres auteurs sont cités en relation avec Proudhon ?",
    "Quels livres de Proudhon sont mentionnés ?"
  ]
}