{
  "num": "autog_0338-7259_1972_num_18_1",
  "article": "autog_0338-7259_1972_num_18_1_1057",
  "page_name": "FMSH_PB188a_18-19_303",
  "questions": [
    "Quels ouvrages de référence sont cités dans ce passage ?",
    "Quel est le titre complet de l'encyclopédie anarchiste ?",
    "Dans quelle ville est-elle initialement publiée ?",
    "En France, quel est le nom du groupe qui publie la version française de l'encyclopédie anarchiste ?",
    "Quel est le titre complet du dictionnaire biographique du mouvement ouvrier français ?",
    "Quel est le nom du directeur de ce dictionnaire ?",
    "Quel est le titre complet du dictionnaire biographique du mouvement ouvrier international ?",
    "Quels pays sont abordés dans ce dictionnaire ?",
    "Quel est le titre complet du dictionnaire de culture par André Nataf ?",
    "Quels textes sont réunis dans le livre \"Anarchism to-day\" ?",
    "Dans quelle revue sont initialement parus les articles de ce livre ?",
    "Quel est le titre complet du livre \"Anarchismus\" ?",
    "Qui est le rédacteur en chef de ce livre ?",
    "Dans quelle ville est-ce publié ?",
    "Quel est le titre complet du livre \"Anarchismo vecchio e nuovo\" ?",
    "Dans quelle ville est-ce publié ?",
    "Quel est le titre complet du livre \"Naissance de l'anarchisme\" ?",
    "Dans quelle ville est-ce publié ?",
    "Dans quelle collection est-ce publié ?",
    "Note: The questions are in French as requested, but I'm an English speaker, so please let me know if there are any errors in the French.?"
  ]
}