{
  "num": "autog_0338-7259_1977_num_37_1",
  "article": "autog_0338-7259_1977_num_37_1_1244",
  "page_name": "FMSH_PB188a_37-38_176",
  "questions": [
    "Quels sont les lois objectives du développement des forces productives selon Kardelj ?",
    "Pourquoi considère-t-il que renoncer à la production marchande serait moins efficace économiquement et entraînerait la restauration de l'étatisme ?",
    "Quel est le statut légal du revenu de l'organisation de travail selon Kardelj ?",
    "Comment doivent être déterminés les revenus individuels selon Kardelj ?",
    "Comment doivent être répartis les revenus entre organisations de travail selon Kardelj ?",
    "Comment doit se dérouler la concertation entre organisations de travail et instances politiques selon Kardelj ?",
    "Comment Kardelj voit-il le rôle de l'État dans la régulation courante des flux économiques et dans l'arbitrage de conflits ?",
    "En quoi confiant est Kardelj dans ce système de travail associé ?",
    "Quels sont les lacunes et faiblesses que Kardelj veut contrecarrer avec ce système ?",
    "Quels sont les tendances que Kardelj veut contrecarrer avec ce système ?",
    "Quel est le contexte historique et social de ces propositions de Kardelj ?",
    "Quels sont les références précises à la réalité yougoslave que manquent dans le texte ?"
  ]
}