{
  "num": "autog_0338-7259_1977_num_37_1",
  "article": "autog_0338-7259_1977_num_37_1_1244",
  "page_name": "FMSH_PB188a_37-38_173",
  "questions": [
    "Quel est le rôle central de Kardelj dans la politique yougoslave depuis la dernière guerre ?",
    "Quel est la place de Kardelj dans la théorie du système social yougoslave ?",
    "Quand se produisent les amendements constitutionnels de 1971 et la constitution de 1974 dans le contexte socio-historique yougoslave ?",
    "Quels sont les problèmes posés par le système d'autogestion lors de sa codification nouvelle ?",
    "Comment le système yougoslave de propriété des moyens de production est-il différent de la propriété étatique et privée ou de groupe ?",
    "Qu'est la propriété sociale selon l'auteur ?",
    "Comment le travailleur peut-il s'approprier directement les moyens de production dans le système yougoslave ?",
    "Comment l'auteur distingue la propriété sociale de la propriété privée ou de groupe ?",
    "Quel est le but de l'appropriation des moyens de production pour le travailleur dans le système yougoslave ?",
    "Comment l'auteur utilise le terme de rapport salarial dans son essai ?",
    "Quels sont les conséquences de l'appropriation des moyens de production pour le travailleur dans le système yougoslave ?",
    "Comment l'auteur utilise le terme de représentant des travailleurs dans son essai ?",
    "Quels sont les implications politiques et sociales de la propriété sociale dans le système yougoslave ?",
    "Comment l'auteur justifie la lecture de son essai malgré le vocabulaire utilisé ?"
  ]
}