{
  "num": "autog_0338-7259_1977_num_37_1",
  "article": "autog_0338-7259_1977_num_37_1_1244",
  "page_name": "FMSH_PB188a_37-38_180",
  "questions": [
    "Quels sont les \"béquilles idéologiques et politiques\" que Kardelj souhaite minimiser dans le développement des rapports sociaux autogestionnaires ?",
    "Quel rôle joue la Ligue des communistes, dont les membres occupent les postes clés, dans l'appareil étatique et dans les entreprises ?",
    "Quel est le rôle de l'État dans le système yougoslave, au-delà de la dénonciation de la propriété étatique ?",
    "Comment l'État assure le fonctionnement d'un système économique tendant à la reproduction constante des rapports de production autogestionnaires socialistes ?",
    "Comment le système économique, qui repose sur la production marchande, tend-il à reproduire les rapports sociaux capitalistes ?",
    "Qu'entend l'auteur par la \"force révolutionnaire\" d'un État tant décrié ?",
    "Peut-on réellement supposer que les nouvelles procédures de concertation permettront aux travailleurs de dominer leurs moyens de production ?",
    "Comment les nouvelles modalités de planification visent-elles à changer le caractère des rapports marchands ?"
  ]
}