{
  "num": "autog_0338-7259_1977_num_37_1",
  "article": "autog_0338-7259_1977_num_37_1_1244",
  "page_name": "FMSH_PB188a_37-38_179",
  "questions": [
    "Quel est le contexte mondial décrit dans le texte et comment positionne l'auteur vis-à-vis de la question de la polarisation entre le centre et la périphérie ?",
    "Est-ce que l'auteur se situe dans la perspective de la construction du socialisme dans un seul pays en ce qui concerne la Yougoslavie ?",
    "Quels sont les références du planificateur dans l'économie mondiale selon l'auteur et comment il est influencé par la logique de la production marchande ?",
    "Comment l'auteur perçoit la suppression des rapports marchands et la loi de la valeur dans l'économie socialiste ?",
    "Comment l'auteur voit l'impact de la lutte contre la loi de la valeur sur la propriété étatique et la séparation des travailleurs des moyens de production ?",
    "Quel est le rôle de l'État dans le système yougoslave et comment il est perçu par l'auteur ?",
    "Comment l'auteur perçoit l'impact de l'autonomie des entreprises sur la domination des moyens de production par les producteurs ?"
  ]
}