{
  "num": "autog_0338-7259_1975_num_32_1",
  "article": "autog_0338-7259_1975_num_32_1_1140",
  "page_name": "FMSH_PB188a_00032_037",
  "questions": [
    "Quels sont les demandes insatisfaisables du contrôle ouvrier dans le système capitaliste actuel aux États-Unis ?",
    "Quel est le contexte américain qui offre aux ouvriers la possibilité d'accéder aux valeurs et au niveau d'éducation de la classe moyenne et assure le maintien de l'adhésion aux valeurs centrales du capitalisme ?",
    "Comment la tension entre le mécontentement des travailleurs et la faible productivité et le besoin de conserver les traits essentiels de ce système va-t-elle probablement s'accroître ?",
    "Quelles sont les causes de la fameuse grève de Lordstown aux États-Unis ?",
    "Comment la pression pour obtenir une productivité supérieure des travailleurs aux États-Unis a-t-elle abouti ?",
    "Comment les nouvelles valeurs culturelles de la jeunesse ont-elles réuni les étudiants et les ouvriers aux États-Unis ?",
    "Comment l'éthique du succès a-t-elle été remise en question par les travailleurs aux États-Unis ?",
    "Quel est le rôle des syndicats dans le système global aux États-Unis et comment un mouvement pour un contrôle plus important sur les conditions de travail ne peut-il probablement se développer ?"
  ]
}