{
  "num": "autog_0338-7259_1975_num_32_1",
  "article": "autog_0338-7259_1975_num_32_1_1140",
  "page_name": "FMSH_PB188a_00032_030",
  "questions": [
    "Quels facteurs convergent actuellement aux États-Unis pour favoriser le développement d'un mouvement de contrôle ouvrier ?",
    "En quelles conditions historiques la situation actuelle du mouvement de contrôle ouvrier se détermine-t-elle ?",
    "Comment le développement de ce mouvement apparaît-il possible ?",
    "Quels syndicats pourraient apporter un soutien modéré à ce mouvement ?",
    "Quelles raisons justifient-elles que la majorité des syndicats s'opposerait à ce mouvement ?",
    "En quelles conditions le mouvement de contrôle ouvrier a-t-il commencé ?",
    "Quels mouvements ont précédé le mouvement de contrôle ouvrier ?",
    "Quels caractères sociaux ou politiques a-t-il visé à combattre dans les grandes entreprises et au niveau gouvernemental ?",
    "Quelles formes de démocratie a-t-il tenté d'instaurer dans les écoles, les comités de quartier et d'autres formes de contrôle communautaire ?"
  ]
}