{
  "num": "autog_0338-7259_1975_num_32_1",
  "article": "autog_0338-7259_1975_num_32_1_1140",
  "page_name": "FMSH_PB188a_00032_032",
  "questions": [
    "Quel rôle ont les institutions de base joué dans l'effacement du Rêve Américain dans l'esprit de nombreux citoyens ?",
    "Quel est le pourcentage de la jeunesse américaine qui va désormais à l'Université ?",
    "Quel était le développement du système d'éducation de masse entre 1950 et 1965 ?",
    "Quelle a été la raison principale de la croissance de l'enseignement public durant cette période ?",
    "Comment l'enseignement a-t-il été libéralisé sous l'influence du mouvement progressiste et étudiant ?",
    "Quel est l'écart entre les méthodes éducatives dans la vie familiale et l'enseignement pour les jeunes des années 50 et 60 ?",
    "Comment le travail a-t-il évolué durant cette période ?",
    "Quel est le pourcentage des petits entrepreneurs durant les années 60 ?",
    "Quel est le pourcentage de travailleurs salariés dans de grandes organisations hiérarchisées ?",
    "Comment la mythologie de la libre entreprise s'accorde avec la réalité du travail pour la majorité des travailleurs ?"
  ]
}