{
  "num": "autog_0249-2563_1984_num_17_17",
  "article": "autog_0249-2563_1984_num_17_17_1614",
  "page_name": "autog_0249-2563_1984_num_17_17_T1_0092_0000",
  "questions": [
    "Quels groupes sont-ils liés au « socialisme rénové » ?",
    "Quelles propositions défendent-ils en matière de pluralisme culturel ?",
    "Comment ils proposent-ils de construire un socialisme ?",
    "Qu'il faudrait inventer pour favoriser un dialogue entre les différentes pensées et expressions artistico-culturelles ?",
    "Dans quel contexte ces propositions ont-elles été formulées ?"
  ]
}