{
  "num": "autog_0249-2563_1984_num_17_17",
  "article": "autog_0249-2563_1984_num_17_17_1614",
  "page_name": "autog_0249-2563_1984_num_17_17_T1_0085_0000",
  "questions": [
    "Quels types de musique noire, contemporaine et de jazz ont eu un impact difficile à expliquer ?",
    "Dans quels médias de communication ces musiques ont-elles commencé à être diffusées ?",
    "Quel est le rôle de la musique dans la révolution ?",
    "Qu'implique être « révolutionnaire » en matière de musique ?",
    "Quels groupes ont dû se dissoudre en raison de l'impossibilité de se consacrer entièrement à leur métier de musicien ?",
    "Qu'est la révision fondamentale et la définition esthétique plus approfondie que s'est accomplie dans le travail musical ?",
    "Qu'est le but du groupe Cuanto Nuevo de Chile ?",
    "Quels sont les tendances idéologiques et artistiques des chanteurs de Cuanto Nuevo ?",
    "Quel est l'orientation de l'organisation el Canto de Chili ?",
    "Qu'est l'idée de Pedro Yanez sur l'art et la politique ?"
  ]
}