{
  "num": "autog_0249-2563_1984_num_17_17",
  "article": "autog_0249-2563_1984_num_17_17_1614",
  "page_name": "autog_0249-2563_1984_num_17_17_T1_0082_0000",
  "questions": [
    "Quels éléments empêchaient les Chiliens de \"nommer les choses par leur nom\" pendant cette période ?",
    "Pourquoi les symboles devenaient-ils ambivalents ?",
    "Comment la poésie de cette époque peut-elle être qualifiée de politique ou sociale ?",
    "Quels thèmes abordent les poètes de cette époque ?",
    "Comment la \"jeune poésie\" utilise-t-elle le langage de la presse quotidienne, des nouvelles ou de la publicité ?",
    "Qu'est-ce que Eduardo Llanos entend par \"faire de la poésie, c'est rendre un service social\" ?",
    "Pourquoi Eduardo Llanos considère la poésie comme une entreprise de papier dont le succès dépend de la non-exigence d'utilités tangibles ?",
    "Quels écrivains publiaient clandestinement pendant cette période ?",
    "Quels écrivains choisissaient de ne pas publier pendant cette période ?",
    "Quels écrivains reviennent maintenant après un exil volontaire ?",
    "Quels jeunes auteurs apparaissent aujourd'hui dans la littérature chilienne ?",
    "Comment Antonio Ostornol décrit la situation de la littérature pendant ces dix années ?",
    "Quelles options avait Antonio Ostornol pour écrire pendant cette période ?",
    "Pourquoi Antonio Ostornol a-t-il opté pour entrer dans le jeu de la censure ?",
    "Quels moyens utilisait-il pour publier pendant cette période ?",
    "Quels auteurs chantaient pendant cette période alors que l'on ne pouvait pas chanter ?"
  ]
}