{
  "num": "autog_0249-2563_1984_num_17_17",
  "article": "autog_0249-2563_1984_num_17_17_1614",
  "page_name": "autog_0249-2563_1984_num_17_17_T1_0075_0000",
  "questions": [
    "Quels sont les objectifs principaux des actions de solidarité artistiques ?",
    "Quels sont les différentes attitudes des classes dominantes au Chili envers la question culturelle ?",
    "Comment le gouvernement a-t-il traité les questions culturelles ?",
    "Quel est le rôle privé dans la production culturelle au Chili ?",
    "Quels sont les dispositifs et mesures de censure dans la presse, l'édition, la radio, l'université, et la télévision au Chili ?",
    "Comment les artistes et les créateurs ont-ils réagi aux restrictions ?"
  ]
}