{
  "num": "autog_0005-0970_1967_num_4_1",
  "article": "autog_0005-0970_1967_num_4_1_916_t1_0171_0000_1",
  "page_name": "FMSH_PB188a_00004_174",
  "questions": [
    "Quels intérêts fondamentaux de la direction des entreprises sont exprimés par M. Ernest Mandel sous forme de propositions sans approbation directe ?",
    "Comment M. Mandel envisage de promouvoir des réformes anti-capitalistes ?",
    "Quels sont les trois pôles de pouvoir que propose M. Mandel ?",
    "Comment M. Mandel justifie son point de vue réformiste dans le contexte de sociétés capitalistes ?",
    "Quelles revendications peut-on avancer aujourd'hui pour mettre en question le pouvoir du capital dans les entreprises ?",
    "Quel est le point de vue de M. Mandel sur le capitalisme contemporain et les contradictions qu'il a dégagées ?",
    "Qu'est-ce que la « politique d'offensive ouvrière » de M. Mandel et comment elle conteste le pouvoir du capital dans les entreprises ?",
    "Quel est l'opinion de M. Gilbert Mathieu sur la réaction de la gauche face aux propositions de M. Bloch-Lainé ?",
    "Est-il illusoire, selon M. Mathieu, de vouloir que le capitalisme travaille à visage découvert ?",
    "Quel est le rôle de la « lutte des classes » selon M. Mathieu ?",
    "Quels sont les qualificatifs rejetés par certaines personnes envers M. Bloch-Lainé et pourquoi ?"
  ]
}