{
  "num": "autog_0338-7259_1978_num_41_1",
  "article": "autog_0338-7259_1978_num_41_1_1311",
  "page_name": "FMSH_PB188a_41-42_070",
  "questions": [
    "Quels sont les six composants clés d'une entreprise souhaitant atteindre les objectifs de la démocratie intérieure et de la rentabilité économique ?",
    "En quoi Paul Bernstein est-il convaincu que ces composants sont indispensables ?",
    "Quels sont les trois facteurs supplémentaires que John McCallum considère nécessaires à la prise en compte ?",
    "En quoi les facteurs technologique, d'éducation et de changement de valeurs peuvent-ils contribuer à la démocratisation des entreprises ?",
    "Comment les structures et processus démocratiques d'une entreprise peuvent-elles établir un système de apprentissage ?",
    "Comment les décisions prises dans une entreprise participative peuvent-elles être plus responsables en matière de politique sociale ?",
    "Comment les critères de la utilité sociale des décisions peuvent-être introduits dans les démocraties organisationnelles ?"
  ]
}