{
  "num": "autog_0249-2563_1980_num_13_1",
  "article": "autog_0249-2563_1980_num_13_1_1353_t1_0129_0000_1",
  "page_name": "autog_0249-2563_1980_num_13_1_T1_0129_0000",
  "questions": [
    "Quel est l'auteur de l'anthologie de textes politiques sur Noam Chomsky ?",
    "Dans quelle publication a Carlos-Peregrin Otero commencé à discuter de Chomsky et de l'anarchisme espagnol ?",
    "Quels critères traditionnels utilise-t-il pour expliquer l'anarchisme en Espagne et comment les applique-t-il à Chomsky ?",
    "Quels textes de Chomsky aborde-t-il directement l'autogestion ?",
    "Qu'est-il de l'idée que la centralisation de la planification et du contrôle est un impératif technologique selon Chomsky ?",
    "Comment Chomsky voit-il la participation des travailleurs à des expériences de gestion dans la société capitaliste ?",
    "Quels idéaux anarcho-syndicalistes et socialistes libertaires estime-t-il appropriés à une société industrielle avancée ?",
    "Quelle hypothèse personnelle formule-t-il sur une société autogérée ?"
  ]
}