{
  "num": "autog_0005-0970_1968_num_5_1",
  "article": "autog_0005-0970_1968_num_5_1_920",
  "page_name": "FMSH_PB188a_05-06_068",
  "questions": [
    {
      "id_qa": "FMSH_PB188a_05-06_068_qa52_v3",
      "id_block": "block_1",
      "question": "Qui décide de mener la guerre sous la direction des impérialistes ?",
      "answer": "la classe ouvrière",
      "answer_stringIds": [
        "string_19",
        "string_20",
        "string_21"
      ]
    },
    {
      "id_qa": "FMSH_PB188a_05-06_068_qa53_v3",
      "id_block": "block_1",
      "question": "Qu'est-ce que la bourgeoisie ordonne à la classe ouvrière ?",
      "answer": "la guerre",
      "answer_stringIds": [
        "string_24",
        "string_25"
      ]
    },
    {
      "id_qa": "FMSH_PB188a_05-06_068_qa55_v3",
      "id_block": "block_1",
      "question": "A qui la classe ouvrière ordonne-t-elle de mener la guerre ?",
      "answer": "de mener la guerre sous la direction de ses propres impérialistes",
      "answer_stringIds": [
        "string_22",
        "string_23",
        "string_24",
        "string_25",
        "string_26",
        "string_27",
        "string_28",
        "string_29",
        "string_30",
        "string_31",
        "string_32"
      ]
    },
    {
      "id_qa": "FMSH_PB188a_05-06_068_qa2_v3",
      "id_block": "block_2",
      "question": "Qu'est-ce que le bolchevisme devait conquérir en juin 36, en France ?",
      "answer": "la direction du mouvement ouvrier organisé",
      "answer_stringIds": [
        "string_126",
        "string_127",
        "string_128",
        "string_129",
        "string_130",
        "string_131",
        "string_132"
      ]
    },
    {
      "id_qa": "FMSH_PB188a_05-06_068_qa3_v3",
      "id_block": "block_2",
      "question": "Qu'est ce qui devait dégager dans toute sa pureté ?",
      "answer": "La grève générale",
      "answer_stringIds": [
        "string_98",
        "string_99",
        "string_100"
      ]
    },
    {
      "id_qa": "FMSH_PB188a_05-06_068_qa4_v3",
      "id_block": "block_2",
      "question": "Où a eu lieu la grève générale de juin 36 ?",
      "answer": "en France",
      "answer_stringIds": [
        "string_104",
        "string_105"
      ]
    },
    {
      "id_qa": "FMSH_PB188a_05-06_068_qa5_v3",
      "id_block": "block_2",
      "question": "Quel mouvement social-démocrate a réussi à conquérir la direction du mouvement ouvrier organisé ?",
      "answer": "du bolchevisme",
      "answer_stringIds": [
        "string_122",
        "string_123"
      ]
    },
    {
      "id_qa": "FMSH_PB188a_05-06_068_qa6_v3",
      "id_block": "block_2",
      "question": "Dans quel mouvement le bolchevisme a-t-il conquis la direction ?",
      "answer": "du mouvement ouvrier",
      "answer_stringIds": [
        "string_49",
        "string_50",
        "string_51"
      ]
    },
    {
      "id_qa": "FMSH_PB188a_05-06_068_qa7_v3",
      "id_block": "block_2",
      "question": "Quand a eu lieu la grève générale en France ?",
      "answer": "de juin 36",
      "answer_stringIds": [
        "string_101",
        "string_102",
        "string_103"
      ]
    },
    {
      "id_qa": "FMSH_PB188a_05-06_068_qa11_v3",
      "id_block": "block_2",
      "question": "Quand Thorez affirme-t-il que tout soit possible ?",
      "answer": "en juin 36",
      "answer_stringIds": [
        "string_195",
        "string_196",
        "string_197"
      ]
    },
    {
      "id_qa": "FMSH_PB188a_05-06_068_qa13_v3",
      "id_block": "block_2",
      "question": "Qu'exige Maurice Thorez en juin 36 ?",
      "answer": "terminer une grève",
      "answer_stringIds": [
        "string_212",
        "string_213",
        "string_214"
      ]
    },
    {
      "id_qa": "FMSH_PB188a_05-06_068_qa18_v3",
      "id_block": "block_2",
      "question": "Qu'est-ce que doit faire Maurice Thorez en juin 36 ?",
      "answer": "terminer une grève",
      "answer_stringIds": [
        "string_212",
        "string_213",
        "string_214"
      ]
    },
    {
      "id_qa": "FMSH_PB188a_05-06_068_qa19_v3",
      "id_block": "block_2",
      "question": "Que doit faire Maurice Thorez en juin 36 ?",
      "answer": "une grève",
      "answer_stringIds": [
        "string_213",
        "string_214"
      ]
    },
    {
      "id_qa": "FMSH_PB188a_05-06_068_qa23_v3",
      "id_block": "block_2",
      "question": "Quelle est la majorité des cadres du mouvement ouvrier à cette époque ?",
      "answer": "la majorité des syndicats",
      "answer_stringIds": [
        "string_287",
        "string_288",
        "string_289",
        "string_290"
      ]
    },
    {
      "id_qa": "FMSH_PB188a_05-06_068_qa24_v3",
      "id_block": "block_2",
      "question": "Quand l'indépendance de classe n'était pas assurée ?",
      "answer": "en juin",
      "answer_stringIds": [
        "string_195",
        "string_196"
      ]
    },
    {
      "id_qa": "FMSH_PB188a_05-06_068_qa25_v3",
      "id_block": "block_2",
      "question": "A quoi étaient sacrifiés les intérêts particuliers ?",
      "answer": "les intérêts généraux du prolétariat",
      "answer_stringIds": [
        "string_411",
        "string_412",
        "string_413",
        "string_414",
        "string_415"
      ]
    },
    {
      "id_qa": "FMSH_PB188a_05-06_068_qa27_v3",
      "id_block": "block_2",
      "question": "A quoi les intérêts généraux du prolétariat étaient-ils sacrifiés ?",
      "answer": "à des intérêts particuliers qui se retournaient contre lui",
      "answer_stringIds": [
        "string_422",
        "string_423",
        "string_424",
        "string_425",
        "string_426",
        "string_427",
        "string_428",
        "string_429",
        "string_430"
      ]
    },
    {
      "id_qa": "FMSH_PB188a_05-06_068_qa28_v3",
      "id_block": "block_2",
      "question": "Combien de personnes croyaient que l'indépendance de classe n'était pas assurée ?",
      "answer": "des milliers de militants",
      "answer_stringIds": [
        "string_404",
        "string_405",
        "string_406",
        "string_407"
      ]
    },
    {
      "id_qa": "FMSH_PB188a_05-06_068_qa29_v3",
      "id_block": "block_2",
      "question": "Qu'est-ce qui est en fait le condensé d'un programme précis ?",
      "answer": "Cette formule",
      "answer_stringIds": [
        "string_372",
        "string_373"
      ]
    },
    {
      "id_qa": "FMSH_PB188a_05-06_068_qa31_v3",
      "id_block": "block_2",
      "question": "Qui a critiqué cette arme de la grève en 1947 ?",
      "answer": "par le même dirigeant ouvrier",
      "answer_stringIds": [
        "string_238",
        "string_239",
        "string_240",
        "string_241",
        "string_242"
      ]
    },
    {
      "id_qa": "FMSH_PB188a_05-06_068_qa36_v3",
      "id_block": "block_2",
      "question": "Qu'est ce qui peut se constituer dans la lutte de classes ?",
      "answer": "un Etat ouvrier",
      "answer_stringIds": [
        "string_322",
        "string_323",
        "string_324"
      ]
    },
    {
      "id_qa": "FMSH_PB188a_05-06_068_qa43_v3",
      "id_block": "block_2",
      "question": "Quand Thorez expliquait-il qu'il faut un seul Etat ?",
      "answer": "en 1945",
      "answer_stringIds": [
        "string_353",
        "string_354"
      ]
    },
    {
      "id_qa": "FMSH_PB188a_05-06_068_qa44_v3",
      "id_block": "block_2",
      "question": "Qui a écrit \"Un seul Etat, une seule armée\" ?",
      "answer": "Maurice Thorez",
      "answer_stringIds": [
        "string_192",
        "string_193"
      ]
    },
    {
      "id_qa": "FMSH_PB188a_05-06_068_qa45_v3",
      "id_block": "block_2",
      "question": "Qu'est ce qui est nécessaire en 1945 ?",
      "answer": "un seul Etat",
      "answer_stringIds": [
        "string_362",
        "string_363",
        "string_364"
      ]
    },
    {
      "id_qa": "FMSH_PB188a_05-06_068_qa0_v3",
      "id_block": "block_3",
      "question": "Qu'est ce qui défend les bureaucraties ?",
      "answer": "des intérêts de castes",
      "answer_stringIds": [
        "string_532",
        "string_533",
        "string_534",
        "string_535"
      ]
    },
    {
      "id_qa": "FMSH_PB188a_05-06_068_qa1_v3",
      "id_block": "block_3",
      "question": "Qu'est ce qui défend les intérêts de castes ?",
      "answer": "des bureaucraties",
      "answer_stringIds": [
        "string_528",
        "string_529"
      ]
    },
    {
      "id_qa": "FMSH_PB188a_05-06_068_qa38_v3",
      "id_block": "block_3",
      "question": "Qu'est-ce que la bureaucratie social-démocrate ?",
      "answer": "agence",
      "answer_stringIds": [
        "string_42"
      ]
    },
    {
      "id_qa": "FMSH_PB188a_05-06_068_qa39_v3",
      "id_block": "block_3",
      "question": "Où ont eu lieu les révolutions du XXème siècle ?",
      "answer": "en France",
      "answer_stringIds": [
        "string_104",
        "string_105"
      ]
    },
    {
      "id_qa": "FMSH_PB188a_05-06_068_qa41_v3",
      "id_block": "block_3",
      "question": "Qu'est ce qui s'est passé en France au XXème siècle ?",
      "answer": "des révolutions",
      "answer_stringIds": [
        "string_444",
        "string_445"
      ]
    }
  ]
}