{
  "num": "autog_0005-0970_1968_num_5_1",
  "article": "autog_0005-0970_1968_num_5_1_920",
  "page_name": "FMSH_PB188a_05-06_067",
  "questions": [
    {
      "id_qa": "FMSH_PB188a_05-06_067_qa0_v3",
      "id_block": "block_2",
      "question": "Où Lénine saluait-il les « ilôts de démocratie prolétarienne » ?",
      "answer": "dans les syndicats",
      "answer_stringIds": [
        "string_119",
        "string_120",
        "string_121",
        "string_122"
      ]
    },
    {
      "id_qa": "FMSH_PB188a_05-06_067_qa1_v3",
      "id_block": "block_2",
      "question": "Qui saluait dans les syndicats des « ilôts de démocratie prolétarienne » au sein même de la société bourgeoise ?",
      "answer": "Lénine",
      "answer_stringIds": [
        "string_117"
      ]
    },
    {
      "id_qa": "FMSH_PB188a_05-06_067_qa3_v3",
      "id_block": "block_2",
      "question": "Qui s'associe de façon indépendante de l'Etat bourgeois ?",
      "answer": "les ouvriers",
      "answer_stringIds": [
        "string_172",
        "string_173"
      ]
    },
    {
      "id_qa": "FMSH_PB188a_05-06_067_qa6_v3",
      "id_block": "block_2",
      "question": "Que représente la formation des syndicats ?",
      "answer": "un pas en avant considérable dans la lutte contre la concurrence",
      "answer_stringIds": [
        "string_98",
        "string_99",
        "string_100",
        "string_101",
        "string_102",
        "string_103",
        "string_104",
        "string_105",
        "string_106",
        "string_107",
        "string_108"
      ]
    },
    {
      "id_qa": "FMSH_PB188a_05-06_067_qa7_v3",
      "id_block": "block_2",
      "question": "Qu'est ce qui représente un pas en avant considérable dans la lutte contre la concurrence sans cesse renaissante ?",
      "answer": "La formation des syndicats",
      "answer_stringIds": [
        "string_93",
        "string_94",
        "string_95",
        "string_96"
      ]
    },
    {
      "id_qa": "FMSH_PB188a_05-06_067_qa11_v3",
      "id_block": "block_2",
      "question": "Qui cherche à briser l'Indépendance de classe de ces organisations ?",
      "answer": "la bourgeoisie",
      "answer_stringIds": [
        "string_229",
        "string_230"
      ]
    },
    {
      "id_qa": "FMSH_PB188a_05-06_067_qa13_v3",
      "id_block": "block_2",
      "question": "Qui ne peut pas se coaliser avec la bourgeoisie ?",
      "answer": "les ouvriers",
      "answer_stringIds": [
        "string_172",
        "string_173"
      ]
    },
    {
      "id_qa": "FMSH_PB188a_05-06_067_qa15_v3",
      "id_block": "block_2",
      "question": "Dans quel parti Marx a-t-il montré que la loi fondamentale de la société bourgeoise était la concurrence ?",
      "answer": "dans le Manifeste du Parti Communiste",
      "answer_stringIds": [
        "string_19",
        "string_20",
        "string_21",
        "string_22",
        "string_23",
        "string_24"
      ]
    },
    {
      "id_qa": "FMSH_PB188a_05-06_067_qa16_v3",
      "id_block": "block_2",
      "question": "Qui a montré que la loi fondamentale de la société bourgeoise était la concurrence ?",
      "answer": "Marx",
      "answer_stringIds": [
        "string_16"
      ]
    },
    {
      "id_qa": "FMSH_PB188a_05-06_067_qa18_v3",
      "id_block": "block_2",
      "question": "A quoi servent les syndicats ?",
      "answer": "à des organes de collaboration de classe",
      "answer_stringIds": [
        "string_308",
        "string_309",
        "string_310",
        "string_311",
        "string_312",
        "string_313",
        "string_314"
      ]
    },
    {
      "id_qa": "FMSH_PB188a_05-06_067_qa31_v3",
      "id_block": "block_2",
      "question": "Qui a écrit le Manifeste ?",
      "answer": "Marx",
      "answer_stringIds": [
        "string_16"
      ]
    },
    {
      "id_qa": "FMSH_PB188a_05-06_067_qa32_v3",
      "id_block": "block_2",
      "question": "Dans quel ouvrage Marx a-t-il écrit : \"Le résultat véritable de leurs luttes\" ?",
      "answer": "dans le Manifeste",
      "answer_stringIds": [
        "string_19",
        "string_20",
        "string_21"
      ]
    },
    {
      "id_qa": "FMSH_PB188a_05-06_067_qa23_v3",
      "id_block": "block_3",
      "question": "Qui soutient ouvertement la politique gouvernementale ?",
      "answer": "les syndicats",
      "answer_stringIds": [
        "string_120",
        "string_121",
        "string_122"
      ]
    },
    {
      "id_qa": "FMSH_PB188a_05-06_067_qa24_v3",
      "id_block": "block_3",
      "question": "Qu'est ce qui est soutenu par les syndicats ?",
      "answer": "la politique gouvernementale",
      "answer_stringIds": [
        "string_359",
        "string_360",
        "string_361"
      ]
    },
    {
      "id_qa": "FMSH_PB188a_05-06_067_qa25_v3",
      "id_block": "block_3",
      "question": "Qui soutient ouvertement, cyniquement la politique gouvernementale ?",
      "answer": "les syndicats",
      "answer_stringIds": [
        "string_120",
        "string_121",
        "string_122"
      ]
    },
    {
      "id_qa": "FMSH_PB188a_05-06_067_qa28_v3",
      "id_block": "block_3",
      "question": "Qui a acheté le mouvement ouvrier au XIX siècle ?",
      "answer": "par le grand capital",
      "answer_stringIds": [
        "string_341",
        "string_342",
        "string_343",
        "string_344"
      ]
    },
    {
      "id_qa": "FMSH_PB188a_05-06_067_qa29_v3",
      "id_block": "block_3",
      "question": "Qui a été entièrement corrompu au XIX siècle ?",
      "answer": "le mouvement ouvrier",
      "answer_stringIds": [
        "string_327",
        "string_328",
        "string_329"
      ]
    },
    {
      "id_qa": "FMSH_PB188a_05-06_067_qa30_v3",
      "id_block": "block_3",
      "question": "Qu'est ce qui a été entièrement corrompu au XIX siècle ?",
      "answer": "le mouvement ouvrier",
      "answer_stringIds": [
        "string_327",
        "string_328",
        "string_329"
      ]
    },
    {
      "id_qa": "FMSH_PB188a_05-06_067_qa38_v3",
      "id_block": "block_3",
      "question": "Qu'est ce qui continue dans ce pays ?",
      "answer": "la lutte des classes",
      "answer_stringIds": [
        "string_381",
        "string_382",
        "string_383",
        "string_384"
      ]
    },
    {
      "id_qa": "FMSH_PB188a_05-06_067_qa39_v3",
      "id_block": "block_3",
      "question": "Qu'est-ce qui continue dans ce pays ?",
      "answer": "la lutte des classes",
      "answer_stringIds": [
        "string_381",
        "string_382",
        "string_383",
        "string_384"
      ]
    },
    {
      "id_qa": "FMSH_PB188a_05-06_067_qa41_v3",
      "id_block": "block_3",
      "question": "Qui utilise les mêmes armes que le capital américain ?",
      "answer": "la bourgeoisie européenne",
      "answer_stringIds": [
        "string_445",
        "string_446",
        "string_447"
      ]
    }
  ]
}