{
  "num": "autog_0338-7259_1973_num_22_1",
  "article": "autog_0338-7259_1973_num_22_1_1100",
  "page_name": "FMSH_PB188a_22-23_252",
  "questions": [
    "Quels sont les éléments clés du système autogéré selon les chroniques ?",
    "Comment les auteurs de ces chroniques perçoivent-ils la philosophie anglo-saxonne comparée aux conceptions révolutionnaires ?",
    "Quels sont les principes fondamentaux des conceptions révolutionnaires selon les textes ?",
    "Comment les participants à la table ronde ont-ils abordé la question de la réforme ou de la révolution ?",
    "Quels ont été les résultats des dernières table rondes du congrès ?",
    "Quels étaient les rôles des sociologues yougoslaves dans les critiques occidentales sur l'autogestion yougoslave ?",
    "Comment les contacts personnels et l'échange d'informations ont-ils contribué au congrès ?"
  ]
}