{
  "num": "autog_0338-7259_1975_num_32_1",
  "article": "autog_0338-7259_1975_num_32_1_1142",
  "page_name": "FMSH_PB188a_00032_074",
  "questions": [
    "Quels autres entreprises similaires nous serait utile de connaître pour bénéficier de leurs expériences ?",
    "En quelles manières nous pouvons améliorer notre financement actuel ?",
    "Quels types de structures plus larges nous intéressent pour impliquer plus de personnes dans la prise de décision ?",
    "Comment pouvons-nous maintenir un haut degré de démocratie tout en impliquant 150 membres de notre communauté dans les décisions ?",
    "Qu'implique pour un groupe de prendre la responsabilité d'une tâche que fait un individu ?",
    "Quels moyens permettent d'équilibrer l'initiative individuelle avec la cohésion du groupe et la responsabilité de la croissance ?",
    "Dans quels contextes la distinction entre responsabilité de groupe et responsabilité individuelle est-elle particulièrement pertinente ?",
    "Comment les groupes peuvent-ils gérer la responsabilité de la croissance tout en maintenant une forte cohésion interne ?"
  ]
}