{
  "num": "autog_0338-7259_1975_num_32_1",
  "article": "autog_0338-7259_1975_num_32_1_1142",
  "page_name": "FMSH_PB188a_00032_073",
  "questions": [
    "En quelles conditions la communauté de Southside 71 a-t-elle attaqué l'aliénation issue du travail ?",
    "Comment la communauté de Southside 71 a-t-elle évité la division du travail pour permettre à tous les mécaniciens de se sentir impliqués dans toutes les tâches du groupe ?",
    "Comment la procédure de consensus utilisée par la communauté de Southside 71 permet-elle à tous d'être partie prenante dans chaque décision collective ?",
    "Comment la communauté de Southside 71 a-t-elle personnalisé ses vues politiques et appris à se connaître mieux ?",
    "Quels sont les avantages de la participation large dans une entreprise nouvelle ?",
    "Comment la participation des membres de la communauté dans le travail quotidien du garage permet-elle de mieux répondre aux besoins de la communauté ?",
    "Comment le financement peut-il être amélioré dans une entreprise autogérée ?",
    "Comment les travailleurs ont-ils appris à prendre leurs décisions dans la communauté de Southside 71 ?",
    "Quel est l'importance de l'établissement de relations de confiance au sein d'une communauté locale pour les travailleurs d'une entreprise autogérée ?",
    "Comment la consommation peut-elle être un obstacle à l'autogestion selon l'expérience de la communauté de Southside 71 ?"
  ]
}