{
  "num": "autog_0005-0970_1968_num_5_1",
  "article": "autog_0005-0970_1968_num_5_1_925",
  "page_name": "FMSH_PB188a_05-06_133",
  "questions": [
    "Quel rôle joue l'imagination selon Charles Fourier dans la compréhension des êtres et leur évolution ?",
    "Quels types de réalités attirent particulièrement Fourier ?",
    "Qu'est-ce qu'il entend par les « ambigus » ?",
    "Comment Fourier perçoit-il la nature et les objets du travail ?",
    "Comment l'individu est-il affecté par la force des choses et par l'idéal dominateur ?",
    "Comment Fourier voit-il le rôle de l'association dans notre interaction avec le monde ?"
  ]
}