{
  "num": "autog_0005-0970_1968_num_5_1",
  "article": "autog_0005-0970_1968_num_5_1_925",
  "page_name": "FMSH_PB188a_05-06_149",
  "questions": [
    "Quels mouvements du monde est parlé ici et comment sont-ils liés à l'élan du désir de Charles Fourier ?",
    "Quand intervient la pensée réflexive dans le système des séries de Fourier ?",
    "Quel est le rôle du rêveur phénoménal dans l'imagination de structures adaptées aux hommes ?",
    "Pourquoi la convergence entre les étudiants révoltés et Fourier est remarquable ?",
    "Quels sont les critiques et les projets de Fourier qui substituent aux abstractions et aux platitudes idéalistes ?",
    "Comment Fourier fait-il virer le monde et dérange-t-il la fatalité ?",
    "Quel est le résultat de la fraicheur de premier matin, de la scandaleuse variété de divertissements et de délices sans fin, et de la brûlante jubilation selon Fourier ?"
  ]
}