{
  "num": "autog_0005-0970_1968_num_5_1",
  "article": "autog_0005-0970_1968_num_5_1_925",
  "page_name": "FMSH_PB188a_05-06_131",
  "questions": [
    "Quel est le rôle des philosophes et des théologiens dans la scission de la réalité humaine selon Fourier ?",
    "Qu'est le véritable péché originel selon Fourier ?",
    "Quand et comment les économistes ont-ils supplanté les moralistes et les philosophes ?",
    "Comment les économistes contribuent-ils au développement unilatéral de la science des mouvements matériels ?",
    "Quels sont les passions qui prennent un essor ignoble selon Fourier ?",
    "Comment les préjugés ont-ils été saper au cœur même du mouvement passionnel ?",
    "Qu'est le libéralisme selon Fourier ?",
    "Comment le libéralisme sert-il à maintenir l'exploitation selon Fourier ?"
  ]
}