{
  "num": "autog_0005-0970_1968_num_5_1",
  "article": "autog_0005-0970_1968_num_5_1_925",
  "page_name": "FMSH_PB188a_05-06_127",
  "questions": [
    "Quels sont les associations que Fourier critique et pourquoi ?",
    "Quel est le but de la révolution totale selon Fourier ?",
    "Comment Fourier décrit l'état actuel des hommes en matière de travail et de liberté ?",
    "Quel est le premier objectif de la théorie sociétaire selon Fourier ?",
    "Quel est le second objectif de la théorie sociétaire selon Fourier ?",
    "Comment Fourier voit l'association et l'attraction industrielle se complémentaires ?",
    "Quel est le rôle de l'association dans la liberté selon Fourier ?",
    "Quel est le rôle de l'attraction industrielle dans la liberté selon Fourier ?",
    "Quel est le risque de ne pas avoir l'attraction industrielle selon Fourier ?",
    "Quels sont les moyens de contrôle utilisé par les autorités pour maintenir le travail des gens selon Fourier ?",
    "Quel est le lien entre la richesse et l'association selon Fourier ?"
  ]
}