{
  "num": "autog_0338-7259_1972_num_18_1",
  "article": "autog_0338-7259_1972_num_18_1_1035",
  "page_name": "FMSH_PB188a_18-19_115",
  "questions": [
    {
      "id_qa": "FMSH_PB188a_18-19_115_qa15_v3",
      "id_block": "block_2",
      "question": "Qui soutient que l'issue se trouve dans la dictature de la majorité contre la minorité ?",
      "answer": "le marxisme",
      "answer_stringIds": [
        "string_74",
        "string_75",
        "string_76"
      ]
    },
    {
      "id_qa": "FMSH_PB188a_18-19_115_qa16_v3",
      "id_block": "block_2",
      "question": "Quelle est la conséquence de la domination de la bourgeoisie sur le prolétariat ?",
      "answer": "une dictature",
      "answer_stringIds": [
        "string_59",
        "string_60"
      ]
    },
    {
      "id_qa": "FMSH_PB188a_18-19_115_qa17_v3",
      "id_block": "block_2",
      "question": "Quelle est l'issue de la dictature selon le marxisme ?",
      "answer": "dans la dictature de la majorité",
      "answer_stringIds": [
        "string_82",
        "string_83",
        "string_84",
        "string_85",
        "string_86",
        "string_87"
      ]
    },
    {
      "id_qa": "FMSH_PB188a_18-19_115_qa2_v3",
      "id_block": "block_3",
      "question": "Sur quoi repose la société libre ?",
      "answer": "sur des bases différentes",
      "answer_stringIds": [
        "string_143",
        "string_144",
        "string_145",
        "string_146"
      ]
    },
    {
      "id_qa": "FMSH_PB188a_18-19_115_qa12_v3",
      "id_block": "block_4",
      "question": "Qui a vécu et agi dans son temps ?",
      "answer": "Proudhon",
      "answer_stringIds": [
        "string_148"
      ]
    },
    {
      "id_qa": "FMSH_PB188a_18-19_115_qa14_v3",
      "id_block": "block_4",
      "question": "Qui a été un homme de son temps ?",
      "answer": "Proudhon",
      "answer_stringIds": [
        "string_148"
      ]
    },
    {
      "id_qa": "FMSH_PB188a_18-19_115_qa18_v3",
      "id_block": "block_4",
      "question": "Qu'offraient le mutualisme de Stirner et Tucker ?",
      "answer": "des perspectives de dépassement",
      "answer_stringIds": [
        "string_174",
        "string_175",
        "string_176",
        "string_177",
        "string_178"
      ]
    }
  ]
}