{
  "num": "autog_0338-7259_1971_num_16_1",
  "article": "autog_0338-7259_1971_num_16_1_1015",
  "page_name": "FMSH_PB188a_16-17_110",
  "questions": [
    "Quels auteurs proposent une économie et sociale à la délibération des citoyens et comment ils le font ?",
    "Quel rôle aurait l'État dans la réalisation de ce plan ?",
    "Pourquoi la gestion directe de l'économie est exclue ?",
    "Quel type de régulation économique prévoit la C.F.DT. pour certains biens ?",
    "Quel rôle aurait le marché dans ce système économique ?",
    "Comment les rapports entre plan et marché seraient-ils inversés ?",
    "Comment la planification démocratique complète aiderait-elle à la désaliénation des travailleurs ?"
  ]
}