{
  "num": "autog_0338-7259_1971_num_16_1",
  "article": "autog_0338-7259_1971_num_16_1_1015",
  "page_name": "FMSH_PB188a_16-17_118",
  "questions": [
    "Quels sont les courants minoritaires dans la CFDT dont l'influence est importante ?",
    "Quel pourcentage des suffrages a recueilli la résolution des Pays de Loire ?",
    "Quel est le point de vue des Cédétistes les plus réservés quant à l l'autogestion ?",
    "Quel est le programme politique de ce courant minoritaire et comment il est lié au P.C.F. et à la CGT ?",
    "Quel pourcentage des suffrages a recueilli l'autre résolution minoritaire ?",
    "Quels sont les aspirations des militants de cette résolution ?",
    "Quel est le nom du militant qui a défendu cette résolution au tribunal du Congrès ?",
    "Quel passage du document de travail préparatoire du syndicat parisien du Commerce et des Services est repris dans l'annexe N.4 ?",
    "Quel est la dénonciation faite du parlementarisme dans ce document ?",
    "Quelles sont les nouvelles structures de démocratie directe à rechercher selon ce document ?"
  ]
}