{
  "num": "autog_0249-2563_1981_num_14_5",
  "article": "autog_0249-2563_1981_num_14_5_1413",
  "page_name": "autog_0249-2563_1981_num_14_5_T1_0075_0000",
  "questions": [
    {
      "id_qa": "autog_0249-2563_1981_num_14_5_T1_0075_0000_qa3_v3",
      "id_block": "block_1",
      "question": "Sur quoi les membres du conseil ont-ils une influence ?",
      "answer": "avoir une influence sur le travail du conseil",
      "answer_stringIds": [
        "string_158",
        "string_159",
        "string_160",
        "string_161",
        "string_162",
        "string_163",
        "string_164",
        "string_165"
      ]
    },
    {
      "id_qa": "autog_0249-2563_1981_num_14_5_T1_0075_0000_qa5_v3",
      "id_block": "block_1",
      "question": "Qu'est ce qui permet aux syndicats de garder leur caractère ouvrier ?",
      "answer": "les syndicats des fonctions administratives",
      "answer_stringIds": [
        "string_202",
        "string_203",
        "string_204",
        "string_205",
        "string_206"
      ]
    },
    {
      "id_qa": "autog_0249-2563_1981_num_14_5_T1_0075_0000_qa13_v3",
      "id_block": "block_1",
      "question": "Par qui seraient élus les membres du conseil ?",
      "answer": "les différents syndicats et organisations",
      "answer_stringIds": [
        "string_99",
        "string_100",
        "string_101",
        "string_102",
        "string_103"
      ]
    },
    {
      "id_qa": "autog_0249-2563_1981_num_14_5_T1_0075_0000_qa15_v3",
      "id_block": "block_1",
      "question": "Par qui les fonds sociaux seraient ils mis à disposition ?",
      "answer": "conseil",
      "answer_stringIds": [
        "string_72"
      ]
    },
    {
      "id_qa": "autog_0249-2563_1981_num_14_5_T1_0075_0000_qa27_v3",
      "id_block": "block_1",
      "question": "Qui est chargé de toutes les charges de bureau et d'administration ?",
      "answer": "les jeunes militants syndicalistes",
      "answer_stringIds": [
        "string_184",
        "string_185",
        "string_186",
        "string_187"
      ]
    },
    {
      "id_qa": "autog_0249-2563_1981_num_14_5_T1_0075_0000_qa30_v3",
      "id_block": "block_1",
      "question": "Qui ne ferait plus ce travail de bureau ?",
      "answer": "Les syndicats",
      "answer_stringIds": [
        "string_121",
        "string_122",
        "string_123"
      ]
    },
    {
      "id_qa": "autog_0249-2563_1981_num_14_5_T1_0075_0000_qa31_v3",
      "id_block": "block_1",
      "question": "Qui s'occuperait de la gestion du fond social ?",
      "answer": "Ce conseil",
      "answer_stringIds": [
        "string_104",
        "string_105"
      ]
    },
    {
      "id_qa": "autog_0249-2563_1981_num_14_5_T1_0075_0000_qa19_v3",
      "id_block": "block_2",
      "question": "Qu'est-ce que les conseils d'établissement ?",
      "answer": "une magnifique école de démocratie",
      "answer_stringIds": [
        "string_228",
        "string_229",
        "string_230",
        "string_231",
        "string_232"
      ]
    },
    {
      "id_qa": "autog_0249-2563_1981_num_14_5_T1_0075_0000_qa20_v3",
      "id_block": "block_2",
      "question": "Avec qui l'autogestion des travailleurs devrait-elle être confondue ?",
      "answer": "avec les syndicats",
      "answer_stringIds": [
        "string_251",
        "string_252",
        "string_253"
      ]
    },
    {
      "id_qa": "autog_0249-2563_1981_num_14_5_T1_0075_0000_qa9_v3",
      "id_block": "block_4",
      "question": "Qui représente un seul des points de vue ?",
      "answer": "les syndicats",
      "answer_stringIds": [
        "string_202",
        "string_203"
      ]
    },
    {
      "id_qa": "autog_0249-2563_1981_num_14_5_T1_0075_0000_qa10_v3",
      "id_block": "block_4",
      "question": "Avec qui les syndicats doivent-ils s'accorder ?",
      "answer": "les autres",
      "answer_stringIds": [
        "string_330",
        "string_331"
      ]
    },
    {
      "id_qa": "autog_0249-2563_1981_num_14_5_T1_0075_0000_qa23_v3",
      "id_block": "block_4",
      "question": "Qui doit se battre pour les problèmes de conditions de vie et de travail des travailleurs dès maintenant ?",
      "answer": "Les syndicats",
      "answer_stringIds": [
        "string_121",
        "string_122",
        "string_123"
      ]
    }
  ]
}