{
  "num": "autog_0338-7259_1978_num_40_1",
  "article": "autog_0338-7259_1978_num_40_1_1286_t1_0142_0000_1",
  "page_name": "FMSH_PB188a_00040_146",
  "questions": [
    {
      "id_qa": "FMSH_PB188a_00040_146_qa10_v3",
      "id_block": "block_2",
      "question": "Qui peut se reconnaître dans les projets de la gauche ?",
      "answer": "les cadres",
      "answer_stringIds": [
        "string_32",
        "string_33"
      ]
    },
    {
      "id_qa": "FMSH_PB188a_00040_146_qa18_v3",
      "id_block": "block_2",
      "question": "Qui peut trouver dans l'autogestion les moyens d'accéder à plus grand pouvoir ?",
      "answer": "la majorité des cadres",
      "answer_stringIds": [
        "string_74",
        "string_75",
        "string_76",
        "string_77"
      ]
    },
    {
      "id_qa": "FMSH_PB188a_00040_146_qa19_v3",
      "id_block": "block_2",
      "question": "Qui peut accéder à un plus grand pouvoir dans l'autogestion ?",
      "answer": "la majorité des cadres",
      "answer_stringIds": [
        "string_74",
        "string_75",
        "string_76",
        "string_77"
      ]
    },
    {
      "id_qa": "FMSH_PB188a_00040_146_qa3_v3",
      "id_block": "block_5",
      "question": "Que cherchent les animateurs de Frères des hommes ?",
      "answer": "leur autodéveloppement et leur promotion",
      "answer_stringIds": [
        "string_199",
        "string_200",
        "string_201",
        "string_202",
        "string_203"
      ]
    },
    {
      "id_qa": "FMSH_PB188a_00040_146_qa38_v3",
      "id_block": "block_5",
      "question": "Qu'est-ce que l'autogestion ?",
      "answer": "leur propres affaires",
      "answer_stringIds": [
        "string_167",
        "string_168",
        "string_169"
      ]
    },
    {
      "id_qa": "FMSH_PB188a_00040_146_qa39_v3",
      "id_block": "block_5",
      "question": "Pour qui l'autogestion est-elle la voie pour « conscientiser » ?",
      "answer": "tous ceux qui",
      "answer_stringIds": [
        "string_157",
        "string_158",
        "string_159"
      ]
    },
    {
      "id_qa": "FMSH_PB188a_00040_146_qa33_v3",
      "id_block": "block_6",
      "question": "Où les animateurs ont-ils mis au point de nouvelles méthodes pédagogiques ?",
      "answer": "Dans ces centres",
      "answer_stringIds": [
        "string_261",
        "string_262",
        "string_263"
      ]
    }
  ]
}