{
  "num": "autog_0338-7259_1979_num_43_1",
  "article": "autog_0338-7259_1979_num_43_1_1293",
  "page_name": "FMSH_PB188a_00043_013",
  "questions": [
    "Quels arguments fait Caillois pour justifier l'autogestion en se basant sur l'économie générale ?",
    "Quels sont les grandes lois du monde vivant selon Caillois ?",
    "Comment Caillois caractérise la vie sociale ?",
    "Quels sont les «mobiles» universellement impérieux selon Caillois ?",
    "Qu'apprend la biologie sur la croissance dans le monde végétal et animal ?",
    "Comment peut une société se libérer d'une contrainte de croissance ?",
    "Comment peut la croissance d'une espèce se réaliser ?",
    "Quels sont les dangers mortels que court une société qui croit pouvoir se libérer de la contrainte de croissance ?"
  ]
}