{
  "num": "autog_0338-7259_1979_num_43_1",
  "article": "autog_0338-7259_1979_num_43_1_1293",
  "page_name": "FMSH_PB188a_00043_019",
  "questions": [
    "Quels auteurs parlaient-ils de l'œuvre humaine inachevée ?",
    "Qu'est-ce que la méthode de l'éclairage en retour dans le contexte de cette lecture ?",
    "Quel est le refus de cette lecture envers la grille de notre univers utilitaire ?",
    "Quel est le mode d'insertion dans la société pour un nombre croissant d'individus ?",
    "Quel est le vocabulaire utilisé dans une société productiviste et comment il est symptomatique ?",
    "Qu'est-ce que l'aliénation marchande et comment elle correspond à la mutilation des êtres humains ?",
    "Qu'est-ce que la normalité d'une société productiviste et comment elle est légitimée ?",
    "Qu'ont affirmé Marx et Engels sur le développement ou le progrès ?",
    "Quel est le devoir dans une société productiviste et comment il est lié au progrès social ?"
  ]
}