{
  "num": "autog_0338-7259_1979_num_43_1",
  "article": "autog_0338-7259_1979_num_43_1_1293",
  "page_name": "FMSH_PB188a_00043_018",
  "questions": [
    "Qu'est ce que signifie le refus d'une accumulation matérielle aux dépens des autres dans le contexte de cette passage ?",
    "Comment la souveraineté pèse dans le système communautaire ?",
    "Quels sont les effets directs de la souveraineté sur le processus de travail ?",
    "Comment l'entraide est-elle caractérisée dans le système communautaire ?",
    "Comment la générosité prescrite de l'homme à la recherche de prestige affecte l'équilibre communautaire ?",
    "Comment l'interdépendance est créée entre les groupes et les individus dans les moments de prodigalité collective ?",
    "Comment la souveraineté communautaire invite à une critique radicale du système productiviste ?",
    "Qu'est l'idée simpliste que Bataille critique dans ce passage ?",
    "Comment l'homme relativement désœuvré est-il décrit dans ce passage ?",
    "Qu'est la douceur que l'humanité sérieuse de la croissance confond avec le prix de la vie ?",
    "Qu'est la durée tranquille que l'humanité sérieuse de la croissance confond avec son dynamisme poétique ?",
    "Qu'est la connaissance claire que l'homme a des choses dans ce contexte ?",
    "Qu'est la pleine humanité que l'homme prend pour avoir selon Bataille ?",
    "Qu'est l'humanité au travail dans ce passage ?",
    "Qu'est l'homme relativement désœuvré dans ce contexte ?",
    "Qu'est le prix de la vie dans ce passage ?",
    "Qu'est le dynamisme poétique dans ce passage ?"
  ]
}