{
  "num": "autog_0338-7259_1978_num_40_1",
  "article": "autog_0338-7259_1978_num_40_1_1286_t1_0126_0000_2",
  "page_name": "FMSH_PB188a_00040_128",
  "questions": [
    {
      "id_qa": "FMSH_PB188a_00040_128_qa20_v3",
      "id_block": "block_1",
      "question": "Qui est à l'origine de l'analyse institutionnelle ?",
      "answer": "Ardoino",
      "answer_stringIds": [
        "string_43"
      ]
    },
    {
      "id_qa": "FMSH_PB188a_00040_128_qa7_v3",
      "id_block": "block_10",
      "question": "Combien de temps dure l'éducation de type socialiste ?",
      "answer": "pendant quelques 4 à 5 mois",
      "answer_stringIds": [
        "string_469",
        "string_470",
        "string_471",
        "string_472",
        "string_473",
        "string_474"
      ]
    },
    {
      "id_qa": "FMSH_PB188a_00040_128_qa8_v3",
      "id_block": "block_10",
      "question": "Dans quelle université peut-on mettre les enseignants et administrateurs dans une vaste université ouverte ?",
      "answer": "en séminaire",
      "answer_stringIds": [
        "string_478",
        "string_479"
      ]
    },
    {
      "id_qa": "FMSH_PB188a_00040_128_qa24_v3",
      "id_block": "block_4",
      "question": "Combien d'auteurs parviennent à écrire sur le courant institutionnaliste ?",
      "answer": "à plus de 15 citations",
      "answer_stringIds": [
        "string_112",
        "string_113",
        "string_114",
        "string_115",
        "string_116"
      ]
    },
    {
      "id_qa": "FMSH_PB188a_00040_128_qa1_v3",
      "id_block": "block_5",
      "question": "Qu'envisage Ardoino ?",
      "answer": "un sort définitif",
      "answer_stringIds": [
        "string_182",
        "string_183",
        "string_184"
      ]
    },
    {
      "id_qa": "FMSH_PB188a_00040_128_qa3_v3",
      "id_block": "block_5",
      "question": "A quoi Ardoino s'oppose-t-il ?",
      "answer": "faire un sort définitif aux pratiques « groupistes » issue de la psychosociologie classique",
      "answer_stringIds": [
        "string_181",
        "string_182",
        "string_183",
        "string_184",
        "string_185",
        "string_186",
        "string_187",
        "string_188",
        "string_189",
        "string_190",
        "string_191",
        "string_192",
        "string_193",
        "string_194",
        "string_195"
      ]
    },
    {
      "id_qa": "FMSH_PB188a_00040_128_qa13_v3",
      "id_block": "block_6",
      "question": "Dans quel ouvrage l'auteur a-t-il introduit la temporalité dans l'éducation ?",
      "answer": "dans ses propres analyses",
      "answer_stringIds": [
        "string_340",
        "string_341",
        "string_342",
        "string_343"
      ]
    },
    {
      "id_qa": "FMSH_PB188a_00040_128_qa17_v3",
      "id_block": "block_6",
      "question": "Qu'est-ce que l'éducation est politique ?",
      "answer": "éducatif",
      "answer_stringIds": [
        "string_279"
      ]
    },
    {
      "id_qa": "FMSH_PB188a_00040_128_qa21_v3",
      "id_block": "block_7",
      "question": "Quel est le mode de production de l'Etat ?",
      "answer": "une éducation",
      "answer_stringIds": [
        "string_360",
        "string_361"
      ]
    },
    {
      "id_qa": "FMSH_PB188a_00040_128_qa26_v3",
      "id_block": "block_8",
      "question": "A quoi est consacrée la petite page 245 ?",
      "answer": "la « démarche autogestionnaire",
      "answer_stringIds": [
        "string_376",
        "string_377",
        "string_378",
        "string_379"
      ]
    }
  ]
}