{
  "num": "autog_0338-7259_1979_num_43_1",
  "article": "autog_0338-7259_1979_num_43_1_1952",
  "page_name": "FMSH_PB188a_00043_003",
  "questions": [
    "Quels auteurs sont cités dans ce document en relation avec l'autogestion ?",
    "Quel est le lien entre l'autogestion et le socialisme selon les auteurs cités ?",
    "Quel est le rôle de la participation dans l'autogestion selon Petru Panzaru ?",
    "Quels sont les problèmes posés par les infrastructures techniques pour le passage du travail divisé au travail autogéré ?",
    "Quels sont les critiques formulées sur l'autogestion dans ce document ?",
    "Quel est le lien entre l'identité collective et l'autogestion selon Yves Person ?",
    "Quel est le rôle du Centre National de la Recherche Scientifique dans la publication de ce document ?",
    "Quel est le contenu du chapitre intitulé \"Notes critiques\" ?",
    "Quels sont les références citées dans le document et quels sont leurs thèmes ?",
    "Quel est le but de la publication de ce document ?",
    "Quels sont les thèmes abordés dans le sommaire de ce document ?"
  ]
}