{
  "num": "autog_0005-0970_1968_num_7_1",
  "article": "autog_0005-0970_1968_num_7_1_941",
  "page_name": "FMSH_PB188a_00007_145",
  "questions": [
    "Quel est le sujet de l'article de Jean Bancal traitant de la sociologie de l'autogestion selon Proudhon ?",
    "Quel est le rôle fondamental de la réalité sociologique dans la pratique de l'autogestion selon Proudhon ?",
    "Comment Proudhon décrit une société collective ?",
    "Quels sont les lois de l'économie et du travail social selon Proudhon ?",
    "Comment le réalisme social se découvre-t-il structurellement selon Proudhon ?",
    "Comment la société apparait-elle selon Proudhon ?",
    "Quels sont les éléments diversifiés présents dans une société selon Proudhon ?",
    "Comment ces éléments sont-ils à la fois autonomes et solidaires ?",
    "Comment ces éléments sont-ils dépendants et irréductibles ?",
    "Comment ces éléments sont-ils en lutte et en échange ?"
  ]
}