{
  "num": "autog_0338-7259_1971_num_16_1",
  "article": "autog_0338-7259_1971_num_16_1_1012",
  "page_name": "FMSH_PB188a_16-17_028",
  "questions": [
    {
      "id_qa": "FMSH_PB188a_16-17_028_qa11_v3",
      "id_block": "block_1",
      "question": "Qu'est-ce qui nécessite la subordination soigneusement hiérarchisée de toutes les activités à une planification centrale ?",
      "answer": "le développement industriel",
      "answer_stringIds": [
        "string_3",
        "string_4",
        "string_5"
      ]
    },
    {
      "id_qa": "FMSH_PB188a_16-17_028_qa8_v3",
      "id_block": "block_2",
      "question": "Qu'est ce que la perspective autogestionnaire a permis de faire ?",
      "answer": "de rapides progrès",
      "answer_stringIds": [
        "string_187",
        "string_188",
        "string_189"
      ]
    },
    {
      "id_qa": "FMSH_PB188a_16-17_028_qa12_v3",
      "id_block": "block_3",
      "question": "Qui a animé la fédération de la pétro-chimie en 1964 ?",
      "answer": "Edmond Maire",
      "answer_stringIds": [
        "string_237",
        "string_238"
      ]
    }
  ]
}