{
  "num": "autog_0338-7259_1971_num_16_1",
  "article": "autog_0338-7259_1971_num_16_1_1012",
  "page_name": "FMSH_PB188a_16-17_025",
  "questions": [
    {
      "id_qa": "FMSH_PB188a_16-17_025_qa0_v3",
      "id_block": "block_1",
      "question": "Qu'est-ce qui définit un régime de co-gestion ?",
      "answer": "la dualité de pouvoirs",
      "answer_stringIds": [
        "string_19",
        "string_20",
        "string_21",
        "string_22"
      ]
    },
    {
      "id_qa": "FMSH_PB188a_16-17_025_qa1_v3",
      "id_block": "block_1",
      "question": "Qu'est-ce que la dualité de pouvoirs ?",
      "answer": "un régime de co-gestion",
      "answer_stringIds": [
        "string_27",
        "string_28",
        "string_29",
        "string_30"
      ]
    },
    {
      "id_qa": "FMSH_PB188a_16-17_025_qa8_v3",
      "id_block": "block_2",
      "question": "Qui est une arme dans la main de la classe ouvrière ?",
      "answer": "les syndicats",
      "answer_stringIds": [
        "string_281",
        "string_282"
      ]
    },
    {
      "id_qa": "FMSH_PB188a_16-17_025_qa20_v3",
      "id_block": "block_2",
      "question": "Pour quelle raison le \"syndicat\" est-il important ?",
      "answer": "pour que le travailleur gère véritablement ses propres affaires et les affaires sociales",
      "answer_stringIds": [
        "string_74",
        "string_75",
        "string_76",
        "string_77",
        "string_78",
        "string_79",
        "string_80",
        "string_81",
        "string_82",
        "string_83",
        "string_84",
        "string_85",
        "string_86"
      ]
    },
    {
      "id_qa": "FMSH_PB188a_16-17_025_qa21_v3",
      "id_block": "block_2",
      "question": "Qu'est-ce qui est important pour le travailleur ?",
      "answer": "ses propres affaires et les affaires sociales",
      "answer_stringIds": [
        "string_80",
        "string_81",
        "string_82",
        "string_83",
        "string_84",
        "string_85",
        "string_86"
      ]
    },
    {
      "id_qa": "FMSH_PB188a_16-17_025_qa23_v3",
      "id_block": "block_2",
      "question": "Qu'aide le syndicat à devenir ?",
      "answer": "un bon autogestionnaire",
      "answer_stringIds": [
        "string_110",
        "string_111",
        "string_112",
        "string_113"
      ]
    },
    {
      "id_qa": "FMSH_PB188a_16-17_025_qa24_v3",
      "id_block": "block_2",
      "question": "Que remplissent les organes élus d'autogestion dans une entreprise ?",
      "answer": "leurs tâches et obligations de manière satisfaisante",
      "answer_stringIds": [
        "string_332",
        "string_333",
        "string_334",
        "string_335",
        "string_336",
        "string_337",
        "string_338"
      ]
    },
    {
      "id_qa": "FMSH_PB188a_16-17_025_qa25_v3",
      "id_block": "block_2",
      "question": "Quel est l'instrument permettant la conciliation des divers intérêts des travailleurs ?",
      "answer": "le syndicat",
      "answer_stringIds": [
        "string_122",
        "string_123"
      ]
    },
    {
      "id_qa": "FMSH_PB188a_16-17_025_qa26_v3",
      "id_block": "block_2",
      "question": "Qu'est-ce que le syndicat ?",
      "answer": "un forum",
      "answer_stringIds": [
        "string_125",
        "string_126"
      ]
    }
  ]
}