{
  "num": "autog_0249-2563_1980_num_13_1",
  "article": "autog_0249-2563_1980_num_13_1_1355",
  "page_name": "autog_0249-2563_1980_num_13_1_T1_0137_0000",
  "questions": [
    "Quels moyens matériels et financiers la revue doit-elle trouver pour sa production ?",
    "Quel est le statut juridique de la revue ?",
    "Quel est le rôle de l'éditeur dans la production et la diffusion de la revue ?",
    "Pourquoi l'association a-t-elle eu du mal à trouver un éditeur ?",
    "Quels sont les principaux termes financiers du contrat avec l'éditeur ?",
    "Comment est géré le financement de la production de la revue lorsque les abonnements ne suffisent pas ?",
    "Quel est le déficit prévisionnel pour la production de la revue en 1980 ?"
  ]
}