{
  "num": "autog_0338-7259_1971_num_15_1",
  "article": "autog_0338-7259_1971_num_15_1_998",
  "page_name": "FMSH_PB188a_00015_030",
  "questions": [
    {
      "id_qa": "FMSH_PB188a_00015_030_qa2_v3",
      "id_block": "block_1",
      "question": "Quand a eu lieu la Commune ?",
      "answer": "du 18 mars au 28 mai 1871",
      "answer_stringIds": [
        "string_14",
        "string_15",
        "string_16",
        "string_17",
        "string_18",
        "string_19",
        "string_20"
      ]
    },
    {
      "id_qa": "FMSH_PB188a_00015_030_qa6_v3",
      "id_block": "block_2",
      "question": "Qui est à l'origine de ces événements ?",
      "answer": "Lénine",
      "answer_stringIds": [
        "string_202"
      ]
    },
    {
      "id_qa": "FMSH_PB188a_00015_030_qa11_v3",
      "id_block": "block_2",
      "question": "Qui pense que les événements surviennent lorsque les hommes ne peuvent plus vivre comme ils vivaient ?",
      "answer": "Lénine",
      "answer_stringIds": [
        "string_202"
      ]
    },
    {
      "id_qa": "FMSH_PB188a_00015_030_qa13_v3",
      "id_block": "block_2",
      "question": "Qu'est-ce que la Commune met à jour ?",
      "answer": "le monde et la vie",
      "answer_stringIds": [
        "string_192",
        "string_193",
        "string_194",
        "string_195",
        "string_196"
      ]
    },
    {
      "id_qa": "FMSH_PB188a_00015_030_qa14_v3",
      "id_block": "block_2",
      "question": "Qu'est ce qui met à jour le refoulé central de l'histoire ?",
      "answer": "la Commune",
      "answer_stringIds": [
        "string_12",
        "string_13"
      ]
    },
    {
      "id_qa": "FMSH_PB188a_00015_030_qa30_v3",
      "id_block": "block_3",
      "question": "Qu'est ce que l'histoire met à jour dans un champ beaucoup plus restreint ?",
      "answer": "la socianalyse",
      "answer_stringIds": [
        "string_242",
        "string_243"
      ]
    },
    {
      "id_qa": "FMSH_PB188a_00015_030_qa31_v3",
      "id_block": "block_3",
      "question": "Qu'est ce que l'histoire tente de mettre à jour ?",
      "answer": "la socianalyse",
      "answer_stringIds": [
        "string_242",
        "string_243"
      ]
    },
    {
      "id_qa": "FMSH_PB188a_00015_030_qa0_v3",
      "id_block": "block_4",
      "question": "Quand l'Etat s'est-il dissous ?",
      "answer": "Pendant la nuit du 18 au 19 mars",
      "answer_stringIds": [
        "string_263",
        "string_264",
        "string_265",
        "string_266",
        "string_267",
        "string_268",
        "string_269",
        "string_270"
      ]
    },
    {
      "id_qa": "FMSH_PB188a_00015_030_qa22_v3",
      "id_block": "block_4",
      "question": "Qui a senti l'effondrement de l'appareil d'Etat ?",
      "answer": "M. Thiers",
      "answer_stringIds": [
        "string_316",
        "string_317"
      ]
    },
    {
      "id_qa": "FMSH_PB188a_00015_030_qa23_v3",
      "id_block": "block_4",
      "question": "Qui a compris l'effondrement de l'appareil d'Etat ?",
      "answer": "M. Thiers",
      "answer_stringIds": [
        "string_316",
        "string_317"
      ]
    },
    {
      "id_qa": "FMSH_PB188a_00015_030_qa29_v3",
      "id_block": "block_4",
      "question": "Dans quelle ville s'éveille Marx ?",
      "answer": "Paris",
      "answer_stringIds": [
        "string_326"
      ]
    }
  ]
}