{
  "num": "autog_0249-2563_1980_num_13_1",
  "article": "autog_0249-2563_1980_num_13_1_1342",
  "page_name": "autog_0249-2563_1980_num_13_1_T1_0033_0000",
  "questions": [
    "Qui est Robert Chapuis ?",
    "L'autogestion a-t-elle un avenir politique ?",
    "Y a-t-il une crise de l'autogestion ?",
    "Comment est perçue l'autogestion dans le monde politique actuel ?",
    "Quels partis politiques sont mentionnés dans le texte et comment sont-ils positionnés par rapport à l'autogestion ?",
    "Quel rôle joue le Parti communiste dans le débat sur l'autogestion ?",
    "Quel rôle joue le Parti socialiste dans le débat sur l'autogestion ?",
    "Quel est le rôle de CERES dans le débat sur l'autogestion ?",
    "Quel est le sort du «front autogestionnaire» ?",
    "En quelle période a été présentée la première version du texte mentionné ?",
    "Comment est décrit le débat sur l'autogestion dans le texte ?",
    "Comment sont décrites les valeurs socialistes dans le texte du Parti socialiste ?",
    "Comment est décrit le dépérissement de l'Etat dans le texte du Parti socialiste ?",
    "Comment est décrit le Parti communiste dans le texte de J.P. Chevènement ?",
    "Comment est décrit le Parti socialiste dans le texte de J.P. Chevènement ?",
    "Comment est décrit CERES dans le texte de J.P. Chevènement ?",
    "Comment est décrit le «front autogestionnaire» dans le texte de J.P. Chevènement ?"
  ]
}