{
  "num": "autog_0338-7259_1972_num_18_1",
  "article": "autog_0338-7259_1972_num_18_1_1038",
  "page_name": "FMSH_PB188a_18-19_162",
  "questions": [
    "Quels sont les détracteurs critiquant cette expérience des collectivités ?",
    "Quel type d'expérience économique socialiste est décrit ici ?",
    "Comment les travailleurs ont-ils pris le contrôle de l'industrie ?",
    "Quels sont les rôles des techniciens et des spécialistes dans cette nouvelle économie ?",
    "Comment la gestion administrative et la production se sont-elles déroulées ?",
    "Quels sont les résultats positifs de ce passage à l'économie sans capitalistes ?",
    "Quel est le rôle de la joie de travailler dans ce succès ?",
    "Comment la supériorité productive du socialisme sur le capitalisme est-elle démontrée ?",
    "Quel est le rôle de l'État capitaliste dans cette situation politique ?",
    "Comment cette situation politique est-elle décrite ?"
  ]
}