{
  "num": "autog_0005-0970_1968_num_5_1",
  "article": "autog_0005-0970_1968_num_5_1_1969",
  "page_name": "FMSH_PB188a_05-06_022",
  "questions": [
    {
      "id_qa": "FMSH_PB188a_05-06_022_qa24_v3",
      "id_block": "block_1",
      "question": "Qu'est ce qui peut être autogéré ?",
      "answer": "un circuit de distribution",
      "answer_stringIds": [
        "string_6",
        "string_7",
        "string_8",
        "string_9"
      ]
    },
    {
      "id_qa": "FMSH_PB188a_05-06_022_qa26_v3",
      "id_block": "block_1",
      "question": "Comment peut-on qualifier un circuit de distribution ?",
      "answer": "autogéré",
      "answer_stringIds": [
        "string_5"
      ]
    },
    {
      "id_qa": "FMSH_PB188a_05-06_022_qa42_v3",
      "id_block": "block_1",
      "question": "Qu'est-ce que l'obligation de s'autogérer ?",
      "answer": "ces autogestionnaires",
      "answer_stringIds": [
        "string_183",
        "string_184"
      ]
    },
    {
      "id_qa": "FMSH_PB188a_05-06_022_qa14_v3",
      "id_block": "block_2",
      "question": "Quel est le métier des étudiants ?",
      "answer": "ces futurs intellectuels",
      "answer_stringIds": [
        "string_487",
        "string_488",
        "string_489"
      ]
    },
    {
      "id_qa": "FMSH_PB188a_05-06_022_qa22_v3",
      "id_block": "block_2",
      "question": "Que permet l'autogestion de l'enseignement supérieur ?",
      "answer": "cette",
      "answer_stringIds": [
        "string_113"
      ]
    },
    {
      "id_qa": "FMSH_PB188a_05-06_022_qa27_v3",
      "id_block": "block_2",
      "question": "Combien y a t-il d'aspect dans l'autogestion ?",
      "answer": "deux aspects",
      "answer_stringIds": [
        "string_328",
        "string_329"
      ]
    },
    {
      "id_qa": "FMSH_PB188a_05-06_022_qa41_v3",
      "id_block": "block_2",
      "question": "Qui a évoqué l'autogestion ?",
      "answer": "Jonas",
      "answer_stringIds": [
        "string_314"
      ]
    }
  ]
}