{
  "num": "autog_0338-7259_1979_num_43_1",
  "article": "autog_0338-7259_1979_num_43_1_1302_t1_0115_0000_1",
  "page_name": "FMSH_PB188a_00043_118",
  "questions": [
    "Quels sont les propositions de Proudhon que Daniel Guérin considère comme la quintessence originale de sa pensée sociale et la base de l'autogestion ?",
    "Faut-il interpréter la incertitude et l'indécision de Proudhon dans la recherche d'un équilibre entre les contraires plutôt qu'une synthèse ?",
    "Quels sont les conditions essentielles de l'autogestion d'après Proudhon, selon Daniel Guérin ?",
    "Comment utilise Daniel Guérin le terme récent d'«autogestion» pour caractériser l'apport spécifique de Proudhon dans le domaine du socialisme utopique ?",
    "Quels sont les points de convergence et de divergence entre les courants du mouvement ouvrier que Daniel Guérin ne facilite pas avec son usage du terme «autogestion» ?",
    "Quels sont les attaques de Proudhon contre la femme et l'émancipation sexuelle selon Daniel Guérin ?",
    "Comment est-il possible de comprendre le lien entre l'émancipation de la femme et l'émancipation sociale selon les critiques de Proudhon ?",
    "Quels socialistes contemporains de Proudhon se sont retrouvés d'accord contre lui sur l'émancipation de la femme ?",
    "Quel est le point de vue de Flora Tristan sur l'émancipation du prolétariat et l'émancipation de la femme ?"
  ]
}