{
  "num": "autog_0249-2563_1984_num_17_15",
  "article": "autog_0249-2563_1984_num_17_15_1973",
  "page_name": "autog_0249-2563_1984_num_17_15_T1_0142_0000",
  "questions": [
    {
      "id_qa": "autog_0249-2563_1984_num_17_15_T1_0142_0000_qa4_v3",
      "id_block": "block_11",
      "question": "Qui a présenté les matériaux sur l'expérience autogestionnaire ?",
      "answer": "par À. Meister et D. Retour",
      "answer_stringIds": [
        "string_47",
        "string_48",
        "string_49",
        "string_50",
        "string_51",
        "string_52"
      ]
    },
    {
      "id_qa": "autog_0249-2563_1984_num_17_15_T1_0142_0000_qa3_v3",
      "id_block": "block_18",
      "question": "Qui a préparé le Dossier ?",
      "answer": "Ÿ.",
      "answer_stringIds": [
        "string_133"
      ]
    },
    {
      "id_qa": "autog_0249-2563_1984_num_17_15_T1_0142_0000_qa1_v3",
      "id_block": "block_22",
      "question": "Qui a vu passer la gauche ?",
      "answer": "-vous",
      "answer_stringIds": [
        "string_187"
      ]
    },
    {
      "id_qa": "autog_0249-2563_1984_num_17_15_T1_0142_0000_qa2_v3",
      "id_block": "block_22",
      "question": "Qu'est ce qui passe par la gauche ?",
      "answer": "passer la gauche",
      "answer_stringIds": [
        "string_189",
        "string_190",
        "string_191"
      ]
    }
  ]
}