{
  "num": "autog_0249-2563_1982_num_15_8",
  "article": "autog_0249-2563_1982_num_15_8_1474",
  "page_name": "autog_0249-2563_1982_num_15_8_T1_0095_0000",
  "questions": [
    "Qu'est-ce que l'auteur croit être important aujourd'hui pour la survie de l'espèce humaine ?",
    "Dans quels conditions l'animal humain peut-il survivre ?",
    "Qu'est ce que l'auteur pense être plus important que de nous interroger sur nos possibilités de \"travailler autrement\" ?",
    "Quels pays est-il question de dans le texte ?",
    "Quels phénomènes connaissent les pays du Tiers-monde depuis longtemps ?",
    "Qu'est l'économie de subsistance et sur quelles bases est-elle construite ?",
    "Quels avantages ont les pays du Tiers-monde en matière de survie ?",
    "Qu'apprendraient-nous des pays du Tiers-monde ?",
    "Qu'est-ce que Friedman a écrit sur la vie entre les autres sans être chef et sans être esclave ?"
  ]
}