{
  "num": "autog_0338-7259_1972_num_20_1",
  "article": "autog_0338-7259_1972_num_20_1_1068",
  "page_name": "FMSH_PB188a_20-21_163",
  "questions": [
    {
      "id_qa": "FMSH_PB188a_20-21_163_qa22_v3",
      "id_block": "block_1",
      "question": "Qui a écrit l'article enthousiaste ?",
      "answer": "Jean Jaurès",
      "answer_stringIds": [
        "string_12",
        "string_13"
      ]
    },
    {
      "id_qa": "FMSH_PB188a_20-21_163_qa3_v3",
      "id_block": "block_3",
      "question": "Qui s'est efforcé de donner vie au travail ?",
      "answer": "Zola",
      "answer_stringIds": [
        "string_47"
      ]
    },
    {
      "id_qa": "FMSH_PB188a_20-21_163_qa14_v3",
      "id_block": "block_3",
      "question": "Qui a écrit Travail en 1901 ?",
      "answer": "Zola",
      "answer_stringIds": [
        "string_47"
      ]
    },
    {
      "id_qa": "FMSH_PB188a_20-21_163_qa16_v3",
      "id_block": "block_3",
      "question": "Quand Zola a-t-il écrit Travail ?",
      "answer": "en 1901",
      "answer_stringIds": [
        "string_55",
        "string_56"
      ]
    },
    {
      "id_qa": "FMSH_PB188a_20-21_163_qa12_v3",
      "id_block": "block_5",
      "question": "Qu'est-ce que le romancier de l'hérédité et du milieu a donné comme conclusion à son oeuvre ?",
      "answer": "cette prophétie unique",
      "answer_stringIds": [
        "string_170",
        "string_171",
        "string_172"
      ]
    },
    {
      "id_qa": "FMSH_PB188a_20-21_163_qa20_v3",
      "id_block": "block_5",
      "question": "Par quoi est remplacée la chimère phalanstérienne ?",
      "answer": "par un mirage",
      "answer_stringIds": [
        "string_268",
        "string_269",
        "string_270"
      ]
    }
  ]
}