{
  "num": "autog_0338-7259_1972_num_20_1",
  "article": "autog_0338-7259_1972_num_20_1_1068",
  "page_name": "FMSH_PB188a_20-21_169",
  "questions": [
    {
      "id_qa": "FMSH_PB188a_20-21_169_qa19_v3",
      "id_block": "block_1",
      "question": "Où doivent être cherchées les références du Familistère ?",
      "answer": "ailleurs",
      "answer_stringIds": [
        "string_76"
      ]
    },
    {
      "id_qa": "FMSH_PB188a_20-21_169_qa20_v3",
      "id_block": "block_1",
      "question": "Qu'est ce qui doit être cherchée dans le Familistère ?",
      "answer": "ses références",
      "answer_stringIds": [
        "string_71",
        "string_72"
      ]
    },
    {
      "id_qa": "FMSH_PB188a_20-21_169_qa21_v3",
      "id_block": "block_1",
      "question": "Qu'est ce qui a été retenu par E. Zola ?",
      "answer": "la formule associationniste du Familistère",
      "answer_stringIds": [
        "string_43",
        "string_44",
        "string_45",
        "string_46",
        "string_47"
      ]
    },
    {
      "id_qa": "FMSH_PB188a_20-21_169_qa22_v3",
      "id_block": "block_1",
      "question": "Qui a retenu la formule associationniste du Familistère ?",
      "answer": "par E. Zola",
      "answer_stringIds": [
        "string_53",
        "string_54",
        "string_55"
      ]
    },
    {
      "id_qa": "FMSH_PB188a_20-21_169_qa3_v3",
      "id_block": "block_3",
      "question": "Qui est le plus proche de Fourier ?",
      "answer": "Zola",
      "answer_stringIds": [
        "string_55"
      ]
    },
    {
      "id_qa": "FMSH_PB188a_20-21_169_qa9_v3",
      "id_block": "block_3",
      "question": "Dans quel ouvrage Zola cite-t-il des suggestions de Noirot ?",
      "answer": "dans une note sommaire",
      "answer_stringIds": [
        "string_177",
        "string_178",
        "string_179",
        "string_180"
      ]
    },
    {
      "id_qa": "FMSH_PB188a_20-21_169_qa10_v3",
      "id_block": "block_3",
      "question": "Qui cite indistinctement tous les noms des précurseurs ?",
      "answer": "Zola",
      "answer_stringIds": [
        "string_55"
      ]
    },
    {
      "id_qa": "FMSH_PB188a_20-21_169_qa34_v3",
      "id_block": "block_3",
      "question": "Qu'est ce que les manuscrits contiennent ?",
      "answer": "quelques notes",
      "answer_stringIds": [
        "string_131",
        "string_132"
      ]
    },
    {
      "id_qa": "FMSH_PB188a_20-21_169_qa35_v3",
      "id_block": "block_3",
      "question": "Qu'est ce qui contient quelques notes prises sans doute pendant ou après ces conversations ?",
      "answer": "Les manuscrits",
      "answer_stringIds": [
        "string_128",
        "string_129"
      ]
    },
    {
      "id_qa": "FMSH_PB188a_20-21_169_qa36_v3",
      "id_block": "block_3",
      "question": "Que contient les manuscrits ?",
      "answer": "quelques notes",
      "answer_stringIds": [
        "string_131",
        "string_132"
      ]
    },
    {
      "id_qa": "FMSH_PB188a_20-21_169_qa27_v3",
      "id_block": "block_4",
      "question": "Qui s'empare du capital ?",
      "answer": "Les collectivistes",
      "answer_stringIds": [
        "string_185",
        "string_186"
      ]
    },
    {
      "id_qa": "FMSH_PB188a_20-21_169_qa29_v3",
      "id_block": "block_4",
      "question": "Qu'est ce que les collectivistes s'emparent ?",
      "answer": "du capital",
      "answer_stringIds": [
        "string_188",
        "string_189"
      ]
    },
    {
      "id_qa": "FMSH_PB188a_20-21_169_qa39_v3",
      "id_block": "block_4",
      "question": "Qu'est-ce qui crée de la misère pour tous ?",
      "answer": "la fortune actuelle",
      "answer_stringIds": [
        "string_225",
        "string_226",
        "string_227",
        "string_228"
      ]
    },
    {
      "id_qa": "FMSH_PB188a_20-21_169_qa40_v3",
      "id_block": "block_5",
      "question": "Comment s'appelle la réaction d'une personne ?",
      "answer": "Note",
      "answer_stringIds": [
        "string_273"
      ]
    },
    {
      "id_qa": "FMSH_PB188a_20-21_169_qa42_v3",
      "id_block": "block_5",
      "question": "Qui a écrit la Note ?",
      "answer": "une autre",
      "answer_stringIds": [
        "string_278",
        "string_279"
      ]
    },
    {
      "id_qa": "FMSH_PB188a_20-21_169_qa13_v3",
      "id_block": "block_6",
      "question": "A qui Luc va-t-il plutôt ?",
      "answer": "à Fourier",
      "answer_stringIds": [
        "string_157",
        "string_158"
      ]
    },
    {
      "id_qa": "FMSH_PB188a_20-21_169_qa14_v3",
      "id_block": "block_6",
      "question": "Qui va plutôt à Fourier ?",
      "answer": "Luc",
      "answer_stringIds": [
        "string_283"
      ]
    }
  ]
}