{
  "num": "autog_0338-7259_1972_num_20_1",
  "article": "autog_0338-7259_1972_num_20_1_1068",
  "page_name": "FMSH_PB188a_20-21_184",
  "questions": [
    {
      "id_qa": "FMSH_PB188a_20-21_184_qa9_v3",
      "id_block": "block_1",
      "question": "Que demande Zola à son lyrisme ?",
      "answer": "de le sauver",
      "answer_stringIds": [
        "string_42",
        "string_43",
        "string_44"
      ]
    },
    {
      "id_qa": "FMSH_PB188a_20-21_184_qa11_v3",
      "id_block": "block_1",
      "question": "Qui a quarante ans d'avance sur le Soleil entre les mains ?",
      "answer": "sur Garet Garett",
      "answer_stringIds": [
        "string_17",
        "string_18",
        "string_19"
      ]
    },
    {
      "id_qa": "FMSH_PB188a_20-21_184_qa21_v3",
      "id_block": "block_2",
      "question": "Qu'est-ce qui est rendu plus doux, plus attrayant ?",
      "answer": "le travail",
      "answer_stringIds": [
        "string_81",
        "string_82"
      ]
    },
    {
      "id_qa": "FMSH_PB188a_20-21_184_qa22_v3",
      "id_block": "block_2",
      "question": "Comment est rendu le travail ?",
      "answer": "plus doux",
      "answer_stringIds": [
        "string_84",
        "string_85"
      ]
    },
    {
      "id_qa": "FMSH_PB188a_20-21_184_qa0_v3",
      "id_block": "block_4",
      "question": "Dans quel courant se situe l'associationnisme fouriériste ?",
      "answer": "dans le fouriérisme",
      "answer_stringIds": [
        "string_117",
        "string_118",
        "string_119"
      ]
    },
    {
      "id_qa": "FMSH_PB188a_20-21_184_qa1_v3",
      "id_block": "block_4",
      "question": "Qui a écrit Tl'associationnisme fouriériste ?",
      "answer": "Zola",
      "answer_stringIds": [
        "string_30"
      ]
    },
    {
      "id_qa": "FMSH_PB188a_20-21_184_qa24_v3",
      "id_block": "block_4",
      "question": "Dans quel ouvrage Zola écrit-il l'illumination de Luc ?",
      "answer": "dans le livre",
      "answer_stringIds": [
        "string_173",
        "string_174",
        "string_175"
      ]
    },
    {
      "id_qa": "FMSH_PB188a_20-21_184_qa14_v3",
      "id_block": "block_5",
      "question": "Comment est qualifié l'homme d'une passion ?",
      "answer": "un infirme",
      "answer_stringIds": [
        "string_232",
        "string_233"
      ]
    },
    {
      "id_qa": "FMSH_PB188a_20-21_184_qa15_v3",
      "id_block": "block_5",
      "question": "Qu'est-ce qui n'est pas bon dans l'étre humain ?",
      "answer": "de passion mauvaise",
      "answer_stringIds": [
        "string_182",
        "string_183",
        "string_184"
      ]
    },
    {
      "id_qa": "FMSH_PB188a_20-21_184_qa17_v3",
      "id_block": "block_5",
      "question": "Qu'est ce que les passions sont toutes des forces admirables ?",
      "answer": "de les utiliser",
      "answer_stringIds": [
        "string_206",
        "string_207",
        "string_208"
      ]
    },
    {
      "id_qa": "FMSH_PB188a_20-21_184_qa18_v3",
      "id_block": "block_5",
      "question": "Pour quoi les passions sont-elles des forces admirables ?",
      "answer": "pour le bonheur",
      "answer_stringIds": [
        "string_209",
        "string_210",
        "string_211"
      ]
    },
    {
      "id_qa": "FMSH_PB188a_20-21_184_qa19_v3",
      "id_block": "block_5",
      "question": "Pour quoi les passions sont elles des forces admirables ?",
      "answer": "pour le bonheur",
      "answer_stringIds": [
        "string_209",
        "string_210",
        "string_211"
      ]
    },
    {
      "id_qa": "FMSH_PB188a_20-21_184_qa20_v3",
      "id_block": "block_5",
      "question": "Qu'est-ce que les énergies ?",
      "answer": "car les passions sont toutes des forces admirables",
      "answer_stringIds": [
        "string_194",
        "string_195",
        "string_196",
        "string_197",
        "string_198",
        "string_199",
        "string_200",
        "string_201"
      ]
    }
  ]
}