{
  "num": "autog_0338-7259_1972_num_20_1",
  "article": "autog_0338-7259_1972_num_20_1_1068",
  "page_name": "FMSH_PB188a_20-21_162",
  "questions": [
    {
      "id_qa": "FMSH_PB188a_20-21_162_qa15_v3",
      "id_block": "block_1",
      "question": "Pendant combien de temps le phalanstère a-t-il connu des échecs ?",
      "answer": "le dernier demi-siècle",
      "answer_stringIds": [
        "string_45",
        "string_46",
        "string_47"
      ]
    },
    {
      "id_qa": "FMSH_PB188a_20-21_162_qa7_v3",
      "id_block": "block_2",
      "question": "De quoi l'auteur voulait-il désolidariser ?",
      "answer": "cette œuvre de celles qui l'",
      "answer_stringIds": [
        "string_59",
        "string_60",
        "string_61",
        "string_62",
        "string_63",
        "string_64"
      ]
    },
    {
      "id_qa": "FMSH_PB188a_20-21_162_qa8_v3",
      "id_block": "block_2",
      "question": "De qui l'oeuvre a-t-elle été inspirée ?",
      "answer": "de celles qui",
      "answer_stringIds": [
        "string_61",
        "string_62",
        "string_63"
      ]
    },
    {
      "id_qa": "FMSH_PB188a_20-21_162_qa19_v3",
      "id_block": "block_3",
      "question": "Qu'est-ce que le devoir de la force et de la santé ?",
      "answer": "mon devoir de vérité et de justice",
      "answer_stringIds": [
        "string_119",
        "string_120",
        "string_121",
        "string_122",
        "string_123",
        "string_124",
        "string_125"
      ]
    },
    {
      "id_qa": "FMSH_PB188a_20-21_162_qa14_v3",
      "id_block": "block_5",
      "question": "Comment ont été jugés les fouriéristes de 1952 ?",
      "answer": "trop utopique",
      "answer_stringIds": [
        "string_165",
        "string_166"
      ]
    },
    {
      "id_qa": "FMSH_PB188a_20-21_162_qa9_v3",
      "id_block": "block_6",
      "question": "Qui organisa un banquet pour fêter la publication du roman ?",
      "answer": "Certains fouriéristes",
      "answer_stringIds": [
        "string_231",
        "string_232"
      ]
    },
    {
      "id_qa": "FMSH_PB188a_20-21_162_qa11_v3",
      "id_block": "block_6",
      "question": "Qu'organisa certains fouriéristes pour fêter la publication du roman ?",
      "answer": "un banquet",
      "answer_stringIds": [
        "string_235",
        "string_236"
      ]
    },
    {
      "id_qa": "FMSH_PB188a_20-21_162_qa12_v3",
      "id_block": "block_6",
      "question": "Qu'organisa certains fouriéristes ?",
      "answer": "la publication du roman",
      "answer_stringIds": [
        "string_239",
        "string_240",
        "string_241",
        "string_242"
      ]
    }
  ]
}