{
  "num": "autog_0338-7259_1972_num_20_1",
  "article": "autog_0338-7259_1972_num_20_1_1068",
  "page_name": "FMSH_PB188a_20-21_183",
  "questions": [
    {
      "id_qa": "FMSH_PB188a_20-21_183_qa9_v3",
      "id_block": "block_1",
      "question": "A quoi ne s'arrétant pas les phases politiques ?",
      "answer": "ces heurts accidentels",
      "answer_stringIds": [
        "string_40",
        "string_41",
        "string_42"
      ]
    },
    {
      "id_qa": "FMSH_PB188a_20-21_183_qa10_v3",
      "id_block": "block_1",
      "question": "Qu'emporte l'humanité à sa destinée ?",
      "answer": "la science",
      "answer_stringIds": [
        "string_49",
        "string_50"
      ]
    },
    {
      "id_qa": "FMSH_PB188a_20-21_183_qa30_v3",
      "id_block": "block_1",
      "question": "Qui est le savant ?",
      "answer": "Jordan",
      "answer_stringIds": [
        "string_7"
      ]
    },
    {
      "id_qa": "FMSH_PB188a_20-21_183_qa2_v3",
      "id_block": "block_2",
      "question": "Qu'est-ce qui est entraîné et résorbé par le roman ?",
      "answer": "cet utopisme arbitraire",
      "answer_stringIds": [
        "string_103",
        "string_104",
        "string_105"
      ]
    },
    {
      "id_qa": "FMSH_PB188a_20-21_183_qa5_v3",
      "id_block": "block_2",
      "question": "Qui est à l'origine de cet utopisme ?",
      "answer": "Zola",
      "answer_stringIds": [
        "string_76"
      ]
    },
    {
      "id_qa": "FMSH_PB188a_20-21_183_qa13_v3",
      "id_block": "block_2",
      "question": "Grâce à quoi l'industrie humaine a-t-elle pu puiser ?",
      "answer": "à la chaleur solaire",
      "answer_stringIds": [
        "string_156",
        "string_157",
        "string_158",
        "string_159"
      ]
    },
    {
      "id_qa": "FMSH_PB188a_20-21_183_qa17_v3",
      "id_block": "block_2",
      "question": "Qui pense que la transformation sociale est une hypothèque ?",
      "answer": "à Zola",
      "answer_stringIds": [
        "string_75",
        "string_76"
      ]
    },
    {
      "id_qa": "FMSH_PB188a_20-21_183_qa18_v3",
      "id_block": "block_2",
      "question": "Qui pense que le progrès scientifique est une hypothèque ?",
      "answer": "à Zola",
      "answer_stringIds": [
        "string_75",
        "string_76"
      ]
    },
    {
      "id_qa": "FMSH_PB188a_20-21_183_qa20_v3",
      "id_block": "block_2",
      "question": "Qu'est-ce que le progrès scientifique ?",
      "answer": "la transformation sociale",
      "answer_stringIds": [
        "string_70",
        "string_71",
        "string_72"
      ]
    },
    {
      "id_qa": "FMSH_PB188a_20-21_183_qa11_v3",
      "id_block": "block_3",
      "question": "Qu'est-ce que le père du monde, le fécondateur ?",
      "answer": "son œuvre",
      "answer_stringIds": [
        "string_215",
        "string_216"
      ]
    },
    {
      "id_qa": "FMSH_PB188a_20-21_183_qa12_v3",
      "id_block": "block_3",
      "question": "Qu'est-ce que le père du monde n'achèvera pas son oeuvre ?",
      "answer": "la paix",
      "answer_stringIds": [
        "string_220",
        "string_221"
      ]
    },
    {
      "id_qa": "FMSH_PB188a_20-21_183_qa27_v3",
      "id_block": "block_3",
      "question": "Qui parle de la réussite de l'usine ?",
      "answer": "à personne",
      "answer_stringIds": [
        "string_246",
        "string_247"
      ]
    },
    {
      "id_qa": "FMSH_PB188a_20-21_183_qa29_v3",
      "id_block": "block_3",
      "question": "Qu'est-ce que la chaleur solaire ?",
      "answer": "en électricité",
      "answer_stringIds": [
        "string_274",
        "string_275"
      ]
    }
  ]
}