{
  "num": "autog_0338-7259_1978_num_41_1",
  "article": "autog_0338-7259_1978_num_41_1_1323",
  "page_name": "FMSH_PB188a_41-42_191",
  "questions": [
    "Quels ordres professionnels et coopératifs sont mentionnés dans le texte ?",
    "Comment la relation entre la société de travail et la société locale est-elle décrite ?",
    "Quels sont les nouveaux défis que doivent affronter les mouvements collectifs ?",
    "Quels types de solutions sont proposées pour résoudre le problème de l'intégration ?",
    "Comment l'égalitarisme des salaires est-il décrit dans le texte ?",
    "Quels sont les effets de l'égalitarisation des salaires formels ?",
    "Quels sont les derniers domaines dans lesquels il faut penser les mécanismes de l'intégration des acteurs ?",
    "Comment les individus se sentent-ils jugés et agressés dans les relations interpersonnelles et collectives ?",
    "Quels processus d'intervention sont mis en place dans les coopératives et les mouvements socioculturels ?",
    "Pourquoi les institutions expérimentales ont-elles un goût prononcé pour les interventions psycho-sociologiques ou d'analyse institutionnelle ?",
    "Quels types d'études et d'enquêtes sont mentionnées dans le texte ?"
  ]
}