{
  "num": "autog_0338-7259_1979_num_43_1",
  "article": "autog_0338-7259_1979_num_43_1_1303",
  "page_name": "FMSH_PB188a_00043_135",
  "questions": [
    "Quels auteurs sont mentionnés dans ce tableau des matières ?",
    "Dans quels numéros des revues sont publiés les articles d'Andriamirado, Antonie, Ardoino, Bancal, Baumgartner, Bengtsson, Bernstein, Berthoud (première publication), Berthoud (avec Sabelli), Biard, Bourdet et Chapuis ?",
    "Quels sont les titres des articles d'Andriamirado, Antonie, Ardoino, Bancal, Baumgartner, Bengtsson, Bernstein, Berthoud (première publication), Berthoud (avec Sabelli), Biard, Bernstein (commission 3, sous-groupe 1), et Bourdet ?",
    "Quels sont les titres des articles de Berthoud et Braun ?",
    "Dans quels numéros des revues sont publiés les articles de Berthoud et Braun ?",
    "Quel est le titre de l'article de Chapuis ?",
    "Dans quels numéros des revues sont publiés les articles de Chapsuis ?",
    "Quel est le titre de l'article de Kolm et Corpet ?",
    "Dans quels numéros des revues est publié l'article de Kolm et Corpet ?",
    "Quel est le titre de l'article de Bernstein sur la commission 6 (deuxième texte) ?",
    "Dans quel numéro de la revue est publié l'article de Bernstein sur la commission 6 (deuxième texte) ?",
    "Quel est le titre de l'article de Kolm et Corpet sur l'autogestion ou réciprocité ?",
    "Dans quel numéro de la revue est publié l'article de Kolm et Corpet sur l'autogestion ou réciprocité ?",
    "Quel est le titre de l'article de Bernstein sur l'autogestion nationale selon le PCF ?",
    "Dans quel numéro de la revue est publié l'article de Bernstein sur l'autogestion nationale selon le PCF ?",
    "Quel est le titre de l'?"
  ]
}