{
  "num": "autog_0249-2563_1984_num_17_15",
  "article": "autog_0249-2563_1984_num_17_15_1574",
  "page_name": "autog_0249-2563_1984_num_17_15_T1_0018_0000",
  "questions": [
    {
      "id_qa": "autog_0249-2563_1984_num_17_15_T1_0018_0000_qa0_v3",
      "id_block": "block_1",
      "question": "De quelle manière les formes de contre-pouvoir que représentaient ces milieux étaient-elles minées ?",
      "answer": "de haute lutte",
      "answer_stringIds": [
        "string_113",
        "string_114",
        "string_115"
      ]
    },
    {
      "id_qa": "autog_0249-2563_1984_num_17_15_T1_0018_0000_qa11_v3",
      "id_block": "block_1",
      "question": "Qu'est ce qui s'est rapidement figée au niveau des élus politiques ?",
      "answer": "transformation",
      "answer_stringIds": [
        "string_123"
      ]
    },
    {
      "id_qa": "autog_0249-2563_1984_num_17_15_T1_0018_0000_qa13_v3",
      "id_block": "block_1",
      "question": "Qu'est ce qui a donné responsabilités et pouvoir aux élus politiques ?",
      "answer": "la décentralisation",
      "answer_stringIds": [
        "string_161",
        "string_162"
      ]
    },
    {
      "id_qa": "autog_0249-2563_1984_num_17_15_T1_0018_0000_qa20_v3",
      "id_block": "block_1",
      "question": "Qui choisit de s'assujettir au politique ou de vivoter ?",
      "answer": "Les milieux associatifs",
      "answer_stringIds": [
        "string_64",
        "string_65",
        "string_66"
      ]
    },
    {
      "id_qa": "autog_0249-2563_1984_num_17_15_T1_0018_0000_qa23_v3",
      "id_block": "block_1",
      "question": "Qui est au centre de ce dispositif ?",
      "answer": "les élus",
      "answer_stringIds": [
        "string_31",
        "string_32"
      ]
    },
    {
      "id_qa": "autog_0249-2563_1984_num_17_15_T1_0018_0000_qa24_v3",
      "id_block": "block_1",
      "question": "Qu'est ce qui détient les élus ?",
      "answer": "Au centre de ce dispositif",
      "answer_stringIds": [
        "string_25",
        "string_26",
        "string_27",
        "string_28",
        "string_29"
      ]
    },
    {
      "id_qa": "autog_0249-2563_1984_num_17_15_T1_0018_0000_qa2_v3",
      "id_block": "block_4",
      "question": "Quel est le métier de certains notables ?",
      "answer": "des conseillers généraux",
      "answer_stringIds": [
        "string_252",
        "string_253",
        "string_254"
      ]
    },
    {
      "id_qa": "autog_0249-2563_1984_num_17_15_T1_0018_0000_qa3_v3",
      "id_block": "block_4",
      "question": "Qui appelle-t-on l'intégration politique ?",
      "answer": "François Dupuy et Jean-Claude Theonig",
      "answer_stringIds": [
        "string_267",
        "string_268",
        "string_269",
        "string_270",
        "string_271"
      ]
    },
    {
      "id_qa": "autog_0249-2563_1984_num_17_15_T1_0018_0000_qa6_v3",
      "id_block": "block_4",
      "question": "Quel est le rôle des conseillers généraux ?",
      "answer": "sous tutelle politique",
      "answer_stringIds": [
        "string_259",
        "string_260",
        "string_261"
      ]
    },
    {
      "id_qa": "autog_0249-2563_1984_num_17_15_T1_0018_0000_qa21_v3",
      "id_block": "block_5",
      "question": "Qu'est ce qui a eu le plus d'effets à ce niveau ?",
      "answer": "la décentralisation",
      "answer_stringIds": [
        "string_161",
        "string_162"
      ]
    }
  ]
}