{
  "num": "autog_0249-2563_1984_num_17_15",
  "article": "autog_0249-2563_1984_num_17_15_1574",
  "page_name": "autog_0249-2563_1984_num_17_15_T1_0019_0000",
  "questions": [
    {
      "id_qa": "autog_0249-2563_1984_num_17_15_T1_0019_0000_qa20_v3",
      "id_block": "block_0",
      "question": "Que redouble la recentralisation locale politique ?",
      "answer": "la confusion",
      "answer_stringIds": [
        "string_24",
        "string_25"
      ]
    },
    {
      "id_qa": "autog_0249-2563_1984_num_17_15_T1_0019_0000_qa22_v3",
      "id_block": "block_0",
      "question": "Qu'est-ce qui provoque la recentralisation locale politique ?",
      "answer": "la confusion",
      "answer_stringIds": [
        "string_24",
        "string_25"
      ]
    },
    {
      "id_qa": "autog_0249-2563_1984_num_17_15_T1_0019_0000_qa4_v3",
      "id_block": "block_1",
      "question": "Quel est le nom de l'association qui s'est vue obligée d'étendre le champ spatial de son intervention ?",
      "answer": "association de développement",
      "answer_stringIds": [
        "string_121",
        "string_122",
        "string_123"
      ]
    },
    {
      "id_qa": "autog_0249-2563_1984_num_17_15_T1_0019_0000_qa9_v3",
      "id_block": "block_1",
      "question": "Qu'est ce que l'association de développement s'est vue obligée d'étendre ?",
      "answer": "le champ spatial de son intervention",
      "answer_stringIds": [
        "string_129",
        "string_130",
        "string_131",
        "string_132",
        "string_133",
        "string_134"
      ]
    },
    {
      "id_qa": "autog_0249-2563_1984_num_17_15_T1_0019_0000_qa13_v3",
      "id_block": "block_1",
      "question": "Qu'est ce que les Comités d'expansion économique ont réussi à sauvegarder ?",
      "answer": "une relative autonomie",
      "answer_stringIds": [
        "string_270",
        "string_271",
        "string_272"
      ]
    },
    {
      "id_qa": "autog_0249-2563_1984_num_17_15_T1_0019_0000_qa14_v3",
      "id_block": "block_1",
      "question": "Qu'a réussi les Comités d'expansion économique ?",
      "answer": "sauvegarder une relative autonomie",
      "answer_stringIds": [
        "string_269",
        "string_270",
        "string_271",
        "string_272"
      ]
    },
    {
      "id_qa": "autog_0249-2563_1984_num_17_15_T1_0019_0000_qa27_v3",
      "id_block": "block_1",
      "question": "Qu'est-ce qui a diminué pour les revendications et les pratiques de développement local ?",
      "answer": "les marges de manœuvre et de négociation",
      "answer_stringIds": [
        "string_108",
        "string_109",
        "string_110",
        "string_111",
        "string_112",
        "string_113",
        "string_114"
      ]
    },
    {
      "id_qa": "autog_0249-2563_1984_num_17_15_T1_0019_0000_qa2_v3",
      "id_block": "block_2",
      "question": "Qu'est-ce que l'exercice de la responsabilité politique ?",
      "answer": "irresponsables",
      "answer_stringIds": [
        "string_326",
        "string_327"
      ]
    }
  ]
}