{
  "num": "autog_0249-2563_1984_num_17_16",
  "article": "autog_0249-2563_1984_num_17_16_1896_t1_0120_0000_2",
  "page_name": "autog_0249-2563_1984_num_17_16_T1_0120_0000",
  "questions": [
    "Quel ministère publie la collection « Pointillés » ?",
    "Qu'est-ce que Le Renouveau des coopératives de travailleurs ?",
    "Qu'advient-il aux « amours sociales » lorsque l'analyse économique de l'autogestion est appliquée ?",
    "Quel modèle d'optimisation est utilisé dans l'analyse économique de l'autogestion ?",
    "Qu'est-ce que le CEDOS et quelle est sa mission ?",
    "Quels thèmes sont abordés dans la revue du CEDOS ?",
    "Quels problèmes communs sont mis en évidence dans le dossier sur les squats à Amsterdam, Paris et Berlin ?",
    "Quels tendances se confrontent dans le mouvement d'occupation-rénovation à Berlin ?",
    "Quel projet commun aurait pu être élaboré si une consensus minimum avait pu être atteint ?",
    "Comment s'est constitué le front face à la répression ?",
    "Quels autres formes de lutte ont été considérées pour trouver une solution plus fructueuse ?",
    "Quel livre de Henri Lepage est cité dans le texte ?",
    "En quelle année est parue la publication de Henri Lepage citée ?"
  ]
}