{
  "num": "autog_0249-2563_1981_num_14_5",
  "article": "autog_0249-2563_1981_num_14_5_1420",
  "page_name": "autog_0249-2563_1981_num_14_5_T1_0114_0000",
  "questions": [
    {
      "id_qa": "autog_0249-2563_1981_num_14_5_T1_0114_0000_qa2_v3",
      "id_block": "block_0",
      "question": "Où vivent les écrivains de s.F. ?",
      "answer": "en province",
      "answer_stringIds": [
        "string_40",
        "string_41"
      ]
    },
    {
      "id_qa": "autog_0249-2563_1981_num_14_5_T1_0114_0000_qa3_v3",
      "id_block": "block_0",
      "question": "Combien d'éditeurs se sont installés en province ?",
      "answer": "Nombre de jeunes éditeurs",
      "answer_stringIds": [
        "string_32",
        "string_33",
        "string_34",
        "string_35"
      ]
    },
    {
      "id_qa": "autog_0249-2563_1981_num_14_5_T1_0114_0000_qa4_v3",
      "id_block": "block_0",
      "question": "Qu'est-ce qui motive les jeunes éditeurs ?",
      "answer": "y rester",
      "answer_stringIds": [
        "string_54",
        "string_55"
      ]
    },
    {
      "id_qa": "autog_0249-2563_1981_num_14_5_T1_0114_0000_qa5_v3",
      "id_block": "block_0",
      "question": "Où se sont installés les jeunes éditeurs ?",
      "answer": "en province",
      "answer_stringIds": [
        "string_40",
        "string_41"
      ]
    },
    {
      "id_qa": "autog_0249-2563_1981_num_14_5_T1_0114_0000_qa12_v3",
      "id_block": "block_0",
      "question": "Qu'est ce qui est en accord profond entre leur mode de vie ?",
      "answer": "les idées",
      "answer_stringIds": [
        "string_88",
        "string_89"
      ]
    },
    {
      "id_qa": "autog_0249-2563_1981_num_14_5_T1_0114_0000_qa8_v3",
      "id_block": "block_1",
      "question": "Qu'est-ce qu'une planète socialiste ?",
      "answer": "des tares capitalistes ou staliniennnes",
      "answer_stringIds": [
        "string_110",
        "string_111",
        "string_112",
        "string_113",
        "string_114",
        "string_115"
      ]
    },
    {
      "id_qa": "autog_0249-2563_1981_num_14_5_T1_0114_0000_qa13_v3",
      "id_block": "block_3",
      "question": "Qu'est ce qui caractérise l'Utopie moderne ?",
      "answer": "des voix",
      "answer_stringIds": [
        "string_217",
        "string_218"
      ]
    },
    {
      "id_qa": "autog_0249-2563_1981_num_14_5_T1_0114_0000_qa14_v3",
      "id_block": "block_3",
      "question": "Qu'est ce qui n'a strictement rien à voir avec l'Utopie moderne ?",
      "answer": "ces systèmes",
      "answer_stringIds": [
        "string_272",
        "string_273"
      ]
    },
    {
      "id_qa": "autog_0249-2563_1981_num_14_5_T1_0114_0000_qa18_v3",
      "id_block": "block_3",
      "question": "Qu'est-ce que l'Utopie moderne ?",
      "answer": "cette société future",
      "answer_stringIds": [
        "string_205",
        "string_206",
        "string_207"
      ]
    },
    {
      "id_qa": "autog_0249-2563_1981_num_14_5_T1_0114_0000_qa16_v3",
      "id_block": "block_3",
      "question": "Avec quoi l'Utopie moderne n'a strictement rien à voir ?",
      "answer": "avec ces cadavres",
      "answer_stringIds": [
        "string_268",
        "string_269",
        "string_270"
      ]
    },
    {
      "id_qa": "autog_0249-2563_1981_num_14_5_T1_0114_0000_qa19_v3",
      "id_block": "block_4",
      "question": "Qui est l'auteur de Nous nous battrons avec nos rêves ?",
      "answer": "Michel Jeury",
      "answer_stringIds": [
        "string_312",
        "string_313"
      ]
    }
  ]
}