{
  "num": "autog_0249-2563_1981_num_14_5",
  "article": "autog_0249-2563_1981_num_14_5_1420",
  "page_name": "autog_0249-2563_1981_num_14_5_T1_0110_0000",
  "questions": [
    {
      "id_qa": "autog_0249-2563_1981_num_14_5_T1_0110_0000_qa0_v3",
      "id_block": "block_0",
      "question": "Quand a été publié Le temps incertain ?",
      "answer": "en 1973",
      "answer_stringIds": [
        "string_9",
        "string_10"
      ]
    },
    {
      "id_qa": "autog_0249-2563_1981_num_14_5_T1_0110_0000_qa1_v3",
      "id_block": "block_0",
      "question": "Quelle est l'une des premières oeuvres de ce que l'on appellera plus tard la « nouvelle s.F. » ?",
      "answer": "Le temps incertain",
      "answer_stringIds": [
        "string_3",
        "string_4",
        "string_5"
      ]
    },
    {
      "id_qa": "autog_0249-2563_1981_num_14_5_T1_0110_0000_qa3_v3",
      "id_block": "block_0",
      "question": "Quelle est l'une des premières grandes oeuvres de la s.F. ?",
      "answer": "Le temps incertain",
      "answer_stringIds": [
        "string_3",
        "string_4",
        "string_5"
      ]
    },
    {
      "id_qa": "autog_0249-2563_1981_num_14_5_T1_0110_0000_qa14_v3",
      "id_block": "block_1",
      "question": "Qui écrivent différemment ?",
      "answer": "jeunes auteurs",
      "answer_stringIds": [
        "string_54",
        "string_55"
      ]
    },
    {
      "id_qa": "autog_0249-2563_1981_num_14_5_T1_0110_0000_qa6_v3",
      "id_block": "block_2",
      "question": "Par quoi la science-fiction est-elle plus obsédée ?",
      "answer": "les fusées",
      "answer_stringIds": [
        "string_93",
        "string_94"
      ]
    },
    {
      "id_qa": "autog_0249-2563_1981_num_14_5_T1_0110_0000_qa15_v3",
      "id_block": "block_2",
      "question": "Où ses auteurs reviennent ils ?",
      "answer": "sur Terre",
      "answer_stringIds": [
        "string_106",
        "string_107"
      ]
    },
    {
      "id_qa": "autog_0249-2563_1981_num_14_5_T1_0110_0000_qa16_v3",
      "id_block": "block_2",
      "question": "Qui reviennent sur Terre ?",
      "answer": "Ses auteurs",
      "answer_stringIds": [
        "string_103",
        "string_104"
      ]
    },
    {
      "id_qa": "autog_0249-2563_1981_num_14_5_T1_0110_0000_qa19_v3",
      "id_block": "block_2",
      "question": "Qu'est-ce qui a des airs de... SF ?",
      "answer": "problèmes",
      "answer_stringIds": [
        "string_111"
      ]
    },
    {
      "id_qa": "autog_0249-2563_1981_num_14_5_T1_0110_0000_qa18_v3",
      "id_block": "block_3",
      "question": "Quand les voix se sont-elles élevées pour parler d'autres choses que de conquête spaciale ?",
      "answer": "aujourd'hui",
      "answer_stringIds": [
        "string_112"
      ]
    },
    {
      "id_qa": "autog_0249-2563_1981_num_14_5_T1_0110_0000_qa5_v3",
      "id_block": "block_7",
      "question": "Pour comprendre l'impact de la jeune s.F. française ?",
      "answer": "de préciser un certain nombre de choses",
      "answer_stringIds": [
        "string_237",
        "string_238",
        "string_239",
        "string_240",
        "string_241",
        "string_242",
        "string_243"
      ]
    },
    {
      "id_qa": "autog_0249-2563_1981_num_14_5_T1_0110_0000_qa8_v3",
      "id_block": "block_8",
      "question": "Combien de personnes forment le fandom ?",
      "answer": "quelques lecteurs de base",
      "answer_stringIds": [
        "string_263",
        "string_264",
        "string_265",
        "string_266"
      ]
    }
  ]
}