{
  "num": "autog_0338-7259_1972_num_18_1",
  "article": "autog_0338-7259_1972_num_18_1_1030",
  "page_name": "FMSH_PB188a_18-19_077",
  "questions": [
    {
      "id_qa": "FMSH_PB188a_18-19_077_qa10_v3",
      "id_block": "block_1",
      "question": "Qu'est ce qui servait de ciment à la société ?",
      "answer": "les rapports",
      "answer_stringIds": [
        "string_21",
        "string_22"
      ]
    },
    {
      "id_qa": "FMSH_PB188a_18-19_077_qa11_v3",
      "id_block": "block_1",
      "question": "Qu'est ce qui va s'étendre et à fonctionner de plus en plus selon ses propres principes ?",
      "answer": "Ce système",
      "answer_stringIds": [
        "string_4",
        "string_5"
      ]
    },
    {
      "id_qa": "FMSH_PB188a_18-19_077_qa13_v3",
      "id_block": "block_1",
      "question": "Qu'est ce qui s'étend de plus en plus selon ses propres principes ?",
      "answer": "Ce système",
      "answer_stringIds": [
        "string_4",
        "string_5"
      ]
    },
    {
      "id_qa": "FMSH_PB188a_18-19_077_qa5_v3",
      "id_block": "block_3",
      "question": "Qu'est-ce qui empêche la promotion concrête du prolétariat ?",
      "answer": "toute séparation du Pouvoir",
      "answer_stringIds": [
        "string_151",
        "string_152",
        "string_153",
        "string_154"
      ]
    },
    {
      "id_qa": "FMSH_PB188a_18-19_077_qa8_v3",
      "id_block": "block_3",
      "question": "Qu'est-ce qui rend possible la généralisation de l'autogestion ?",
      "answer": "la promotion concrête du prolétariat en empêchant sans cesse toute séparation du Pouvoir",
      "answer_stringIds": [
        "string_141",
        "string_142",
        "string_143",
        "string_144",
        "string_145",
        "string_146",
        "string_147",
        "string_148",
        "string_149",
        "string_150",
        "string_151",
        "string_152",
        "string_153",
        "string_154"
      ]
    },
    {
      "id_qa": "FMSH_PB188a_18-19_077_qa17_v3",
      "id_block": "block_5",
      "question": "Qu'est ce qui est nécessaire pour faire triompher une société autogérée ?",
      "answer": "une organisation révolutionnaire",
      "answer_stringIds": [
        "string_80",
        "string_81",
        "string_82",
        "string_83"
      ]
    },
    {
      "id_qa": "FMSH_PB188a_18-19_077_qa19_v3",
      "id_block": "block_5",
      "question": "Pour quelle raison une organisation révolutionnaire nous paraît nécessaire ?",
      "answer": "pour faire triompher une société autogérée",
      "answer_stringIds": [
        "string_178",
        "string_179",
        "string_180",
        "string_181",
        "string_182",
        "string_183",
        "string_184"
      ]
    },
    {
      "id_qa": "FMSH_PB188a_18-19_077_qa2_v3",
      "id_block": "block_6",
      "question": "Qui doit organiser l'organisation du peuple ?",
      "answer": "le peuple lui-même",
      "answer_stringIds": [
        "string_263",
        "string_264",
        "string_265"
      ]
    },
    {
      "id_qa": "FMSH_PB188a_18-19_077_qa24_v3",
      "id_block": "block_6",
      "question": "Qui défend la thèse la plus répandue dans les milieux anarchistes ?",
      "answer": "par Voline",
      "answer_stringIds": [
        "string_197",
        "string_198"
      ]
    }
  ]
}