{
  "num": "autog_0249-2563_1980_num_13_1",
  "article": "autog_0249-2563_1980_num_13_1_1343",
  "page_name": "autog_0249-2563_1980_num_13_1_T1_0057_0000",
  "questions": [
    {
      "id_qa": "autog_0249-2563_1980_num_13_1_T1_0057_0000_qa32_v3",
      "id_block": "block_0",
      "question": "Que rendent la société transparente et la religion inutile ?",
      "answer": "suppressions",
      "answer_stringIds": [
        "string_0"
      ]
    },
    {
      "id_qa": "autog_0249-2563_1980_num_13_1_T1_0057_0000_qa0_v3",
      "id_block": "block_1",
      "question": "Qu'est-ce qui n'a aucune incidence sur les croyances religieuses ?",
      "answer": "la suppression des médiations opaques",
      "answer_stringIds": [
        "string_32",
        "string_33",
        "string_34",
        "string_35",
        "string_36"
      ]
    },
    {
      "id_qa": "autog_0249-2563_1980_num_13_1_T1_0057_0000_qa1_v3",
      "id_block": "block_1",
      "question": "Sur quoi repose la suppression des médiations opaques de la politique et de l'économie ?",
      "answer": "aucune incidence sur les croyances religieuses",
      "answer_stringIds": [
        "string_45",
        "string_46",
        "string_47",
        "string_48",
        "string_49",
        "string_50"
      ]
    },
    {
      "id_qa": "autog_0249-2563_1980_num_13_1_T1_0057_0000_qa3_v3",
      "id_block": "block_1",
      "question": "Quelle est la conséquence de l'évolution de la société ?",
      "answer": "la société sera plus compréhensible aux hommes",
      "answer_stringIds": [
        "string_67",
        "string_68",
        "string_69",
        "string_70",
        "string_71",
        "string_72",
        "string_73"
      ]
    },
    {
      "id_qa": "autog_0249-2563_1980_num_13_1_T1_0057_0000_qa5_v3",
      "id_block": "block_1",
      "question": "Qu'est-ce qui rend la société plus compréhensible aux hommes ?",
      "answer": "sensible aux mystères religieux",
      "answer_stringIds": [
        "string_84",
        "string_85",
        "string_86",
        "string_87"
      ]
    },
    {
      "id_qa": "autog_0249-2563_1980_num_13_1_T1_0057_0000_qa14_v3",
      "id_block": "block_1",
      "question": "Quel est le seul moyen d'arriver à l'abondance ?",
      "answer": "le communisme et la religion",
      "answer_stringIds": [
        "string_137",
        "string_138",
        "string_139",
        "string_140",
        "string_141"
      ]
    },
    {
      "id_qa": "autog_0249-2563_1980_num_13_1_T1_0057_0000_qa17_v3",
      "id_block": "block_1",
      "question": "Qu'est ce qui n'est pas menacé par l'Etat ?",
      "answer": "la disparition de la politique",
      "answer_stringIds": [
        "string_171",
        "string_172",
        "string_173",
        "string_174",
        "string_175"
      ]
    },
    {
      "id_qa": "autog_0249-2563_1980_num_13_1_T1_0057_0000_qa36_v3",
      "id_block": "block_1",
      "question": "Quelle est la thèse de la transparence selon Rosanvallon ?",
      "answer": "elle conduit au totalitarisme",
      "answer_stringIds": [
        "string_193",
        "string_194",
        "string_195",
        "string_196"
      ]
    },
    {
      "id_qa": "autog_0249-2563_1980_num_13_1_T1_0057_0000_qa37_v3",
      "id_block": "block_1",
      "question": "Qu'oppose Rosanvallon à la transparence ?",
      "answer": "au totalitarisme",
      "answer_stringIds": [
        "string_195",
        "string_196"
      ]
    },
    {
      "id_qa": "autog_0249-2563_1980_num_13_1_T1_0057_0000_qa8_v3",
      "id_block": "block_2",
      "question": "Quel est le lien entre le libéralisme utopique ?",
      "answer": "établir un lien entre autogestion et le libéralisme anarchiste",
      "answer_stringIds": [
        "string_202",
        "string_203",
        "string_204",
        "string_205",
        "string_206",
        "string_207",
        "string_208",
        "string_209",
        "string_210"
      ]
    },
    {
      "id_qa": "autog_0249-2563_1980_num_13_1_T1_0057_0000_qa9_v3",
      "id_block": "block_2",
      "question": "Quel type de libéralisme est dangereux ?",
      "answer": "le libéralisme utopique",
      "answer_stringIds": [
        "string_217",
        "string_218",
        "string_219"
      ]
    },
    {
      "id_qa": "autog_0249-2563_1980_num_13_1_T1_0057_0000_qa25_v3",
      "id_block": "block_2",
      "question": "Qui est à l'origine du passage de l'autogestion au totalitarisme ?",
      "answer": "Rosanvallon",
      "answer_stringIds": [
        "string_88"
      ]
    },
    {
      "id_qa": "autog_0249-2563_1980_num_13_1_T1_0057_0000_qa26_v3",
      "id_block": "block_2",
      "question": "Que perd Rosanvallon à cet instant crucial de l'autogestion au totalitarisme ?",
      "answer": "un peu de son latin",
      "answer_stringIds": [
        "string_278",
        "string_279",
        "string_280",
        "string_281",
        "string_282"
      ]
    }
  ]
}