{
  "num": "autog_0005-0970_1967_num_4_1",
  "article": "autog_0005-0970_1967_num_4_1_910",
  "page_name": "FMSH_PB188a_00004_068",
  "questions": [
    {
      "id_qa": "FMSH_PB188a_00004_068_qa5_v3",
      "id_block": "block_1",
      "question": "Qu'est-ce qu'il fallait établir entre nationalisation, confiscation et socialisation ?",
      "answer": "la différence",
      "answer_stringIds": [
        "string_58",
        "string_59",
        "string_60"
      ]
    },
    {
      "id_qa": "FMSH_PB188a_00004_068_qa7_v3",
      "id_block": "block_1",
      "question": "Qu'est-ce qu'il fallait établir entre nationalisation et socialisation ?",
      "answer": "la différence",
      "answer_stringIds": [
        "string_58",
        "string_59",
        "string_60"
      ]
    },
    {
      "id_qa": "FMSH_PB188a_00004_068_qa9_v3",
      "id_block": "block_1",
      "question": "Qu'est-ce qui provoquait les ouvriers ?",
      "answer": "la lutte impitoyable",
      "answer_stringIds": [
        "string_81",
        "string_82",
        "string_83"
      ]
    },
    {
      "id_qa": "FMSH_PB188a_00004_068_qa35_v3",
      "id_block": "block_2",
      "question": "A qui la révolution prolétarienne russe enseignait-elle qu'entre le moment de la prise du pouvoir et celui où l'on pourrait effectivement procéder à la réalisation du « capitalisme d'Etat démocratique révolutionnaire » s'intercalait inévitablement une certaine phase de transition caractérisée par la guerre civile ?",
      "answer": "à Lénine",
      "answer_stringIds": [
        "string_101",
        "string_102"
      ]
    },
    {
      "id_qa": "FMSH_PB188a_00004_068_qa36_v3",
      "id_block": "block_2",
      "question": "Par quoi s'intercalait une certaine phase de transition ?",
      "answer": "par la guerre civile",
      "answer_stringIds": [
        "string_147",
        "string_148",
        "string_149",
        "string_150"
      ]
    },
    {
      "id_qa": "FMSH_PB188a_00004_068_qa37_v3",
      "id_block": "block_2",
      "question": "Qu'est ce qui s'intercalait inévitablement entre le moment de la prise du pouvoir et celui où l'on pourrait effectivement procéder sur le plan économique à la réalisation du « capitalisme d'Etat démocratique révolutionnaire » ?",
      "answer": "une certaine phase de transition",
      "answer_stringIds": [
        "string_141",
        "string_142",
        "string_143",
        "string_144",
        "string_145"
      ]
    },
    {
      "id_qa": "FMSH_PB188a_00004_068_qa1_v3",
      "id_block": "block_3",
      "question": "Qu'est ce qui exigeait pour Lénine d'avoir plus que jamais confiance dans l'initiative des masses ?",
      "answer": "cette situation exigeait",
      "answer_stringIds": [
        "string_193",
        "string_194",
        "string_195"
      ]
    },
    {
      "id_qa": "FMSH_PB188a_00004_068_qa23_v3",
      "id_block": "block_3",
      "question": "A quoi s'en remettre les masses ?",
      "answer": "du soin de les adapter aux conditions particulières, concrètes, de leur lutte",
      "answer_stringIds": [
        "string_397"
      ]
    },
    {
      "id_qa": "FMSH_PB188a_00004_068_qa17_v3",
      "id_block": "block_4",
      "question": "A qui Lénine s'adressait-il dix jours après l'insurrection ?",
      "answer": "à la population russe",
      "answer_stringIds": [
        "string_267",
        "string_268",
        "string_269",
        "string_270"
      ]
    },
    {
      "id_qa": "FMSH_PB188a_00004_068_qa18_v3",
      "id_block": "block_4",
      "question": "Qui s'adresse à la population russe après l'insurrection ?",
      "answer": "Lénine",
      "answer_stringIds": [
        "string_102"
      ]
    },
    {
      "id_qa": "FMSH_PB188a_00004_068_qa40_v3",
      "id_block": "block_5",
      "question": "Où se rassemble-t-on ?",
      "answer": "autour de vos Soviets",
      "answer_stringIds": [
        "string_324",
        "string_325",
        "string_326",
        "string_327",
        "string_328"
      ]
    },
    {
      "id_qa": "FMSH_PB188a_00004_068_qa12_v3",
      "id_block": "block_6",
      "question": "Où est-ce que l'on livrera quiconque osera nuire à la cause du roi ?",
      "answer": "au tribunal du peuple révolutionnaire",
      "answer_stringIds": [
        "string_386",
        "string_387",
        "string_388",
        "string_389",
        "string_390"
      ]
    },
    {
      "id_qa": "FMSH_PB188a_00004_068_qa13_v3",
      "id_block": "block_6",
      "question": "Qui livrera au tribunal du peuple révolutionnaire ?",
      "answer": "quiconque",
      "answer_stringIds": [
        "string_391"
      ]
    },
    {
      "id_qa": "FMSH_PB188a_00004_068_qa14_v3",
      "id_block": "block_6",
      "question": "Qui livrera quiconque osera nuire à la cause du roi ?",
      "answer": "au tribunal du peuple révolutionnaire",
      "answer_stringIds": [
        "string_386",
        "string_387",
        "string_388",
        "string_389",
        "string_390"
      ]
    },
    {
      "id_qa": "FMSH_PB188a_00004_068_qa39_v3",
      "id_block": "block_6",
      "question": "Qu'est-ce que le contrôle le plus rigoureux ?",
      "answer": "le contrôle le plus rigoureux de la production et le recensement des produits",
      "answer_stringIds": [
        "string_370",
        "string_371",
        "string_372",
        "string_373",
        "string_374",
        "string_375",
        "string_376",
        "string_377",
        "string_378",
        "string_379",
        "string_380",
        "string_381",
        "string_382"
      ]
    }
  ]
}