{
  "num": "autog_0005-0970_1967_num_4_1",
  "article": "autog_0005-0970_1967_num_4_1_910",
  "page_name": "FMSH_PB188a_00004_110",
  "questions": [
    {
      "id_qa": "FMSH_PB188a_00004_110_qa16_v3",
      "id_block": "block_1",
      "question": "Qu'est-ce que Lénine insitait sur la nécessité de puiser au tréfonds des masses populaires ?",
      "answer": "appel à leur « autonomie",
      "answer_stringIds": [
        "string_78",
        "string_79",
        "string_80",
        "string_81",
        "string_82"
      ]
    },
    {
      "id_qa": "FMSH_PB188a_00004_110_qa19_v3",
      "id_block": "block_1",
      "question": "Qui a écrit sur la nécessité de puiser au tréfonds des masses populaires ?",
      "answer": "Lénine",
      "answer_stringIds": [
        "string_59"
      ]
    },
    {
      "id_qa": "FMSH_PB188a_00004_110_qa20_v3",
      "id_block": "block_1",
      "question": "Quand Lénine a-t-il prononcé sur la nécessité de puiser au tréfonds des masses populaires ?",
      "answer": "après octobre",
      "answer_stringIds": [
        "string_61",
        "string_62"
      ]
    },
    {
      "id_qa": "FMSH_PB188a_00004_110_qa21_v3",
      "id_block": "block_1",
      "question": "Dans quelle citation Lénine souligne-t-il la nécessité de puiser au tréfonds des masses populaires ?",
      "answer": "dans la citation suivante",
      "answer_stringIds": [
        "string_88",
        "string_89",
        "string_90",
        "string_91"
      ]
    },
    {
      "id_qa": "FMSH_PB188a_00004_110_qa22_v3",
      "id_block": "block_1",
      "question": "Sur quoi Lénine insiste-t-il encore après octobre ?",
      "answer": "sur la nécessité de « puiser au tréfonds des masses populaires",
      "answer_stringIds": [
        "string_64",
        "string_65",
        "string_66",
        "string_67",
        "string_68",
        "string_69",
        "string_70",
        "string_71",
        "string_72",
        "string_73",
        "string_74"
      ]
    },
    {
      "id_qa": "FMSH_PB188a_00004_110_qa28_v3",
      "id_block": "block_1",
      "question": "Quand la révolution russe a-t-elle eu lieu ?",
      "answer": "depuis février 1917",
      "answer_stringIds": [
        "string_7",
        "string_8",
        "string_9"
      ]
    },
    {
      "id_qa": "FMSH_PB188a_00004_110_qa26_v3",
      "id_block": "block_2",
      "question": "Qui a été décidé de convoquer en une assemblée commune ?",
      "answer": "les organisations ouvrières de la ville",
      "answer_stringIds": [
        "string_130",
        "string_131",
        "string_132",
        "string_133",
        "string_134",
        "string_135"
      ]
    },
    {
      "id_qa": "FMSH_PB188a_00004_110_qa34_v3",
      "id_block": "block_2",
      "question": "Comment les mencheviks s'efforçaient-ils d'utiliser les travailleurs contre le pouvoir soviétique ?",
      "answer": "ces divergences",
      "answer_stringIds": [
        "string_164",
        "string_165"
      ]
    },
    {
      "id_qa": "FMSH_PB188a_00004_110_qa39_v3",
      "id_block": "block_2",
      "question": "Contre qui les mencheviks s'efforçaient-ils d'utiliser les divergences ?",
      "answer": "les travailleurs contre le pouvoir soviétique",
      "answer_stringIds": [
        "string_168",
        "string_169",
        "string_170",
        "string_171",
        "string_172",
        "string_173"
      ]
    },
    {
      "id_qa": "FMSH_PB188a_00004_110_qa49_v3",
      "id_block": "block_2",
      "question": "Qu'est-ce que Lénine en profita pour faire ?",
      "answer": "le point de la situation économique et sociale",
      "answer_stringIds": [
        "string_186",
        "string_187",
        "string_188",
        "string_189",
        "string_190",
        "string_191",
        "string_192",
        "string_193"
      ]
    },
    {
      "id_qa": "FMSH_PB188a_00004_110_qa51_v3",
      "id_block": "block_2",
      "question": "Sur quoi Lénine a-t-il été invité ?",
      "answer": "le différend",
      "answer_stringIds": [
        "string_179",
        "string_180"
      ]
    },
    {
      "id_qa": "FMSH_PB188a_00004_110_qa52_v3",
      "id_block": "block_2",
      "question": "Qui était invité à se prononcer sur le différend ?",
      "answer": "Lénine",
      "answer_stringIds": [
        "string_59"
      ]
    },
    {
      "id_qa": "FMSH_PB188a_00004_110_qa7_v3",
      "id_block": "block_3",
      "question": "Qu'est-ce qui doit devenir la classe dominante ?",
      "answer": "le prolétariat",
      "answer_stringIds": [
        "string_284",
        "string_285",
        "string_286"
      ]
    },
    {
      "id_qa": "FMSH_PB188a_00004_110_qa11_v3",
      "id_block": "block_3",
      "question": "Que doit devenir le prolétariat pour obtenir la victoire du socialisme ?",
      "answer": "la classe dominante",
      "answer_stringIds": [
        "string_289",
        "string_290",
        "string_291"
      ]
    },
    {
      "id_qa": "FMSH_PB188a_00004_110_qa42_v3",
      "id_block": "block_3",
      "question": "Qu'a montré la révolution du 25 octobre ?",
      "answer": "la maturité pclitique extraordinaire du prolétariat",
      "answer_stringIds": [
        "string_249",
        "string_250",
        "string_251",
        "string_252",
        "string_253",
        "string_254"
      ]
    },
    {
      "id_qa": "FMSH_PB188a_00004_110_qa44_v3",
      "id_block": "block_3",
      "question": "A qui s'oppose la révolution du 25 octobre ?",
      "answer": "à la bourgeoisie",
      "answer_stringIds": [
        "string_262",
        "string_263",
        "string_264"
      ]
    },
    {
      "id_qa": "FMSH_PB188a_00004_110_qa45_v3",
      "id_block": "block_3",
      "question": "Quelle est la date de la révolution ?",
      "answer": "La révolution du 25 octobre",
      "answer_stringIds": [
        "string_240",
        "string_241",
        "string_242",
        "string_243",
        "string_244"
      ]
    },
    {
      "id_qa": "FMSH_PB188a_00004_110_qa46_v3",
      "id_block": "block_3",
      "question": "Qui a écrit la révolution du 25 octobre ?",
      "answer": "Lénine",
      "answer_stringIds": [
        "string_59"
      ]
    },
    {
      "id_qa": "FMSH_PB188a_00004_110_qa0_v3",
      "id_block": "block_4",
      "question": "Qu'est-ce que la transformation socialiste de l'ordre social ?",
      "answer": "prolétariat",
      "answer_stringIds": [
        "string_254"
      ]
    },
    {
      "id_qa": "FMSH_PB188a_00004_110_qa12_v3",
      "id_block": "block_6",
      "question": "Qui comprend le texte ?",
      "answer": "Les ouvriers",
      "answer_stringIds": [
        "string_375",
        "string_376"
      ]
    },
    {
      "id_qa": "FMSH_PB188a_00004_110_qa13_v3",
      "id_block": "block_6",
      "question": "Qui doit le comprendre ?",
      "answer": "Les ouvriers",
      "answer_stringIds": [
        "string_375",
        "string_376"
      ]
    }
  ]
}