{
  "num": "autog_0005-0970_1967_num_4_1",
  "article": "autog_0005-0970_1967_num_4_1_910",
  "page_name": "FMSH_PB188a_00004_090",
  "questions": [
    {
      "id_qa": "FMSH_PB188a_00004_090_qa13_v3",
      "id_block": "block_1",
      "question": "Qu'est-ce que le contrôle ouvrier ?",
      "answer": "les entreprises",
      "answer_stringIds": [
        "string_100",
        "string_101",
        "string_102"
      ]
    },
    {
      "id_qa": "FMSH_PB188a_00004_090_qa16_v3",
      "id_block": "block_1",
      "question": "Qui avait prévu la nécessité de nationalisations par confiscation pure et simple ?",
      "answer": "Lénine",
      "answer_stringIds": [
        "string_168"
      ]
    },
    {
      "id_qa": "FMSH_PB188a_00004_090_qa17_v3",
      "id_block": "block_1",
      "question": "Qu'est-ce qui a été décidé par Lénine ?",
      "answer": "procéder à quelques nationalisations par confiscation pure et simple",
      "answer_stringIds": [
        "string_157",
        "string_158",
        "string_159",
        "string_160",
        "string_161",
        "string_162",
        "string_163",
        "string_164",
        "string_165"
      ]
    },
    {
      "id_qa": "FMSH_PB188a_00004_090_qa45_v3",
      "id_block": "block_1",
      "question": "Qu'a perdu le mot d'ordre de contrôle ouvrier au lendemain de l'insurrection ?",
      "answer": "de son caractère de lutte révolutionnaire",
      "answer_stringIds": [
        "string_58",
        "string_59",
        "string_60",
        "string_61",
        "string_62",
        "string_63"
      ]
    },
    {
      "id_qa": "FMSH_PB188a_00004_090_qa0_v3",
      "id_block": "block_2",
      "question": "Qui a pris possession de la direction générale ?",
      "answer": "les comités ouvriers",
      "answer_stringIds": [
        "string_227",
        "string_228",
        "string_229"
      ]
    },
    {
      "id_qa": "FMSH_PB188a_00004_090_qa2_v3",
      "id_block": "block_2",
      "question": "Qui a chassé les directeurs de la direction générale ?",
      "answer": "les comités ouvriers",
      "answer_stringIds": [
        "string_227",
        "string_228",
        "string_229"
      ]
    },
    {
      "id_qa": "FMSH_PB188a_00004_090_qa6_v3",
      "id_block": "block_2",
      "question": "Où les comités ouvriers ont-ils chassé les directeurs ?",
      "answer": "possession de la direction générale",
      "answer_stringIds": [
        "string_237",
        "string_238",
        "string_239",
        "string_240",
        "string_241"
      ]
    },
    {
      "id_qa": "FMSH_PB188a_00004_090_qa25_v3",
      "id_block": "block_2",
      "question": "Qui n'attendait pas qu'un décret officiel de confiscation fut édicté pour prononcer d'eux-mêmes la nationalisation de leur entreprise ?",
      "answer": "les ouvriers",
      "answer_stringIds": [
        "string_105",
        "string_106"
      ]
    },
    {
      "id_qa": "FMSH_PB188a_00004_090_qa26_v3",
      "id_block": "block_2",
      "question": "Que prononça le décret de confiscation ?",
      "answer": "la nationalisation de leur entreprise",
      "answer_stringIds": [
        "string_199",
        "string_200",
        "string_201",
        "string_202",
        "string_203"
      ]
    },
    {
      "id_qa": "FMSH_PB188a_00004_090_qa27_v3",
      "id_block": "block_2",
      "question": "Qui a prononcé la nationalisation de leur entreprise ?",
      "answer": "les ouvriers",
      "answer_stringIds": [
        "string_105",
        "string_106"
      ]
    },
    {
      "id_qa": "FMSH_PB188a_00004_090_qa28_v3",
      "id_block": "block_2",
      "question": "Quelle est la conséquence de la gestion par les comités ?",
      "answer": "trop considérable",
      "answer_stringIds": [
        "string_271",
        "string_272"
      ]
    },
    {
      "id_qa": "FMSH_PB188a_00004_090_qa20_v3",
      "id_block": "block_3",
      "question": "Par qui est alimenté le sabotage ?",
      "answer": "les banques privées",
      "answer_stringIds": [
        "string_307",
        "string_308",
        "string_309"
      ]
    },
    {
      "id_qa": "FMSH_PB188a_00004_090_qa22_v3",
      "id_block": "block_3",
      "question": "Par qui les techniciens ne participaient-ils pas ?",
      "answer": "au sabotage alimenté par les banques privées",
      "answer_stringIds": [
        "string_303",
        "string_304",
        "string_305",
        "string_306",
        "string_307",
        "string_308",
        "string_309"
      ]
    },
    {
      "id_qa": "FMSH_PB188a_00004_090_qa23_v3",
      "id_block": "block_3",
      "question": "Qui ne participe pas au sabotage alimenté par les banques privées ?",
      "answer": "rares techniciens",
      "answer_stringIds": [
        "string_296",
        "string_297"
      ]
    },
    {
      "id_qa": "FMSH_PB188a_00004_090_qa35_v3",
      "id_block": "block_4",
      "question": "Qui réquisitionnait wagons et marchandises ?",
      "answer": "les comités",
      "answer_stringIds": [
        "string_227",
        "string_228"
      ]
    },
    {
      "id_qa": "FMSH_PB188a_00004_090_qa38_v3",
      "id_block": "block_4",
      "question": "Qu'est ce qui était réquisitionné par les comités ?",
      "answer": "wagons et marchandises",
      "answer_stringIds": [
        "string_342",
        "string_343",
        "string_344"
      ]
    },
    {
      "id_qa": "FMSH_PB188a_00004_090_qa39_v3",
      "id_block": "block_4",
      "question": "A quoi les comités réquisitionnaient-ils wagons et marchandises ?",
      "answer": "des opérations bancaires",
      "answer_stringIds": [
        "string_349",
        "string_350",
        "string_351"
      ]
    },
    {
      "id_qa": "FMSH_PB188a_00004_090_qa40_v3",
      "id_block": "block_5",
      "question": "Quel mouvement a contracté une dette inestimable envers les ouvriers russes ?",
      "answer": "le mouvement socialiste international",
      "answer_stringIds": [
        "string_393",
        "string_394",
        "string_395",
        "string_396"
      ]
    },
    {
      "id_qa": "FMSH_PB188a_00004_090_qa42_v3",
      "id_block": "block_5",
      "question": "Qui a payé la taxe d'apprentissage ?",
      "answer": "les ouvriers russes",
      "answer_stringIds": [
        "string_385",
        "string_386",
        "string_387"
      ]
    },
    {
      "id_qa": "FMSH_PB188a_00004_090_qa43_v3",
      "id_block": "block_5",
      "question": "Qu'a contracté le mouvement socialiste international envers les ouvriers russes ?",
      "answer": "une dette inestimable",
      "answer_stringIds": [
        "string_399",
        "string_400",
        "string_401"
      ]
    }
  ]
}