{
  "num": "autog_0005-0970_1968_num_5_1",
  "article": "autog_0005-0970_1968_num_5_1_1791",
  "page_name": "FMSH_PB188a_05-06_064",
  "questions": [
    "Qu'implique réellement l'axiome « l'Autogestion ne se cause pas mais se pratique » ?",
    "Quels sont les préceptes structuraux de l'Autogestion qui contredisent l'autorité, la hiérarchie et le rendement dans notre université ?",
    "Comment l'Autogestion d'une société de producteurs par les producteurs supprime la distinction entre dirigeants et exécutants ?",
    "Qu'implique la réalisation de l'autodétermination de l'individu à tous les niveaux ?",
    "Comment l'autogestion permet-elle la création d'instances nouvelles essentiellement caractérisées par la révocabilité des élus à chaque instant ?",
    "Qu'implique l'idée que les responsabilités et l'initiative créatrice appartiennent aux producteurs directs plutôt qu'aux détenteurs du capital ?",
    "Comment l'institution de l'autogestion dans un organisme d'enseignement peut-elle être justifiée si la contestation n'est pas traduite dans la mat?"
  ]
}