{
  "num": "autog_0338-7259_1978_num_41_1",
  "article": "autog_0338-7259_1978_num_41_1_1321",
  "page_name": "FMSH_PB188a_41-42_150",
  "questions": [
    "Quel est le contenu social de la rationalisation selon l'auteur ?",
    "Qu'est-ce que l'autogestion selon l'auteur et comment est-elle liée à la socialisation ?",
    "Dans quel système de référence sociale est-elle placée l'autogestion ?",
    "Qu'est-ce que signifie la caractérisation de l'autogestion comme étant dans un système de référence micro-social ?",
    "Quels sont les conséquences possibles de l'autogestion sur la structure macro-sociale de l'économie ?",
    "Comment rencontrent-elles l'autogestion et le dépérissement ?",
    "Quel autre processus que celui de l'autogestion pourrait donner un sens au processus de dépérissement de l'État ?",
    "Comment l'autogestion peut-elle donner un contenu réel au processus de dépérissement de l'État ?",
    "Quels sont les exemples historiques de l'autogestion et de la décomposition de l'État mentionnés par l'auteur ?",
    "Comment les choses se sont-elles passées, du point de vue de l'autogestion et de la décomposition de l'État, dans l'expérience moderne ?"
  ]
}