{
  "num": "autog_0338-7259_1978_num_41_1",
  "article": "autog_0338-7259_1978_num_41_1_1321",
  "page_name": "FMSH_PB188a_41-42_159",
  "questions": [
    "Quel est le lien entre le courant libertaire et le courant du capitalisme \"libéral\" selon Bakounine ?",
    "Quel est le lien entre mode d'action non-institutionnelle et mode d'action contre-institutionnelle dans le mouvement révolutionnaire ?",
    "Qu'est l'originalité des collectivisations en matière d'action anti-institutionnelle ?",
    "Comment les collectivisations ont-elles attaqué directement l'Etat en tant que forme hégémonique garantissant l'existence et l'activité des formes sociales institutionalisées ?",
    "Comment l'Etat apparait-il dans la vision de Bakounine ?"
  ]
}