{
  "num": "autog_0338-7259_1978_num_41_1",
  "article": "autog_0338-7259_1978_num_41_1_1321",
  "page_name": "FMSH_PB188a_41-42_155",
  "questions": [
    "Quel rôle joue le gouvernement central dans la période suivant la dissolution de l'institution militaire et la désorganisation de la bureaucratie étatique ?",
    "Quels sont les conditions selon lesquelles l'État serait en dépérissement selon Marx ?",
    "Quels sont les contre-institutions révolutionnaires en réponse au programme fasciste ?",
    "Comment la situation du mouvement libertaire espagnol est-elle décrite dans la littérature ?",
    "Dans quels domaines apparaissent les collectivisations après le coup d'État franquiste ?",
    "Quels sont les facteurs qui ont entraîné l'élan des collectivisations ?",
    "Quel est le rôle de la C.N.T. dans la théorie de la collectivisation ?",
    "Quels sont les efforts théoriques antérieurs dans les rangs libertaires ?",
    "Comment sont organisées les collectivités collectivisées au niveau réglementaire et économique ?",
    "Comment sont gérées les collectivités collectivisées au niveau militaire ?",
    "Comment est décrite la situation des collectivités collectivisées dans la littérature ?",
    "Comment est décrit le concept de collectivisation dans la littérature ?",
    "Comment est décrit le contexte politique dans lequel les collectivisations ont lieu ?",
    "Comment est décrit le rôle de la menace fasciste dans les collectivisations ?",
    "Comment est décrit le rôle de la réponse spontanée des masses dans les collectivisations ?",
    "Comment est décrit le rôle de l'avant-garde syndicaliste révolutionnaire dans les collectivisations ?",
    "Comment est décrit le processus de passage des masses des idées théoriques aux travaux pratiques ?",
    "Comment est décrit le concept de collectivisation dans le contexte de divers régimes politiques antérieurs ?",
    "Comment est décrit le concept de collectivisation dans le contexte de la victoire du Front Populaire ?",
    "Comment est décrit le concept de collectivisation dans le contexte de la menace fasciste ?",
    "Comment est décrit le concept de?"
  ]
}