{
  "num": "autog_0249-2563_1980_num_13_2",
  "article": "autog_0249-2563_1980_num_13_2_1357",
  "page_name": "autog_0249-2563_1980_num_13_2_T1_0150_0000",
  "questions": [
    "Quels mouvements sociaux et politiques sont abordés dans ce numéro ?",
    "Quel est le but de ce numéro et pourquoi les auteurs se proposent de le réaliser ?",
    "Quels sentiments et intentions ont motivé l'idée initiale de ce numéro ?",
    "Quels événements ont marqué la période récente et quels sont les signes de l'originalité et de la portée des mouvements alternatifs ?",
    "Quels sont les nuances entre les revues mentionnées et quels sont leurs contributions à la compréhension de la RFA et de la RDA ?",
    "Quels auteurs ont abordé les origines des mouvements alternatifs dans des publications antérieures ?",
    "Quel livre de H. Ménudier est mentionné et quels sont ses critiques envers la recherche universitaire française sur l'Allemagne ?",
    "Quels sont les différentes implications dans les réalités allemandes abordées dans ce numéro ?"
  ]
}