{
  "num": "autog_0249-2563_1980_num_13_2",
  "article": "autog_0249-2563_1980_num_13_2_1357",
  "page_name": "autog_0249-2563_1980_num_13_2_T1_0151_0000",
  "questions": [
    "Quels collaborateurs d'Autogestions ont été affectés durant cette période ?",
    "Comment les certitudes des collaborateurs ont-elles été perturbées ?",
    "Quels événements ont entraîné ces perturbations ?",
    "Comment les représentations extrêmes de l'Allemagne se renforcent-elles mutuellement ?",
    "Quels clichés des médias et des « spécialistes » concernant l'Allemagne ne reflètent pas les réalités allemandes ?",
    "Quels types de répression sont-ils décrits dans certaines publications françaises ?",
    "Comment le livre de J. Rovan, L'Allemagne n'est pas ce que vous croyez, peut nuire aux causes qu'il défend ?"
  ]
}