{
  "num": "autog_0249-2563_1981_num_14_7",
  "article": "autog_0249-2563_1981_num_14_7_1454",
  "page_name": "autog_0249-2563_1981_num_14_7_T1_0349_0000",
  "questions": [
    "Quel est l'opinion de cet économiste sur le gradualisme et la co-gestion dans le contexte actuel de l'Espagne ?",
    "Quels sont les courants socialistes qui défendent l'autogestion et comment s'inscrivent-ils dans le paysage politique espagnol actuel ?",
    "Quel était l'objectif initial de l'Union syndicale ouvrière (U.s.0.) ?",
    "Comment l'U.s.0. a-t-elle évolué au fil du temps et quels sont les facteurs qui ont contribué à cette évolution ?",
    "Quels sont les forces politiques et syndicales qui ont joué un rôle important dans l'évolution de l'U.s.0. ?",
    "Comment l'U.s.0. est-elle positionnée actuellement dans le paysage politique espagnol ?",
    "Quels sont les enjeux politiques et idéologiques derrière les revendications d'autogestion des différents courants socialistes ?",
    "Comment la dynamique de l'autogestion s'inscrit-elle dans le processus de parlementarisation et de social-démocratisation du socialisme politique en Espagne ?"
  ]
}