{
  "num": "autog_0005-0970_1968_num_5_1",
  "article": "autog_0005-0970_1968_num_5_1_928",
  "page_name": "FMSH_PB188a_05-06_190",
  "questions": [
    {
      "id_qa": "FMSH_PB188a_05-06_190_qa19_v3",
      "id_block": "block_1",
      "question": "Qui participe à la fondation de l'Internationale ?",
      "answer": "Les très nombreux délégués ouvriers qui",
      "answer_stringIds": [
        "string_3",
        "string_4",
        "string_5",
        "string_6",
        "string_7",
        "string_8"
      ]
    },
    {
      "id_qa": "FMSH_PB188a_05-06_190_qa0_v3",
      "id_block": "block_3",
      "question": "Quand a eu lieu le premier congrès de l'Internationale ?",
      "answer": "en 1866",
      "answer_stringIds": [
        "string_63",
        "string_64"
      ]
    },
    {
      "id_qa": "FMSH_PB188a_05-06_190_qa1_v3",
      "id_block": "block_3",
      "question": "Qu'est ce qui gagne du terrain au premier congrès de l'Internationale ?",
      "answer": "les idées collectivistes révolutionnaires",
      "answer_stringIds": [
        "string_67",
        "string_68",
        "string_69",
        "string_70"
      ]
    },
    {
      "id_qa": "FMSH_PB188a_05-06_190_qa2_v3",
      "id_block": "block_3",
      "question": "Qu'est ce qui gagne constamment les idées collectivistes révolutionnaires ?",
      "answer": "du terrain",
      "answer_stringIds": [
        "string_101",
        "string_102"
      ]
    },
    {
      "id_qa": "FMSH_PB188a_05-06_190_qa4_v3",
      "id_block": "block_3",
      "question": "Où a eu lieu le premier congrès de l'Internationale ?",
      "answer": "à Genève",
      "answer_stringIds": [
        "string_65",
        "string_66"
      ]
    },
    {
      "id_qa": "FMSH_PB188a_05-06_190_qa17_v3",
      "id_block": "block_4",
      "question": "Quel est le rôle d'un côté des idées de Marx et de l'autre côté de celles de Bakounine ?",
      "answer": "décisif",
      "answer_stringIds": [
        "string_127"
      ]
    },
    {
      "id_qa": "FMSH_PB188a_05-06_190_qa10_v3",
      "id_block": "block_5",
      "question": "Par quoi sont influencées les idées du mouvement ouvrier ?",
      "answer": "par la pratique révolutionnaire du mouvement ouvrier en Europe",
      "answer_stringIds": [
        "string_134",
        "string_135",
        "string_136",
        "string_137",
        "string_138",
        "string_139",
        "string_140",
        "string_141",
        "string_142",
        "string_143"
      ]
    },
    {
      "id_qa": "FMSH_PB188a_05-06_190_qa21_v3",
      "id_block": "block_8",
      "question": "Qui lutte contre la féodalité ?",
      "answer": "la bourgeoisie",
      "answer_stringIds": [
        "string_241",
        "string_242"
      ]
    },
    {
      "id_qa": "FMSH_PB188a_05-06_190_qa5_v3",
      "id_block": "block_9",
      "question": "Qui réclament des aménagements concernant les condition de travail et l'entraide ?",
      "answer": "les représentants ouvriers anglais et français",
      "answer_stringIds": [
        "string_306",
        "string_307",
        "string_308",
        "string_309",
        "string_310",
        "string_311"
      ]
    },
    {
      "id_qa": "FMSH_PB188a_05-06_190_qa6_v3",
      "id_block": "block_9",
      "question": "Qu'exige les représentants ouvriers anglais et français ?",
      "answer": "des aménagements",
      "answer_stringIds": [
        "string_315",
        "string_316"
      ]
    }
  ]
}