{
  "num": "autog_0005-0970_1968_num_5_1",
  "article": "autog_0005-0970_1968_num_5_1_928",
  "page_name": "FMSH_PB188a_05-06_197",
  "questions": [
    {
      "id_qa": "FMSH_PB188a_05-06_197_qa21_v3",
      "id_block": "block_1",
      "question": "Qu'est ce qui peut nuire au reste de la société ?",
      "answer": "ce « monopole » de la terre",
      "answer_stringIds": [
        "string_23",
        "string_24",
        "string_25",
        "string_26",
        "string_27",
        "string_28",
        "string_29"
      ]
    },
    {
      "id_qa": "FMSH_PB188a_05-06_197_qa24_v3",
      "id_block": "block_1",
      "question": "A qui profite le monopole de la terre ?",
      "answer": "au reste de la société",
      "answer_stringIds": [
        "string_32",
        "string_33",
        "string_34",
        "string_35",
        "string_36"
      ]
    },
    {
      "id_qa": "FMSH_PB188a_05-06_197_qa14_v3",
      "id_block": "block_2",
      "question": "Qu'est-ce qui est confié à l'Etat ou à la Commune ?",
      "answer": "la gestion du sol",
      "answer_stringIds": [
        "string_40",
        "string_41",
        "string_42",
        "string_43"
      ]
    },
    {
      "id_qa": "FMSH_PB188a_05-06_197_qa9_v3",
      "id_block": "block_3",
      "question": "Quel est le principal reproche que l'on fait au système de la propriété collective ?",
      "answer": "les travailleurs ruraux",
      "answer_stringIds": [
        "string_95",
        "string_96",
        "string_97",
        "string_98"
      ]
    },
    {
      "id_qa": "FMSH_PB188a_05-06_197_qa11_v3",
      "id_block": "block_3",
      "question": "Quel est le principal reproche que l'on fait à De Paepe ?",
      "answer": "système de la propriété collective",
      "answer_stringIds": [
        "string_72",
        "string_73",
        "string_74",
        "string_75",
        "string_76"
      ]
    },
    {
      "id_qa": "FMSH_PB188a_05-06_197_qa12_v3",
      "id_block": "block_3",
      "question": "A qui est attribuée la propriété collective ?",
      "answer": "à la société entière",
      "answer_stringIds": [
        "string_78",
        "string_79",
        "string_80",
        "string_81"
      ]
    },
    {
      "id_qa": "FMSH_PB188a_05-06_197_qa15_v3",
      "id_block": "block_5",
      "question": "Qu'est ce qui a décidé de gérer cette propriété sociale ?",
      "answer": "le congrès",
      "answer_stringIds": [
        "string_171",
        "string_172"
      ]
    },
    {
      "id_qa": "FMSH_PB188a_05-06_197_qa25_v3",
      "id_block": "block_7",
      "question": "Qui s'est prononcé pour la prepriélé sociale du sol ?",
      "answer": "le Congrès",
      "answer_stringIds": [
        "string_227",
        "string_228"
      ]
    },
    {
      "id_qa": "FMSH_PB188a_05-06_197_qa0_v3",
      "id_block": "block_8",
      "question": "Par qui doit être cultivé le sol ?",
      "answer": "par les communes",
      "answer_stringIds": [
        "string_315",
        "string_316",
        "string_317"
      ]
    },
    {
      "id_qa": "FMSH_PB188a_05-06_197_qa2_v3",
      "id_block": "block_8",
      "question": "Qu'est ce qui doit être exploité par les communes solidarisées ?",
      "answer": "le sol",
      "answer_stringIds": [
        "string_308",
        "string_309"
      ]
    },
    {
      "id_qa": "FMSH_PB188a_05-06_197_qa6_v3",
      "id_block": "block_8",
      "question": "Qu'est ce qui doit être cultivé et exploité par les communes solidarisées ?",
      "answer": "le sol",
      "answer_stringIds": [
        "string_308",
        "string_309"
      ]
    },
    {
      "id_qa": "FMSH_PB188a_05-06_197_qa16_v3",
      "id_block": "block_8",
      "question": "Qui accorde l'occupation de la terre soit aux agriculteurs individuels ?",
      "answer": "la societe",
      "answer_stringIds": [
        "string_336",
        "string_337"
      ]
    },
    {
      "id_qa": "FMSH_PB188a_05-06_197_qa27_v3",
      "id_block": "block_8",
      "question": "A qui est destiné la rente à la collectivité ?",
      "answer": "des associations agricoles",
      "answer_stringIds": [
        "string_352",
        "string_353",
        "string_354"
      ]
    },
    {
      "id_qa": "FMSH_PB188a_05-06_197_qa28_v3",
      "id_block": "block_8",
      "question": "Que payeraient les associations agricoles ?",
      "answer": "Îa rente à la collectivité",
      "answer_stringIds": [
        "string_357",
        "string_358",
        "string_359",
        "string_360",
        "string_361"
      ]
    }
  ]
}