{
  "num": "autog_0338-7259_1971_num_15_1",
  "article": "autog_0338-7259_1971_num_15_1_1007_t1_0159_0000_1",
  "page_name": "FMSH_PB188a_00015_163",
  "questions": [
    {
      "id_qa": "FMSH_PB188a_00015_163_qa17_v3",
      "id_block": "block_3",
      "question": "Qui s'intéresse à la cogestion en Allemagne et ailleurs ?",
      "answer": "Daniel Chauvey",
      "answer_stringIds": [
        "string_119",
        "string_120"
      ]
    },
    {
      "id_qa": "FMSH_PB188a_00015_163_qa23_v3",
      "id_block": "block_4",
      "question": "En quoi l'autogestion évolue-t-elle ?",
      "answer": "en tant que long processus historique",
      "answer_stringIds": [
        "string_172",
        "string_173",
        "string_174",
        "string_175",
        "string_176",
        "string_177"
      ]
    },
    {
      "id_qa": "FMSH_PB188a_00015_163_qa4_v3",
      "id_block": "block_5",
      "question": "Qui a eu la possibilité d'expérimenter un véritable système autogestionnaire ?",
      "answer": "la Yougoslavie",
      "answer_stringIds": [
        "string_169",
        "string_170"
      ]
    },
    {
      "id_qa": "FMSH_PB188a_00015_163_qa6_v3",
      "id_block": "block_5",
      "question": "Qu'est ce que la Yougoslavie a eu la possibilité d'expérimenter ?",
      "answer": "un véritable système autogestionnaire",
      "answer_stringIds": [
        "string_222",
        "string_223",
        "string_224",
        "string_225"
      ]
    },
    {
      "id_qa": "FMSH_PB188a_00015_163_qa7_v3",
      "id_block": "block_5",
      "question": "Qu'est-ce qui justifie l'autogestion ?",
      "answer": "les difficultés actuelles multiples de la Yougoslavie",
      "answer_stringIds": [
        "string_196",
        "string_197",
        "string_198",
        "string_199",
        "string_200",
        "string_201",
        "string_202"
      ]
    },
    {
      "id_qa": "FMSH_PB188a_00015_163_qa8_v3",
      "id_block": "block_6",
      "question": "Où a eu lieu l'autogestion ?",
      "answer": "en Yougoslavie",
      "answer_stringIds": [
        "string_240",
        "string_241"
      ]
    },
    {
      "id_qa": "FMSH_PB188a_00015_163_qa9_v3",
      "id_block": "block_6",
      "question": "De quoi est entachée l'autogestion en Yougoslavie ?",
      "answer": "déformations bureaucratiques graves",
      "answer_stringIds": [
        "string_248",
        "string_249",
        "string_250"
      ]
    },
    {
      "id_qa": "FMSH_PB188a_00015_163_qa13_v3",
      "id_block": "block_7",
      "question": "Qu'est-ce que l'autogestion ?",
      "answer": "son fonctionnement équilibré",
      "answer_stringIds": [
        "string_292",
        "string_293",
        "string_294"
      ]
    },
    {
      "id_qa": "FMSH_PB188a_00015_163_qa12_v3",
      "id_block": "block_8",
      "question": "Qui réfute les principaux arguments contre l'autogestion ?",
      "answer": "les adversaires",
      "answer_stringIds": [
        "string_348",
        "string_349"
      ]
    }
  ]
}