{
  "num": "autog_0249-2563_1982_num_16_12",
  "article": "autog_0249-2563_1982_num_16_12_1535",
  "page_name": "autog_0249-2563_1982_num_16_12_T1_0102_0000",
  "questions": [
    {
      "id_qa": "autog_0249-2563_1982_num_16_12_T1_0102_0000_qa0_v3",
      "id_block": "block_1",
      "question": "Qui est le plus à l'aise dans le système d'orientation ?",
      "answer": "élèves",
      "answer_stringIds": [
        "string_48"
      ]
    },
    {
      "id_qa": "autog_0249-2563_1982_num_16_12_T1_0102_0000_qa7_v3",
      "id_block": "block_2",
      "question": "Qu'est ce qui porterait en germe un choix politique ?",
      "answer": "un bouleversement de notre société",
      "answer_stringIds": [
        "string_119",
        "string_120",
        "string_121",
        "string_122",
        "string_123"
      ]
    },
    {
      "id_qa": "autog_0249-2563_1982_num_16_12_T1_0102_0000_qa19_v3",
      "id_block": "block_3",
      "question": "Qu'est ce qui est utilisé dans la parodie de changement ?",
      "answer": "les mêmes méthodes pédagogiques",
      "answer_stringIds": [
        "string_196",
        "string_197",
        "string_198",
        "string_199",
        "string_200"
      ]
    },
    {
      "id_qa": "autog_0249-2563_1982_num_16_12_T1_0102_0000_qa14_v3",
      "id_block": "block_4",
      "question": "Qui écrit le 20 mai 1981 ?",
      "answer": "C. Arditti",
      "answer_stringIds": [
        "string_219",
        "string_220"
      ]
    },
    {
      "id_qa": "autog_0249-2563_1982_num_16_12_T1_0102_0000_qa15_v3",
      "id_block": "block_4",
      "question": "Sur qui peut-on compter pour cela ?",
      "answer": "ceux qui",
      "answer_stringIds": [
        "string_237",
        "string_238"
      ]
    },
    {
      "id_qa": "autog_0249-2563_1982_num_16_12_T1_0102_0000_qa16_v3",
      "id_block": "block_4",
      "question": "Que reste-t-il à faire en 1981 ?",
      "answer": "beaucoup à inventer",
      "answer_stringIds": [
        "string_226",
        "string_227",
        "string_228",
        "string_229"
      ]
    },
    {
      "id_qa": "autog_0249-2563_1982_num_16_12_T1_0102_0000_qa18_v3",
      "id_block": "block_4",
      "question": "Quand C. Arditti écrit-il à propos de l'école ?",
      "answer": "Le 20 mai 1981",
      "answer_stringIds": [
        "string_215",
        "string_216",
        "string_217",
        "string_218"
      ]
    },
    {
      "id_qa": "autog_0249-2563_1982_num_16_12_T1_0102_0000_qa25_v3",
      "id_block": "block_5",
      "question": "Qu'est ce qui a été suivi dans la presse ?",
      "answer": "toutes les péripéties de son installation",
      "answer_stringIds": [
        "string_271",
        "string_272",
        "string_273",
        "string_274",
        "string_275",
        "string_276"
      ]
    },
    {
      "id_qa": "autog_0249-2563_1982_num_16_12_T1_0102_0000_qa42_v3",
      "id_block": "block_6",
      "question": "Quel droit l'école publique se met-elle à parler ?",
      "answer": "droit à la différence",
      "answer_stringIds": [
        "string_343",
        "string_344",
        "string_345",
        "string_346",
        "string_347"
      ]
    },
    {
      "id_qa": "autog_0249-2563_1982_num_16_12_T1_0102_0000_qa32_v3",
      "id_block": "block_7",
      "question": "Quand est publié l'article intitulé « Un lycée sans élèves ?",
      "answer": "Le 7 mars 1982",
      "answer_stringIds": [
        "string_384",
        "string_385",
        "string_386",
        "string_387"
      ]
    },
    {
      "id_qa": "autog_0249-2563_1982_num_16_12_T1_0102_0000_qa33_v3",
      "id_block": "block_7",
      "question": "Dans quel journal est publié l'article intitulé « Un lycée sans élèves ?",
      "answer": "dans Le Monde Dimanche",
      "answer_stringIds": [
        "string_388",
        "string_389",
        "string_390",
        "string_391"
      ]
    },
    {
      "id_qa": "autog_0249-2563_1982_num_16_12_T1_0102_0000_qa34_v3",
      "id_block": "block_7",
      "question": "Quand est-ce que paraît un article dans Le Monde Dimanche ?",
      "answer": "Le 7 mars 1982",
      "answer_stringIds": [
        "string_384",
        "string_385",
        "string_386",
        "string_387"
      ]
    }
  ]
}