{
  "num": "autog_0249-2563_1982_num_16_12",
  "article": "autog_0249-2563_1982_num_16_12_1535",
  "page_name": "autog_0249-2563_1982_num_16_12_T1_0105_0000",
  "questions": [
    {
      "id_qa": "autog_0249-2563_1982_num_16_12_T1_0105_0000_qa27_v3",
      "id_block": "block_1",
      "question": "Que fit l'idée de dressage des élèves à l'autogestion ?",
      "answer": "frémir et partir",
      "answer_stringIds": [
        "string_30",
        "string_31",
        "string_32"
      ]
    },
    {
      "id_qa": "autog_0249-2563_1982_num_16_12_T1_0105_0000_qa14_v3",
      "id_block": "block_10",
      "question": "Qu'est ce qui ne pourra pas se réaliser à la rentrée prochaine ?",
      "answer": "notre projet",
      "answer_stringIds": [
        "string_176",
        "string_177"
      ]
    },
    {
      "id_qa": "autog_0249-2563_1982_num_16_12_T1_0105_0000_qa16_v3",
      "id_block": "block_10",
      "question": "A quelle date le projet ne pourra pas se réaliser ?",
      "answer": "à la rentrée prochaine",
      "answer_stringIds": [
        "string_315",
        "string_316",
        "string_317",
        "string_318"
      ]
    },
    {
      "id_qa": "autog_0249-2563_1982_num_16_12_T1_0105_0000_qa9_v3",
      "id_block": "block_3",
      "question": "Qui conseillent le travail en groupe ?",
      "answer": "Les enseignants et ceux qui ont pour tâche de les former",
      "answer_stringIds": [
        "string_130",
        "string_131",
        "string_132",
        "string_133",
        "string_134",
        "string_135",
        "string_136",
        "string_137",
        "string_138",
        "string_139",
        "string_140",
        "string_141"
      ]
    },
    {
      "id_qa": "autog_0249-2563_1982_num_16_12_T1_0105_0000_qa25_v3",
      "id_block": "block_3",
      "question": "Qu'est-ce qui suppose la coopération des enfants avec les adultes ?",
      "answer": "le développement intellectuel",
      "answer_stringIds": [
        "string_50",
        "string_51",
        "string_52"
      ]
    },
    {
      "id_qa": "autog_0249-2563_1982_num_16_12_T1_0105_0000_qa26_v3",
      "id_block": "block_3",
      "question": "Que suppose le développement intellectuel pour Piaget ?",
      "answer": "non seulement la coopération des enfants avec les adultes mais aussi la cooopération des enfants entre eux",
      "answer_stringIds": [
        "string_54",
        "string_55",
        "string_56",
        "string_57",
        "string_58",
        "string_59",
        "string_60",
        "string_61",
        "string_62",
        "string_63",
        "string_64",
        "string_65",
        "string_66",
        "string_67",
        "string_68",
        "string_69",
        "string_70"
      ]
    },
    {
      "id_qa": "autog_0249-2563_1982_num_16_12_T1_0105_0000_qa31_v3",
      "id_block": "block_5",
      "question": "Quel projet est présenté au ministère de l'Éducation nationale ?",
      "answer": "notre projet de collège autogéré",
      "answer_stringIds": [
        "string_176",
        "string_177",
        "string_178",
        "string_179",
        "string_180"
      ]
    },
    {
      "id_qa": "autog_0249-2563_1982_num_16_12_T1_0105_0000_qa1_v3",
      "id_block": "block_6",
      "question": "Qui parle de nous ?",
      "answer": "Libération et Le Martin",
      "answer_stringIds": [
        "string_224",
        "string_225",
        "string_226",
        "string_227"
      ]
    },
    {
      "id_qa": "autog_0249-2563_1982_num_16_12_T1_0105_0000_qa2_v3",
      "id_block": "block_6",
      "question": "Quand Libération et Le Martin parlent-ils de nous ?",
      "answer": "Le 29 juin",
      "answer_stringIds": [
        "string_221",
        "string_222",
        "string_223"
      ]
    },
    {
      "id_qa": "autog_0249-2563_1982_num_16_12_T1_0105_0000_qa23_v3",
      "id_block": "block_6",
      "question": "Quand est-ce que nous sommes parmi cinq projets présélectionnés ?",
      "answer": "Fin juin 1982",
      "answer_stringIds": [
        "string_209",
        "string_210",
        "string_211"
      ]
    },
    {
      "id_qa": "autog_0249-2563_1982_num_16_12_T1_0105_0000_qa32_v3",
      "id_block": "block_8",
      "question": "Où est-ce que nous partons ?",
      "answer": "en vacances",
      "answer_stringIds": [
        "string_262",
        "string_263"
      ]
    },
    {
      "id_qa": "autog_0249-2563_1982_num_16_12_T1_0105_0000_qa12_v3",
      "id_block": "block_9",
      "question": "Qui annonce que trois nouveaux projets sont acceptés ?",
      "answer": "Le Matin",
      "answer_stringIds": [
        "string_266",
        "string_267"
      ]
    }
  ]
}