{
  "num": "autog_0249-2563_1982_num_16_12",
  "article": "autog_0249-2563_1982_num_16_12_1535",
  "page_name": "autog_0249-2563_1982_num_16_12_T1_0115_0000",
  "questions": [
    {
      "id_qa": "autog_0249-2563_1982_num_16_12_T1_0115_0000_qa4_v3",
      "id_block": "block_1",
      "question": "Qu'est-ce que la circulaire de M. Vergnaut ?",
      "answer": "faire",
      "answer_stringIds": [
        "string_30"
      ]
    },
    {
      "id_qa": "autog_0249-2563_1982_num_16_12_T1_0115_0000_qa49_v3",
      "id_block": "block_1",
      "question": "Qu'est-ce qui est proposé à la directrice ?",
      "answer": "cette circulaire",
      "answer_stringIds": [
        "string_44",
        "string_45"
      ]
    },
    {
      "id_qa": "autog_0249-2563_1982_num_16_12_T1_0115_0000_qa47_v3",
      "id_block": "block_2",
      "question": "Qui devient l'autogestion ?",
      "answer": "les enseignants",
      "answer_stringIds": [
        "string_69",
        "string_70"
      ]
    },
    {
      "id_qa": "autog_0249-2563_1982_num_16_12_T1_0115_0000_qa6_v3",
      "id_block": "block_4",
      "question": "Qu'est-ce qui pourrait conduire à stériliser ?",
      "answer": "tout effort de démocratisation de notre enseignement",
      "answer_stringIds": [
        "string_174",
        "string_175",
        "string_176",
        "string_177",
        "string_178",
        "string_179",
        "string_180"
      ]
    },
    {
      "id_qa": "autog_0249-2563_1982_num_16_12_T1_0115_0000_qa9_v3",
      "id_block": "block_4",
      "question": "Qu'est ce qui pourrait conduire à stériliser tout effort de démocratisation de notre enseignement ?",
      "answer": "une tendance",
      "answer_stringIds": [
        "string_167",
        "string_168"
      ]
    },
    {
      "id_qa": "autog_0249-2563_1982_num_16_12_T1_0115_0000_qa13_v3",
      "id_block": "block_4",
      "question": "Qu'est-ce que les pétitions contre M. Legrand ?",
      "answer": "ces réactions à la légère",
      "answer_stringIds": [
        "string_158",
        "string_159",
        "string_160",
        "string_161",
        "string_162"
      ]
    },
    {
      "id_qa": "autog_0249-2563_1982_num_16_12_T1_0115_0000_qa14_v3",
      "id_block": "block_4",
      "question": "A qui sont adressées les pétitions contre M. Legrand ?",
      "answer": "répondre aux professeurs",
      "answer_stringIds": [
        "string_144",
        "string_145",
        "string_146"
      ]
    },
    {
      "id_qa": "autog_0249-2563_1982_num_16_12_T1_0115_0000_qa15_v3",
      "id_block": "block_4",
      "question": "Que dit M. Legrand à ses professeurs ?",
      "answer": "il ne saurait prendre ces réactions à la légère",
      "answer_stringIds": [
        "string_154",
        "string_155",
        "string_156",
        "string_157",
        "string_158",
        "string_159",
        "string_160",
        "string_161",
        "string_162"
      ]
    },
    {
      "id_qa": "autog_0249-2563_1982_num_16_12_T1_0115_0000_qa16_v3",
      "id_block": "block_4",
      "question": "A qui les pétitions contre M. Legrand sont elles adressées ?",
      "answer": "professeurs",
      "answer_stringIds": [
        "string_146"
      ]
    },
    {
      "id_qa": "autog_0249-2563_1982_num_16_12_T1_0115_0000_qa17_v3",
      "id_block": "block_4",
      "question": "Quelle est la réaction de M. Legrand envers les professeurs ?",
      "answer": "prendre ces réactions à la légère",
      "answer_stringIds": [
        "string_157",
        "string_158",
        "string_159",
        "string_160",
        "string_161",
        "string_162"
      ]
    },
    {
      "id_qa": "autog_0249-2563_1982_num_16_12_T1_0115_0000_qa18_v3",
      "id_block": "block_4",
      "question": "Qui est à l'origine de ces pétitions ?",
      "answer": "M. Legrand",
      "answer_stringIds": [
        "string_26",
        "string_27"
      ]
    },
    {
      "id_qa": "autog_0249-2563_1982_num_16_12_T1_0115_0000_qa20_v3",
      "id_block": "block_4",
      "question": "Qu'est ce qui n'a pas changé en Septembre 1982 ?",
      "answer": "les équipes",
      "answer_stringIds": [
        "string_123",
        "string_124"
      ]
    },
    {
      "id_qa": "autog_0249-2563_1982_num_16_12_T1_0115_0000_qa50_v3",
      "id_block": "block_5",
      "question": "Qui est responsable de la transformation de l'enseignement ?",
      "answer": "enseignants",
      "answer_stringIds": [
        "string_70"
      ]
    },
    {
      "id_qa": "autog_0249-2563_1982_num_16_12_T1_0115_0000_qa55_v3",
      "id_block": "block_5",
      "question": "Qu'est ce qui suppose une transformation de l'enseignement ?",
      "answer": "une confiance faite aux enseignants qui veulent innover dans le cadre défini",
      "answer_stringIds": [
        "string_199",
        "string_200",
        "string_201",
        "string_202",
        "string_203",
        "string_204",
        "string_205",
        "string_206",
        "string_207",
        "string_208",
        "string_209",
        "string_210"
      ]
    },
    {
      "id_qa": "autog_0249-2563_1982_num_16_12_T1_0115_0000_qa27_v3",
      "id_block": "block_6",
      "question": "Qu'est ce qui nous a permis de reprendre nos réunions ?",
      "answer": "cette aide",
      "answer_stringIds": [
        "string_250",
        "string_251"
      ]
    },
    {
      "id_qa": "autog_0249-2563_1982_num_16_12_T1_0115_0000_qa28_v3",
      "id_block": "block_6",
      "question": "Qu'est ce qui a repris en 1983 ?",
      "answer": "nos réunions",
      "answer_stringIds": [
        "string_255",
        "string_256"
      ]
    },
    {
      "id_qa": "autog_0249-2563_1982_num_16_12_T1_0115_0000_qa44_v3",
      "id_block": "block_7",
      "question": "Pourquoi nous ne proposons plus de travailler dans un secteur ?",
      "answer": "rencontrer les mêmes obstacles",
      "answer_stringIds": [
        "string_270",
        "string_271",
        "string_272",
        "string_273"
      ]
    },
    {
      "id_qa": "autog_0249-2563_1982_num_16_12_T1_0115_0000_qa46_v3",
      "id_block": "block_7",
      "question": "Qui décide de travailler dans un secteur ?",
      "answer": "les parents",
      "answer_stringIds": [
        "string_292",
        "string_293"
      ]
    },
    {
      "id_qa": "autog_0249-2563_1982_num_16_12_T1_0115_0000_qa58_v3",
      "id_block": "block_8",
      "question": "Qu'attend-on de nous ?",
      "answer": "le soutien des universitaires et intellectuels autogestionnaires",
      "answer_stringIds": [
        "string_329",
        "string_330",
        "string_331",
        "string_332",
        "string_333",
        "string_334",
        "string_335"
      ]
    }
  ]
}