{
  "num": "autog_0005-0970_1968_num_7_1",
  "article": "autog_0005-0970_1968_num_7_1_939",
  "page_name": "FMSH_PB188a_00007_134",
  "questions": [
    "Quel est le rôle de la culture et du savoir dans la lutte et la propagation ?",
    "Quels sont les acteurs qui ont échoué dans la création d'une vie ?",
    "Quels sont les hommes de synthèse, les mandarins et les capitalistes du savoir ?",
    "En quels circonstances on doit installer une lutte ou un combat ?",
    "Comment les travailleurs peuvent vaincre ?",
    "Quand se déroule cette situation décrite dans le texte ?",
    "Pourquoi les acteurs mentionnés ont échoué ?",
    "Quel est la valeur de ces acteurs comparée à leurs confrères aux gros sous ?",
    "Quel est le but de montrer l'échec de ces acteurs ?"
  ]
}