{
  "num": "autog_0005-0970_1968_num_7_1",
  "article": "autog_0005-0970_1968_num_7_1_939",
  "page_name": "FMSH_PB188a_00007_123",
  "questions": [
    "Quels deux tactiques sont nécessaires pour mettre en œuvre l'auto-gestion et la pratique sociale ?",
    "Quels groupes ont été écartés du front commun ?",
    "Quelles sont les questions incontournables à poser dans le contexte de l'université et du savoir ?",
    "Quels sont les rapports entre l'Argent et le Savoir ?",
    "Quels sont les rôles des intellectuels et de la science dans la lutte sociale ?",
    "Quels sont les objectifs des réformes actuellement discutées ?",
    "Quels sont les risques et les obstacles à la mise en place de nouvelles structures de transmission du savoir ?",
    "Quels sont les différences entre la situation en Allemagne et en France, et comment elles influencent le modèle de lutte choisi ?",
    "Comment l'université peut-elle devenir un contre-milieu ?"
  ]
}