{
  "num": "autog_0005-0970_1968_num_7_1",
  "article": "autog_0005-0970_1968_num_7_1_939",
  "page_name": "FMSH_PB188a_00007_131",
  "questions": [
    "Qu'est-ce que Marcuse entend par l'autogestion ?",
    "Comment l'autogestion ne peut pas être une forme de gestion sectorielle dans un système capitaliste ?",
    "Qu'est-ce que l'on peut créer pour lutter contre la société globale ?",
    "Qu'est-ce que l'on entend par contre-milieu ?",
    "Comment l'autogestion peut-elle influencer la pratique sociale urbaine ?",
    "Qu'est-ce que l'on entend par coexistence pacifique ?",
    "Pourquoi est-il important de dégager l'idée de contre-milieu de son idéologie et de sa falsification ?"
  ]
}