{
  "num": "autog_0338-7259_1971_num_15_1",
  "article": "autog_0338-7259_1971_num_15_1_1007_t1_0177_0000_1",
  "page_name": "FMSH_PB188a_00015_179",
  "questions": [
    {
      "id_qa": "FMSH_PB188a_00015_179_qa0_v3",
      "id_block": "block_1",
      "question": "Qu'est ce qui a été publié jusqu'à présent sur l'Espagne et la Catalogne ?",
      "answer": "une documentation et des statistiques",
      "answer_stringIds": [
        "string_58",
        "string_59",
        "string_60",
        "string_61",
        "string_62"
      ]
    },
    {
      "id_qa": "FMSH_PB188a_00015_179_qa8_v3",
      "id_block": "block_3",
      "question": "Quelle langue est indispensable pour étudier sérieusement la guerre civile ?",
      "answer": "le catalan",
      "answer_stringIds": [
        "string_173",
        "string_174"
      ]
    }
  ]
}