{
  "num": "autog_0249-2563_1982_num_15_10",
  "article": "autog_0249-2563_1982_num_15_10_1493",
  "page_name": "autog_0249-2563_1982_num_15_10_T1_0004_0000",
  "questions": [
    "Quels sont les amis du narrateur qui veulent des propositions pratiques et concrètes ?",
    "Pourquoi la méfiance envers la pensée théorique semble étouffante et grave pour le narrateur ?",
    "Comment sont neutralisés les éléments théoriques lorsqu'on essaie d'introduire des théories ?",
    "Quels sont les intentions bienveillantes et les compétences certaines que le narrateur observe ?",
    "Comment le rapport entre les intentions et le savoir reste indéterminé pour le narrateur ?",
    "Pourquoi les problèmes économiques sont-ils la seule préoccupation ?",
    "Comment la croissance des forces productives a-t-elle été récupérée par la droite et le centre politiques ?",
    "Comment la confusion entre croissance et développement qualitatif persiste ?",
    "Quel est le poids du réalisme et du positivisme selon le narrateur ?",
    "Comment la droite saisit-elle les points faibles de la gauche ?",
    "Qu'est-ce que l'idéologie que la droite cherche à se donner ?",
    "Quels sont les objectifs des gens qui se rassemblent dans ces clubs et ces groupes ?",
    "Comment essaient-ils de comprendre où on en est et d'introduire des éléments de renouveau ?",
    "D'où peut venir ce renouveau, ce changement ?"
  ]
}