{
  "num": "autog_0249-2563_1980_num_13_4",
  "article": "autog_0249-2563_1980_num_13_4_1971",
  "page_name": "autog_0249-2563_1980_num_13_4_T1_0527_0000",
  "questions": [
    "Quels sont les thèmes abordés dans les numéros 1 et 2-3 de \"Autogestions\"?",
    "Quels auteurs sont cités dans le numéro 1 et quels sont les titres de leurs articles?",
    "Quel est le sujet de l'éditorial intitulé \"Métamorphoses : l'autogestion au pluriel\"?",
    "Qu'énonce Henri Desroche dans son article intitulé \"De l'utopie comme champ d'alternatives\"?",
    "Qu'énonce René Lourau dans son article intitulé \"Autogestion, institutionalisation, dissolution\"?",
    "Qu'énonce Robert Chapuis dans son article intitulé \"L'autogestion a-t-elle un avenir politique ?",
    "Quels sont les sujets abordés dans le dossier consacré au Japon?",
    "Quels sont les auteurs cités dans les numéros 2-3 et quels sont les titres de leurs articles?",
    "Qu'énonce Olivier Corpet dans son article intitulé \"Un autre regard, une autre Allemagne\"?",
    "Qu'énonce Claudie Weill dans son article intitulé \"Du mouvement étudiant aux initiatives civiques\"?",
    "Qu'est-ce que Patrick Démerin aborde dans son article intitulé \"Le vide et le trop-plein\"?",
    "Qu'énonce Gérard Gabert dans son article intitulé \"Communautés pour l'autogestion\"?",
    "Qu'énonce Reinhard Dietrich dans son article intitulé \"Les collectifs autogérés de jeunes chômeurs\"?",
    "Qu'énonce Christian Wend dans son article intitulé \"Réseaux et coordination des alternatives\"?",
    "Qu'énonce Christine Woesler dans son article intitulé \"L'autogestion existentielle\"?",
    "Qu'est-ce que le sujet de la chronique intitulée \"Cadavre exquis\" de Jean-François Marchat?"
  ]
}