{
  "num": "autog_0338-7259_1973_num_22_1",
  "article": "autog_0338-7259_1973_num_22_1_1102",
  "page_name": "FMSH_PB188a_22-23_260",
  "questions": [
    "Quels sujets ont été abordés dans les quatre commissions de l'autogestion ?",
    "Quels étudiants ont organisé un débat sur l'autogestion à la Faculté de Droit en février 1973 ?",
    "Quels textes importants sur l'autogestion a publiée la CFDT récemment ?",
    "Où se déroulent les séances bi-mensuelles du séminaire sur l'autogestion à Paris ?",
    "Quel est le nom et l'emplacement de l'institut de sociologie à l'Université de Rome où un séminaire sur l'autogestion est animé ?",
    "Quand a-t-il débuté le séminaire sur l'autogestion à l'Université de Rome ?",
    "Quel est le nom et l'emplacement du Centre Studi Autogestione et Socialismo à Rome qui publie un bulletin bibliographique sur l'autogestion ?",
    "Quand a-t-il été publié le premier numéro du bulletin bibliographique Elementi di documentazione ?",
    "Quels sont les titres et les éditeurs des deux derniers colloques organisés par l'Institut de sociologie de l'Université de Bologne sur l'autogestion ?"
  ]
}