{
  "num": "autog_0338-7259_1978_num_41_1",
  "article": "autog_0338-7259_1978_num_41_1_1306",
  "page_name": "FMSH_PB188a_41-42_020",
  "questions": [
    "Quel est le contexte historique de ce document ?",
    "Quels sont les acteurs principaux mentionnés dans ce texte ?",
    "Quels sont les principaux termes techniques ou symboliques utilisés dans ce texte ?",
    "Quels sont les objectifs ou les raisons de la rédaction de ce document ?",
    "Quels sont les événements ou les actions décrits dans ce texte ?",
    "Quels sont les liens entre les différents éléments du texte ?",
    "Quels sont les implications politiques, sociales ou culturelles de ce document ?",
    "Quels sont les sources d'informations utilisées dans la rédaction de ce document ?",
    "Quels sont les écritures ou les langues utilisées dans ce texte ?",
    "Quels sont les aspects stylistiques ou littéraires de ce document ?",
    "Quels sont les défis de la traduction ou de l'analyse de ce texte ?"
  ]
}