{
  "num": "autog_0338-7259_1978_num_41_1",
  "article": "autog_0338-7259_1978_num_41_1_1306",
  "page_name": "FMSH_PB188a_41-42_027",
  "questions": [
    "Quel est le lien entre la taille du lit de Procuste et la méthode d'étude ?",
    "Quels pensaient certains participants à Paris lorsqu'ils entendirent parler de la liberté de mener leur travail collectif ?",
    "Comment a été perçue la demande d'autogestion immédiate de la conférence ?",
    "Quel serait le coût d'une vraie liberté d'auto-organisation ?",
    "Qu'est-ce qui empêche une vraie troisième voie entre l'hyperorganisation et l'absence d'organisation ?",
    "Quel rôle peuvent jouer les règles de fonctionnement dans les réunions informelles ?",
    "Quels objectifs poursuivent les acteurs dans les réunions ?",
    "Comment peut-on déjouer les manœuvres des acteurs dans les réunions ?",
    "Qu'est-ce qui risque d'absorber toute l'énergie du groupe si on s'y essaye ?",
    "Qu'est-ce que le petit miracle d'un petit groupe réussi à s'autogérer ?",
    "Comment le petit miracle d'un petit groupe réussi à s'autogérer peut-il être inséré dans la masse des autres pratiques ?"
  ]
}