{
  "num": "autog_0338-7259_1970_num_13_1",
  "article": "autog_0338-7259_1970_num_13_1_988",
  "page_name": "FMSH_PB188a_13-14_220",
  "questions": [
    {
      "id_qa": "FMSH_PB188a_13-14_220_qa31_v3",
      "id_block": "block_2",
      "question": "Combien y a-t-il de personnes dans la salle ?",
      "answer": "au moins quatre",
      "answer_stringIds": [
        "string_48",
        "string_49",
        "string_50"
      ]
    },
    {
      "id_qa": "FMSH_PB188a_13-14_220_qa27_v3",
      "id_block": "block_3",
      "question": "Qu'est ce qui pourra l'aider à satisfaire un besoin ?",
      "answer": "la recherche collective",
      "answer_stringIds": [
        "string_97",
        "string_98",
        "string_99"
      ]
    },
    {
      "id_qa": "FMSH_PB188a_13-14_220_qa34_v3",
      "id_block": "block_3",
      "question": "Qu'est-ce que l'adulte a besoin d'être motivé ?",
      "answer": "une part",
      "answer_stringIds": [
        "string_63",
        "string_64"
      ]
    },
    {
      "id_qa": "FMSH_PB188a_13-14_220_qa36_v3",
      "id_block": "block_3",
      "question": "A quoi répondent les travaux de l'adulte ?",
      "answer": "à un besoin",
      "answer_stringIds": [
        "string_76",
        "string_77",
        "string_78"
      ]
    },
    {
      "id_qa": "FMSH_PB188a_13-14_220_qa9_v3",
      "id_block": "block_5",
      "question": "Quel est le rôle actif qu'il jouera dans le groupe ?",
      "answer": "pendant les activités proposées",
      "answer_stringIds": [
        "string_156",
        "string_157",
        "string_158",
        "string_159"
      ]
    },
    {
      "id_qa": "FMSH_PB188a_13-14_220_qa11_v3",
      "id_block": "block_5",
      "question": "Qu'est ce qui permet à l'enfant de se sentir utile ?",
      "answer": "les activités",
      "answer_stringIds": [
        "string_157",
        "string_158"
      ]
    },
    {
      "id_qa": "FMSH_PB188a_13-14_220_qa5_v3",
      "id_block": "block_6",
      "question": "Qu'est-ce que veut se sentir considéré ?",
      "answer": "bien être utile",
      "answer_stringIds": [
        "string_184",
        "string_185",
        "string_186"
      ]
    },
    {
      "id_qa": "FMSH_PB188a_13-14_220_qa6_v3",
      "id_block": "block_6",
      "question": "Qu'aimerait-il qu'on lui confie ?",
      "answer": "des tâches subalternes",
      "answer_stringIds": [
        "string_196",
        "string_197",
        "string_198"
      ]
    },
    {
      "id_qa": "FMSH_PB188a_13-14_220_qa25_v3",
      "id_block": "block_7",
      "question": "Qu'est-ce que le formateur a voulu créer ?",
      "answer": "les conditions de la participation",
      "answer_stringIds": [
        "string_224",
        "string_225",
        "string_226",
        "string_227",
        "string_228"
      ]
    }
  ]
}