{
  "num": "autog_0249-2563_1982_num_16_12",
  "article": "autog_0249-2563_1982_num_16_12_1536",
  "page_name": "autog_0249-2563_1982_num_16_12_T1_0121_0000",
  "questions": [
    "Quel montant du budget de l'école est affecté à cette formation en 1981 ?",
    "Quels sont les professeurs d'anglais qui ont effectué un stage au centre de linguistique appliqué de Besançon ?",
    "Quel diplôme ont poursuivi dix autres professeurs pendant deux ans ?",
    "Quels intervenants se déplacent à Dôle en fin de semaine ?",
    "Quels types de publications sont recueillies dans le classeur d'informations ?",
    "Quel est le but de la séquence de tutorat ?",
    "Quel est l'objectif de la séquence de vie de groupe ?",
    "Quel est l'objectif de la séquence de réunion d'unité ?",
    "Quel est le but de la séquence de conseil de classe ?",
    "Quel est le but de la séquence de soutien ?",
    "Quel est le but de la séquence de réunion diverse (parents) ?",
    "Quel est le but de la séquence de réunion dans la discipline enseignée ?",
    "Quel est le contenu de la rubrique « affaires générales » ?",
    "Quel est le contenu de la rubrique de la documentation ?",
    "Quel est le contenu de la rubrique des Sciences de l'Éducation ?",
    "Quel est le contenu de la voie personnalisée ?",
    "Quel est l'horaire hebdomadaire du professeur ?",
    "Combien de séquences de 45 minutes y sont-il par semaine ?",
    "Quel est l'objectif de la séquence de développement de l'autonomie ?",
    "Quel est l'objectif de la séquence de socialisation prise de parole initiative décision ?",
    "Quel est l'objectif de la séquence de réunion dans la discipline enseignée ?",
    "Quel est le but de la réunion diverse (parents) ?",
    "Quel est le but de la réunion dans la discipline enseignée ?",
    "Quels types de publications sont régulièrement publiées dans la documentation ?"
  ]
}