{
  "num": "autog_0249-2563_1982_num_16_12",
  "article": "autog_0249-2563_1982_num_16_12_1536",
  "page_name": "autog_0249-2563_1982_num_16_12_T1_0119_0000",
  "questions": [
    "Quel est le rôle de Alain Dumont dans l'unité D avant juin 1979 ?",
    "Quel est le statut proposé par Dumont pour les enseignants de l'unité D ?",
    "Quand les neuf profs sur dix adoptent ce nouveau statut ?",
    "Quel est l'état de l'ensemble du personnel enseignant face à ce nouveau statut ?",
    "Quel est l'état du Collège avant juin 1979 ?",
    "Quel est le rôle de Alain Dumont dans la catastrophe du Collège avant juin 1979 ?",
    "Quel est le rôle de Alain Dumont dans la réduction des effectifs du Collège avant juin 1979 ?",
    "Quel est le rôle de Alain Dumont dans la panique de la périphérie du Collège avant juin 1979 ?",
    "Quel est le rôle de Alain Dumont dans la perte de pied des profs de C avant juin 1979 ?",
    "Quel est le rôle de Alain Dumont dans la perte d'élèves et des parents avant juin 1979 ?",
    "Quel est le rôle de Alain Dumont dans la réélection de Dumont comme Directeur du Collège après juin 1979 ?",
    "Quel est le rôle de Alain Dumont dans la décision de structurer l'établissement en deux voies : voie G et voie F ?",
    "Quel est le nombre total d'élèves avant juin 1979 ?",
    "Quel est le nombre total d'élèves après juin 1979 ?",
    "Quel est le nombre de voix nécessaire pour prendre une décision au Conseil de direction ?",
    "Quel est le nombre de voix de blocage au Conseil de direction ?",
    "Quel est le rôle de Dumont dans la prise de décisions au Conseil de direction ?",
    "Quel est le nom du prêtre qui prend sa retraite avant juin 1979 ?",
    "Quel est le?"
  ]
}