{
  "num": "autog_0249-2563_1980_num_13_2",
  "article": "autog_0249-2563_1980_num_13_2_1849",
  "page_name": "autog_0249-2563_1980_num_13_2_T1_0232_0000",
  "questions": [
    {
      "id_qa": "autog_0249-2563_1980_num_13_2_T1_0232_0000_qa12_v3",
      "id_block": "block_1",
      "question": "Sur quoi a-t-on passé beaucoup de temps ?",
      "answer": "sur ce genre de détail futile",
      "answer_stringIds": [
        "string_43",
        "string_44",
        "string_45",
        "string_46",
        "string_47",
        "string_48"
      ]
    },
    {
      "id_qa": "autog_0249-2563_1980_num_13_2_T1_0232_0000_qa9_v3",
      "id_block": "block_2",
      "question": "Qu'est ce qui permet de ne pas s'occuper de poursuites ou de taule ?",
      "answer": "les lois sur la presse en vigueur",
      "answer_stringIds": [
        "string_111",
        "string_112",
        "string_113",
        "string_114",
        "string_115",
        "string_116",
        "string_117"
      ]
    },
    {
      "id_qa": "autog_0249-2563_1980_num_13_2_T1_0232_0000_qa11_v3",
      "id_block": "block_2",
      "question": "Qu'est ce qui permettait de ne pas s'occuper de poursuites ou de taule ?",
      "answer": "les lois sur la presse en vigueur",
      "answer_stringIds": [
        "string_111",
        "string_112",
        "string_113",
        "string_114",
        "string_115",
        "string_116",
        "string_117"
      ]
    },
    {
      "id_qa": "autog_0249-2563_1980_num_13_2_T1_0232_0000_qa25_v3",
      "id_block": "block_3",
      "question": "Qu'est ce qu'on nous envoyait bon ou mauvais ?",
      "answer": "le contenu des papiers",
      "answer_stringIds": [
        "string_137",
        "string_138",
        "string_139",
        "string_140"
      ]
    },
    {
      "id_qa": "autog_0249-2563_1980_num_13_2_T1_0232_0000_qa17_v3",
      "id_block": "block_4",
      "question": "Qui a une certaine expérience et une façon de prendre les choses en main ?",
      "answer": "Gabor",
      "answer_stringIds": [
        "string_164"
      ]
    },
    {
      "id_qa": "autog_0249-2563_1980_num_13_2_T1_0232_0000_qa18_v3",
      "id_block": "block_4",
      "question": "Qu'est-ce que Gabor avait une certaine expérience ?",
      "answer": "les choses en main",
      "answer_stringIds": [
        "string_174",
        "string_175",
        "string_176",
        "string_177"
      ]
    },
    {
      "id_qa": "autog_0249-2563_1980_num_13_2_T1_0232_0000_qa20_v3",
      "id_block": "block_4",
      "question": "Qui a écrit son journal ?",
      "answer": "des groupes politiques qui",
      "answer_stringIds": [
        "string_185",
        "string_186",
        "string_187",
        "string_188"
      ]
    },
    {
      "id_qa": "autog_0249-2563_1980_num_13_2_T1_0232_0000_qa29_v3",
      "id_block": "block_5",
      "question": "Qu'est-ce que Walter aime faire ?",
      "answer": "certaines choses",
      "answer_stringIds": [
        "string_205",
        "string_206"
      ]
    },
    {
      "id_qa": "autog_0249-2563_1980_num_13_2_T1_0232_0000_qa24_v3",
      "id_block": "block_6",
      "question": "Qu'est ce qui est mis en avant par Eniko ?",
      "answer": "les informations",
      "answer_stringIds": [
        "string_211",
        "string_212"
      ]
    },
    {
      "id_qa": "autog_0249-2563_1980_num_13_2_T1_0232_0000_qa2_v3",
      "id_block": "block_7",
      "question": "Qu'est ce qui a toujours provoqué un concert de protestations ?",
      "answer": "on commence par taper le truc et on discute ensuite",
      "answer_stringIds": [
        "string_261",
        "string_262",
        "string_263",
        "string_264",
        "string_265",
        "string_266",
        "string_267",
        "string_268",
        "string_269",
        "string_270"
      ]
    },
    {
      "id_qa": "autog_0249-2563_1980_num_13_2_T1_0232_0000_qa5_v3",
      "id_block": "block_7",
      "question": "Qu'a-t-il toujours provoqué ?",
      "answer": "un concert de protestations",
      "answer_stringIds": [
        "string_253",
        "string_254",
        "string_255",
        "string_256"
      ]
    },
    {
      "id_qa": "autog_0249-2563_1980_num_13_2_T1_0232_0000_qa7_v3",
      "id_block": "block_7",
      "question": "Qui faisait partie du collectif ?",
      "answer": "partie de ceux qui avaient aussi une activité journalistique professionnelle",
      "answer_stringIds": [
        "string_239",
        "string_240",
        "string_241",
        "string_242",
        "string_243",
        "string_244",
        "string_245",
        "string_246",
        "string_247",
        "string_248"
      ]
    },
    {
      "id_qa": "autog_0249-2563_1980_num_13_2_T1_0232_0000_qa31_v3",
      "id_block": "block_7",
      "question": "Comment Walter a-t-il influencé la pratique quotidienne ?",
      "answer": "sa façon de travailler",
      "answer_stringIds": [
        "string_221",
        "string_222",
        "string_223",
        "string_224"
      ]
    },
    {
      "id_qa": "autog_0249-2563_1980_num_13_2_T1_0232_0000_qa0_v3",
      "id_block": "block_8",
      "question": "Qu'est ce que j'ai lutté avec moi-même pour suivre ?",
      "answer": "un cours de dactylographie",
      "answer_stringIds": [
        "string_326",
        "string_327",
        "string_328",
        "string_329"
      ]
    },
    {
      "id_qa": "autog_0249-2563_1980_num_13_2_T1_0232_0000_qa1_v3",
      "id_block": "block_8",
      "question": "Qu'est ce que j'ai essayé de faire avec moi-même ?",
      "answer": "pour suivre un cours de dactylographie",
      "answer_stringIds": [
        "string_324",
        "string_325",
        "string_326",
        "string_327",
        "string_328",
        "string_329"
      ]
    },
    {
      "id_qa": "autog_0249-2563_1980_num_13_2_T1_0232_0000_qa21_v3",
      "id_block": "block_8",
      "question": "Qui a été les premières à être rémunérées ?",
      "answer": "Les femmes",
      "answer_stringIds": [
        "string_271",
        "string_272"
      ]
    },
    {
      "id_qa": "autog_0249-2563_1980_num_13_2_T1_0232_0000_qa22_v3",
      "id_block": "block_8",
      "question": "Qui devait taper directement sur sa machine ?",
      "answer": "chacun",
      "answer_stringIds": [
        "string_289"
      ]
    },
    {
      "id_qa": "autog_0249-2563_1980_num_13_2_T1_0232_0000_qa23_v3",
      "id_block": "block_8",
      "question": "Qui devait taper sur sa machine ?",
      "answer": "chacun",
      "answer_stringIds": [
        "string_289"
      ]
    },
    {
      "id_qa": "autog_0249-2563_1980_num_13_2_T1_0232_0000_qa26_v3",
      "id_block": "block_8",
      "question": "Où le formulaire d'inscription a-t-il été déposé ?",
      "answer": "dans un tiroir",
      "answer_stringIds": [
        "string_341",
        "string_342",
        "string_343"
      ]
    },
    {
      "id_qa": "autog_0249-2563_1980_num_13_2_T1_0232_0000_qa28_v3",
      "id_block": "block_8",
      "question": "Combien de temps a duré le formulaire d'inscription ?",
      "answer": "pendant six mois",
      "answer_stringIds": [
        "string_338",
        "string_339",
        "string_340"
      ]
    }
  ]
}