{
  "num": "autog_0338-7259_1972_num_18_1",
  "article": "autog_0338-7259_1972_num_18_1_1048",
  "page_name": "FMSH_PB188a_18-19_246",
  "questions": [
    "Quel rôle jouait Nestor Makhno dans le contexte révolutionnaire en Ukraine ?",
    "Comment les objectifs de Makhno différaient-ils de ceux du prolétariat des villes ?",
    "Dans quelles régions de l'Ukraine se produisait-il une révolution paysanne ?",
    "Comment l'esprit libre persistait-il dans certaines parties de l'Ukraine ?",
    "Comment les paysans révolutionnaires justifiaient-ils leur action contre les propriétaires terriens et les koulaks ?",
    "Quels moyens utilisait la coalition pour empêcher les paysans de s'emparer de leurs terres ?",
    "Quels biens confisaient les paysans aux propriétaires et aux koulaks avant de les saisir ?",
    "Quels biens saisissaient les paysans et quels établissements confisquaient-ils ?",
    "Quel rôle jouait la marche du général Kornilov sur Pétrograd dans la révolution paysanne en Ukraine ?",
    "Comment les paysans justifiaient-ils leur action de confisquer les terres des monastères et des terres d'Etat ?"
  ]
}