{
  "num": "autog_0338-7259_1972_num_18_1",
  "article": "autog_0338-7259_1972_num_18_1_1048",
  "page_name": "FMSH_PB188a_18-19_249",
  "questions": [
    "Quels groupes ont apparaît en Ukraine après l'événement de grande Octobre ?",
    "D'où venaient ces groupes ?",
    "Quels lieux attaquaient-ils ?",
    "Quelles troupes expulsaient-ils ?",
    "Comment la Rada centrale ukrainienne était affectée par le chauvinisme ?",
    "Comment les idées révolutionnaires des campagnes ukrainiennes s'intégraient-elles aux actions des travailleurs révolutionnaires de Pétrograd, Moscou et des autres grandes villes ?",
    "Quels sentiments exprimaient les auteurs envers les idées de la révolution d'Octobre ?",
    "Quel lien y avait entre le passé et le présent ?",
    "Quels sentiments exprimaient les auteurs envers ceux qui avaient pris le pouvoir en Russie après dix ans ?",
    "Quels groupes souffraient actuellement et comment les auteurs ressentissaient leurs souffrances ?",
    "En quoi les auteurs élevaient leur voix révolutionnaire ?",
    "Dans quel pays les auteurs élevaient leur voix ?"
  ]
}