{
  "num": "autog_0338-7259_1970_num_13_1",
  "article": "autog_0338-7259_1970_num_13_1_980",
  "page_name": "FMSH_PB188a_13-14_121",
  "questions": [
    {
      "id_qa": "FMSH_PB188a_13-14_121_qa14_v3",
      "id_block": "block_2",
      "question": "Sur quoi les travailleurs d'exécution pourraient-ils influer ?",
      "answer": "les décisions",
      "answer_stringIds": [
        "string_40",
        "string_41"
      ]
    },
    {
      "id_qa": "FMSH_PB188a_13-14_121_qa0_v3",
      "id_block": "block_3",
      "question": "Qui peut résoudre le problème ?",
      "answer": "des délégués ou des représentants élus du personnel",
      "answer_stringIds": [
        "string_91",
        "string_92",
        "string_93",
        "string_94",
        "string_95",
        "string_96",
        "string_97",
        "string_98"
      ]
    },
    {
      "id_qa": "FMSH_PB188a_13-14_121_qa1_v3",
      "id_block": "block_3",
      "question": "Qu'est ce que les délégués ou les représentants élus du personnel peuvent résoudre ?",
      "answer": "Île problème",
      "answer_stringIds": [
        "string_101",
        "string_102"
      ]
    },
    {
      "id_qa": "FMSH_PB188a_13-14_121_qa19_v3",
      "id_block": "block_3",
      "question": "Quel est le métier des cadres gestionnaires ?",
      "answer": "ces délégués",
      "answer_stringIds": [
        "string_160",
        "string_161"
      ]
    },
    {
      "id_qa": "FMSH_PB188a_13-14_121_qa22_v3",
      "id_block": "block_3",
      "question": "Qu'est-ce qui est une illusion ?",
      "answer": "tous participent avec une compétence égale à cette gestion",
      "answer_stringIds": [
        "string_50",
        "string_51",
        "string_52",
        "string_53",
        "string_54",
        "string_55",
        "string_56",
        "string_57",
        "string_58"
      ]
    },
    {
      "id_qa": "FMSH_PB188a_13-14_121_qa29_v3",
      "id_block": "block_3",
      "question": "Qu'est ce qui empêche les représentants de prendre des décisions sur le seul plan économique ?",
      "answer": "peuvent",
      "answer_stringIds": [
        "string_99"
      ]
    },
    {
      "id_qa": "FMSH_PB188a_13-14_121_qa6_v3",
      "id_block": "block_4",
      "question": "Qu'est ce qui commence en Allemagne ?",
      "answer": "les grèves sauvages",
      "answer_stringIds": [
        "string_292",
        "string_293",
        "string_294"
      ]
    },
    {
      "id_qa": "FMSH_PB188a_13-14_121_qa8_v3",
      "id_block": "block_4",
      "question": "Où les grèves sauvages ne font elles que commencer ?",
      "answer": "en Allemagne",
      "answer_stringIds": [
        "string_299",
        "string_300"
      ]
    },
    {
      "id_qa": "FMSH_PB188a_13-14_121_qa23_v3",
      "id_block": "block_4",
      "question": "Qu'est-ce que la « co-gestion qualifiée » allemande ?",
      "answer": "une large représentation",
      "answer_stringIds": [
        "string_222",
        "string_223",
        "string_224"
      ]
    }
  ]
}