{
  "num": "autog_0005-0970_1969_num_9_1",
  "article": "autog_0005-0970_1969_num_9_1_1812",
  "page_name": "FMSH_PB188a_09-10_154",
  "questions": [
    {
      "id_qa": "FMSH_PB188a_09-10_154_qa3_v3",
      "id_block": "block_4",
      "question": "Quelle était la conception de l'autogestion ?",
      "answer": "la conception centraliste autoritaire et bureaucratique",
      "answer_stringIds": [
        "string_147",
        "string_148",
        "string_149",
        "string_150",
        "string_151",
        "string_152"
      ]
    },
    {
      "id_qa": "FMSH_PB188a_09-10_154_qa5_v3",
      "id_block": "block_4",
      "question": "Quand a eu lieu la réalisation de l'autogestion ?",
      "answer": "pour un certain temps — entre 1945 et 1958",
      "answer_stringIds": [
        "string_156",
        "string_157",
        "string_158",
        "string_159",
        "string_160",
        "string_161",
        "string_162",
        "string_163",
        "string_164"
      ]
    }
  ]
}