{
  "num": "autog_0338-7259_1972_num_18_1",
  "article": "autog_0338-7259_1972_num_18_1_1036",
  "page_name": "FMSH_PB188a_18-19_128",
  "questions": [
    {
      "id_qa": "FMSH_PB188a_18-19_128_qa31_v3",
      "id_block": "block_1",
      "question": "Qui démonte la force révolutionnaire des collectivités ?",
      "answer": "la C.N.T.",
      "answer_stringIds": [
        "string_22",
        "string_23"
      ]
    },
    {
      "id_qa": "FMSH_PB188a_18-19_128_qa32_v3",
      "id_block": "block_1",
      "question": "Que provoque la force révolutionnaire des collectivités ?",
      "answer": "une contradiction",
      "answer_stringIds": [
        "string_7",
        "string_8"
      ]
    },
    {
      "id_qa": "FMSH_PB188a_18-19_128_qa0_v3",
      "id_block": "block_3",
      "question": "Qui a repris en main le processus de reprise en main ?",
      "answer": "par le gouvernement Largo Caballero",
      "answer_stringIds": [
        "string_100",
        "string_101",
        "string_102",
        "string_103",
        "string_104"
      ]
    },
    {
      "id_qa": "FMSH_PB188a_18-19_128_qa2_v3",
      "id_block": "block_3",
      "question": "A quoi s'ajoutait la collaboration gouvernementale de Largo Caballero ?",
      "answer": "à la collaboration gouvernementale de la centrale anarchosyndicaliste",
      "answer_stringIds": [
        "string_81",
        "string_82",
        "string_83",
        "string_84",
        "string_85",
        "string_86",
        "string_87",
        "string_88",
        "string_89"
      ]
    },
    {
      "id_qa": "FMSH_PB188a_18-19_128_qa4_v3",
      "id_block": "block_3",
      "question": "Qu'est ce qui donne l'avantage politique à l'U.G.T. ?",
      "answer": "La nécessité des échanges internationaux",
      "answer_stringIds": [
        "string_60",
        "string_61",
        "string_62",
        "string_63",
        "string_64"
      ]
    },
    {
      "id_qa": "FMSH_PB188a_18-19_128_qa10_v3",
      "id_block": "block_3",
      "question": "Qui a lancé la révolution anti-étatique en septembre 36 ?",
      "answer": "par la CNT",
      "answer_stringIds": [
        "string_130",
        "string_131",
        "string_132"
      ]
    },
    {
      "id_qa": "FMSH_PB188a_18-19_128_qa11_v3",
      "id_block": "block_3",
      "question": "Quand a eu lieu la révolution anti-étatique ?",
      "answer": "en septembre 36",
      "answer_stringIds": [
        "string_123",
        "string_124",
        "string_125"
      ]
    },
    {
      "id_qa": "FMSH_PB188a_18-19_128_qa12_v3",
      "id_block": "block_3",
      "question": "Quelle révolution a eu lieu en septembre 36 ?",
      "answer": "la révolution anti-étatique",
      "answer_stringIds": [
        "string_126",
        "string_127",
        "string_128"
      ]
    },
    {
      "id_qa": "FMSH_PB188a_18-19_128_qa24_v3",
      "id_block": "block_4",
      "question": "Qui vote le Décret de collectivisation des industries, des commerces et du contrôle des entreprises particulières ?",
      "answer": "le Conseil Economique de la Généralité",
      "answer_stringIds": [
        "string_159",
        "string_160",
        "string_161",
        "string_162",
        "string_163",
        "string_164"
      ]
    },
    {
      "id_qa": "FMSH_PB188a_18-19_128_qa20_v3",
      "id_block": "block_5",
      "question": "Qui a la mainmise sur l'industrie ?",
      "answer": "le gouvernement",
      "answer_stringIds": [
        "string_101",
        "string_102"
      ]
    },
    {
      "id_qa": "FMSH_PB188a_18-19_128_qa21_v3",
      "id_block": "block_5",
      "question": "Qui contrôle l'industrie ?",
      "answer": "le gouvernement",
      "answer_stringIds": [
        "string_101",
        "string_102"
      ]
    },
    {
      "id_qa": "FMSH_PB188a_18-19_128_qa22_v3",
      "id_block": "block_5",
      "question": "Quel était le ton des réalisations révolutionnaires ?",
      "answer": "un ton impératif",
      "answer_stringIds": [
        "string_227",
        "string_228",
        "string_229"
      ]
    },
    {
      "id_qa": "FMSH_PB188a_18-19_128_qa5_v3",
      "id_block": "block_6",
      "question": "Qu'est ce qui explique son influence grandissante auprès de la petite paysannerie ?",
      "answer": "Sur les atermoiements de la centrale syndicale socialiste qui",
      "answer_stringIds": [
        "string_235",
        "string_236",
        "string_237",
        "string_238",
        "string_239",
        "string_240",
        "string_241",
        "string_242",
        "string_243"
      ]
    },
    {
      "id_qa": "FMSH_PB188a_18-19_128_qa6_v3",
      "id_block": "block_6",
      "question": "Quelle est la traduction française de l'oeuvre de B. Bolloten ?",
      "answer": "Las izquierdas y la lucha por el poder",
      "answer_stringIds": [
        "string_261",
        "string_262",
        "string_263",
        "string_264",
        "string_265",
        "string_266",
        "string_267",
        "string_268"
      ]
    },
    {
      "id_qa": "FMSH_PB188a_18-19_128_qa7_v3",
      "id_block": "block_6",
      "question": "Qui a écrit Las izquierdas y la lucha por el poder ?",
      "answer": "B. Bolloten",
      "answer_stringIds": [
        "string_259",
        "string_260"
      ]
    },
    {
      "id_qa": "FMSH_PB188a_18-19_128_qa8_v3",
      "id_block": "block_6",
      "question": "Sur les atermoiements de la centrale syndicale socialiste ?",
      "answer": "son influence grandissante auprès de la petite paysannerie et de la bourgeoisie",
      "answer_stringIds": [
        "string_246",
        "string_247",
        "string_248",
        "string_249",
        "string_250",
        "string_251",
        "string_252",
        "string_253",
        "string_254",
        "string_255",
        "string_256",
        "string_257"
      ]
    },
    {
      "id_qa": "FMSH_PB188a_18-19_128_qa9_v3",
      "id_block": "block_6",
      "question": "Sur quoi repose l'influence grandissante de la petite paysannerie ?",
      "answer": "Sur les atermoiements de la centrale syndicale socialiste",
      "answer_stringIds": [
        "string_235",
        "string_236",
        "string_237",
        "string_238",
        "string_239",
        "string_240",
        "string_241",
        "string_242"
      ]
    },
    {
      "id_qa": "FMSH_PB188a_18-19_128_qa26_v3",
      "id_block": "block_7",
      "question": "Quand a eu lieu la guerre de Classes ?",
      "answer": "mai 1938",
      "answer_stringIds": [
        "string_284",
        "string_285"
      ]
    }
  ]
}