{
  "num": "autog_0338-7259_1970_num_13_1",
  "article": "autog_0338-7259_1970_num_13_1_984",
  "page_name": "FMSH_PB188a_13-14_174",
  "questions": [
    {
      "id_qa": "FMSH_PB188a_13-14_174_qa1_v3",
      "id_block": "block_1",
      "question": "Qu'est ce qui était considéré comme une sensibilisation aux techniques du psychodrame ?",
      "answer": "Ces séances",
      "answer_stringIds": [
        "string_17",
        "string_18"
      ]
    },
    {
      "id_qa": "FMSH_PB188a_13-14_174_qa3_v3",
      "id_block": "block_1",
      "question": "Sur quoi était basée la validation de ce non-enseignement traditionnel ?",
      "answer": "la présence obligatoire",
      "answer_stringIds": [
        "string_44",
        "string_45",
        "string_46"
      ]
    },
    {
      "id_qa": "FMSH_PB188a_13-14_174_qa4_v3",
      "id_block": "block_1",
      "question": "Quelle est la conséquence d'une négation au départ des problèmes institutionnels ?",
      "answer": "y revenir plus ou moins quant à son explication finale",
      "answer_stringIds": [
        "string_249",
        "string_250",
        "string_251",
        "string_252",
        "string_253",
        "string_254",
        "string_255",
        "string_256",
        "string_257",
        "string_258"
      ]
    },
    {
      "id_qa": "FMSH_PB188a_13-14_174_qa7_v3",
      "id_block": "block_1",
      "question": "Qui se referma sur son silence ?",
      "answer": "Le groupe",
      "answer_stringIds": [
        "string_47",
        "string_48"
      ]
    },
    {
      "id_qa": "FMSH_PB188a_13-14_174_qa9_v3",
      "id_block": "block_1",
      "question": "Sur quoi le groupe se referma-t-il ?",
      "answer": "son silence",
      "answer_stringIds": [
        "string_123",
        "string_124"
      ]
    },
    {
      "id_qa": "FMSH_PB188a_13-14_174_qa10_v3",
      "id_block": "block_1",
      "question": "Qu'est ce qui a été exprimé par le groupe ?",
      "answer": "le fait que les dés étaient pipés",
      "answer_stringIds": [
        "string_277",
        "string_278",
        "string_279",
        "string_280",
        "string_281",
        "string_282",
        "string_283"
      ]
    },
    {
      "id_qa": "FMSH_PB188a_13-14_174_qa11_v3",
      "id_block": "block_1",
      "question": "Qu'est-ce qui était joué par le groupe ?",
      "answer": "les dés",
      "answer_stringIds": [
        "string_280",
        "string_281"
      ]
    },
    {
      "id_qa": "FMSH_PB188a_13-14_174_qa12_v3",
      "id_block": "block_1",
      "question": "Qui a exprimé le fait que les dés étaient pipés ?",
      "answer": "le groupe",
      "answer_stringIds": [
        "string_164",
        "string_165"
      ]
    },
    {
      "id_qa": "FMSH_PB188a_13-14_174_qa13_v3",
      "id_block": "block_1",
      "question": "Pourquoi le groupe a-t-il choisi cette option ?",
      "answer": "inconsciemment",
      "answer_stringIds": [
        "string_276"
      ]
    },
    {
      "id_qa": "FMSH_PB188a_13-14_174_qa15_v3",
      "id_block": "block_1",
      "question": "Qui était à l'origine de cette hostilité envers l'enseignante ?",
      "answer": "le groupe",
      "answer_stringIds": [
        "string_164",
        "string_165"
      ]
    },
    {
      "id_qa": "FMSH_PB188a_13-14_174_qa16_v3",
      "id_block": "block_1",
      "question": "Qu'est ce que l'enseignante a ressenti à la fin de l'année ?",
      "answer": "le groupe manifestait sans doute une hostilité à son égard",
      "answer_stringIds": [
        "string_164",
        "string_165",
        "string_166",
        "string_167",
        "string_168",
        "string_169",
        "string_170",
        "string_171",
        "string_172",
        "string_173",
        "string_174"
      ]
    },
    {
      "id_qa": "FMSH_PB188a_13-14_174_qa17_v3",
      "id_block": "block_1",
      "question": "Qu'est ce que le groupe manifestait à la fin de l'année ?",
      "answer": "une hostilité à son égard",
      "answer_stringIds": [
        "string_170",
        "string_171",
        "string_172",
        "string_173",
        "string_174"
      ]
    },
    {
      "id_qa": "FMSH_PB188a_13-14_174_qa22_v3",
      "id_block": "block_1",
      "question": "Qu'est ce qui pose un certain nombre de problèmes au groupe ?",
      "answer": "questions institutionnelles",
      "answer_stringIds": [
        "string_57",
        "string_58",
        "string_59"
      ]
    },
    {
      "id_qa": "FMSH_PB188a_13-14_174_qa23_v3",
      "id_block": "block_1",
      "question": "Qui se terre dans le silence ?",
      "answer": "Le groupe",
      "answer_stringIds": [
        "string_47",
        "string_48"
      ]
    },
    {
      "id_qa": "FMSH_PB188a_13-14_174_qa29_v3",
      "id_block": "block_1",
      "question": "Quelle est la particularité de son comportement ?",
      "answer": "la même conduite",
      "answer_stringIds": [
        "string_76",
        "string_77",
        "string_78"
      ]
    },
    {
      "id_qa": "FMSH_PB188a_13-14_174_qa31_v3",
      "id_block": "block_1",
      "question": "Par quoi fut-il surdéterminé ?",
      "answer": "par la réalité universitaire",
      "answer_stringIds": [
        "string_289",
        "string_290",
        "string_291",
        "string_292"
      ]
    }
  ]
}