{
  "num": "autog_0249-2563_1980_num_13_1",
  "article": "autog_0249-2563_1980_num_13_1_1344",
  "page_name": "autog_0249-2563_1980_num_13_1_T1_0064_0000",
  "questions": [
    {
      "id_qa": "autog_0249-2563_1980_num_13_1_T1_0064_0000_qa16_v3",
      "id_block": "block_0",
      "question": "Qui est à l'origine de la thèse de l'impossible satisfaction du désir ?",
      "answer": "autogestionnaires",
      "answer_stringIds": [
        "string_8"
      ]
    },
    {
      "id_qa": "autog_0249-2563_1980_num_13_1_T1_0064_0000_qa17_v3",
      "id_block": "block_0",
      "question": "Qu'est ce qui permet aux autogestionnaires d'appréhender ?",
      "answer": "le rapport",
      "answer_stringIds": [
        "string_10",
        "string_11"
      ]
    },
    {
      "id_qa": "autog_0249-2563_1980_num_13_1_T1_0064_0000_qa18_v3",
      "id_block": "block_0",
      "question": "Qui est à l'origine de cette méconnaissance du travail de l'inconscient ?",
      "answer": "autogestionnaires",
      "answer_stringIds": [
        "string_8"
      ]
    },
    {
      "id_qa": "autog_0249-2563_1980_num_13_1_T1_0064_0000_qa0_v3",
      "id_block": "block_1",
      "question": "Qu'est ce qui évacue la question de la gestion de cet auto?",
      "answer": "Les propositions autogestionnaires",
      "answer_stringIds": [
        "string_100",
        "string_101",
        "string_102"
      ]
    },
    {
      "id_qa": "autog_0249-2563_1980_num_13_1_T1_0064_0000_qa11_v3",
      "id_block": "block_1",
      "question": "Qu'est-ce que l'autogestion ?",
      "answer": "Cette bureaucratie",
      "answer_stringIds": [
        "string_183",
        "string_184"
      ]
    },
    {
      "id_qa": "autog_0249-2563_1980_num_13_1_T1_0064_0000_qa12_v3",
      "id_block": "block_1",
      "question": "Qu'est ce qui incorpore l'aptitude paradoxale des énonciations autogestionnaires ?",
      "answer": "Cette bureaucratie",
      "answer_stringIds": [
        "string_183",
        "string_184"
      ]
    },
    {
      "id_qa": "autog_0249-2563_1980_num_13_1_T1_0064_0000_qa24_v3",
      "id_block": "block_1",
      "question": "Par qui sont happées les positions libidinales ?",
      "answer": "par la propagande de la bureaucratie montante",
      "answer_stringIds": [
        "string_176",
        "string_177",
        "string_178",
        "string_179",
        "string_180",
        "string_181",
        "string_182"
      ]
    },
    {
      "id_qa": "autog_0249-2563_1980_num_13_1_T1_0064_0000_qa5_v3",
      "id_block": "block_2",
      "question": "Qu'est-ce que la classe des professionnels de la division technique et sociale ?",
      "answer": "des revendications autogestionnaires",
      "answer_stringIds": [
        "string_245",
        "string_246",
        "string_247"
      ]
    },
    {
      "id_qa": "autog_0249-2563_1980_num_13_1_T1_0064_0000_qa6_v3",
      "id_block": "block_2",
      "question": "Que commande la division intrapsychique radicalement niée ?",
      "answer": "la croyance",
      "answer_stringIds": [
        "string_259",
        "string_260"
      ]
    },
    {
      "id_qa": "autog_0249-2563_1980_num_13_1_T1_0064_0000_qa7_v3",
      "id_block": "block_2",
      "question": "Quelle classe n'a pas grand chose à craindre des revendications autogestionnaires ?",
      "answer": "La classe des professionnels de la division technique et sociale",
      "answer_stringIds": [
        "string_229",
        "string_230",
        "string_231",
        "string_232",
        "string_233",
        "string_234",
        "string_235",
        "string_236",
        "string_237",
        "string_238"
      ]
    },
    {
      "id_qa": "autog_0249-2563_1980_num_13_1_T1_0064_0000_qa21_v3",
      "id_block": "block_2",
      "question": "Qu'est ce qui revendique l'autogestion ?",
      "answer": "la bureaucratie",
      "answer_stringIds": [
        "string_180",
        "string_181"
      ]
    }
  ]
}