{
  "num": "autog_0005-0970_1968_num_5_1",
  "article": "autog_0005-0970_1968_num_5_1_923",
  "page_name": "FMSH_PB188a_05-06_102",
  "questions": [
    "Quel philosophique présuppose l'autogestion ?",
    "En quoi la philosophie ne peut-elle être considérée comme un corpus de connaissances cumulatives ?",
    "Quel sens donnent les hommes à leur destin selon la philosophie ?",
    "Quels systèmes métaphysiques sont-ils intéressés par la conceptualisation de l'histoire de la philosophie ?",
    "Quels sont les exceptions à la convergence observée entre philosophies, religions et ethnologie sur l'idée que toute l'humanité est en chaque homme ?",
    "Qu'est le sentiment de la mutation entre ?",
    "Dans quelle œuvre de Sartre on trouve la formulation « Tout un homme, fait de tous les hommes et qui les vaut tous et que vaut n'importe qui » ?",
    "Qu'est l'autogestion selon le texte ?",
    "Qu'est l'hétérogestion selon le texte ?",
    "Qu'est le « culte de la personnalité » selon le texte ?",
    "Comment les puissants réagissent-ils à ce qu'on rappelle leur prestige par l'imagination ?",
    "Qu'est l'objet de la recherche décrite dans le texte ?",
    "Quel est l'ambition de la recherche décrite dans le texte ?",
    "Quels sont les deux premiers points traités dans la livraison actuelle de la revue ?",
    "Quels seront les deux points traités dans le prochain numéro ?"
  ]
}