{
  "num": "autog_0005-0970_1968_num_5_1",
  "article": "autog_0005-0970_1968_num_5_1_923",
  "page_name": "FMSH_PB188a_05-06_104",
  "questions": [
    "Quel est le rôle de la liberté infinie selon Sartre dans l'humanité ?",
    "Qu'affirme Descartes sur la puissance de bien juger et de distinguer le vrai du faux ?",
    "Comment Sartre voit-il la relation entre l'esprit et la science, l'esprit et la démocratie ?",
    "Qu'implique la formule de Rousseau pour trouver une forme d'association qui défende et protège les personnes et biens de chaque associé ?",
    "Quels sont les difficultés historiques de la réalisation de cet idéal selon l'auteur ?",
    "Comment les intellectuels actuels perçoivent-ils les thèses de Descartes et de Rousseau sur la philosophie spéculative et la pratique politique ?",
    "Quels sont les anciennes conceptions hiérarchiques que les intellectuels actuels conservent dans leur organisation sociale ?",
    "Comment les intellectuels actuels justifient-ils leur incohérence entre leurs principes philosophiques et leurs attitudes pratiques ?",
    "Comment les intellectuels actuels voient-ils avoir surmonté la contradiction entre leurs principes philosophiques et leurs attitudes pratiques ?"
  ]
}