{
  "num": "autog_0338-7259_1975_num_30_1",
  "article": "autog_0338-7259_1975_num_30_1_1136_t1_0183_0000_1",
  "page_name": "FMSH_PB188a_30-31_190",
  "questions": [
    "Quel est le titre original de l'ouvrage de Pannekoek sur les conseils ouvriers ?",
    "Quel est la position de Pannekoek sur le communisme selon le texte ?",
    "Qu'est-ce que Pannekoek pense de la révolution russe et de son gouvernement actuel ?",
    "Quels sont les responsabilités des dirigeants du communisme d'État russe selon Pannekoek ?",
    "Comment Pannekoek juge la pratique et la théorie du Parti communiste en Allemagne ?",
    "Quel est le résultat de l'analyse de Pannekoek sur le Parti communiste ?",
    "Quel est le lien entre la théorie et la pratique du Parti communiste selon Pannekoek ?",
    "Quel est le rôle des jeunes dans la lutte de classe selon Pannekoek ?",
    "Quel est le lien entre la théorie de Pannekoek sur les conseils ouvriers et le communisme ?",
    "Quel est le point de vue de Pannekoek sur la discipline et la pensée critique indépendante ?",
    "Quel est l'impact du Parti communiste sur le développement de la force réelle de la classe ouvrière selon Pannekoek ?",
    "Quel est l'impact du Parti communiste sur le développement du fascisme selon Pannekoek ?",
    "Quel est l'évolution de l'analyse de Pannekoek sur le Parti communiste entre ses ouvrages antérieurs et le texte actuel ?"
  ]
}