{
  "num": "autog_0338-7259_1978_num_41_1",
  "article": "autog_0338-7259_1978_num_41_1_1318",
  "page_name": "FMSH_PB188a_41-42_126",
  "questions": [
    {
      "id_qa": "FMSH_PB188a_41-42_126_qa10_v3",
      "id_block": "block_1",
      "question": "Quel mouvement est divided ?",
      "answer": "the Canadian labour movement",
      "answer_stringIds": [
        "string_X"
      ]
    },
    {
      "id_qa": "FMSH_PB188a_41-42_126_qa20_v3",
      "id_block": "block_1",
      "question": "Qu'est-ce que le \"14-point programme to improve the working environment\"?",
      "answer": "Strengthening the power of organized labour and centralization of power within the trade union movement",
      "answer_stringIds": [
        "string_X"
      ]
    },
    {
      "id_qa": "FMSH_PB188a_41-42_126_qa21_v3",
      "id_block": "block_1",
      "question": "Qui a écrit le \"14-point programme to improve the working environment\"?",
      "answer": "by John Munro",
      "answer_stringIds": [
        "string_X"
      ]
    },
    {
      "id_qa": "FMSH_PB188a_41-42_126_qa11_v3",
      "id_block": "block_2",
      "question": "Qui forge une predictable and reliable work force ?",
      "answer": "Liberals on the whole",
      "answer_stringIds": [
        "string_X"
      ]
    },
    {
      "id_qa": "FMSH_PB188a_41-42_126_qa12_v3",
      "id_block": "block_2",
      "question": "Qu'est ce qui forge les Liberals on the whole ?",
      "answer": "a predictable and reliable work force",
      "answer_stringIds": [
        "string_X"
      ]
    },
    {
      "id_qa": "FMSH_PB188a_41-42_126_qa15_v3",
      "id_block": "block_3",
      "question": "Qu'est-ce qu'un elitist professionalist ?",
      "answer": "as a general barrier to the development of self-:management",
      "answer_stringIds": [
        "string_X"
      ]
    },
    {
      "id_qa": "FMSH_PB188a_41-42_126_qa25_v3",
      "id_block": "block_3",
      "question": "Qui se charge de la managerial technostructure ?",
      "answer": "by liberals",
      "answer_stringIds": [
        "string_X"
      ]
    },
    {
      "id_qa": "FMSH_PB188a_41-42_126_qa5_v3",
      "id_block": "block_4",
      "question": "Qu'est ce qui a été replaced in many instances ?",
      "answer": "certain aspects of the minute fragmentation of jobs",
      "answer_stringIds": [
        "string_X"
      ]
    },
    {
      "id_qa": "FMSH_PB188a_41-42_126_qa6_v3",
      "id_block": "block_4",
      "question": "Dans quel type d'instance l'introduction de these innovations a-t-elle replaced certain aspects of the minute fragmentation of jobs ?",
      "answer": "in many instances",
      "answer_stringIds": [
        "string_X"
      ]
    },
    {
      "id_qa": "FMSH_PB188a_41-42_126_qa19_v3",
      "id_block": "block_4",
      "question": "Qu'est ce qui est reinforced par interventions at the point of production ?",
      "answer": "These political and cultural manifestations of capitalist rule",
      "answer_stringIds": [
        "string_X"
      ]
    },
    {
      "id_qa": "FMSH_PB188a_41-42_126_qa7_v3",
      "id_block": "block_6",
      "question": "Qu'est-ce que Each work team ?",
      "answer": "its own changing and rest rooms",
      "answer_stringIds": [
        "string_X"
      ]
    },
    {
      "id_qa": "FMSH_PB188a_41-42_126_qa8_v3",
      "id_block": "block_6",
      "question": "Qui a son own changing and rest rooms ?",
      "answer": "Each work team",
      "answer_stringIds": [
        "string_X"
      ]
    }
  ]
}