{
  "num": "autog_0338-7259_1977_num_37_1",
  "article": "autog_0338-7259_1977_num_37_1_1236",
  "page_name": "FMSH_PB188a_37-38_137",
  "questions": [
    "Quelles conditions de vie poussèrent la population ouvrière à se rebeller en 1905 ?",
    "Comment naquirent les conseils ou soviets ?",
    "Quels groupes sociaux participèrent à la révolution de 1905 ?",
    "En quelle mesure les organisations politiques et syndicats influencèrent la révolution de 1905 ?",
    "Quel rôle joua la bourgeoisie libérale dans la révolution de 1905 ?",
    "Combien de travailleurs participèrent aux grèves de 1905 ?",
    "Dans quels secteurs industriels eurent lieu les grèves de 1905 ?",
    "Comment la révolution de 1905 peut-elle être qualifiée ?",
    "Quels événements suivirent les grèves de 1905 ?",
    "En quelle mesure les grèves de 1905 contribuèrent au développement des organisations socialistes et syndicales ?"
  ]
}