{
  "num": "autog_0338-7259_1977_num_37_1",
  "article": "autog_0338-7259_1977_num_37_1_1236",
  "page_name": "FMSH_PB188a_37-38_155",
  "questions": [
    "Quels décrets importants a-t-elle votés la Commune ?",
    "Quel était le rôle des fonctionnaires dans la Commune ?",
    "Quels biens ont été expropriés de l'Église ?",
    "Quels travaux ont été interdits dans les boulangeries ?",
    "Quels types de propriétés ont été nationalisées ?",
    "Quels groupes étaient majoritaires au conseil exécutif de la Commune ?",
    "Quels groupes se divisent-ils en ?",
    "Quels intérêts se réfléchtaient-ils dans la Commune ?",
    "Quel était le point de vue de Marx sur la Commune ?",
    "Qu'est-ce que Marx entend par « gouvernement de la classe ouvrière » ?",
    "Qu'est-ce que Marx entend par « émancipation économique du travail » ?",
    "Qu'est-ce que Marx entend par « domination politique du producteur » ?",
    "Pourquoi Marx pensait-il que la Commune devait servir de levier pour extirper les bases économiques des classes ?"
  ]
}