{
  "num": "autog_0338-7259_1977_num_37_1",
  "article": "autog_0338-7259_1977_num_37_1_1236",
  "page_name": "FMSH_PB188a_37-38_158",
  "questions": [
    "Quel rôle considérable a-t-il laissé de côté pendant son analyse de la Commune de Paris ?",
    "Quels groupes politiques se sont opposés aux idées marxistes durant la Commune ?",
    "Comment Marx voyait-il l'autonomie de la Commune comme un outil pour briser l'État bourgeois ?",
    "Quel modèle devait la Commune de Paris servir pour les grandes villes industrielles de la France ?",
    "Quel régime devait remplacer le gouvernement centralisé dans les provinces selon Marx ?",
    "Comment devaient être administrées les affaires communes des communes rurales selon Marx ?",
    "Quels fonctionnaires communaux devaient assurer les fonctions restantes du gouvernement central ?",
    "Comment devait l'unité de la nation être organisée selon Marx ?"
  ]
}