{
  "num": "autog_0338-7259_1975_num_30_1",
  "article": "autog_0338-7259_1975_num_30_1_1123",
  "page_name": "FMSH_PB188a_30-31_071",
  "questions": [
    {
      "id_qa": "FMSH_PB188a_30-31_071_qa5_v3",
      "id_block": "block_3",
      "question": "Comment se sentirait le personnel dans une société ?",
      "answer": "concerné et responsable",
      "answer_stringIds": [
        "string_97",
        "string_98",
        "string_99"
      ]
    },
    {
      "id_qa": "FMSH_PB188a_30-31_071_qa14_v3",
      "id_block": "block_3",
      "question": "Qu'est-ce que l'autorité capable de donner ?",
      "answer": "un ordre",
      "answer_stringIds": [
        "string_40",
        "string_41"
      ]
    },
    {
      "id_qa": "FMSH_PB188a_30-31_071_qa8_v3",
      "id_block": "block_4",
      "question": "Quel est l'objectif de l'autogestion ?",
      "answer": "public",
      "answer_stringIds": [
        "string_222"
      ]
    },
    {
      "id_qa": "FMSH_PB188a_30-31_071_qa11_v3",
      "id_block": "block_4",
      "question": "Qui se méfie des expériences même timidement communautaires ?",
      "answer": "les économies capitalistes",
      "answer_stringIds": [
        "string_186",
        "string_187",
        "string_188"
      ]
    },
    {
      "id_qa": "FMSH_PB188a_30-31_071_qa0_v3",
      "id_block": "block_5",
      "question": "Pour arriver à la diffusion acceptée de l'ordre ?",
      "answer": "le ressentir",
      "answer_stringIds": [
        "string_238",
        "string_239"
      ]
    }
  ]
}