{
  "num": "autog_0005-0970_1969_num_8_1",
  "article": "autog_0005-0970_1969_num_8_1_946",
  "page_name": "FMSH_PB188a_00008_071",
  "questions": [
    {
      "id_qa": "FMSH_PB188a_00008_071_qa6_v3",
      "id_block": "block_1",
      "question": "Qu'est-ce que l'autogestion ?",
      "answer": "de nouvelles formes de pouvoir sur les gestionnaires",
      "answer_stringIds": [
        "string_67",
        "string_68",
        "string_69",
        "string_70",
        "string_71",
        "string_72",
        "string_73",
        "string_74",
        "string_75"
      ]
    },
    {
      "id_qa": "FMSH_PB188a_00008_071_qa13_v3",
      "id_block": "block_1",
      "question": "De qui émancipe-t-on l'économie et politique ?",
      "answer": "groupes sociaux",
      "answer_stringIds": [
        "string_10",
        "string_11"
      ]
    },
    {
      "id_qa": "FMSH_PB188a_00008_071_qa1_v3",
      "id_block": "block_2",
      "question": "Dans quel but l'autogestion doit-elle se réaliser ?",
      "answer": "dans le gouvernement de la vie de la communauté sociale tout entière",
      "answer_stringIds": [
        "string_140",
        "string_141",
        "string_142",
        "string_143",
        "string_144",
        "string_145",
        "string_146",
        "string_147",
        "string_148",
        "string_149",
        "string_150",
        "string_151"
      ]
    },
    {
      "id_qa": "FMSH_PB188a_00008_071_qa3_v3",
      "id_block": "block_2",
      "question": "Quel est le but de l'autogestion ?",
      "answer": "de se manifester le plus directement, de se réaliser dans le gouvernement de la vie de la communauté sociale tout entière",
      "answer_stringIds": [
        "string_336"
      ]
    },
    {
      "id_qa": "FMSH_PB188a_00008_071_qa10_v3",
      "id_block": "block_3",
      "question": "Qui a ses intérêts à lui ?",
      "answer": "les consommateurs",
      "answer_stringIds": [
        "string_268",
        "string_269"
      ]
    },
    {
      "id_qa": "FMSH_PB188a_00008_071_qa14_v3",
      "id_block": "block_3",
      "question": "Qu'est-ce que lautogestion ?",
      "answer": "lautogestion serait un système de représentation des intérêts professionnels et de groupes",
      "answer_stringIds": [
        "string_158",
        "string_159",
        "string_160",
        "string_161",
        "string_162",
        "string_163",
        "string_164",
        "string_165",
        "string_166",
        "string_167",
        "string_168",
        "string_169"
      ]
    }
  ]
}