{
  "num": "autog_0005-0970_1969_num_8_1",
  "article": "autog_0005-0970_1969_num_8_1_946",
  "page_name": "FMSH_PB188a_00008_059",
  "questions": [
    {
      "id_qa": "FMSH_PB188a_00008_059_qa2_v3",
      "id_block": "block_1",
      "question": "Qu'est ce que l'autogestion ne remplira pas ?",
      "answer": "sa tâche",
      "answer_stringIds": [
        "string_163",
        "string_164"
      ]
    },
    {
      "id_qa": "FMSH_PB188a_00008_059_qa5_v3",
      "id_block": "block_1",
      "question": "Qu'est ce que les assemblées doivent faire pour disposer du revenu social ?",
      "answer": "une planification qui équivaudrait",
      "answer_stringIds": [
        "string_216",
        "string_217",
        "string_218",
        "string_219"
      ]
    },
    {
      "id_qa": "FMSH_PB188a_00008_059_qa13_v3",
      "id_block": "block_1",
      "question": "A quoi correspond l'appropriation du droit de statuer sur le sort du produit social ?",
      "answer": "une planification",
      "answer_stringIds": [
        "string_216",
        "string_217"
      ]
    },
    {
      "id_qa": "FMSH_PB188a_00008_059_qa18_v3",
      "id_block": "block_1",
      "question": "Quelle est l'unité de la société ?",
      "answer": "fonctionnelle",
      "answer_stringIds": [
        "string_91"
      ]
    },
    {
      "id_qa": "FMSH_PB188a_00008_059_qa4_v3",
      "id_block": "block_2",
      "question": "Qu'est ce qui se dissimule derrière l'autogestion verticale ?",
      "answer": "le centralisme",
      "answer_stringIds": [
        "string_273",
        "string_274"
      ]
    },
    {
      "id_qa": "FMSH_PB188a_00008_059_qa17_v3",
      "id_block": "block_2",
      "question": "Qu'est ce qui revient à l'appareil d'Etat ?",
      "answer": "les fonctions",
      "answer_stringIds": [
        "string_324",
        "string_325"
      ]
    }
  ]
}