{
  "num": "autog_0005-0970_1969_num_8_1",
  "article": "autog_0005-0970_1969_num_8_1_946",
  "page_name": "FMSH_PB188a_00008_060",
  "questions": [
    {
      "id_qa": "FMSH_PB188a_00008_060_qa7_v3",
      "id_block": "block_1",
      "question": "Qu'est-ce que le travail social ?",
      "answer": "de la majeurepartie du produit du surtravail social",
      "answer_stringIds": [
        "string_17",
        "string_18",
        "string_19",
        "string_20",
        "string_21",
        "string_22",
        "string_23",
        "string_24"
      ]
    },
    {
      "id_qa": "FMSH_PB188a_00008_060_qa8_v3",
      "id_block": "block_1",
      "question": "Quelle est la fonction du surtravail social ?",
      "answer": "la fonction de disposer librement — au nom des producteurs — de la majeurepartie du produit du surtravail social",
      "answer_stringIds": [
        "string_5",
        "string_6",
        "string_7",
        "string_8",
        "string_9",
        "string_10",
        "string_11",
        "string_12",
        "string_13",
        "string_14",
        "string_15",
        "string_16",
        "string_17",
        "string_18",
        "string_19",
        "string_20",
        "string_21",
        "string_22",
        "string_23",
        "string_24"
      ]
    },
    {
      "id_qa": "FMSH_PB188a_00008_060_qa9_v3",
      "id_block": "block_1",
      "question": "Qu'est ce qui doit conduire à l'utilisation du surtravail social ?",
      "answer": "sa bureaucratisation",
      "answer_stringIds": [
        "string_31",
        "string_32"
      ]
    },
    {
      "id_qa": "FMSH_PB188a_00008_060_qa11_v3",
      "id_block": "block_1",
      "question": "Qu'est-ce que la démocratie directe ?",
      "answer": "une des formules",
      "answer_stringIds": [
        "string_78",
        "string_79",
        "string_80",
        "string_81"
      ]
    },
    {
      "id_qa": "FMSH_PB188a_00008_060_qa0_v3",
      "id_block": "block_2",
      "question": "Qu'est-ce que l'assemblée des organisations socio-politiques ?",
      "answer": "organes des travailleurs",
      "answer_stringIds": [
        "string_179",
        "string_180",
        "string_181"
      ]
    },
    {
      "id_qa": "FMSH_PB188a_00008_060_qa2_v3",
      "id_block": "block_2",
      "question": "Qui joue un rôle important dans l'intégration de la société ?",
      "answer": "les assemblée des organisations socio-politiques",
      "answer_stringIds": [
        "string_156",
        "string_157",
        "string_158",
        "string_159",
        "string_160"
      ]
    }
  ]
}