{
  "num": "autog_0005-0970_1969_num_8_1",
  "article": "autog_0005-0970_1969_num_8_1_946",
  "page_name": "FMSH_PB188a_00008_058",
  "questions": [
    {
      "id_qa": "FMSH_PB188a_00008_058_qa16_v3",
      "id_block": "block_2",
      "question": "Qu'est ce qui est à la base de toute organisation démocratique directe ?",
      "answer": "des rapports de production nouveaux",
      "answer_stringIds": [
        "string_127",
        "string_128",
        "string_129",
        "string_130",
        "string_131"
      ]
    },
    {
      "id_qa": "FMSH_PB188a_00008_058_qa23_v3",
      "id_block": "block_2",
      "question": "Que devient la démocratie directe ?",
      "answer": "réalité",
      "answer_stringIds": [
        "string_138"
      ]
    },
    {
      "id_qa": "FMSH_PB188a_00008_058_qa0_v3",
      "id_block": "block_3",
      "question": "Qu'est-ce que l'action des lois économiques ?",
      "answer": "la fonction de règlementation",
      "answer_stringIds": [
        "string_303",
        "string_304",
        "string_305",
        "string_306"
      ]
    },
    {
      "id_qa": "FMSH_PB188a_00008_058_qa2_v3",
      "id_block": "block_3",
      "question": "Qu'est ce qui ne pourra pas résoudre par des condamnations morales ?",
      "answer": "les contradictions objectives du développement socialiste",
      "answer_stringIds": [
        "string_370",
        "string_371",
        "string_372",
        "string_373",
        "string_374",
        "string_375"
      ]
    },
    {
      "id_qa": "FMSH_PB188a_00008_058_qa3_v3",
      "id_block": "block_3",
      "question": "Qu'est-ce que l'on ne pourra résoudre par des condamnations morales ?",
      "answer": "résoudre les contradictions",
      "answer_stringIds": [
        "string_368",
        "string_369",
        "string_370",
        "string_371"
      ]
    },
    {
      "id_qa": "FMSH_PB188a_00008_058_qa9_v3",
      "id_block": "block_3",
      "question": "Dans quelle situation la production marchande apparaît-elle ?",
      "answer": "dans une conjonction contradictoire",
      "answer_stringIds": [
        "string_203",
        "string_204",
        "string_205",
        "string_206"
      ]
    },
    {
      "id_qa": "FMSH_PB188a_00008_058_qa10_v3",
      "id_block": "block_3",
      "question": "Qu'est-ce qui est devenu imprescriptible de ce fait-là ?",
      "answer": "la production marchande",
      "answer_stringIds": [
        "string_198",
        "string_199",
        "string_200"
      ]
    },
    {
      "id_qa": "FMSH_PB188a_00008_058_qa11_v3",
      "id_block": "block_3",
      "question": "Qu'est ce qui n'est pas devenu imprescriptible de ce fait-là ?",
      "answer": "la production marchande",
      "answer_stringIds": [
        "string_198",
        "string_199",
        "string_200"
      ]
    },
    {
      "id_qa": "FMSH_PB188a_00008_058_qa12_v3",
      "id_block": "block_3",
      "question": "Qu'a reçu la production marchande ?",
      "answer": "une auréole socialiste",
      "answer_stringIds": [
        "string_224",
        "string_225",
        "string_226"
      ]
    }
  ]
}