{
  "num": "autog_0005-0970_1969_num_8_1",
  "article": "autog_0005-0970_1969_num_8_1_946",
  "page_name": "FMSH_PB188a_00008_075",
  "questions": [
    {
      "id_qa": "FMSH_PB188a_00008_075_qa5_v3",
      "id_block": "block_1",
      "question": "A qui profite toute critique de l'autogestion ?",
      "answer": "la bureaucratie",
      "answer_stringIds": [
        "string_183",
        "string_184"
      ]
    },
    {
      "id_qa": "FMSH_PB188a_00008_075_qa7_v3",
      "id_block": "block_1",
      "question": "Par quoi sont inspirées les solutions qui étaient inspirées surtout par le souci de briser la résistance des travailleurs ?",
      "answer": "la résistance des forces bureaucratiques",
      "answer_stringIds": [
        "string_55",
        "string_56",
        "string_57",
        "string_58",
        "string_59"
      ]
    }
  ]
}