{
  "num": "autog_0338-7259_1972_num_18_1",
  "article": "autog_0338-7259_1972_num_18_1_1043",
  "page_name": "FMSH_PB188a_18-19_213",
  "questions": [
    {
      "id_qa": "FMSH_PB188a_18-19_213_qa4_v3",
      "id_block": "block_1",
      "question": "Qu'est-ce que la classe ouvrière n'était pas en état de résoudre ?",
      "answer": "toutes les questions de la production",
      "answer_stringIds": [
        "string_34",
        "string_35",
        "string_36",
        "string_37",
        "string_38",
        "string_39",
        "string_40"
      ]
    },
    {
      "id_qa": "FMSH_PB188a_18-19_213_qa5_v3",
      "id_block": "block_1",
      "question": "Qui n'était pas en état de résoudre toutes les questions de la production ?",
      "answer": "la classe ouvrière",
      "answer_stringIds": [
        "string_25",
        "string_26",
        "string_27"
      ]
    },
    {
      "id_qa": "FMSH_PB188a_18-19_213_qa6_v3",
      "id_block": "block_2",
      "question": "Dans quel domaine l'administration étatique des bolcheviks a-t-elle été introduite ?",
      "answer": "dans la production",
      "answer_stringIds": [
        "string_205",
        "string_206",
        "string_207"
      ]
    },
    {
      "id_qa": "FMSH_PB188a_18-19_213_qa10_v3",
      "id_block": "block_2",
      "question": "Qu'est ce qui se posa dans toute son ampleur devant eux ?",
      "answer": "le problème de la production",
      "answer_stringIds": [
        "string_120",
        "string_121",
        "string_122",
        "string_123",
        "string_124"
      ]
    },
    {
      "id_qa": "FMSH_PB188a_18-19_213_qa12_v3",
      "id_block": "block_2",
      "question": "Qu'est-ce qui a permis à l'industrie de se développer indépendamment ?",
      "answer": "du simple fait du cours naturel des choses",
      "answer_stringIds": [
        "string_111",
        "string_112",
        "string_113",
        "string_114",
        "string_115",
        "string_116",
        "string_117",
        "string_118"
      ]
    },
    {
      "id_qa": "FMSH_PB188a_18-19_213_qa13_v3",
      "id_block": "block_2",
      "question": "Qu'est ce qui s'est arrêté à cette époque ?",
      "answer": "Île processus de la production",
      "answer_stringIds": [
        "string_168",
        "string_169",
        "string_170",
        "string_171",
        "string_172"
      ]
    },
    {
      "id_qa": "FMSH_PB188a_18-19_213_qa14_v3",
      "id_block": "block_2",
      "question": "A quoi les ouvriers ne se limitèrent pas ?",
      "answer": "les réserves de matières premières des fabriques",
      "answer_stringIds": [
        "string_141",
        "string_142",
        "string_143",
        "string_144",
        "string_145",
        "string_146",
        "string_147"
      ]
    },
    {
      "id_qa": "FMSH_PB188a_18-19_213_qa15_v3",
      "id_block": "block_2",
      "question": "Qui a participé à lapprovisionnement de nouveau minerai aux entreprises ?",
      "answer": "Les ouvriers",
      "answer_stringIds": [
        "string_133",
        "string_134"
      ]
    },
    {
      "id_qa": "FMSH_PB188a_18-19_213_qa16_v3",
      "id_block": "block_2",
      "question": "Qui ne se limitèrent pas à utiliser les réserves de matières premières des fabriques ?",
      "answer": "Les ouvriers",
      "answer_stringIds": [
        "string_133",
        "string_134"
      ]
    },
    {
      "id_qa": "FMSH_PB188a_18-19_213_qa18_v3",
      "id_block": "block_2",
      "question": "Qui a utilisé les réserves de matières premières des fabriques ?",
      "answer": "Les ouvriers",
      "answer_stringIds": [
        "string_133",
        "string_134"
      ]
    },
    {
      "id_qa": "FMSH_PB188a_18-19_213_qa23_v3",
      "id_block": "block_2",
      "question": "A quoi est liée la production ?",
      "answer": "au processus existant de la production",
      "answer_stringIds": [
        "string_213",
        "string_214",
        "string_215",
        "string_216",
        "string_217",
        "string_218",
        "string_219"
      ]
    },
    {
      "id_qa": "FMSH_PB188a_18-19_213_qa24_v3",
      "id_block": "block_2",
      "question": "Qu'est-ce qui est lié au processus existant de la production ?",
      "answer": "mécaniquement",
      "answer_stringIds": [
        "string_212"
      ]
    },
    {
      "id_qa": "FMSH_PB188a_18-19_213_qa27_v3",
      "id_block": "block_2",
      "question": "Qu'est ce que notre industrie représente à l'époque par ellemême ?",
      "answer": "un phénomène original et instructif",
      "answer_stringIds": [
        "string_228",
        "string_229",
        "string_230",
        "string_231",
        "string_232"
      ]
    },
    {
      "id_qa": "FMSH_PB188a_18-19_213_qa22_v3",
      "id_block": "block_3",
      "question": "Que suivra le processus de la conquête des usines dans les autres pays ?",
      "answer": "un même cours",
      "answer_stringIds": [
        "string_281",
        "string_282",
        "string_283"
      ]
    },
    {
      "id_qa": "FMSH_PB188a_18-19_213_qa1_v3",
      "id_block": "block_4",
      "question": "Qu'est ce qui pourrait réduire à néant la Révolution ?",
      "answer": "erreurs",
      "answer_stringIds": [
        "string_320"
      ]
    },
    {
      "id_qa": "FMSH_PB188a_18-19_213_qa2_v3",
      "id_block": "block_4",
      "question": "Qu'est-ce qui pourrait réduire à néant la Révolution ?",
      "answer": "erreurs",
      "answer_stringIds": [
        "string_320"
      ]
    },
    {
      "id_qa": "FMSH_PB188a_18-19_213_qa3_v3",
      "id_block": "block_4",
      "question": "Que garantit la prise en mains de l'industrie par les ouvriers ?",
      "answer": "le succès de la Révolution",
      "answer_stringIds": [
        "string_313",
        "string_314",
        "string_315",
        "string_316",
        "string_317"
      ]
    }
  ]
}