{
  "num": "autog_0338-7259_1972_num_18_1",
  "article": "autog_0338-7259_1972_num_18_1_1043",
  "page_name": "FMSH_PB188a_18-19_209",
  "questions": [
    {
      "id_qa": "FMSH_PB188a_18-19_209_qa10_v3",
      "id_block": "block_1",
      "question": "Qui ont conquis le pouvoir d'Etat pour leur parti ?",
      "answer": "les bolcheviks",
      "answer_stringIds": [
        "string_58",
        "string_59"
      ]
    },
    {
      "id_qa": "FMSH_PB188a_18-19_209_qa12_v3",
      "id_block": "block_1",
      "question": "Pour qui les bolcheviks ont-ils conquis le pouvoir d'Etat ?",
      "answer": "pour leur",
      "answer_stringIds": [
        "string_66",
        "string_67"
      ]
    },
    {
      "id_qa": "FMSH_PB188a_18-19_209_qa13_v3",
      "id_block": "block_1",
      "question": "Qui ont défait la révolution russe ?",
      "answer": "les défenseurs du vieux monde",
      "answer_stringIds": [
        "string_45",
        "string_46",
        "string_47",
        "string_48",
        "string_49"
      ]
    },
    {
      "id_qa": "FMSH_PB188a_18-19_209_qa15_v3",
      "id_block": "block_1",
      "question": "Qu'est ce qui a défait les bolcheviks ?",
      "answer": "la révolution russe",
      "answer_stringIds": [
        "string_53",
        "string_54",
        "string_55"
      ]
    },
    {
      "id_qa": "FMSH_PB188a_18-19_209_qa44_v3",
      "id_block": "block_1",
      "question": "Quelle est l'ambition des bolchéviks ?",
      "answer": "au pouvoir",
      "answer_stringIds": [
        "string_19",
        "string_20"
      ]
    },
    {
      "id_qa": "FMSH_PB188a_18-19_209_qa0_v3",
      "id_block": "block_2",
      "question": "Qui n'avait pas organisé une autodéfense armée ?",
      "answer": "la classe ouvrière",
      "answer_stringIds": [
        "string_77",
        "string_78",
        "string_79"
      ]
    },
    {
      "id_qa": "FMSH_PB188a_18-19_209_qa1_v3",
      "id_block": "block_2",
      "question": "Qu'a occupé la classe ouvrière en Italie ?",
      "answer": "les usines",
      "answer_stringIds": [
        "string_85",
        "string_86"
      ]
    },
    {
      "id_qa": "FMSH_PB188a_18-19_209_qa3_v3",
      "id_block": "block_2",
      "question": "Qui a occupé les usines dans beaucoup d'endroits du pays ?",
      "answer": "la classe ouvrière qui",
      "answer_stringIds": [
        "string_77",
        "string_78",
        "string_79",
        "string_80"
      ]
    },
    {
      "id_qa": "FMSH_PB188a_18-19_209_qa5_v3",
      "id_block": "block_2",
      "question": "Qui a conquis les usines dans beaucoup d'endroits du pays ?",
      "answer": "la classe ouvrière qui",
      "answer_stringIds": [
        "string_77",
        "string_78",
        "string_79",
        "string_80"
      ]
    },
    {
      "id_qa": "FMSH_PB188a_18-19_209_qa7_v3",
      "id_block": "block_2",
      "question": "A qui la classe ouvrière est-elle obligée de rendre les magnifiques positions conquises ?",
      "answer": "au capital",
      "answer_stringIds": [
        "string_115",
        "string_116"
      ]
    },
    {
      "id_qa": "FMSH_PB188a_18-19_209_qa8_v3",
      "id_block": "block_2",
      "question": "Qui a conquis et occupé les usines en Italie ?",
      "answer": "la classe ouvrière",
      "answer_stringIds": [
        "string_77",
        "string_78",
        "string_79"
      ]
    },
    {
      "id_qa": "FMSH_PB188a_18-19_209_qa9_v3",
      "id_block": "block_2",
      "question": "Qu'est ce que la classe ouvrière a dû rendre au capital ?",
      "answer": "les magnifiques positions conquises",
      "answer_stringIds": [
        "string_117",
        "string_118",
        "string_119",
        "string_120"
      ]
    },
    {
      "id_qa": "FMSH_PB188a_18-19_209_qa21_v3",
      "id_block": "block_3",
      "question": "Qui oppose une résistance maximale à la classe dominante ?",
      "answer": "La classe dominante et toutes ses sous-classes",
      "answer_stringIds": [
        "string_138",
        "string_139",
        "string_140",
        "string_141",
        "string_142",
        "string_143",
        "string_144"
      ]
    },
    {
      "id_qa": "FMSH_PB188a_18-19_209_qa22_v3",
      "id_block": "block_3",
      "question": "Qu'opposeront la classe dominante et toutes ses sous-classes ?",
      "answer": "une résistance maximale",
      "answer_stringIds": [
        "string_146",
        "string_147",
        "string_148"
      ]
    },
    {
      "id_qa": "FMSH_PB188a_18-19_209_qa34_v3",
      "id_block": "block_4",
      "question": "Qui doit prendre en compte cet aspect de la révolution ?",
      "answer": "La classe révolutionnaire de la ville et de la campagne",
      "answer_stringIds": [
        "string_164",
        "string_165",
        "string_166",
        "string_167",
        "string_168",
        "string_169",
        "string_170",
        "string_171",
        "string_172",
        "string_173"
      ]
    },
    {
      "id_qa": "FMSH_PB188a_18-19_209_qa42_v3",
      "id_block": "block_5",
      "question": "Qu'est-ce que la précaution sévère ?",
      "answer": "sa force combattante",
      "answer_stringIds": [
        "string_203",
        "string_204",
        "string_205"
      ]
    },
    {
      "id_qa": "FMSH_PB188a_18-19_209_qa36_v3",
      "id_block": "block_7",
      "question": "Que doit couvrir le nouveau mode de production ?",
      "answer": "toutes Îles",
      "answer_stringIds": [
        "string_298",
        "string_299"
      ]
    },
    {
      "id_qa": "FMSH_PB188a_18-19_209_qa38_v3",
      "id_block": "block_7",
      "question": "Quel est le nouveau mode de production ?",
      "answer": "la production unitaire",
      "answer_stringIds": [
        "string_294",
        "string_295",
        "string_296"
      ]
    }
  ]
}