{
  "num": "autog_0249-2563_1982_num_16_12",
  "article": "autog_0249-2563_1982_num_16_12_1543",
  "page_name": "autog_0249-2563_1982_num_16_12_T1_0167_0000",
  "questions": [
    "Quels théoriciens socianalytiques ont-ils mis en question dans leur recherche collective ?",
    "Comment le processus de collectivisation est-il prioritaire selon l'auteur ?",
    "Quels sont les axiomes macro-sociaux qui limitent l'autogestion selon l'auteur ?",
    "Comment l'analyse de la commande et des demandes sociales contribue-t-elle à la révision de Lewin et de ses successeurs ?",
    "Comment l'analyse des implications des intervenants est-elle importante dans le processus de collectivisation ?",
    "Comment l'analyse de ce qui se désinstitutionnalise et de ce qui s'institutionnalise est-elle décrite dans le texte ?",
    "Quel est le rôle de l'analyseur-limite dans le processus de collectivisation ?",
    "Comment l'autodissolution est-elle décrite dans le texte ?",
    "Quel est le lien entre l'autodissolution et l'analyse collective selon l'auteur ?",
    "Comment les exigences de l'autogestion et du contrôle collectif sont-elles décrites dans le texte ?",
    "Quels sont les références utilisées dans le texte ?",
    "Comment l'expérience du mouvement lacanien est-elle décrite dans le texte ?",
    "Comment l'analyse de Françoise Gavarini est-elle citée dans le texte ?"
  ]
}