{
  "num": "autog_0338-7259_1978_num_40_1",
  "article": "autog_0338-7259_1978_num_40_1_1273",
  "page_name": "FMSH_PB188a_00040_039",
  "questions": [
    {
      "id_qa": "FMSH_PB188a_00040_039_qa10_v3",
      "id_block": "block_1",
      "question": "Qui doit son existence au mouvement social ?",
      "answer": "les forces politiques",
      "answer_stringIds": [
        "string_31",
        "string_32",
        "string_33"
      ]
    },
    {
      "id_qa": "FMSH_PB188a_00040_039_qa13_v3",
      "id_block": "block_1",
      "question": "Qu'est ce qui a bel et bien une signification \"de classe et de masse\" à gauche ?",
      "answer": "le projet autogestionnaire",
      "answer_stringIds": [
        "string_67",
        "string_68",
        "string_69"
      ]
    },
    {
      "id_qa": "FMSH_PB188a_00040_039_qa14_v3",
      "id_block": "block_1",
      "question": "Qu'est ce qui doit son existence au mouvement social ?",
      "answer": "les forces politiques qui",
      "answer_stringIds": [
        "string_31",
        "string_32",
        "string_33",
        "string_34"
      ]
    },
    {
      "id_qa": "FMSH_PB188a_00040_039_qa18_v3",
      "id_block": "block_1",
      "question": "A quel mouvement appartient les forces politiques ?",
      "answer": "leur existence au mouvement social",
      "answer_stringIds": [
        "string_36",
        "string_37",
        "string_38",
        "string_39",
        "string_40"
      ]
    },
    {
      "id_qa": "FMSH_PB188a_00040_039_qa21_v3",
      "id_block": "block_1",
      "question": "Quelle est la signification du projet autogestionnaire ?",
      "answer": "une signification « de classe et de masse",
      "answer_stringIds": [
        "string_74",
        "string_75",
        "string_76",
        "string_77",
        "string_78",
        "string_79",
        "string_80",
        "string_81"
      ]
    },
    {
      "id_qa": "FMSH_PB188a_00040_039_qa36_v3",
      "id_block": "block_2",
      "question": "Qui met en cause l'ordre établi dans le système de production ?",
      "answer": "tous ceux qui",
      "answer_stringIds": [
        "string_174",
        "string_175",
        "string_176"
      ]
    },
    {
      "id_qa": "FMSH_PB188a_00040_039_qa37_v3",
      "id_block": "block_2",
      "question": "Dans quel système est mis en cause l'ordre établi ?",
      "answer": "dans le système de production",
      "answer_stringIds": [
        "string_182",
        "string_183",
        "string_184",
        "string_185",
        "string_186"
      ]
    },
    {
      "id_qa": "FMSH_PB188a_00040_039_qa39_v3",
      "id_block": "block_3",
      "question": "Qu'est ce qui ne s'exerce plus dans notre société aujourd'hui ?",
      "answer": "la lutte des classes",
      "answer_stringIds": [
        "string_214",
        "string_215",
        "string_216",
        "string_217"
      ]
    },
    {
      "id_qa": "FMSH_PB188a_00040_039_qa24_v3",
      "id_block": "block_4",
      "question": "Qui a fait d'immenses efforts pour manifester sa propre ouverture ?",
      "answer": "Le Parti communiste",
      "answer_stringIds": [
        "string_278",
        "string_279",
        "string_280"
      ]
    },
    {
      "id_qa": "FMSH_PB188a_00040_039_qa25_v3",
      "id_block": "block_4",
      "question": "Pour quelle raison le Parti communiste a-t-il fait d'énormes efforts ?",
      "answer": "sa propre ouverture",
      "answer_stringIds": [
        "string_436",
        "string_437",
        "string_438"
      ]
    },
    {
      "id_qa": "FMSH_PB188a_00040_039_qa26_v3",
      "id_block": "block_4",
      "question": "Qu'est-ce qui contredisait les aspirations les plus profondes du Parti communiste ?",
      "answer": "cette ouverture",
      "answer_stringIds": [
        "string_445",
        "string_446"
      ]
    }
  ]
}