{
  "num": "autog_0338-7259_1978_num_40_1",
  "article": "autog_0338-7259_1978_num_40_1_1273",
  "page_name": "FMSH_PB188a_00040_043",
  "questions": [
    {
      "id_qa": "FMSH_PB188a_00040_043_qa30_v3",
      "id_block": "block_1",
      "question": "Par quoi doivent répondre les partis de gauche ?",
      "answer": "y répondre par des propositions et des engagements précis",
      "answer_stringIds": [
        "string_27",
        "string_28",
        "string_29",
        "string_30",
        "string_31",
        "string_32",
        "string_33",
        "string_34",
        "string_35"
      ]
    },
    {
      "id_qa": "FMSH_PB188a_00040_043_qa31_v3",
      "id_block": "block_1",
      "question": "Quel parti doit répondre à ces propositions ?",
      "answer": "Les partis de gauche",
      "answer_stringIds": [
        "string_22",
        "string_23",
        "string_24",
        "string_25"
      ]
    },
    {
      "id_qa": "FMSH_PB188a_00040_043_qa32_v3",
      "id_block": "block_1",
      "question": "Qui doit répondre à ces propositions ?",
      "answer": "Les partis de gauche",
      "answer_stringIds": [
        "string_22",
        "string_23",
        "string_24",
        "string_25"
      ]
    },
    {
      "id_qa": "FMSH_PB188a_00040_043_qa33_v3",
      "id_block": "block_1",
      "question": "Par quoi les partis de gauche doivent-ils répondre ?",
      "answer": "y répondre par des propositions et des engagements précis",
      "answer_stringIds": [
        "string_27",
        "string_28",
        "string_29",
        "string_30",
        "string_31",
        "string_32",
        "string_33",
        "string_34",
        "string_35"
      ]
    },
    {
      "id_qa": "FMSH_PB188a_00040_043_qa25_v3",
      "id_block": "block_4",
      "question": "Qu'est ce qui peut constituer une alternative au système actuel de production ?",
      "answer": "choix",
      "answer_stringIds": [
        "string_86"
      ]
    },
    {
      "id_qa": "FMSH_PB188a_00040_043_qa12_v3",
      "id_block": "block_7",
      "question": "Qu'est-ce que la référence autogestionnaire ?",
      "answer": "ses propres analyses et ses propres positions",
      "answer_stringIds": [
        "string_221",
        "string_222",
        "string_223",
        "string_224",
        "string_225",
        "string_226",
        "string_227"
      ]
    },
    {
      "id_qa": "FMSH_PB188a_00040_043_qa17_v3",
      "id_block": "block_7",
      "question": "Pourquoi le mouvement social choisit-il la référence autogestionnaire ?",
      "answer": "pour développer ses propres analyses et ses propres positions",
      "answer_stringIds": [
        "string_219",
        "string_220",
        "string_221",
        "string_222",
        "string_223",
        "string_224",
        "string_225",
        "string_226",
        "string_227"
      ]
    },
    {
      "id_qa": "FMSH_PB188a_00040_043_qa18_v3",
      "id_block": "block_7",
      "question": "Qu'est ce qui oblige ses partenaires à se dévoiler davantage ?",
      "answer": "la référence autogestionnaire",
      "answer_stringIds": [
        "string_216",
        "string_217",
        "string_218"
      ]
    },
    {
      "id_qa": "FMSH_PB188a_00040_043_qa19_v3",
      "id_block": "block_8",
      "question": "Qu'est ce qui n'est pas possible sans l'union des forces populaires ?",
      "answer": "de changement possible",
      "answer_stringIds": [
        "string_337",
        "string_338",
        "string_339"
      ]
    }
  ]
}