{
  "num": "autog_0338-7259_1978_num_40_1",
  "article": "autog_0338-7259_1978_num_40_1_1286_t1_0142_0000_1",
  "page_name": "FMSH_PB188a_00040_145",
  "questions": [
    "Quel sens donnent-ils à l'autogestion selon Carré et Lemoigne ?",
    "Quels sont les conséquences possibles de l'application des propositions du livre de Carré et Lemoigne ?",
    "Comment caractérisent-ils leur approche dans le livre ?",
    "Quel est le rôle des conflits et des déviances dans leur perspective de l'entreprise ?",
    "Comment définissent-ils les \"muitirationalités\" de l'entreprise ?",
    "Comment justifient-ils l'utilisation de la théorie des systèmes dans leur analyse de l'entreprise ?",
    "Quels sont les critiques faites à l'égard de leur approche et de leur utilisation de la théorie des systèmes ?",
    "Comment expliquent-ils l'institutionnalisation rationnelle des \"bruits\" dans l'entreprise ?",
    "Quel lien voient-ils entre leur réflexion sur le pouvoir dans l'entreprise et celle de Lévy-Leblond ?"
  ]
}