{
  "num": "autog_0338-7259_1978_num_41_1",
  "article": "autog_0338-7259_1978_num_41_1_1316",
  "page_name": "FMSH_PB188a_41-42_113",
  "questions": [
    "Quels auteurs sont critiqués dans le texte ?",
    "Pourquoi les deux modèles théoriques sont-ils considérés négligeants selon l'auteur ?",
    "Quels sont les thèses importantes du marxisme qui sont négligées par ces modèles ?",
    "Qu'est-ce que l'auteur veut dire par \"manipulations\" ?",
    "Pourquoi les méthodes abandonnées ne sont-elles pas condamnées ?",
    "Qu'est-ce que l'auteur veut dire par \"les armes se sont tues, mais elles n'ont pas été détruites\" ?",
    "Qu'est-ce que l'auteur veut dire par \"l'histoire de la naissance et du développement de ces théories et idéologies est en grande partie l'histoire de ces réactions\" ?",
    "Qu'est-ce que l'auteur entend par \"l'attitude critique de Marx vis-à-vis des conditions sociales\" ?",
    "Qu'est-ce que l'obstacle principal à la développement du genre humain selon Marx ?",
    "Comment Marx subordonne-t-il les différentes structures du pouvoir et de la politique à la condition économique ?",
    "Qu'est-ce que l'État capitaliste selon Marx ?",
    "Quels sont les libertés humaines dans le système marxiste des valeurs ?"
  ]
}