{
  "num": "autog_0338-7259_1978_num_41_1",
  "article": "autog_0338-7259_1978_num_41_1_1316",
  "page_name": "FMSH_PB188a_41-42_110",
  "questions": [
    "Quel est le lien entre les conditions de marché et de circulation monétaire et la mise en valeur des intérêts généraux de la société dans une perspective plus large ?",
    "Quel est le point de vue de Karl Korsch sur les deux types de socialisation et leur évolution finale ?",
    "Quel intérêt servait la première tendance de socialisation selon Korsch ?",
    "Quel intérêt servait la deuxième tendance de socialisation selon Korsch ?",
    "Quel est l'impact de la liquidation de la propriété privée des moyens de production sur le processus de bureaucratisation ?",
    "Quels sont les conséquences prévues de la bureaucratisation après la suppression de la propriété privée bourgeoise ?",
    "Comment la socialisation ne se résume-t-elle pas à la seule suppression de la propriété privée bourgeoise ?",
    "Quel est le rôle de la bureaucratie dans la période historique probablement longue de la socialisation qui suit la suppression de la propriété privée bourgeoise ?",
    "Est-ce que la bureaucratie peut être considérée comme une classe dans le sens marxiste traditionnel du terme ?",
    "Quel est le pouvoir accru et moins contrôlable des appareils bureaucratiques et comment empêche-t-il l'évolution socialiste de la société ?"
  ]
}