{
  "num": "autog_0338-7259_1978_num_41_1",
  "article": "autog_0338-7259_1978_num_41_1_1316",
  "page_name": "FMSH_PB188a_41-42_109",
  "questions": [
    "Quels sont les réactions des femmes face au problème de la bureaucratisation, qui est l'un des plus importants et lourds en termes de conséquences dans notre époque, et qui se manifeste dans les domaines les plus divers de la vie sociale, mais surtout de la vie économique ?",
    "Quelles sont les deux théories sociales ou idéologies opposées qui tentent de répondre à des ensembles de problèmes en Europe de l'Est ?",
    "Quels systèmes socio-économiques et quelles formes d'institutions ont été pensées pour apparaître après la suppression de la propriété privée bourgeoise des moyens de production dans le cadre du socialisme européen ?",
    "Quels intérêts défendait le système de socialisation qui voulait remettre directement le droit de propriété et les fonctions associées aux mains des travailleurs productifs ?",
    "Quel était le but de la deuxième tendance, basée sur la critique de la première, qui proposait l'étatisation ou la municipalisation des moyens de production ?"
  ]
}