{
  "num": "autog_0249-2563_1984_num_17_15",
  "article": "autog_0249-2563_1984_num_17_15_1575",
  "page_name": "autog_0249-2563_1984_num_17_15_T1_0032_0000",
  "questions": [
    {
      "id_qa": "autog_0249-2563_1984_num_17_15_T1_0032_0000_qa4_v3",
      "id_block": "block_0",
      "question": "Qu'est ce qui agite les médias ?",
      "answer": "grands thèmes",
      "answer_stringIds": [
        "string_4",
        "string_5"
      ]
    },
    {
      "id_qa": "autog_0249-2563_1984_num_17_15_T1_0032_0000_qa3_v3",
      "id_block": "block_0",
      "question": "Quels sont les grands thèmes qui agitent les médias ?",
      "answer": "la trace des grands thèmes qui agitent les médias et qui divisent les confédérations syndicales",
      "answer_stringIds": [
        "string_1",
        "string_2",
        "string_3",
        "string_4",
        "string_5",
        "string_6",
        "string_7",
        "string_8",
        "string_9",
        "string_10",
        "string_11",
        "string_12",
        "string_13",
        "string_14",
        "string_15"
      ]
    },
    {
      "id_qa": "autog_0249-2563_1984_num_17_15_T1_0032_0000_qa19_v3",
      "id_block": "block_1",
      "question": "Qu'est ce qui perd le syndicalisme ?",
      "answer": "de son prestige",
      "answer_stringIds": [
        "string_29",
        "string_30",
        "string_31"
      ]
    },
    {
      "id_qa": "autog_0249-2563_1984_num_17_15_T1_0032_0000_qa20_v3",
      "id_block": "block_1",
      "question": "Qu'est ce qui perd de son prestige ?",
      "answer": "Le syndicalisme",
      "answer_stringIds": [
        "string_26",
        "string_27"
      ]
    },
    {
      "id_qa": "autog_0249-2563_1984_num_17_15_T1_0032_0000_qa21_v3",
      "id_block": "block_1",
      "question": "Qu'est ce que le syndicalisme en France ?",
      "answer": "un pouvoir honorifique",
      "answer_stringIds": [
        "string_64",
        "string_65",
        "string_66"
      ]
    },
    {
      "id_qa": "autog_0249-2563_1984_num_17_15_T1_0032_0000_qa27_v3",
      "id_block": "block_1",
      "question": "Qu'est ce qui semble délaissées ?",
      "answer": "les utopies",
      "answer_stringIds": [
        "string_40",
        "string_41"
      ]
    },
    {
      "id_qa": "autog_0249-2563_1984_num_17_15_T1_0032_0000_qa31_v3",
      "id_block": "block_1",
      "question": "Qu'est ce qui est agonisant ?",
      "answer": "Ce syndicalisme",
      "answer_stringIds": [
        "string_113",
        "string_114"
      ]
    },
    {
      "id_qa": "autog_0249-2563_1984_num_17_15_T1_0032_0000_qa32_v3",
      "id_block": "block_1",
      "question": "Qu'est-ce qui rend agonisant le syndicalisme ?",
      "answer": "le penser",
      "answer_stringIds": [
        "string_123",
        "string_124"
      ]
    },
    {
      "id_qa": "autog_0249-2563_1984_num_17_15_T1_0032_0000_qa14_v3",
      "id_block": "block_2",
      "question": "Qu'est-ce que le syndicalisme ?",
      "answer": "la vie souterraine",
      "answer_stringIds": [
        "string_205",
        "string_206",
        "string_207"
      ]
    },
    {
      "id_qa": "autog_0249-2563_1984_num_17_15_T1_0032_0000_qa26_v3",
      "id_block": "block_2",
      "question": "Qu'est-ce qui est considéré comme un verrou nécessaire ?",
      "answer": "le syndicalisme",
      "answer_stringIds": [
        "string_154",
        "string_155"
      ]
    },
    {
      "id_qa": "autog_0249-2563_1984_num_17_15_T1_0032_0000_qa16_v3",
      "id_block": "block_3",
      "question": "Qu'est ce qui est positif pour les idées autogestionnaires ?",
      "answer": "une démarche pragmatique de type autogestionnaire",
      "answer_stringIds": [
        "string_331",
        "string_332",
        "string_333",
        "string_334",
        "string_335",
        "string_336"
      ]
    },
    {
      "id_qa": "autog_0249-2563_1984_num_17_15_T1_0032_0000_qa17_v3",
      "id_block": "block_3",
      "question": "Qui accepte une démarche pragmatique de type autogestionnaire ?",
      "answer": "un responsable confédéral",
      "answer_stringIds": [
        "string_313",
        "string_314",
        "string_315"
      ]
    }
  ]
}