{
  "num": "autog_0338-7259_1970_num_13_1",
  "article": "autog_0338-7259_1970_num_13_1_976",
  "page_name": "FMSH_PB188a_13-14_074",
  "questions": [
    {
      "id_qa": "FMSH_PB188a_13-14_074_qa4_v3",
      "id_block": "block_1",
      "question": "Qu'est-ce qui appartient à autrui ?",
      "answer": "des pouvoirs",
      "answer_stringIds": [
        "string_49",
        "string_50"
      ]
    },
    {
      "id_qa": "FMSH_PB188a_13-14_074_qa5_v3",
      "id_block": "block_1",
      "question": "A qui sont attribués les pouvoirs ?",
      "answer": "aux participants",
      "answer_stringIds": [
        "string_62",
        "string_63"
      ]
    },
    {
      "id_qa": "FMSH_PB188a_13-14_074_qa6_v3",
      "id_block": "block_1",
      "question": "Qu'est ce qui appartient à autrui ?",
      "answer": "des pouvoirs",
      "answer_stringIds": [
        "string_49",
        "string_50"
      ]
    },
    {
      "id_qa": "FMSH_PB188a_13-14_074_qa7_v3",
      "id_block": "block_1",
      "question": "A qui appartiennent les pouvoirs ?",
      "answer": "aux participants qui sont en mesure de les assumer",
      "answer_stringIds": [
        "string_62",
        "string_63",
        "string_64",
        "string_65",
        "string_66",
        "string_67",
        "string_68",
        "string_69",
        "string_70"
      ]
    },
    {
      "id_qa": "FMSH_PB188a_13-14_074_qa19_v3",
      "id_block": "block_1",
      "question": "Que détruit la récupération d'un pouvoir sur autrui ?",
      "answer": "le climat sécurisant de la relation aliénée",
      "answer_stringIds": [
        "string_100",
        "string_101",
        "string_102",
        "string_103",
        "string_104",
        "string_105",
        "string_106"
      ]
    },
    {
      "id_qa": "FMSH_PB188a_13-14_074_qa27_v3",
      "id_block": "block_2",
      "question": "Sur quoi repose le pouvoir bureaucratique ?",
      "answer": "sur la peur",
      "answer_stringIds": [
        "string_282",
        "string_283",
        "string_284"
      ]
    },
    {
      "id_qa": "FMSH_PB188a_13-14_074_qa29_v3",
      "id_block": "block_2",
      "question": "Par quoi étaient justifiées les craintes de l'établissement possible d'un pouvoir bureaucratique fondé sur la peur ?",
      "answer": "par de quelconques pouvoirs technocratiques",
      "answer_stringIds": [
        "string_264",
        "string_265",
        "string_266",
        "string_267",
        "string_268"
      ]
    }
  ]
}