{
  "num": "autog_0338-7259_1970_num_13_1",
  "article": "autog_0338-7259_1970_num_13_1_976",
  "page_name": "FMSH_PB188a_13-14_063",
  "questions": [
    {
      "id_qa": "FMSH_PB188a_13-14_063_qa22_v3",
      "id_block": "block_1",
      "question": "Qu'est-ce qui est étudié au travers des canaux de diffusion qu'il emprunte ?",
      "answer": "Ce type de domination",
      "answer_stringIds": [
        "string_10",
        "string_11",
        "string_12",
        "string_13"
      ]
    },
    {
      "id_qa": "FMSH_PB188a_13-14_063_qa23_v3",
      "id_block": "block_1",
      "question": "Sur quoi repose l'économie urbaine ?",
      "answer": "la consommation de produits européens",
      "answer_stringIds": [
        "string_65",
        "string_66",
        "string_67",
        "string_68",
        "string_69"
      ]
    },
    {
      "id_qa": "FMSH_PB188a_13-14_063_qa20_v3",
      "id_block": "block_2",
      "question": "Qu'est ce qui devait déboucher sur le forum ?",
      "answer": "groupes de travail",
      "answer_stringIds": [
        "string_132",
        "string_133",
        "string_134"
      ]
    },
    {
      "id_qa": "FMSH_PB188a_13-14_063_qa27_v3",
      "id_block": "block_4",
      "question": "Quel est le second sens de la \"politisation\" ?",
      "answer": "la démarche",
      "answer_stringIds": [
        "string_199",
        "string_200"
      ]
    },
    {
      "id_qa": "FMSH_PB188a_13-14_063_qa10_v3",
      "id_block": "block_5",
      "question": "Qui ne trie pas les informations ?",
      "answer": "milieu",
      "answer_stringIds": [
        "string_251"
      ]
    },
    {
      "id_qa": "FMSH_PB188a_13-14_063_qa11_v3",
      "id_block": "block_5",
      "question": "Quelle est la capacité de réaction du milieu ?",
      "answer": "en faire",
      "answer_stringIds": [
        "string_281",
        "string_282"
      ]
    },
    {
      "id_qa": "FMSH_PB188a_13-14_063_qa13_v3",
      "id_block": "block_5",
      "question": "Qu'est ce que l'on ne modifie pas en injectant de l'extérieur ?",
      "answer": "un milieu",
      "answer_stringIds": [
        "string_250",
        "string_251"
      ]
    }
  ]
}