{
  "num": "autog_0338-7259_1970_num_13_1",
  "article": "autog_0338-7259_1970_num_13_1_980",
  "page_name": "FMSH_PB188a_13-14_119",
  "questions": [
    "Qu'implique-t-on par l'autogestion selon ce texte ?",
    "Pourquoi est-il inadéquat que des moniteurs extérieurs soient impliqués dans la formation à l'autogestion ?",
    "Comment l'autogestion et l'auto-éducation sont-elles liées selon le texte ?",
    "Dans quels contextes normaux doivent intervenir les communications pour que l'action éducative soit effective ?",
    "Quels sont les grandes difficultés de mettre en œuvre l'autogestion et l'auto-éducation dans le contexte industriel ?",
    "Quel était le but initial de la formation à l'autogestion dans les entreprises en question ?",
    "Quels étaient les raisons pour lesquelles les travailleurs avaient envie de s'impliquer dans la gestion économique de l'entreprise ?",
    "Quel était la taille des groupes et quelle était la complexité de leur gestion ?",
    "Quel était le but de l'abolition de la gestion complexe ?"
  ]
}