{
  "num": "autog_0005-0970_1969_num_8_1",
  "article": "autog_0005-0970_1969_num_8_1_948",
  "page_name": "FMSH_PB188a_00008_103",
  "questions": [
    "Quels sont les fondements théoriques du socialisme marxiste en matière d'État ?",
    "Comment le rôle de l'État est-il défini dans le socialisme marxiste ?",
    "Comment le contrôle de la consommation est-il perçu par les marxistes classiques ?",
    "Comment Lenine décrit le rôle de l'État dans le socialisme ?",
    "Qu'est-ce que le dépérissement de l'État et comment est-ce réalisé selon Lenine ?",
    "Comment l'expérience yougoslave de gestion économique correspond-elle au schéma marxiste ?",
    "Quelles étaient les raisons de la première étape d'étatisation de l'économie en Yougoslavie ?",
    "Quelles sont les critiques envers la « voie yougoslave » de gestion par les travailleurs ?",
    "Comment les critiques interprètent la gestion par les travailleurs en Yougoslavie ?",
    "Quels sont les éléments de la deuxième étape de la gestion économique en Yougoslavie ?",
    "Comment les Yougoslaves justifient leur expérience de gestion économique en termes du schéma marxiste ?"
  ]
}