{
  "num": "autog_0005-0970_1969_num_8_1",
  "article": "autog_0005-0970_1969_num_8_1_948",
  "page_name": "FMSH_PB188a_00008_112",
  "questions": [
    "En quelles conditions initiales le marché privé ne représente-t-il pas une importance particulière dans l'industrialisation d'un pays ?",
    "Quels facteurs peuvent influencer le rôle du marché dans l'économie d'un pays ?",
    "Comment la taille du territoire et la composition des richesses naturelles peuvent-elles affecter le rapport entre le plan et le marché ?",
    "Comment l'intégration d'une économie dans la division internationale du travail peut-elle influencer le rapport entre le plan et le marché ?",
    "Quels sont les facteurs sociaux qui influencent le revenu national dans l'économie yougoslave ?",
    "Quel pourcentage des moyens de production (hors terre) se trouve dans le secteur socialiste en Yougoslavie ?",
    "Quel pourcentage du revenu national dérive de la production organisée dans l'économie yougoslave ?"
  ]
}