{
  "num": "autog_0249-2563_1981_num_14_5",
  "article": "autog_0249-2563_1981_num_14_5_1422_t1_0127_0000_1",
  "page_name": "autog_0249-2563_1981_num_14_5_T1_0128_0000",
  "questions": [
    "Quels sont les CE mentionnés dans le texte ?",
    "Quand les CE ont-ils été intégrés dans l'ordre établi ?",
    "Quel est l'originalité des CE dans les périodes de conflit dans une entreprise ?",
    "Quel rôle peuvent les CE jouer dans la distribution des tracts lors de conflits syndicaux ?",
    "Quel syndicat majoritaire a pu bénéficier de l'avantage des CE ?",
    "Comment cet avantage peut-il être utilisé contre d'autres syndicats ?",
    "Quels événements historiques ont montré l'utilisation de l'armée de réserve des CE comme force de répression ?",
    "Quel livre a été écrit par P. Bouvier et comment il peut aider à comprendre la place des CE dans l'histoire sociale ?"
  ]
}