{
  "num": "autog_0249-2563_1980_num_13_2",
  "article": "autog_0249-2563_1980_num_13_2_1364",
  "page_name": "autog_0249-2563_1980_num_13_2_T1_0221_0000",
  "questions": [
    "Quels sont les lieux de communication entre les différents centres de femmes ?",
    "Pourquoi les contacts entre les centres ne sont-ils pas officialisés ?",
    "Comment les relations entre les centres de femmes varient-elles selon les tâches à résoudre, les distances géographiques et les amitiés entre les femmes ?",
    "Quel est le devis fondamental des centres de femmes en Allemagne ?",
    "Comment les femmes financent-elles les centres ?",
    "Quel est l'avantage de l'autonomie financière pour les femmes ?",
    "Quel est le point faible révélé par l'autonomie financière des femmes ?",
    "Quels sont les problèmes rencontrés dans la vie des centres de femmes ?",
    "Comment se déroule la vie dans les centres de femmes dans chaque ville ?",
    "Quels sont les horaires d'ouverture des centres et quels sont les groupes de travail formés dans les centres ?",
    "Comment les femmes de travailleurs et d'ouvriers sont-elles représentées et actives dans le mouvement des femmes ?",
    "Quels sont les milieux sociaux du mouvement des femmes et quels sont les groupes socialement marginalisés qui en font partie ?"
  ]
}