{
  "num": "autog_0338-7259_1978_num_40_1",
  "article": "autog_0338-7259_1978_num_40_1_1282",
  "page_name": "FMSH_PB188a_00040_110",
  "questions": [
    "Quel est le lien entre la liberté et la soumission dans les sociétés \"primitives\" selon Clastres ?",
    "Comment explique-t-on la transition de la liberté à la servitude dans ces sociétés ?",
    "Quel est le rôle des administrateurs coloniaux dans la compréhension de la différence entre sociétés étatiques et non étatiques ?",
    "Quel est l'événement ou la révolution qui a donné naissance au pouvoir séparé de la société et à une économie politique marquée par l'exploitation ?",
    "Comment la figure du chef s'est-elle transformée dans ces sociétés ?",
    "Pourquoi les sociétés méso-américaines appartiennent-elles à la sphère étatique et les sociétés tropicales de l'Amérique du Sud à la \"primitivité\" ?",
    "Quels sont les conditions matérielles des sociétés Hausa et communautaires au Nigeria du Nord ?",
    "Quel est le point de vue de l'administrateur colonial sur les différences entre les deux modes d'organisation sociale ?",
    "Comment Clastres interprète le texte de la Boétie dans le contexte des sociétés \"primitives\" ?"
  ]
}