{
  "num": "autog_0249-2563_1982_num_16_12",
  "article": "autog_0249-2563_1982_num_16_12_1524",
  "page_name": "autog_0249-2563_1982_num_16_12_T1_0029_0000",
  "questions": [
    {
      "id_qa": "autog_0249-2563_1982_num_16_12_T1_0029_0000_qa14_v3",
      "id_block": "block_2",
      "question": "Qu'est ce qui a pris la forme d'une autogestion pédagogique ?",
      "answer": "une pédagogie institutionnelle",
      "answer_stringIds": [
        "string_11",
        "string_12",
        "string_13"
      ]
    },
    {
      "id_qa": "autog_0249-2563_1982_num_16_12_T1_0029_0000_qa20_v3",
      "id_block": "block_3",
      "question": "Quel événement remettait en cause toute action pédagogique limitée au cadre de la classe ?",
      "answer": "le choc de Mai 68",
      "answer_stringIds": [
        "string_73",
        "string_74",
        "string_75",
        "string_76",
        "string_77"
      ]
    },
    {
      "id_qa": "autog_0249-2563_1982_num_16_12_T1_0029_0000_qa22_v3",
      "id_block": "block_3",
      "question": "Comment s'est développée la critique institutionnelle en 1968 ?",
      "answer": "à fonctionner",
      "answer_stringIds": [
        "string_105",
        "string_106",
        "string_107"
      ]
    },
    {
      "id_qa": "autog_0249-2563_1982_num_16_12_T1_0029_0000_qa23_v3",
      "id_block": "block_3",
      "question": "Qu'est ce qui s'est développé en 1968 ?",
      "answer": "la critique institutionnelle généralisée",
      "answer_stringIds": [
        "string_93",
        "string_94",
        "string_95",
        "string_96"
      ]
    },
    {
      "id_qa": "autog_0249-2563_1982_num_16_12_T1_0029_0000_qa2_v3",
      "id_block": "block_4",
      "question": "Quand a été reçu le CAPET ?",
      "answer": "en 1971",
      "answer_stringIds": [
        "string_141",
        "string_142"
      ]
    },
    {
      "id_qa": "autog_0249-2563_1982_num_16_12_T1_0029_0000_qa3_v3",
      "id_block": "block_4",
      "question": "Qu'est-ce qui a été posé à l'étudiant ?",
      "answer": "la question",
      "answer_stringIds": [
        "string_67",
        "string_68"
      ]
    },
    {
      "id_qa": "autog_0249-2563_1982_num_16_12_T1_0029_0000_qa5_v3",
      "id_block": "block_4",
      "question": "Quel diplôme a été reçu en 1971 ?",
      "answer": "au CAPET",
      "answer_stringIds": [
        "string_139",
        "string_140"
      ]
    },
    {
      "id_qa": "autog_0249-2563_1982_num_16_12_T1_0029_0000_qa11_v3",
      "id_block": "block_4",
      "question": "Qu'est ce que j'ai cru dans un premier temps ?",
      "answer": "la solution se trouvait dans un « gauchissement » de la pratique dans la classe",
      "answer_stringIds": [
        "string_193",
        "string_194",
        "string_195",
        "string_196",
        "string_197",
        "string_198",
        "string_199",
        "string_200",
        "string_201",
        "string_202",
        "string_203",
        "string_204",
        "string_205",
        "string_206",
        "string_207"
      ]
    },
    {
      "id_qa": "autog_0249-2563_1982_num_16_12_T1_0029_0000_qa12_v3",
      "id_block": "block_4",
      "question": "Qu'est ce qui a été trouvé dans un « gauchissement » de la pratique dans la classe ?",
      "answer": "la solution",
      "answer_stringIds": [
        "string_193",
        "string_194"
      ]
    },
    {
      "id_qa": "autog_0249-2563_1982_num_16_12_T1_0029_0000_qa13_v3",
      "id_block": "block_4",
      "question": "Qu'est-ce que la solution dans un premier temps ?",
      "answer": "dans un « gauchissement » de la pratique dans la",
      "answer_stringIds": [
        "string_197",
        "string_198",
        "string_199",
        "string_200",
        "string_201",
        "string_202",
        "string_203",
        "string_204",
        "string_205",
        "string_206"
      ]
    }
  ]
}