{
  "num": "autog_0249-2563_1982_num_16_12",
  "article": "autog_0249-2563_1982_num_16_12_1524",
  "page_name": "autog_0249-2563_1982_num_16_12_T1_0033_0000",
  "questions": [
    {
      "id_qa": "autog_0249-2563_1982_num_16_12_T1_0033_0000_qa31_v3",
      "id_block": "block_0",
      "question": "Qui peut intervenir sur moi, l'observateur ?",
      "answer": "Les gens",
      "answer_stringIds": [
        "string_13",
        "string_14"
      ]
    },
    {
      "id_qa": "autog_0249-2563_1982_num_16_12_T1_0033_0000_qa32_v3",
      "id_block": "block_0",
      "question": "Qui peut modifier ma perception des choses ?",
      "answer": "Les gens observés",
      "answer_stringIds": [
        "string_13",
        "string_14",
        "string_15"
      ]
    },
    {
      "id_qa": "autog_0249-2563_1982_num_16_12_T1_0033_0000_qa33_v3",
      "id_block": "block_0",
      "question": "Sur qui les gens observés peuvent-ils intervenir ?",
      "answer": "sur moi",
      "answer_stringIds": [
        "string_32",
        "string_33"
      ]
    },
    {
      "id_qa": "autog_0249-2563_1982_num_16_12_T1_0033_0000_qa34_v3",
      "id_block": "block_0",
      "question": "Qui peut intervenir sur moi ?",
      "answer": "Les gens observés",
      "answer_stringIds": [
        "string_13",
        "string_14",
        "string_15"
      ]
    },
    {
      "id_qa": "autog_0249-2563_1982_num_16_12_T1_0033_0000_qa37_v3",
      "id_block": "block_0",
      "question": "Qui a donné à lire les gens observés ?",
      "answer": "au Proviseur",
      "answer_stringIds": [
        "string_26",
        "string_27"
      ]
    },
    {
      "id_qa": "autog_0249-2563_1982_num_16_12_T1_0033_0000_qa23_v3",
      "id_block": "block_10",
      "question": "Qui a donné le pouvoir à l'établissement ?",
      "answer": "des sociologues",
      "answer_stringIds": [
        "string_302",
        "string_303",
        "string_304"
      ]
    },
    {
      "id_qa": "autog_0249-2563_1982_num_16_12_T1_0033_0000_qa56_v3",
      "id_block": "block_10",
      "question": "Qu'est ce qui doit se constituer dans la situation d'analyse interne ?",
      "answer": "un contre-pouvoir",
      "answer_stringIds": [
        "string_323",
        "string_324"
      ]
    },
    {
      "id_qa": "autog_0249-2563_1982_num_16_12_T1_0033_0000_qa4_v3",
      "id_block": "block_4",
      "question": "Quelle est la durée d'ouverture du secrétariat du lycée ?",
      "answer": "dix minutes le matin",
      "answer_stringIds": [
        "string_183",
        "string_184",
        "string_185",
        "string_186"
      ]
    },
    {
      "id_qa": "autog_0249-2563_1982_num_16_12_T1_0033_0000_qa5_v3",
      "id_block": "block_4",
      "question": "Qu'est ce qui n'est ouvert que dix minutes le matin ?",
      "answer": "le secrétariat du lycée",
      "answer_stringIds": [
        "string_176",
        "string_177",
        "string_178",
        "string_179"
      ]
    },
    {
      "id_qa": "autog_0249-2563_1982_num_16_12_T1_0033_0000_qa27_v3",
      "id_block": "block_5",
      "question": "Qui sépare les élèves qui veulent travailler ensemble ?",
      "answer": "la documentaliste",
      "answer_stringIds": [
        "string_204",
        "string_205"
      ]
    },
    {
      "id_qa": "autog_0249-2563_1982_num_16_12_T1_0033_0000_qa49_v3",
      "id_block": "block_6",
      "question": "Qu'est ce qui a fonctionné comme un analyseur ?",
      "answer": "ce questionnaire",
      "answer_stringIds": [
        "string_221",
        "string_222"
      ]
    },
    {
      "id_qa": "autog_0249-2563_1982_num_16_12_T1_0033_0000_qa51_v3",
      "id_block": "block_6",
      "question": "Comment a fonctionné le questionnaire ?",
      "answer": "comme un analyseur",
      "answer_stringIds": [
        "string_239",
        "string_240",
        "string_241"
      ]
    },
    {
      "id_qa": "autog_0249-2563_1982_num_16_12_T1_0033_0000_qa52_v3",
      "id_block": "block_6",
      "question": "Qu'est-ce qui a été utilisé comme un analyseur ?",
      "answer": "ce questionnaire",
      "answer_stringIds": [
        "string_221",
        "string_222"
      ]
    },
    {
      "id_qa": "autog_0249-2563_1982_num_16_12_T1_0033_0000_qa53_v3",
      "id_block": "block_6",
      "question": "Quel outil a été utilisé pour analyser les conflits latents profs/administration ?",
      "answer": "ce questionnaire",
      "answer_stringIds": [
        "string_221",
        "string_222"
      ]
    },
    {
      "id_qa": "autog_0249-2563_1982_num_16_12_T1_0033_0000_qa45_v3",
      "id_block": "block_7",
      "question": "Qui joue un rôle important dans la situation ?",
      "answer": "Le Fournal",
      "answer_stringIds": [
        "string_262",
        "string_263"
      ]
    }
  ]
}