{
  "num": "autog_0249-2563_1981_num_14_6",
  "article": "autog_0249-2563_1981_num_14_6_1426",
  "page_name": "FMSH_PB188a_NS_00006_035",
  "questions": [
    "Quels gestionnaires sont-ils qui échappent à tout contrôle de la base ?",
    "En quelles manières la classe ouvrière est-elle occupée par des problèmes économiques quotidiens et éloignée des problèmes politiques généraux ?",
    "Qu'est le rôle réel des délégations dans le système politique ?",
    "Quels changements ont été introduits récemment dans le contexte d'une vraie démocratie ?",
    "En quelle mesure la structure politique du parti a-t-elle changé, malgré les conflits avec le stalinisme ?",
    "Comment la démocratisation du parti est-elle une pré-supposition essentielle pour la démocratisation de la vie politique en général ?",
    "Quels sont les possibilités de changement dans le passé proche ?",
    "Quel était le rôle du mouvement étudiant dans les questions importantes ?",
    "Quel est le sort de la classe ouvrière dans cette situation ?",
    "Qu'est ce qui empêche l'articulation des demandes de la classe ouvrière en tant que classe sociale ?",
    "Quel est le besoin social essentiel qui est nécessaire pour la démocratie politique ?",
    "Comment les partis communistes sont-ils organisés contre l'auto-détermination libre dans les pays dits socialistes ?",
    "Qu'est cette « autogestion » sans auto-détermination de l'homme ?",
    "Comment cette nouvelle administration différente de l'ancienne ne permet-elle pas une démocratie politique et sociale ?"
  ]
}