{
  "num": "autog_0249-2563_1981_num_14_6",
  "article": "autog_0249-2563_1981_num_14_6_1426",
  "page_name": "FMSH_PB188a_NS_00006_040",
  "questions": [
    "Quel est le statut du mouvement féministe à Zagreb ?",
    "Pourquoi le pouvoir ne prend-il pas le mouvement féministe très au sérieux ?",
    "Existe-til un mouvement féministe organisé à Belgrade ?",
    "Comment se manifestent les volontés d'expression indépendantes de l'emprise bureaucratique à Belgrade ?",
    "Qu'est l'autogestion selon L. Tadic ?",
    "Qu'est l'oligarchie politique selon L. Tadic ?",
    "Comment les virtualités de l'autogestion sont-elles bloquées selon L. Tadic ?"
  ]
}