{
  "num": "autog_0005-0970_1967_num_4_1",
  "article": "autog_0005-0970_1967_num_4_1_915",
  "page_name": "FMSH_PB188a_00004_167",
  "questions": [
    {
      "id_qa": "FMSH_PB188a_00004_167_qa9_v3",
      "id_block": "block_1",
      "question": "Quand s'ouvre la période de transition ?",
      "answer": "après la prise du pouvoir",
      "answer_stringIds": [
        "string_42",
        "string_43",
        "string_44",
        "string_45",
        "string_46"
      ]
    },
    {
      "id_qa": "FMSH_PB188a_00004_167_qa25_v3",
      "id_block": "block_1",
      "question": "Qu'est-ce qui est important pour le pouvoir ?",
      "answer": "tous les problèmes",
      "answer_stringIds": [
        "string_7",
        "string_8",
        "string_9"
      ]
    },
    {
      "id_qa": "FMSH_PB188a_00004_167_qa35_v3",
      "id_block": "block_1",
      "question": "Qu'est-ce qui était l'idée prolétarienne par excellence ?",
      "answer": "le socialisme",
      "answer_stringIds": [
        "string_55",
        "string_56"
      ]
    },
    {
      "id_qa": "FMSH_PB188a_00004_167_qa36_v3",
      "id_block": "block_1",
      "question": "Qui s'était rallié à l'idée du socialisme ?",
      "answer": "le prolétariat",
      "answer_stringIds": [
        "string_64",
        "string_65"
      ]
    },
    {
      "id_qa": "FMSH_PB188a_00004_167_qa10_v3",
      "id_block": "block_2",
      "question": "Qu'est-ce que les travaïlleurs perdaient la confiance des travailleurs ?",
      "answer": "ce que feraient les socialistes au pouvoir",
      "answer_stringIds": [
        "string_91",
        "string_92",
        "string_93",
        "string_94",
        "string_95",
        "string_96",
        "string_97"
      ]
    },
    {
      "id_qa": "FMSH_PB188a_00004_167_qa12_v3",
      "id_block": "block_2",
      "question": "Qui perdrait la confiance des travaïlleurs ?",
      "answer": "les socialistes au pouvoir",
      "answer_stringIds": [
        "string_94",
        "string_95",
        "string_96",
        "string_97"
      ]
    },
    {
      "id_qa": "FMSH_PB188a_00004_167_qa13_v3",
      "id_block": "block_2",
      "question": "Qu'est ce que feraient les socialistes au pouvoir ?",
      "answer": "la confiance des travaïlleurs",
      "answer_stringIds": [
        "string_100",
        "string_101",
        "string_102",
        "string_103"
      ]
    },
    {
      "id_qa": "FMSH_PB188a_00004_167_qa22_v3",
      "id_block": "block_2",
      "question": "Qu'est-ce qui était là pour vaincre la résistance des classes possédantes ?",
      "answer": "la dictature",
      "answer_stringIds": [
        "string_151",
        "string_152"
      ]
    },
    {
      "id_qa": "FMSH_PB188a_00004_167_qa24_v3",
      "id_block": "block_2",
      "question": "Pour les bolcheviks, qu'est-ce que la dictature du prolétariat ?",
      "answer": "la résistance des classes possédantes",
      "answer_stringIds": [
        "string_180",
        "string_181",
        "string_182",
        "string_183",
        "string_184"
      ]
    },
    {
      "id_qa": "FMSH_PB188a_00004_167_qa29_v3",
      "id_block": "block_2",
      "question": "Quelle est la conséquence de l'instauration du socialisme ?",
      "answer": "compte de la volonté de la classe ouvrière",
      "answer_stringIds": [
        "string_126",
        "string_127",
        "string_128",
        "string_129",
        "string_130",
        "string_131",
        "string_132",
        "string_133"
      ]
    },
    {
      "id_qa": "FMSH_PB188a_00004_167_qa30_v3",
      "id_block": "block_2",
      "question": "Qu'est-ce qu'il était possible ou admissible de tenter d'instaurer ?",
      "answer": "le socialisme",
      "answer_stringIds": [
        "string_55",
        "string_56"
      ]
    },
    {
      "id_qa": "FMSH_PB188a_00004_167_qa50_v3",
      "id_block": "block_3",
      "question": "Quand le Parti bolchevique traversait-il une crise morale profonde ?",
      "answer": "Entre 1920 et 1921",
      "answer_stringIds": [
        "string_206",
        "string_207",
        "string_208",
        "string_209"
      ]
    },
    {
      "id_qa": "FMSH_PB188a_00004_167_qa53_v3",
      "id_block": "block_3",
      "question": "Qui a décrit la crise morale en 1921 ?",
      "answer": "Lénine",
      "answer_stringIds": [
        "string_227"
      ]
    },
    {
      "id_qa": "FMSH_PB188a_00004_167_qa55_v3",
      "id_block": "block_3",
      "question": "Que traversait le Parti bolchevique entre 1920 et 1921 ?",
      "answer": "une crise morale profonde",
      "answer_stringIds": [
        "string_214",
        "string_215",
        "string_216",
        "string_217"
      ]
    },
    {
      "id_qa": "FMSH_PB188a_00004_167_qa56_v3",
      "id_block": "block_3",
      "question": "Qui évoqua plus tard la crise morale ?",
      "answer": "Lénine",
      "answer_stringIds": [
        "string_227"
      ]
    },
    {
      "id_qa": "FMSH_PB188a_00004_167_qa1_v3",
      "id_block": "block_4",
      "question": "A qui était destiné le destin de la république ?",
      "answer": "de la république à une classe ouvrière",
      "answer_stringIds": [
        "string_428",
        "string_429",
        "string_430",
        "string_431",
        "string_432",
        "string_433",
        "string_434"
      ]
    },
    {
      "id_qa": "FMSH_PB188a_00004_167_qa5_v3",
      "id_block": "block_4",
      "question": "Par quoi la classe ouvrière a-t-elle été appauvrie ?",
      "answer": "par la guerre civile",
      "answer_stringIds": [
        "string_439",
        "string_440",
        "string_441",
        "string_442"
      ]
    },
    {
      "id_qa": "FMSH_PB188a_00004_167_qa17_v3",
      "id_block": "block_4",
      "question": "A quoi servait la méthode de gouvernement ?",
      "answer": "à « forcer les gens à croire",
      "answer_stringIds": [
        "string_333",
        "string_334",
        "string_335",
        "string_336",
        "string_337",
        "string_338",
        "string_339",
        "string_340"
      ]
    },
    {
      "id_qa": "FMSH_PB188a_00004_167_qa18_v3",
      "id_block": "block_4",
      "question": "Que voulaient faire les bolcheviks contre la méthode de gouvernement ?",
      "answer": "les gens",
      "answer_stringIds": [
        "string_337",
        "string_338"
      ]
    },
    {
      "id_qa": "FMSH_PB188a_00004_167_qa37_v3",
      "id_block": "block_4",
      "question": "Qui considère que leurs vues étaient idéalistes ?",
      "answer": "Isaac Deutscher",
      "answer_stringIds": [
        "string_314",
        "string_315"
      ]
    }
  ]
}