{
  "num": "autog_0005-0970_1967_num_4_1",
  "article": "autog_0005-0970_1967_num_4_1_915",
  "page_name": "FMSH_PB188a_00004_171",
  "questions": [
    {
      "id_qa": "FMSH_PB188a_00004_171_qa0_v3",
      "id_block": "block_2",
      "question": "Qu'est ce qui caractérise la division sociale du travail ?",
      "answer": "les clivages",
      "answer_stringIds": [
        "string_178",
        "string_179"
      ]
    },
    {
      "id_qa": "FMSH_PB188a_00004_171_qa4_v3",
      "id_block": "block_2",
      "question": "Qu'est ce qui peut être déiruite ?",
      "answer": "La bureaucratie",
      "answer_stringIds": [
        "string_139",
        "string_140"
      ]
    },
    {
      "id_qa": "FMSH_PB188a_00004_171_qa7_v3",
      "id_block": "block_2",
      "question": "Qu'est ce qui est devenu une méthode anachronique ?",
      "answer": "des méthodes anachroniques et réactionnaires",
      "answer_stringIds": [
        "string_70",
        "string_71",
        "string_72",
        "string_73",
        "string_74"
      ]
    },
    {
      "id_qa": "FMSH_PB188a_00004_171_qa11_v3",
      "id_block": "block_2",
      "question": "Qui pense que la classe ouvrière doit viser simplement à contrôler l'Etat et la bureaucratie ?",
      "answer": "Isaac Deutscher",
      "answer_stringIds": [
        "string_209",
        "string_210"
      ]
    },
    {
      "id_qa": "FMSH_PB188a_00004_171_qa17_v3",
      "id_block": "block_2",
      "question": "Qu'est-ce qui ne résout pas la question du contrôle de la bureaucratie ?",
      "answer": "celle",
      "answer_stringIds": [
        "string_254"
      ]
    },
    {
      "id_qa": "FMSH_PB188a_00004_171_qa18_v3",
      "id_block": "block_2",
      "question": "Qu'est-ce que la bureaucratie ?",
      "answer": "savoir",
      "answer_stringIds": [
        "string_256"
      ]
    },
    {
      "id_qa": "FMSH_PB188a_00004_171_qa6_v3",
      "id_block": "block_3",
      "question": "Quelle est la forme de la démocratie ?",
      "answer": "la démocratie socialiste",
      "answer_stringIds": [
        "string_353",
        "string_354",
        "string_355",
        "string_356"
      ]
    },
    {
      "id_qa": "FMSH_PB188a_00004_171_qa13_v3",
      "id_block": "block_3",
      "question": "Qu'est-ce qui s'avérerait vite inefficace ?",
      "answer": "le contrôle",
      "answer_stringIds": [
        "string_309",
        "string_310"
      ]
    },
    {
      "id_qa": "FMSH_PB188a_00004_171_qa19_v3",
      "id_block": "block_3",
      "question": "A quoi sert la bureaucratie ?",
      "answer": "louer ses",
      "answer_stringIds": [
        "string_293",
        "string_294"
      ]
    },
    {
      "id_qa": "FMSH_PB188a_00004_171_qa20_v3",
      "id_block": "block_3",
      "question": "Qu'est ce qui se prolonge tout en dépérissant ?",
      "answer": "une certaine bureaucratie",
      "answer_stringIds": [
        "string_271",
        "string_272",
        "string_273",
        "string_274"
      ]
    },
    {
      "id_qa": "FMSH_PB188a_00004_171_qa21_v3",
      "id_block": "block_3",
      "question": "Qu'est ce qui ne gère pas, ne gouverne pas ?",
      "answer": "une certaine bureaucratie",
      "answer_stringIds": [
        "string_271",
        "string_272",
        "string_273",
        "string_274"
      ]
    },
    {
      "id_qa": "FMSH_PB188a_00004_171_qa22_v3",
      "id_block": "block_3",
      "question": "Qu'est ce qui se prolonge ?",
      "answer": "une certaine bureaucratie",
      "answer_stringIds": [
        "string_271",
        "string_272",
        "string_273",
        "string_274"
      ]
    },
    {
      "id_qa": "FMSH_PB188a_00004_171_qa24_v3",
      "id_block": "block_3",
      "question": "Quelles sont les caractéristiques de la bureaucratie ?",
      "answer": "collectifs démocratiques des producteurs directs et des citoyens",
      "answer_stringIds": [
        "string_298",
        "string_299",
        "string_300",
        "string_301",
        "string_302",
        "string_303",
        "string_304",
        "string_305"
      ]
    },
    {
      "id_qa": "FMSH_PB188a_00004_171_qa30_v3",
      "id_block": "block_3",
      "question": "Qu'est ce qui s'imbrique à la fonction de gestion ?",
      "answer": "le contrôle de la classe",
      "answer_stringIds": [
        "string_309",
        "string_310",
        "string_311",
        "string_312",
        "string_313"
      ]
    }
  ]
}