{
  "num": "autog_0005-0970_1967_num_4_1",
  "article": "autog_0005-0970_1967_num_4_1_911",
  "page_name": "FMSH_PB188a_00004_113",
  "questions": [
    {
      "id_qa": "FMSH_PB188a_00004_113_qa9_v3",
      "id_block": "block_3",
      "question": "Qui a pris le pouvoir en octobre 1917 ?",
      "answer": "Les Soviets",
      "answer_stringIds": [
        "string_17",
        "string_18"
      ]
    },
    {
      "id_qa": "FMSH_PB188a_00004_113_qa12_v3",
      "id_block": "block_3",
      "question": "Quand les Soviets ont-ils pris le pouvoir ?",
      "answer": "en octobre 1917",
      "answer_stringIds": [
        "string_27",
        "string_28",
        "string_29"
      ]
    },
    {
      "id_qa": "FMSH_PB188a_00004_113_qa13_v3",
      "id_block": "block_3",
      "question": "Qui était le seul parti ouvrier de la révolution russe ?",
      "answer": "du parti bolchevique",
      "answer_stringIds": [
        "string_40",
        "string_41",
        "string_42"
      ]
    },
    {
      "id_qa": "FMSH_PB188a_00004_113_qa14_v3",
      "id_block": "block_3",
      "question": "Qui est le seul parti ouvrier de la révolution russe ?",
      "answer": "du parti bolchevique",
      "answer_stringIds": [
        "string_40",
        "string_41",
        "string_42"
      ]
    },
    {
      "id_qa": "FMSH_PB188a_00004_113_qa27_v3",
      "id_block": "block_3",
      "question": "Qui a gagné la majorité dans les soviets ?",
      "answer": "les bolcheviks",
      "answer_stringIds": [
        "string_114",
        "string_115"
      ]
    },
    {
      "id_qa": "FMSH_PB188a_00004_113_qa31_v3",
      "id_block": "block_3",
      "question": "De quand date la majorité dans les soviets ?",
      "answer": "de février à octobre",
      "answer_stringIds": [
        "string_91",
        "string_92",
        "string_93",
        "string_94"
      ]
    },
    {
      "id_qa": "FMSH_PB188a_00004_113_qa33_v3",
      "id_block": "block_3",
      "question": "Qui devait gagner pas à pas la classe ouvrière ?",
      "answer": "les bolcheviks",
      "answer_stringIds": [
        "string_114",
        "string_115"
      ]
    },
    {
      "id_qa": "FMSH_PB188a_00004_113_qa6_v3",
      "id_block": "block_4",
      "question": "Qui était à l'origine des journées révolutionnaires de 1905 ?",
      "answer": "la classe ouvrière",
      "answer_stringIds": [
        "string_106",
        "string_107",
        "string_108"
      ]
    },
    {
      "id_qa": "FMSH_PB188a_00004_113_qa8_v3",
      "id_block": "block_4",
      "question": "Avec qui la tradition de 1905 a-t-elle renoué ?",
      "answer": "la classe ouvrière insurgée",
      "answer_stringIds": [
        "string_226",
        "string_227",
        "string_228",
        "string_229"
      ]
    },
    {
      "id_qa": "FMSH_PB188a_00004_113_qa41_v3",
      "id_block": "block_4",
      "question": "Quelle révolution a eu lieu à Pétrograd ?",
      "answer": "La révolution de février",
      "answer_stringIds": [
        "string_130",
        "string_131",
        "string_132",
        "string_133"
      ]
    },
    {
      "id_qa": "FMSH_PB188a_00004_113_qa42_v3",
      "id_block": "block_4",
      "question": "Par qui a été faite la révolution de février ?",
      "answer": "par une insurrection spontanée du prolétariat de Pétrograd",
      "answer_stringIds": [
        "string_138",
        "string_139",
        "string_140",
        "string_141",
        "string_142",
        "string_143",
        "string_144",
        "string_145"
      ]
    },
    {
      "id_qa": "FMSH_PB188a_00004_113_qa43_v3",
      "id_block": "block_4",
      "question": "Qu'est ce qui devait passer entre les mains des ouvriers ?",
      "answer": "le pouvoir",
      "answer_stringIds": [
        "string_22",
        "string_23"
      ]
    },
    {
      "id_qa": "FMSH_PB188a_00004_113_qa45_v3",
      "id_block": "block_4",
      "question": "Quand les libéraux forment-ils le gouvernement provisoire ?",
      "answer": "au début de mars",
      "answer_stringIds": [
        "string_184",
        "string_185",
        "string_186",
        "string_187"
      ]
    },
    {
      "id_qa": "FMSH_PB188a_00004_113_qa47_v3",
      "id_block": "block_4",
      "question": "A qui appartient le gouvernement provisoire ?",
      "answer": "des libéraux",
      "answer_stringIds": [
        "string_180",
        "string_181"
      ]
    },
    {
      "id_qa": "FMSH_PB188a_00004_113_qa1_v3",
      "id_block": "block_5",
      "question": "De qui proviennent les indications (Al) dans le texte ?",
      "answer": "de textes de Lénine",
      "answer_stringIds": [
        "string_294",
        "string_295",
        "string_296",
        "string_297"
      ]
    },
    {
      "id_qa": "FMSH_PB188a_00004_113_qa2_v3",
      "id_block": "block_5",
      "question": "A quoi renvoient les indications (Al) dans le texte ?",
      "answer": "aux choix de textes de Lénine",
      "answer_stringIds": [
        "string_292",
        "string_293",
        "string_294",
        "string_295",
        "string_296",
        "string_297"
      ]
    },
    {
      "id_qa": "FMSH_PB188a_00004_113_qa3_v3",
      "id_block": "block_5",
      "question": "Où sont publiés les textes de Lénine ?",
      "answer": "en annexe",
      "answer_stringIds": [
        "string_299",
        "string_300"
      ]
    }
  ]
}