{
  "num": "autog_0338-7259_1970_num_11_1",
  "article": "autog_0338-7259_1970_num_11_1_965",
  "page_name": "FMSH_PB188a_11-12_129",
  "questions": [
    "Quels sont les convictions des partisans du socialisme scientifique quant à l'identification du socialisme avec un seul modèle ?",
    "Quels nouveaux modèles de rapports sociaux socialistes sont étudiés et élaborés par les théoriciens ?",
    "Quels sont les espoirs attachés dans une partie du mouvement ouvrier des pays occidentaux aux possibilités de participation à la gestion de la production ?",
    "Quels sont les domaines dans lesquels le mouvement ouvrier a obtenu des succès partiels ?",
    "Comment le système social des sociétés capitalistes industrielles est-il stabilisé et doté de relations mutuelles multiples ?",
    "Comment le système social capitaliste industriel parvient-il à transformer tout succès partiel du mouvement ouvrier ?"
  ]
}