{
  "num": "autog_0338-7259_1975_num_32_1",
  "article": "autog_0338-7259_1975_num_32_1_1138",
  "page_name": "FMSH_PB188a_00032_006",
  "questions": [
    {
      "id_qa": "FMSH_PB188a_00032_006_qa0_v3",
      "id_block": "block_1",
      "question": "Qu'est ce qui n'a pas réussi à s'implanter profondément et durablement sur le territoire ?",
      "answer": "le socialisme",
      "answer_stringIds": [
        "string_155",
        "string_156"
      ]
    },
    {
      "id_qa": "FMSH_PB188a_00032_006_qa1_v3",
      "id_block": "block_1",
      "question": "Quand l'industrialisation a-t-elle eu lieu ?",
      "answer": "dès ses débuts",
      "answer_stringIds": [
        "string_173",
        "string_174",
        "string_175"
      ]
    },
    {
      "id_qa": "FMSH_PB188a_00032_006_qa2_v3",
      "id_block": "block_1",
      "question": "Qu'est ce qui a été à l'origine de l'industrialisation ?",
      "answer": "des affrontements de classe extrêmement violents",
      "answer_stringIds": [
        "string_176",
        "string_177",
        "string_178",
        "string_179",
        "string_180",
        "string_181"
      ]
    },
    {
      "id_qa": "FMSH_PB188a_00032_006_qa3_v3",
      "id_block": "block_1",
      "question": "Qu'est ce qui n'a pas eu lieu ?",
      "answer": "la révolution",
      "answer_stringIds": [
        "string_39",
        "string_40"
      ]
    },
    {
      "id_qa": "FMSH_PB188a_00032_006_qa4_v3",
      "id_block": "block_1",
      "question": "Qu'est ce qui n'a pas réussi à s'implanter profondément et durablement sur cet immense territoire ?",
      "answer": "le socialisme",
      "answer_stringIds": [
        "string_155",
        "string_156"
      ]
    },
    {
      "id_qa": "FMSH_PB188a_00032_006_qa5_v3",
      "id_block": "block_1",
      "question": "Quelle est la caractéristique de la société américaine ?",
      "answer": "la société bourgeoise",
      "answer_stringIds": [
        "string_124",
        "string_125",
        "string_126"
      ]
    },
    {
      "id_qa": "FMSH_PB188a_00032_006_qa10_v3",
      "id_block": "block_1",
      "question": "Qu'est ce qui est solidement installé dans la classe ouvrière ?",
      "answer": "les préjugés bourgeois",
      "answer_stringIds": [
        "string_107",
        "string_108",
        "string_109"
      ]
    },
    {
      "id_qa": "FMSH_PB188a_00032_006_qa11_v3",
      "id_block": "block_1",
      "question": "Qu'est ce qui n'a jamais connu le pays si jeune ?",
      "answer": "le féodalisme",
      "answer_stringIds": [
        "string_97",
        "string_98"
      ]
    },
    {
      "id_qa": "FMSH_PB188a_00032_006_qa12_v3",
      "id_block": "block_1",
      "question": "Qu'est ce qui n'a jamais connu dans un pays si jeune ?",
      "answer": "le féodalisme",
      "answer_stringIds": [
        "string_97",
        "string_98"
      ]
    },
    {
      "id_qa": "FMSH_PB188a_00032_006_qa19_v3",
      "id_block": "block_1",
      "question": "Qui pense qu'aucun pays n'était plus mr pour la révolution que les Etats-Unis ?",
      "answer": "Marx",
      "answer_stringIds": [
        "string_15"
      ]
    },
    {
      "id_qa": "FMSH_PB188a_00032_006_qa6_v3",
      "id_block": "block_4",
      "question": "Qui doit engager contre le Capitalisme mondial ?",
      "answer": "la classe ouvrière américaine",
      "answer_stringIds": [
        "string_321",
        "string_322",
        "string_323",
        "string_324"
      ]
    },
    {
      "id_qa": "FMSH_PB188a_00032_006_qa7_v3",
      "id_block": "block_4",
      "question": "Contre quoi la classe ouvrière américaine doit-elle engager la guerre la plus difficile ?",
      "answer": "contre le Capitalisme mondial",
      "answer_stringIds": [
        "string_374",
        "string_375",
        "string_376",
        "string_377"
      ]
    },
    {
      "id_qa": "FMSH_PB188a_00032_006_qa9_v3",
      "id_block": "block_4",
      "question": "Contre quoi la classe ouvrière américaine devra-t-elle s'engager ?",
      "answer": "engager contre le Capitalisme mondial",
      "answer_stringIds": [
        "string_373",
        "string_374",
        "string_375",
        "string_376",
        "string_377"
      ]
    }
  ]
}