{
  "num": "autog_0249-2563_1980_num_13_2",
  "article": "autog_0249-2563_1980_num_13_2_1369",
  "page_name": "autog_0249-2563_1980_num_13_2_T1_0290_0000",
  "questions": [
    {
      "id_qa": "autog_0249-2563_1980_num_13_2_T1_0290_0000_qa10_v3",
      "id_block": "block_0",
      "question": "Qui a dit qu'on avait tendance à mettre l'Etat au-dessus du Droit ?",
      "answer": "Alfred Grosser",
      "answer_stringIds": [
        "string_16",
        "string_17"
      ]
    },
    {
      "id_qa": "autog_0249-2563_1980_num_13_2_T1_0290_0000_qa17_v3",
      "id_block": "block_0",
      "question": "Qu'est ce qui est menacé par les mécanismes constitutionnels ?",
      "answer": "les libertés",
      "answer_stringIds": [
        "string_63",
        "string_64"
      ]
    },
    {
      "id_qa": "autog_0249-2563_1980_num_13_2_T1_0290_0000_qa18_v3",
      "id_block": "block_0",
      "question": "Qu'est ce qui permet de bien gérer la machine?",
      "answer": "les mécanismes constitutionnels",
      "answer_stringIds": [
        "string_53",
        "string_54",
        "string_55"
      ]
    },
    {
      "id_qa": "autog_0249-2563_1980_num_13_2_T1_0290_0000_qa1_v3",
      "id_block": "block_2",
      "question": "Sur quoi l'idéologie conservatrice a-t-elle fonctionné ?",
      "answer": "sur la culture politique libérale",
      "answer_stringIds": [
        "string_299",
        "string_300",
        "string_301",
        "string_302",
        "string_303"
      ]
    },
    {
      "id_qa": "autog_0249-2563_1980_num_13_2_T1_0290_0000_qa3_v3",
      "id_block": "block_2",
      "question": "Sur quoi repose l'idéologie conservatrice ?",
      "answer": "sur la culture politique libérale née de la Loi Fonda",
      "answer_stringIds": [
        "string_299",
        "string_300",
        "string_301",
        "string_302",
        "string_303",
        "string_304",
        "string_305",
        "string_306",
        "string_307",
        "string_308"
      ]
    },
    {
      "id_qa": "autog_0249-2563_1980_num_13_2_T1_0290_0000_qa4_v3",
      "id_block": "block_2",
      "question": "Qui n'a pas d'autre argument que de comparer le sectarisme gauchiste aux méthodes d'intimidation ou de répression fascistes ?",
      "answer": "La droite",
      "answer_stringIds": [
        "string_223",
        "string_224"
      ]
    },
    {
      "id_qa": "autog_0249-2563_1980_num_13_2_T1_0290_0000_qa5_v3",
      "id_block": "block_2",
      "question": "Qu'est ce qui a incontestablement existé aux méthodes d'intimidation ou de répression fascistes ?",
      "answer": "le sectarisme gauchiste",
      "answer_stringIds": [
        "string_233",
        "string_234",
        "string_235"
      ]
    },
    {
      "id_qa": "autog_0249-2563_1980_num_13_2_T1_0290_0000_qa7_v3",
      "id_block": "block_2",
      "question": "Qu'est ce qui a incontestablement existé ?",
      "answer": "le sectarisme gauchiste",
      "answer_stringIds": [
        "string_233",
        "string_234",
        "string_235"
      ]
    },
    {
      "id_qa": "autog_0249-2563_1980_num_13_2_T1_0290_0000_qa22_v3",
      "id_block": "block_2",
      "question": "Qu'indiquaient les conceptions d'enseignement coopératif professées dans certains lycées et universités ?",
      "answer": "la société autoritaire héritée du Reich wilhelminien et du fascisme était devenue chancelante",
      "answer_stringIds": [
        "string_210",
        "string_211",
        "string_212",
        "string_213",
        "string_214",
        "string_215",
        "string_216",
        "string_217",
        "string_218",
        "string_219",
        "string_220",
        "string_221",
        "string_222"
      ]
    },
    {
      "id_qa": "autog_0249-2563_1980_num_13_2_T1_0290_0000_qa23_v3",
      "id_block": "block_2",
      "question": "Comment était la société autoritaire héritée du Reich wilhelminien et du fascisme ?",
      "answer": "chancelante",
      "answer_stringIds": [
        "string_222"
      ]
    },
    {
      "id_qa": "autog_0249-2563_1980_num_13_2_T1_0290_0000_qa25_v3",
      "id_block": "block_2",
      "question": "Dans quels établissements les conceptions d'enseignement coopératif étaient-elles enseignées ?",
      "answer": "dans certains lycées et certaines universités",
      "answer_stringIds": [
        "string_202",
        "string_203",
        "string_204",
        "string_205",
        "string_206",
        "string_207"
      ]
    },
    {
      "id_qa": "autog_0249-2563_1980_num_13_2_T1_0290_0000_qa26_v3",
      "id_block": "block_2",
      "question": "Qu'est ce que la gauche allemande retrouve-t-elle avant Weimar ?",
      "answer": "des formes de culture libertaire",
      "answer_stringIds": [
        "string_153",
        "string_154",
        "string_155",
        "string_156",
        "string_157"
      ]
    },
    {
      "id_qa": "autog_0249-2563_1980_num_13_2_T1_0290_0000_qa28_v3",
      "id_block": "block_2",
      "question": "Qu'est ce que la gauche allemande retrouve après Weimar ?",
      "answer": "des formes de culture libertaire",
      "answer_stringIds": [
        "string_153",
        "string_154",
        "string_155",
        "string_156",
        "string_157"
      ]
    }
  ]
}