{
  "num": "autog_0338-7259_1976_num_35_1",
  "article": "autog_0338-7259_1976_num_35_1_1177",
  "page_name": "FMSH_PB188a_35-36_081",
  "questions": [
    {
      "id_qa": "FMSH_PB188a_35-36_081_qa0_v3",
      "id_block": "block_1",
      "question": "Qu'est-ce qui ne doit pas faire sous-estimer l'un et l'autre ?",
      "answer": "ces regrets",
      "answer_stringIds": [
        "string_X"
      ]
    },
    {
      "id_qa": "FMSH_PB188a_35-36_081_qa2_v3",
      "id_block": "block_1",
      "question": "Qu'est ce qui ne peut pas être confronté tels quels ?",
      "answer": "ces apports",
      "answer_stringIds": [
        "string_X"
      ]
    },
    {
      "id_qa": "FMSH_PB188a_35-36_081_qa16_v3",
      "id_block": "block_1",
      "question": "A qui est réservé l'accueil de l'ouvrage ?",
      "answer": "la critique",
      "answer_stringIds": [
        "string_X"
      ]
    },
    {
      "id_qa": "FMSH_PB188a_35-36_081_qa8_v3",
      "id_block": "block_2",
      "question": "Qu'est-ce que la société sans classe ?",
      "answer": "toute domination des dirigeants sur les dirigés",
      "answer_stringIds": [
        "string_X"
      ]
    },
    {
      "id_qa": "FMSH_PB188a_35-36_081_qa10_v3",
      "id_block": "block_3",
      "question": "Par qui sont occultés les textes marxiens ?",
      "answer": "les organisations marxistes staliniennes",
      "answer_stringIds": [
        "string_X"
      ]
    },
    {
      "id_qa": "FMSH_PB188a_35-36_081_qa11_v3",
      "id_block": "block_3",
      "question": "Par qui sont occultés les écrits de M.Rubel ?",
      "answer": "les organisations marxistes staliniennes",
      "answer_stringIds": [
        "string_X"
      ]
    },
    {
      "id_qa": "FMSH_PB188a_35-36_081_qa12_v3",
      "id_block": "block_3",
      "question": "Qu'est ce qui a été occulté ou déformé par les organisations marxistes ?",
      "answer": "des textes marxiens",
      "answer_stringIds": [
        "string_X"
      ]
    },
    {
      "id_qa": "FMSH_PB188a_35-36_081_qa13_v3",
      "id_block": "block_3",
      "question": "Qui est l'auteur de ce livre ?",
      "answer": "M.Rubel",
      "answer_stringIds": [
        "string_X"
      ]
    },
    {
      "id_qa": "FMSH_PB188a_35-36_081_qa18_v3",
      "id_block": "block_5",
      "question": "Qui publie des études de marxologie ?",
      "answer": "M. Rubel",
      "answer_stringIds": [
        "string_X"
      ]
    },
    {
      "id_qa": "FMSH_PB188a_35-36_081_qa19_v3",
      "id_block": "block_5",
      "question": "Qu'est ce qui est publié chaque année par M. Rubel ?",
      "answer": "des études de marxologie",
      "answer_stringIds": [
        "string_X"
      ]
    }
  ]
}