{
  "num": "autog_0249-2563_1982_num_15_8",
  "article": "autog_0249-2563_1982_num_15_8_1474",
  "page_name": "autog_0249-2563_1982_num_15_8_T1_0090_0000",
  "questions": [
    {
      "id_qa": "autog_0249-2563_1982_num_15_8_T1_0090_0000_qa22_v3",
      "id_block": "block_0",
      "question": "Où est-ce que travailler autrement est une nécessité ?",
      "answer": "dans le Tiers-monde",
      "answer_stringIds": [
        "string_45",
        "string_46",
        "string_47"
      ]
    },
    {
      "id_qa": "autog_0249-2563_1982_num_15_8_T1_0090_0000_qa23_v3",
      "id_block": "block_0",
      "question": "Quels moyens permettent de survivre dans le Tiers-monde ?",
      "answer": "les moyens les plus rudimentaires",
      "answer_stringIds": [
        "string_65",
        "string_66",
        "string_67",
        "string_68",
        "string_69"
      ]
    },
    {
      "id_qa": "autog_0249-2563_1982_num_15_8_T1_0090_0000_qa24_v3",
      "id_block": "block_0",
      "question": "Qui est obligé de travailler autrement dans le Tiers-monde ?",
      "answer": "la majorité des populations",
      "answer_stringIds": [
        "string_56",
        "string_57",
        "string_58",
        "string_59"
      ]
    },
    {
      "id_qa": "autog_0249-2563_1982_num_15_8_T1_0090_0000_qa25_v3",
      "id_block": "block_0",
      "question": "Quelle est la conséquence de travailler autrement dans le Tiers-monde ?",
      "answer": "la majorité des populations qui utilisent pour ce faire les moyens les plus rudimentaires",
      "answer_stringIds": [
        "string_56",
        "string_57",
        "string_58",
        "string_59",
        "string_60",
        "string_61",
        "string_62",
        "string_63",
        "string_64",
        "string_65",
        "string_66",
        "string_67",
        "string_68",
        "string_69"
      ]
    },
    {
      "id_qa": "autog_0249-2563_1982_num_15_8_T1_0090_0000_qa1_v3",
      "id_block": "block_2",
      "question": "Dans quel pays l'éolienne a-t-elle été utilisée ?",
      "answer": "Dans le Tiers-monde",
      "answer_stringIds": [
        "string_200",
        "string_201",
        "string_202"
      ]
    },
    {
      "id_qa": "autog_0249-2563_1982_num_15_8_T1_0090_0000_qa4_v3",
      "id_block": "block_3",
      "question": "Dans quel pays pense-t-on à des méthodes alternatives ?",
      "answer": "Dans le Tiers-monde",
      "answer_stringIds": [
        "string_200",
        "string_201",
        "string_202"
      ]
    },
    {
      "id_qa": "autog_0249-2563_1982_num_15_8_T1_0090_0000_qa7_v3",
      "id_block": "block_4",
      "question": "Qui est sous-alimentée ?",
      "answer": "les gens du Tiers-monde",
      "answer_stringIds": [
        "string_324",
        "string_325",
        "string_326",
        "string_327"
      ]
    }
  ]
}