{
  "num": "autog_0338-7259_1978_num_41_1",
  "article": "autog_0338-7259_1978_num_41_1_1324",
  "page_name": "FMSH_PB188a_41-42_203",
  "questions": [
    "Quels sont les deux objectifs décisifs pour une économie planifiée socialiste selon l'auteur ?",
    "En quoi consiste la première critère de l'économie socialiste planifiée : la participation ?",
    "Est-ce que la participation est acceptée sans contestation par tous les acteurs concernés ?",
    "Quel est le rôle de l'efficacité dans l'économie socialiste planifiée selon l'auteur ?",
    "Est-ce que l'efficacité est une fin en soi ou un moyen ?",
    "Quels sont les objectifs partiels structurant le processus d'émancipation selon l'auteur ?",
    "Comment la participation des intéressés tend à surmonter le contrôle entre les dirigeants et les gouvernés ?",
    "Quels sont les objectifs structuraux des trois modèles théoriques mentionnés : l'économie planifiée centralisée-bureaucratique, le modèle de conseils et l'économie socialiste de marché ?",
    "Comment ces trois modèles correspondent aux systèmes réels en URSS, en République populaire de Chine et en Yougoslavie ?",
    "Quel est l'intention de l'auteur dans ce papier : analyser la développement historique des systèmes dans ces pays ou discuter des caractéristiques structurelles dans leur dimension logique ?"
  ]
}