{
  "num": "autog_0338-7259_1977_num_39_1",
  "article": "autog_0338-7259_1977_num_39_1_1252",
  "page_name": "FMSH_PB188a_00039_032",
  "questions": [
    {
      "id_qa": "FMSH_PB188a_00039_032_qa8_v3",
      "id_block": "block_1",
      "question": "Dans quelle société la famille étendue patrilocale donne-t-elle un rapport actifs/inactifs ?",
      "answer": "dans une société où le travail agricole des",
      "answer_stringIds": [
        "string_125",
        "string_126",
        "string_127",
        "string_128",
        "string_129",
        "string_130",
        "string_131",
        "string_132"
      ]
    },
    {
      "id_qa": "FMSH_PB188a_00039_032_qa10_v3",
      "id_block": "block_1",
      "question": "De quelle famille est composée le chef de famille ?",
      "answer": "la famille étendue patrilocale",
      "answer_stringIds": [
        "string_19",
        "string_20",
        "string_21",
        "string_22"
      ]
    },
    {
      "id_qa": "FMSH_PB188a_00039_032_qa12_v3",
      "id_block": "block_1",
      "question": "Quelle est la phase de la famille étendue patrilocale ?",
      "answer": "la phase sans doute la plus favorable",
      "answer_stringIds": [
        "string_52",
        "string_53",
        "string_54",
        "string_55",
        "string_56",
        "string_57",
        "string_58"
      ]
    },
    {
      "id_qa": "FMSH_PB188a_00039_032_qa14_v3",
      "id_block": "block_1",
      "question": "De qui est composée la famille étendue patrilocale ?",
      "answer": "de leurs enfants",
      "answer_stringIds": [
        "string_36",
        "string_37",
        "string_38"
      ]
    },
    {
      "id_qa": "FMSH_PB188a_00039_032_qa22_v3",
      "id_block": "block_1",
      "question": "Qui est à même d'apporter son contribution en travail ?",
      "answer": "les enfants encore célibataires",
      "answer_stringIds": [
        "string_90",
        "string_91",
        "string_92",
        "string_93"
      ]
    },
    {
      "id_qa": "FMSH_PB188a_00039_032_qa0_v3",
      "id_block": "block_2",
      "question": "A quoi se limite l'extension territoriale et sociale d'une telle entraide ?",
      "answer": "au lignage et même au segment lignager",
      "answer_stringIds": [
        "string_273",
        "string_274",
        "string_275",
        "string_276",
        "string_277",
        "string_278",
        "string_279"
      ]
    },
    {
      "id_qa": "FMSH_PB188a_00039_032_qa1_v3",
      "id_block": "block_2",
      "question": "Où est fragmentée l'unité de descendance ?",
      "answer": "spatialement",
      "answer_stringIds": [
        "string_291"
      ]
    },
    {
      "id_qa": "FMSH_PB188a_00039_032_qa2_v3",
      "id_block": "block_2",
      "question": "En quoi l'unité de descendance est-elle fragmentée ?",
      "answer": "en deux ou plusieurs parties spatialement séparées",
      "answer_stringIds": [
        "string_286",
        "string_287",
        "string_288",
        "string_289",
        "string_290",
        "string_291",
        "string_292"
      ]
    },
    {
      "id_qa": "FMSH_PB188a_00039_032_qa3_v3",
      "id_block": "block_2",
      "question": "Qu'est-ce que l'entraide ?",
      "answer": "une première correction",
      "answer_stringIds": [
        "string_250",
        "string_251",
        "string_252"
      ]
    }
  ]
}