{
  "num": "autog_0338-7259_1974_num_28_1",
  "article": "autog_0338-7259_1974_num_28_1_1190",
  "page_name": "FMSH_PB188a_28-29_039",
  "questions": [
    {
      "id_qa": "FMSH_PB188a_28-29_039_qa2_v3",
      "id_block": "block_2",
      "question": "A quoi l'agent social ne peut-il pas être soumis sans s'être préalablement soumis ?",
      "answer": "commander",
      "answer_stringIds": [
        "string_248"
      ]
    },
    {
      "id_qa": "FMSH_PB188a_28-29_039_qa9_v3",
      "id_block": "block_2",
      "question": "Que représente le concept de dualité ?",
      "answer": "un tout dans son unité",
      "answer_stringIds": [
        "string_200",
        "string_201",
        "string_202",
        "string_203",
        "string_204"
      ]
    },
    {
      "id_qa": "FMSH_PB188a_28-29_039_qa13_v3",
      "id_block": "block_2",
      "question": "Qui commande, ordonne et exécute ?",
      "answer": "celui qui",
      "answer_stringIds": [
        "string_220",
        "string_221"
      ]
    }
  ]
}