{
  "num": "autog_0338-7259_1976_num_33_1",
  "article": "autog_0338-7259_1976_num_33_1_1157",
  "page_name": "FMSH_PB188a_33-34_084",
  "questions": [
    "Quels sont les sources morales qui ont aidé les travailleurs ?",
    "Qu'est le manque à gagner pour Sousabreu ?",
    "En quoi les amis et camarades peuvent-ils aider Sousabreu ?",
    "Quel est le rôle des communes de construction et de consommation dans la création d'un pouvoir populaire ?",
    "Comment les communes de consommation permettent-elles de créer un autre marché ?",
    "Comment les communes renforcent-elles la solidarité ouvrière ?"
  ]
}