{
  "num": "autog_0338-7259_1976_num_33_1",
  "article": "autog_0338-7259_1976_num_33_1_1157",
  "page_name": "FMSH_PB188a_33-34_076",
  "questions": [
    "Quels partis politiques ont entré dans le 6ème gouvernement portugais et sous quelles conditions?",
    "Quels hommes politiques s'opposent aux occupations de maisons par les travailleurs et pourquoi?",
    "Quel est le rôle de Zenha dans ce conflit?",
    "Comment les locataires exploités réagissent-ils aux intentions des gouvernants?",
    "Quels sont les principaux mouvements de locataires et occupants en Portugal?",
    "Comment les deux parties se préparent-elles pour le combat?",
    "Comment le tribunal de Boa-Hora réagit-il à l'occupation d'une maison et pourquoi les locataires décident de faire un jugement populaire?",
    "Quel est le résultat du jugement populaire et quels sont les conséquences?"
  ]
}