{
  "num": "autog_0338-7259_1971_num_16_1",
  "article": "autog_0338-7259_1971_num_16_1_1023_t1_0217_0000_1",
  "page_name": "FMSH_PB188a_16-17_219",
  "questions": [
    "Quels articles couvre le livre de Claude LEFORT, et sur quelle période de temps s'étend cette couverture ?",
    "Qu'est-ce que ce livre offre aux lecteurs, au-delà des « éléments » et de la « critique » annoncés dans le titre ?",
    "Quels sont les trois paramètres théoriques indispensables à toute étude sociologique de la bureaucratie selon LEFORT ?",
    "Comment ces paramètres théoriques sont-ils liés à la Révolution russe et à l'histoire mondiale depuis 1917 ?",
    "Quels auteurs ont influencé les idées de LEFORT sur la bureaucratie ?",
    "Comment l'implication théorique et pratique du sociologue dans l'objet de sa recherche est-elle présentée dans le texte ?",
    "Quel est le rôle de LEFORT dans les groupes politiques mentionnés dans le texte (Trotskiste, groupe Socialisme ou Barbarie) ?"
  ]
}