{
  "num": "autog_0005-0970_1967_num_4_1",
  "article": "autog_0005-0970_1967_num_4_1_916_t1_0177_0000_1",
  "page_name": "FMSH_PB188a_00004_180",
  "questions": [
    {
      "id_qa": "FMSH_PB188a_00004_180_qa18_v3",
      "id_block": "block_2",
      "question": "Où débutait le règne des bureaucrates ?",
      "answer": "dans les usines",
      "answer_stringIds": [
        "string_61",
        "string_62",
        "string_63"
      ]
    },
    {
      "id_qa": "FMSH_PB188a_00004_180_qa20_v3",
      "id_block": "block_2",
      "question": "Qu'est-ce qui débutait dans les usines ?",
      "answer": "le règne des bureaucrates",
      "answer_stringIds": [
        "string_64",
        "string_65",
        "string_66",
        "string_67"
      ]
    },
    {
      "id_qa": "FMSH_PB188a_00004_180_qa1_v3",
      "id_block": "block_6",
      "question": "Qu'est-ce que les lt; Destins de la Révolution russe ?",
      "answer": "résumer les « préoccupations doctrinales — et donc les idéaux — des protagonistes » de la révolution",
      "answer_stringIds": [
        "string_172",
        "string_173",
        "string_174",
        "string_175",
        "string_176",
        "string_177",
        "string_178",
        "string_179",
        "string_180",
        "string_181",
        "string_182",
        "string_183",
        "string_184",
        "string_185",
        "string_186",
        "string_187",
        "string_188"
      ]
    },
    {
      "id_qa": "FMSH_PB188a_00004_180_qa9_v3",
      "id_block": "block_7",
      "question": "Qui a écrit la conception dialectique du bolchevisme ?",
      "answer": "Lénine",
      "answer_stringIds": [
        "string_242"
      ]
    },
    {
      "id_qa": "FMSH_PB188a_00004_180_qa14_v3",
      "id_block": "block_7",
      "question": "Qui a défendu la conception dialectique du bolchevisme ?",
      "answer": "Lénine",
      "answer_stringIds": [
        "string_242"
      ]
    },
    {
      "id_qa": "FMSH_PB188a_00004_180_qa16_v3",
      "id_block": "block_7",
      "question": "Quel était le but du bolchevisme ?",
      "answer": "à un nouveau type de démocratie",
      "answer_stringIds": [
        "string_219",
        "string_220",
        "string_221",
        "string_222",
        "string_223",
        "string_224"
      ]
    },
    {
      "id_qa": "FMSH_PB188a_00004_180_qa23_v3",
      "id_block": "block_7",
      "question": "Qu'est-ce que la participation des travailleurs à la gestion administrative ?",
      "answer": "la « participation des travailleurs à la gestion administrative fut un des objectifs essentiels de la démocratie soviétique",
      "answer_stringIds": [
        "string_363",
        "string_364",
        "string_365",
        "string_366",
        "string_367",
        "string_368",
        "string_369",
        "string_370",
        "string_371",
        "string_372",
        "string_373",
        "string_374",
        "string_375",
        "string_376",
        "string_377",
        "string_378",
        "string_379",
        "string_380",
        "string_381"
      ]
    },
    {
      "id_qa": "FMSH_PB188a_00004_180_qa24_v3",
      "id_block": "block_7",
      "question": "Qui a reconnu qu'il serait particulièrement difficile d'arriver au socialisme ?",
      "answer": "Lénine",
      "answer_stringIds": [
        "string_242"
      ]
    },
    {
      "id_qa": "FMSH_PB188a_00004_180_qa25_v3",
      "id_block": "block_7",
      "question": "Qui a déclaré qu'il serait difficile d'arriver au socialisme ?",
      "answer": "Lénine",
      "answer_stringIds": [
        "string_242"
      ]
    },
    {
      "id_qa": "FMSH_PB188a_00004_180_qa27_v3",
      "id_block": "block_7",
      "question": "Qui pense qu'il serait particulièrement difficile d'y arriver ?",
      "answer": "Lénine",
      "answer_stringIds": [
        "string_242"
      ]
    }
  ]
}