{
  "num": "autog_0005-0970_1969_num_9_1",
  "article": "autog_0005-0970_1969_num_9_1_957",
  "page_name": "FMSH_PB188a_09-10_190",
  "questions": [
    "Quel rôle joue Dusan Luben entre les républiques et en ce qui concerne les obligations envers la Fédération ?",
    "Comment l'extension de l'autogestion dans les unités économiques permet-elle d'appliquer le principe constitutionnel de manière satisfaisante ?",
    "Dans quels cas la répartition du revenu dans les unités de travail est décidée de manière autonome ?",
    "Quels éléments ne sont pas pris en compte dans la répartition du revenu ?",
    "Comment les gains personnels sont-ils déterminés ?",
    "Comment le produit est-il créé dans les unités de travail ?",
    "Comment la répartition du revenu doit-elle être conforme aux rôles et fonctions sociales des producteurs-gestionnaires ?",
    "Comment le revenu devient-il un facteur stimulatif ?",
    "Quels déviations ont été observées après l'instauration de l'autonomie totale des conseils ouvriers en matière de répartition du revenu ?",
    "Comment ces déviations ont-elles été corrigées ?"
  ]
}