{
  "num": "autog_0005-0970_1969_num_9_1",
  "article": "autog_0005-0970_1969_num_9_1_957",
  "page_name": "FMSH_PB188a_09-10_183",
  "questions": [
    "Quels financements sont nécessaires pour les entreprises socialistes yougoslaves pour investir dans l'avenir ?",
    "Quels avantages ont les ouvriers et les gestionnaires de la conduite d'une politique de meilleur développement de la production ?",
    "Comment la répartition du produit social ou net est déterminée dans les entreprises ?",
    "Quel est le degré de liberté dans la répartition des revenus personnels ?",
    "Quel a été le centre d'intérêt des unités de travail depuis leur création ?",
    "Quels sont les intérêts matériels des travailleurs ?",
    "Quels sont les différentes formes de la répartition des revenus personnels ?",
    "Dans quels types d'organisations de travail les unités de travail déterminent-elles les bases de départ des revenus personnels ?"
  ]
}