{
  "num": "autog_0005-0970_1969_num_9_1",
  "article": "autog_0005-0970_1969_num_9_1_957",
  "page_name": "FMSH_PB188a_09-10_173",
  "questions": [
    "Quels sont les fonctions des présidents des comités dans le cadre du système socialiste yougoslave ?",
    "Quels documents signent les présidents des comités avec le directeur et le chef comptable ?",
    "Dans quels cas peuvent les présidents des comités représenter l'entreprise devant les autorités administratives ou judiciaires ?",
    "Quels sont les conséquences pour un membre qui manque injustifiément aux réunions du conseil ?",
    "Quels sont les limites des pouvoirs du directeur dans le système socialiste yougoslave ?",
    "Comment est-il nommé le directeur dans le système socialiste yougoslave ?",
    "Quels sont les attributions du directeur dans le système socialiste yougoslave ?",
    "Dans quelle entité supérieure est le directeur nommé initialement ?"
  ]
}