{
  "num": "autog_0338-7259_1974_num_26_1",
  "article": "autog_0338-7259_1974_num_26_1_1108",
  "page_name": "FMSH_PB188a_26-27_053",
  "questions": [
    {
      "id_qa": "FMSH_PB188a_26-27_053_qa22_v3",
      "id_block": "block_1",
      "question": "Qui a servi le fascisme turinois ?",
      "answer": "les industriels",
      "answer_stringIds": [
        "string_29",
        "string_30"
      ]
    },
    {
      "id_qa": "FMSH_PB188a_26-27_053_qa23_v3",
      "id_block": "block_1",
      "question": "Qu'est ce qui servit les industriels ?",
      "answer": "le fascisme turinois",
      "answer_stringIds": [
        "string_58",
        "string_59",
        "string_60"
      ]
    },
    {
      "id_qa": "FMSH_PB188a_26-27_053_qa1_v3",
      "id_block": "block_2",
      "question": "Qu'est-ce que le sang de deux travailleurs tués par les gardes royales ?",
      "answer": "cette page de lutte du prolétariat turinois",
      "answer_stringIds": [
        "string_142",
        "string_143",
        "string_144",
        "string_145",
        "string_146",
        "string_147",
        "string_148"
      ]
    },
    {
      "id_qa": "FMSH_PB188a_26-27_053_qa14_v3",
      "id_block": "block_2",
      "question": "Quelle est la stratégie des fascistes turinois ?",
      "answer": "la provocation et le mensonge",
      "answer_stringIds": [
        "string_96",
        "string_97",
        "string_98",
        "string_99",
        "string_100",
        "string_101"
      ]
    },
    {
      "id_qa": "FMSH_PB188a_26-27_053_qa21_v3",
      "id_block": "block_3",
      "question": "De quand date l'éruption du mont saint helens ?",
      "answer": "de celle de Septembre",
      "answer_stringIds": [
        "string_157",
        "string_158",
        "string_159",
        "string_160"
      ]
    },
    {
      "id_qa": "FMSH_PB188a_26-27_053_qa20_v3",
      "id_block": "block_4",
      "question": "Sur quoi l'action portée sur un tel terrain ne pouvait-elle que déboucher ?",
      "answer": "des « pourparlers",
      "answer_stringIds": [
        "string_201",
        "string_202",
        "string_203",
        "string_204"
      ]
    },
    {
      "id_qa": "FMSH_PB188a_26-27_053_qa18_v3",
      "id_block": "block_5",
      "question": "Qu'accentua l'accord survenu sur la base du « contrôle » ?",
      "answer": "le caractère révolutionnaire",
      "answer_stringIds": [
        "string_275",
        "string_276",
        "string_277"
      ]
    },
    {
      "id_qa": "FMSH_PB188a_26-27_053_qa19_v3",
      "id_block": "block_5",
      "question": "A qui l'accord sur la base du « contrôle » apparut-il comme une trahison ?",
      "answer": "aux masses laborieuses",
      "answer_stringIds": [
        "string_295",
        "string_296",
        "string_297"
      ]
    }
  ]
}