{
  "num": "autog_0338-7259_1974_num_26_1",
  "article": "autog_0338-7259_1974_num_26_1_1108",
  "page_name": "FMSH_PB188a_26-27_029",
  "questions": [
    {
      "id_qa": "FMSH_PB188a_26-27_029_qa8_v3",
      "id_block": "block_3",
      "question": "Qu'est ce qui n'émeuve plus personne ?",
      "answer": "Les grèves générales de protestation",
      "answer_stringIds": [
        "string_18",
        "string_19",
        "string_20",
        "string_21",
        "string_22"
      ]
    },
    {
      "id_qa": "FMSH_PB188a_26-27_029_qa9_v3",
      "id_block": "block_4",
      "question": "Qu'est-ce qui est en train de s'emparer ?",
      "answer": "des usines",
      "answer_stringIds": [
        "string_71",
        "string_72"
      ]
    },
    {
      "id_qa": "FMSH_PB188a_26-27_029_qa10_v3",
      "id_block": "block_4",
      "question": "Qu'est-ce qu'il faut trouver ?",
      "answer": "autre chose",
      "answer_stringIds": [
        "string_62",
        "string_63"
      ]
    },
    {
      "id_qa": "FMSH_PB188a_26-27_029_qa5_v3",
      "id_block": "block_5",
      "question": "Qu'est ce que peu d'ouvriers le feront la première fois ?",
      "answer": "grand chose",
      "answer_stringIds": [
        "string_87",
        "string_88"
      ]
    },
    {
      "id_qa": "FMSH_PB188a_26-27_029_qa7_v3",
      "id_block": "block_7",
      "question": "De quoi se reproposer le mouvement des Conseils ?",
      "answer": "un thème de façon critique et polémique",
      "answer_stringIds": [
        "string_158",
        "string_159",
        "string_160",
        "string_161",
        "string_162",
        "string_163",
        "string_164"
      ]
    }
  ]
}