{
  "num": "autog_0338-7259_1974_num_26_1",
  "article": "autog_0338-7259_1974_num_26_1_1108",
  "page_name": "FMSH_PB188a_26-27_034",
  "questions": [
    {
      "id_qa": "FMSH_PB188a_26-27_034_qa16_v3",
      "id_block": "block_1",
      "question": "Qui a pris en mains tout l'appareil économique ?",
      "answer": "les masses ouvrières",
      "answer_stringIds": [
        "string_76",
        "string_77",
        "string_78"
      ]
    },
    {
      "id_qa": "FMSH_PB188a_26-27_034_qa24_v3",
      "id_block": "block_2",
      "question": "Qu'est ce qui marque le tragique épilogue du premier après-guerre rouge ?",
      "answer": "la fin",
      "answer_stringIds": [
        "string_98",
        "string_99"
      ]
    },
    {
      "id_qa": "FMSH_PB188a_26-27_034_qa1_v3",
      "id_block": "block_3",
      "question": "Quel est le symbole de la minorité révolutionnaire ?",
      "answer": "le drapeau des Conseils",
      "answer_stringIds": [
        "string_145",
        "string_146",
        "string_147",
        "string_148"
      ]
    },
    {
      "id_qa": "FMSH_PB188a_26-27_034_qa2_v3",
      "id_block": "block_3",
      "question": "A quoi sert le drapeau des Conseils ?",
      "answer": "les forces dispersées de la minorité révolutionnaire",
      "answer_stringIds": [
        "string_152",
        "string_153",
        "string_154",
        "string_155",
        "string_156",
        "string_157",
        "string_158"
      ]
    },
    {
      "id_qa": "FMSH_PB188a_26-27_034_qa6_v3",
      "id_block": "block_3",
      "question": "Que devient l'expérience dans de nombreux pays ?",
      "answer": "patrimoine théorique du prolétariat",
      "answer_stringIds": [
        "string_135",
        "string_136",
        "string_137",
        "string_138",
        "string_139"
      ]
    },
    {
      "id_qa": "FMSH_PB188a_26-27_034_qa18_v3",
      "id_block": "block_3",
      "question": "Quel mouvement n'est pas resté indifférent aux expériences concrètes ?",
      "answer": "Le mouvement anarchiste",
      "answer_stringIds": [
        "string_174",
        "string_175",
        "string_176"
      ]
    },
    {
      "id_qa": "FMSH_PB188a_26-27_034_qa20_v3",
      "id_block": "block_3",
      "question": "Quel mouvement ne pouvait pas rester indifférent aux expériences concrètes ?",
      "answer": "Le mouvement anarchiste",
      "answer_stringIds": [
        "string_174",
        "string_175",
        "string_176"
      ]
    },
    {
      "id_qa": "FMSH_PB188a_26-27_034_qa22_v3",
      "id_block": "block_3",
      "question": "A quoi le mouvement anarchiste ne pouvait-il pas rester indifférent ?",
      "answer": "à la théorie",
      "answer_stringIds": [
        "string_188",
        "string_189",
        "string_190"
      ]
    },
    {
      "id_qa": "FMSH_PB188a_26-27_034_qa11_v3",
      "id_block": "block_6",
      "question": "Comment s'appelle l'organisme d'entreprise ?",
      "answer": "Commission Interne",
      "answer_stringIds": [
        "string_277",
        "string_278"
      ]
    }
  ]
}