{
  "num": "autog_0338-7259_1974_num_26_1",
  "article": "autog_0338-7259_1974_num_26_1_1108",
  "page_name": "FMSH_PB188a_26-27_040",
  "questions": [
    {
      "id_qa": "FMSH_PB188a_26-27_040_qa31_v3",
      "id_block": "block_1",
      "question": "Quel groupe faisait partie de la F.I.O.M ?",
      "answer": "le Groupe Libertaire Turinoiïs",
      "answer_stringIds": [
        "string_46",
        "string_47",
        "string_48",
        "string_49"
      ]
    },
    {
      "id_qa": "FMSH_PB188a_26-27_040_qa25_v3",
      "id_block": "block_2",
      "question": "Quel groupe s'était déjà distingué dans les luttes ouvrières avant et pendant la guerre ?",
      "answer": "Le Groupe Libertaire Turinois",
      "answer_stringIds": [
        "string_54",
        "string_55",
        "string_56",
        "string_57"
      ]
    },
    {
      "id_qa": "FMSH_PB188a_26-27_040_qa12_v3",
      "id_block": "block_3",
      "question": "Qui a écrit l'Ordine Nuovo ?",
      "answer": "ces anarchistes",
      "answer_stringIds": [
        "string_150",
        "string_151"
      ]
    },
    {
      "id_qa": "FMSH_PB188a_26-27_040_qa16_v3",
      "id_block": "block_4",
      "question": "Quel groupe fut au centre des luttes de classes à Turin durant les quatre années de l'après-guerre ?",
      "answer": "Le Groupe Libertaire Turinois",
      "answer_stringIds": [
        "string_54",
        "string_55",
        "string_56",
        "string_57"
      ]
    },
    {
      "id_qa": "FMSH_PB188a_26-27_040_qa20_v3",
      "id_block": "block_4",
      "question": "Qu'apportèrent les anarchistes dans l'élaboration de la théorie des Conseils ?",
      "answer": "aux points",
      "answer_stringIds": [
        "string_245",
        "string_246"
      ]
    },
    {
      "id_qa": "FMSH_PB188a_26-27_040_qa22_v3",
      "id_block": "block_4",
      "question": "Qui a participé à l'élaboration de la théorie des Conseils ?",
      "answer": "les anarchistes",
      "answer_stringIds": [
        "string_230",
        "string_231"
      ]
    },
    {
      "id_qa": "FMSH_PB188a_26-27_040_qa0_v3",
      "id_block": "block_6",
      "question": "Que fit le mouvement des Conseils en Italie ?",
      "answer": "la route",
      "answer_stringIds": [
        "string_267",
        "string_268"
      ]
    },
    {
      "id_qa": "FMSH_PB188a_26-27_040_qa1_v3",
      "id_block": "block_6",
      "question": "Où se vit le mouvement des Conseils ?",
      "answer": "en Italie",
      "answer_stringIds": [
        "string_269",
        "string_270"
      ]
    },
    {
      "id_qa": "FMSH_PB188a_26-27_040_qa2_v3",
      "id_block": "block_6",
      "question": "Quel mouvement se vit barrer la route en Italie par deux forces de l'ordre ?",
      "answer": "Le mouvement des Conseils",
      "answer_stringIds": [
        "string_260",
        "string_261",
        "string_262",
        "string_263"
      ]
    }
  ]
}