{
  "num": "autog_0005-0970_1969_num_8_1",
  "article": "autog_0005-0970_1969_num_8_1_946",
  "page_name": "FMSH_PB188a_00008_049",
  "questions": [
    "Quels concepts de l'auto-gestion ont pris une forme autoritaire dans les conditions données ?",
    "Comment les paysans sans terre, les ouvriers, l'intelligentsia et les couches larges du peuple travailleur ont-elles perçu l'étatisme révolutionnaire ?",
    "Quel tournant signifiait l'étatisme révolutionnaire dans la vie des personnes ?",
    "Quels idées et critères se sont enracinés rapidement et profondément dans la conscience sociale à partir de l'étatisme ?",
    "Comment l'étatisme a-t-il créé sa \"superstructure idéologique\" ?",
    "Quels sont les fragments d'une conception étatiste globale du développement socialiste et du socialisme ?",
    "Comment l'État est-il perçu dans cette représentation ?",
    "Comment le surproduit du travail est-il réparti selon cette représentation ?"
  ]
}