{
  "num": "autog_0005-0970_1969_num_8_1",
  "article": "autog_0005-0970_1969_num_8_1_946",
  "page_name": "FMSH_PB188a_00008_064",
  "questions": [
    "Quels sont les différences quantitatives déterminées par des conditions historiques spécifiques entre l'autogestion et l'étatisme ?",
    "Quelle est la grande contradiction rencontrée dans la société socialiste ?",
    "Quels sont les antagonismes découlant des nouveaux rapports sociaux d'autogestion ?",
    "Comment les fractions de la classe ouvrière tendent-elles à se privatiser et à s'approprier sans contrôle l'extra-revenu ?",
    "Quels sont les correctifs extérieurs nécessaires pour réprimer les tendances à la propriété privée dans le système d'autogestion ?",
    "Quel rôle peut jouer l'État dans la sous-variante étatiste de l'autogestion ?",
    "Quel rôle peut jouer le parti, les syndicats ou telles autres organisations dans la sous-variante non étatiste de l'autogestion ?",
    "Quelles sont les implications de la thèse selon laquelle les rapports marchandise-monnaie demeureront pendant longtemps dans le processus d'autogestion ?",
    "Comment le processus de libération sociale du travail ne pourra-t-il pas déborder les cadres exigus d'une autogestion sous contrôle de forces extérieures ?"
  ]
}