{
  "num": "autog_0249-2563_1982_num_15_10",
  "article": "autog_0249-2563_1982_num_15_10_1495",
  "page_name": "autog_0249-2563_1982_num_15_10_T1_0030_0000",
  "questions": [
    {
      "id_qa": "autog_0249-2563_1982_num_15_10_T1_0030_0000_qa3_v3",
      "id_block": "block_0",
      "question": "Qu'est ce qui n'a pas d'impact sur les gens que si le système proposé fonctionne déjà ?",
      "answer": "une idéologie",
      "answer_stringIds": [
        "string_4",
        "string_5"
      ]
    },
    {
      "id_qa": "autog_0249-2563_1982_num_15_10_T1_0030_0000_qa17_v3",
      "id_block": "block_0",
      "question": "Qu'est ce qui explique le peu d'enthousiasme qu'elles soulèvent auprès des travailleurs ?",
      "answer": "le cas des nationalisations",
      "answer_stringIds": [
        "string_24",
        "string_25",
        "string_26",
        "string_27"
      ]
    },
    {
      "id_qa": "autog_0249-2563_1982_num_15_10_T1_0030_0000_qa37_v3",
      "id_block": "block_2",
      "question": "Qu'est-ce qui permettrait de favoriser les expérimentations ?",
      "answer": "une nationalisation",
      "answer_stringIds": [
        "string_76",
        "string_77"
      ]
    },
    {
      "id_qa": "autog_0249-2563_1982_num_15_10_T1_0030_0000_qa20_v3",
      "id_block": "block_3",
      "question": "Qui voit dans la nationalisation un mouvement d'émancipation sociale ?",
      "answer": "les gouvernants",
      "answer_stringIds": [
        "string_113",
        "string_114"
      ]
    },
    {
      "id_qa": "autog_0249-2563_1982_num_15_10_T1_0030_0000_qa29_v3",
      "id_block": "block_3",
      "question": "Qu'est-ce qu'une exigence morale ?",
      "answer": "une crise",
      "answer_stringIds": [
        "string_143",
        "string_144"
      ]
    },
    {
      "id_qa": "autog_0249-2563_1982_num_15_10_T1_0030_0000_qa10_v3",
      "id_block": "block_5",
      "question": "Qu'est-ce que le panneau « nationalisation » ?",
      "answer": "la route",
      "answer_stringIds": [
        "string_165",
        "string_166"
      ]
    },
    {
      "id_qa": "autog_0249-2563_1982_num_15_10_T1_0030_0000_qa23_v3",
      "id_block": "block_6",
      "question": "Qu'est-ce qui est venu à l'orée du siècle ?",
      "answer": "Le temps des nationalisations",
      "answer_stringIds": [
        "string_262",
        "string_263",
        "string_264",
        "string_265"
      ]
    },
    {
      "id_qa": "autog_0249-2563_1982_num_15_10_T1_0030_0000_qa27_v3",
      "id_block": "block_6",
      "question": "Qu'est-ce que l'opinion ?",
      "answer": "une opinion",
      "answer_stringIds": [
        "string_324",
        "string_325"
      ]
    },
    {
      "id_qa": "autog_0249-2563_1982_num_15_10_T1_0030_0000_qa28_v3",
      "id_block": "block_6",
      "question": "Qu'est ce qui permet de se forger une opinion ?",
      "answer": "un bilan",
      "answer_stringIds": [
        "string_336",
        "string_337"
      ]
    }
  ]
}