{
  "num": "autog_0249-2563_1982_num_15_8",
  "article": "autog_0249-2563_1982_num_15_8_1477",
  "page_name": "autog_0249-2563_1982_num_15_8_T1_0113_0000",
  "questions": [
    "Quel mouvement est-il question ici et qui en est l'auteur ?",
    "Quels sont les deux fléaux majeurs que ce mouvement s'est opposé ?",
    "Qu'est-ce que ce mouvement s'est proposé en termes de démocratisation ?",
    "Comment ce mouvement a-t-il \"balayé les barrages\" des partis traditionnels ?",
    "Quels sont les angoisses, craintes et espoirs de la jeunesse que ce mouvement a exprimés ?",
    "Dans quel livre ce mouvement est-il présenté et analysé en détail ?",
    "Quels auteurs ont abordé ce mouvement dans des publications précédentes ?",
    "En quelle période historique ce mouvement a-t-il émergé ?",
    "Quels sont les caractéristiques distinctives de ce mouvement ?",
    "Comment ce mouvement s'est opposé aux partis léninistes ?",
    "Comment ce mouvement a-t-il répondu aux dogmatismes de la période du déclin du mouvement de protestation ?",
    "Quel est le lien entre ce mouvement et la révolte étudiante ?",
    "Comment ce mouvement s'est présenté en opposition aux partis traditionnels ?",
    "Quels sont les nouveaux besoins bouleversants que ce mouvement a engendrés ?"
  ]
}