{
  "num": "autog_0249-2563_1982_num_15_8",
  "article": "autog_0249-2563_1982_num_15_8_1477",
  "page_name": "autog_0249-2563_1982_num_15_8_T1_0116_0000",
  "questions": [
    "Quels sont les modèles de production \"orientés sur les idéologies de la circulation\" mentionnés dans le texte ?",
    "Quel est le rôle du \"règne de l'argent\" dans ces modèles ?",
    "Quels types de documents sont cités dans la littérature abondante ?",
    "Quels sont les dangers de se soumettre à ces modèles ?",
    "Quels types de contraintes sont-elles et qui les impose ?",
    "Quels sont les \"circuits naturels\" que tentent de reconstituer les écrits de NAWU ?",
    "Quels sont les petits réseaux que J. Huber définit et pour quelle raison ?",
    "Quel est le rôle de la direction dans les usines de J. Huber ?",
    "Comment J. Huber propose de réfléchir à de nouvelles formes de salaires et de hiérarchie ?"
  ]
}