{
  "num": "autog_0338-7259_1971_num_16_1",
  "article": "autog_0338-7259_1971_num_16_1_1023_t1_0202_0000_1",
  "page_name": "FMSH_PB188a_16-17_207",
  "questions": [
    {
      "id_qa": "FMSH_PB188a_16-17_207_qa9_v3",
      "id_block": "block_1",
      "question": "Qu'est-ce qui est à l'origine des nationalismes ?",
      "answer": "les maux",
      "answer_stringIds": [
        "string_32",
        "string_33"
      ]
    },
    {
      "id_qa": "FMSH_PB188a_16-17_207_qa10_v3",
      "id_block": "block_1",
      "question": "Qu'est ce qui est constitué par une dictature militairement triomphante ?",
      "answer": "le gouvernement mondial",
      "answer_stringIds": [
        "string_76",
        "string_77",
        "string_78"
      ]
    },
    {
      "id_qa": "FMSH_PB188a_16-17_207_qa4_v3",
      "id_block": "block_2",
      "question": "Pour qui faut-il souhaiter que ce soit à son insu ?",
      "answer": "pour lui",
      "answer_stringIds": [
        "string_185",
        "string_186"
      ]
    },
    {
      "id_qa": "FMSH_PB188a_16-17_207_qa16_v3",
      "id_block": "block_2",
      "question": "Qui est le chantre de l'impérialisme américain ?",
      "answer": "Revel",
      "answer_stringIds": [
        "string_117"
      ]
    },
    {
      "id_qa": "FMSH_PB188a_16-17_207_qa18_v3",
      "id_block": "block_2",
      "question": "Qu'est ce qui permet à Revel d'être le chantre de l'impérialisme américain ?",
      "answer": "une argumentation théorique",
      "answer_stringIds": [
        "string_156",
        "string_157",
        "string_158"
      ]
    }
  ]
}