{
  "num": "autog_0338-7259_1973_num_22_1",
  "article": "autog_0338-7259_1973_num_22_1_1080",
  "page_name": "FMSH_PB188a_22-23_069",
  "questions": [
    "Quels sont les croyances erronées des anarchistes traditionnels selon le texte ?",
    "Pourquoi l'autogestion et sa généralisation ne peuvent-elles être qu'une conquête ?",
    "Quels sont les alliés de l'autogestionnaire socialisme selon le texte ?",
    "Comment l'autogestion s'oppose aux formes de substitution à l'activité des travailleurs ?",
    "Quel est le socialisme administratif selon le texte ?",
    "Comment le socialisme administratif se manifeste selon le texte ?",
    "Comment l'État est-il décrit dans le socialisme administratif ?",
    "Pourquoi l'autogestion est-elle opposée au socialisme administratif ?"
  ]
}