{
  "num": "autog_0005-0970_1967_num_4_1",
  "article": "autog_0005-0970_1967_num_4_1_910",
  "page_name": "FMSH_PB188a_00004_093",
  "questions": [
    "Quels sont les responsabilités de la commission de contrôle dans le cadre de l'entreprise ?",
    "Dans quelle mesure la commission de contrôle intervient dans la gestion générale de l'entreprise ?",
    "Quels sont les modifications à apporter dans l'outillage de l'entreprise et à l'effectif de son personnel ?",
    "Quels délais sont prévus pour réaliser ces modifications ?",
    "Comment la commission de contrôle contribue-t-elle au développement des travaux dans le cadre des besoins du temps de paix ?",
    "Comment la production de l'entreprise doit-elle rester régulée ?",
    "Quels sont les pouvoirs de la commission de contrôle en matière de prix de revient de l'entreprise ?",
    "Quels sont les limites des pouvoirs de la commission de contrôle en matière de gestion financière de l'entreprise ?",
    "Quels sont les organes gouvernementaux responsables de la régulation de l'activité économique sur le plan national ?",
    "Comment les décisions de la commission de contrôle sont-elles obligatoires pour l'entrepreneur-propriétaire et ses représentants ?",
    "Quels sont les documents financiers que la commission de contrôle peut examiner ?",
    "Quels sont les organes gouvernementaux responsables de traiter les questions financières de l'entreprise ?"
  ]
}