{
  "num": "autog_0005-0970_1967_num_4_1",
  "article": "autog_0005-0970_1967_num_4_1_910",
  "page_name": "FMSH_PB188a_00004_069",
  "questions": [
    "Quel peuple est-il question dans le texte ?",
    "Quels types d'actions sont considérées comme une résistance contre la paix ?",
    "Quel message avait Lénine adressé à l'Exécutif panrusse des Soviets la veille ?",
    "Qu'est-ce que Lénine entend par \"l'activité vivante, créatrice des masses\" ?",
    "Quel rôle doit jouer le socialisme dans la nouvelle vie publique selon Lénine ?",
    "Dans quels types d'entreprises doit être institué le contrôle ouvrier selon Lénine ?",
    "Comment est exercé le contrôle ouvrier selon Lénine ?",
    "Quels sont les représentants élus pour exercer le contrôle ouvrier ?",
    "Quand a-t-il soumis son projet de décret au Commissariat au Travail ?",
    "Quand a-t-il publié son décret dans la Pravda ?",
    "Quels sont les huit points du décret de Lénine sur le contrôle ouvrier ?"
  ]
}