{
  "num": "autog_0005-0970_1967_num_4_1",
  "article": "autog_0005-0970_1967_num_4_1_910",
  "page_name": "FMSH_PB188a_00004_072",
  "questions": [
    "Qu'avait Lozovski à dire plus tard sur le projet du gouvernement et les limites de l'activité des comités d'usines ?",
    "Qu'est-il arrivé au projet de Lénine lors de la demande des représentants des syndicats à la commission du Commissariat du Travail ?",
    "Quels prérogatives respectives ne cédaient les représentants des syndicats et des comités d'usines lors de la préparation du projet définitif ?",
    "Qu'apprenait la pratique des comités d'usines selon Lozovski ?",
    "Qu'est-ce que les syndicats veulent en matière de contrôle dans les entreprises ?",
    "Quel rôle devait jouer le Conseil panrusse du contrôle ouvrier selon Lozovski ?",
    "Quels groupes devaient être représentés dans ce conseil ?"
  ]
}