{
  "num": "autog_0249-2563_1984_num_17_16",
  "article": "autog_0249-2563_1984_num_17_16_1897_t1_0125_0000_4",
  "page_name": "autog_0249-2563_1984_num_17_16_T1_0125_0000",
  "questions": [
    "Quel est le dilemme politique de Kadar ?",
    "Quel est le résultat de l'enquête européenne menée par J. Stoetzel durant quatre ans ?",
    "Qu'est ce que J. Stoetzel entend par \"morale\" ?",
    "Quel est le rôle de la politique dans la vie des Européens ?",
    "Quels sont les principaux clivages politiques en Europe selon l'enquête ?",
    "Quels sont les autres dichotomies sociales qui entraînent des comportements culturels différents selon l'enquête ?",
    "Qu'est le système socialiste proposé par Alec Nove ?"
  ]
}