{
  "num": "autog_0338-7259_1973_num_22_1",
  "article": "autog_0338-7259_1973_num_22_1_1081",
  "page_name": "FMSH_PB188a_22-23_089",
  "questions": [
    "Quels sont les caractéristiques des coopératives ouvrières de production ?",
    "Comment les coopérateurs choisissent-ils leurs délégués et quels sont leurs pouvoirs ?",
    "Comment les coopératives se défendent-elles contre les concurrences et les menaces du milieu capitaliste ?",
    "Comment les coopératives sont-elles contraintes par le milieu capitaliste ?",
    "Quels sont les limites de la liberté de gestion des coopératives ?",
    "Quels sont les revendications des camarades anglais de [I.W.C.] en matière de gestion économique et sociale ?",
    "Comment les camarades anglais perçoivent-ils la bureaucratie ?",
    "Comment les camarades anglais veulent-ils que la classe ouvrière montrer la voie en matière de gestion économique et sociale ?",
    "Est-ce que la décision reste aux mains des dirigeants des organisations ?",
    "Les travailleurs ont-ils la possibilité totale de décision dans les coopératives ?",
    "Qu'est-ce qui est confondu entre autogestion et co-gestion ?"
  ]
}