{
  "num": "autog_0005-0970_1968_num_5_1",
  "article": "autog_0005-0970_1968_num_5_1_929",
  "page_name": "FMSH_PB188a_05-06_208",
  "questions": [
    "Quels types de marchés sont en voie d'exécution concernant l'habillement militaire de la garde nationale ?",
    "Comment les prix de fabrication de ces vêtements ont-ils évolué depuis le 25 avril 1871 ?",
    "Comment les ouvriers et ouvrières pourraient-ils vivre avec les nouveaux prix proposés ?",
    "Quel est le rôle des associations ouvrières dans cette situation ?",
    "Comment la Commune peut-elle obtenir des fournitures et du travail bien fait ?",
    "Comment la Commune devrait-elle agir pour éviter de tomber dans un tel piège ?",
    "Quel est le rôle du citoyen délégué aux travaux publics dans cette affaire ?"
  ]
}