{
  "num": "autog_0005-0970_1968_num_5_1",
  "article": "autog_0005-0970_1968_num_5_1_929",
  "page_name": "FMSH_PB188a_05-06_207",
  "questions": [
    "Quel est l'objection levée contre l'utilisation des associations dans le cas présent ?",
    "Pourquoi la concurrence entre les entrepreneurs et l'association est-elle infâme ?",
    "Quel est le rôle de la Commune dans la baisse des salaires ?",
    "Pourquoi est-il inutile et immoral de recourir à un intermédiaire pour prélever un impôt sur la journée des travailleurs ?",
    "Qu'en est-il des finances publiques dans cette situation ?",
    "Qu'en est-il du rôle de l'État dans la fixation des prix du travail ?",
    "Qu'en est-il du rôle de la commission du travail et de l'échange dans la régulation des prix ?",
    "Qu'en est-il du rôle du travailleur dans cette situation ?",
    "Quelles sont les demandes de la commission du travail et de l'échange ?"
  ]
}