{
  "num": "autog_0338-7259_1977_num_37_1",
  "article": "autog_0338-7259_1977_num_37_1_1235",
  "page_name": "FMSH_PB188a_37-38_122",
  "questions": [
    "Quels événements distinguent ces différents mouvements, sinon ce qui les unit ?",
    "Quel type de situation se produit lorsque la classe ouvrière prend en mains sa propre existence après l'absence ou l'écroulement du pouvoir précédent ?",
    "Dans quels pays et à quelles époques ces événements se produisent-ils ?",
    "Comment la classe ouvrière prend en mains la production dans ces situations de vide ?",
    "Quel rôle joue la mémoire et la conscience collective des travailleurs dans ces événements ?",
    "Comment la situation en Hongrie diffère de celle en Yougoslavie et en Tchécoslovaquie ?",
    "En quelle mesure la classe ouvrière est-elle obligée de prendre en main ses affaires en Hongrie ?"
  ]
}