{
  "num": "autog_0338-7259_1977_num_37_1",
  "article": "autog_0338-7259_1977_num_37_1_1235",
  "page_name": "FMSH_PB188a_37-38_121",
  "questions": [
    "Quels pays bureaucratiques est-il question de comparer dans l'étude de Fisera ?",
    "Quel texte de travail de J. Bakonyi sur les conseils ouvriers hongrois est-il utile pour l'étude ?",
    "Quels recueils de documents importants sont-ils mentionnés pour l'étude du mouvement hongrois ?",
    "Quels pays, outre l'Hongrie, sont-ils concernés par l'étude ?",
    "Quels recueils de documents importants manquent pour l'étude de la Yougoslavie et de la Tchécoslovaquie ?",
    "Quel est le rôle de Vladimir-Claude Fisera dans l'étude ?",
    "Quand s'est tenu le colloque auquel Fisera a présenté sa contribution ?",
    "Où sont les principales contributions de ce colloque prévues à paraître ?",
    "Dans quelle institution est Fisera reader ?",
    "Quels documents sont actuellement sous presse pour l'étude des conseils ouvriers tchécoslovaques ?"
  ]
}