{
  "num": "autog_0249-2563_1982_num_15_10",
  "article": "autog_0249-2563_1982_num_15_10_1505",
  "page_name": "autog_0249-2563_1982_num_15_10_T1_0121_0000",
  "questions": [
    "Quel rôle a R. Sainsaulieu joué dans la défense de l'action communautaire et démocratique ?",
    "Dans quel contexte R. Sainsaulieu a-t-il défendé cette cause ?",
    "Quel est le titre de l'article de R. Sainsaulieu et dans quel journal a-t-il été publié ?",
    "Quel est le nom de l'ethnologue honoré par ce livre ?",
    "Quel est le titre et l'auteur de l'article intitulé \"Anagrammes\" ?",
    "Quel est le titre et l'auteur de l'article intitulé \"Sacrifice rituel en Sorbonne\" ?",
    "Quel est le titre et l'auteur de l'article intitulé \"De l'innocence d'OŒdipe\" ?",
    "Quel est le titre de la chanson madécasse et qui est l'auteur de son article ?",
    "Dans quel ville se trouve la librairie qui vend ce livre ?",
    "Combien de pages compte-t-il ?",
    "Quels sont les autres contributions de ce livre ?"
  ]
}