{
  "num": "autog_0338-7259_1974_num_28_1",
  "article": "autog_0338-7259_1974_num_28_1_1198",
  "page_name": "FMSH_PB188a_28-29_137",
  "questions": [
    {
      "id_qa": "FMSH_PB188a_28-29_137_qa10_v3",
      "id_block": "block_1",
      "question": "Sur quel type d'entreprise peut-elle intervenir ?",
      "answer": "la société globale",
      "answer_stringIds": [
        "string_56",
        "string_57",
        "string_58"
      ]
    },
    {
      "id_qa": "FMSH_PB188a_28-29_137_qa12_v3",
      "id_block": "block_1",
      "question": "Qu'est-ce qui pose aux secteurs intermédiaires ?",
      "answer": "des questions difficiles",
      "answer_stringIds": [
        "string_33",
        "string_34",
        "string_35"
      ]
    },
    {
      "id_qa": "FMSH_PB188a_28-29_137_qa14_v3",
      "id_block": "block_1",
      "question": "Qu'est-ce qui crée des objets ?",
      "answer": "la production",
      "answer_stringIds": [
        "string_12",
        "string_13"
      ]
    },
    {
      "id_qa": "FMSH_PB188a_28-29_137_qa15_v3",
      "id_block": "block_1",
      "question": "Qu'est ce qui crée la production selon Marx ?",
      "answer": "des objets mais des sujets désireux de ces produits",
      "answer_stringIds": [
        "string_18",
        "string_19",
        "string_20",
        "string_21",
        "string_22",
        "string_23",
        "string_24",
        "string_25",
        "string_26"
      ]
    },
    {
      "id_qa": "FMSH_PB188a_28-29_137_qa1_v3",
      "id_block": "block_4",
      "question": "Quelle est la conséquence de la prise de conscience autogestionnaire ?",
      "answer": "mécaniquement",
      "answer_stringIds": [
        "string_173"
      ]
    },
    {
      "id_qa": "FMSH_PB188a_28-29_137_qa3_v3",
      "id_block": "block_4",
      "question": "Qu'est ce qui ne peut pas résulter mécaniquement, ni d'une façon linéaire, des conditions économiques ou technologiques de base ?",
      "answer": "La prise de conscience autogestionnaire",
      "answer_stringIds": [
        "string_165",
        "string_166",
        "string_167",
        "string_168",
        "string_169"
      ]
    },
    {
      "id_qa": "FMSH_PB188a_28-29_137_qa5_v3",
      "id_block": "block_4",
      "question": "Qu'est-ce qui peut résulter de la prise de conscience autogestionnaire ?",
      "answer": "des conditions économiques ou technologiques de base",
      "answer_stringIds": [
        "string_178",
        "string_179",
        "string_180",
        "string_181",
        "string_182",
        "string_183",
        "string_184",
        "string_185"
      ]
    }
  ]
}