{
  "num": "autog_0338-7259_1975_num_32_1",
  "article": "autog_0338-7259_1975_num_32_1_1147",
  "page_name": "FMSH_PB188a_00032_124",
  "questions": [
    {
      "id_qa": "FMSH_PB188a_00032_124_qa12_v3",
      "id_block": "block_1",
      "question": "Qu'est-ce qu'il faut faire avant d'arriver au pouvoir ?",
      "answer": "éliminer définitivement la droite",
      "answer_stringIds": [
        "string_32",
        "string_33",
        "string_34",
        "string_35"
      ]
    },
    {
      "id_qa": "FMSH_PB188a_00032_124_qa51_v3",
      "id_block": "block_2",
      "question": "Que distingue-t-on dans la conscience des adhérents ?",
      "answer": "les diverses positions",
      "answer_stringIds": [
        "string_235",
        "string_236",
        "string_237"
      ]
    },
    {
      "id_qa": "FMSH_PB188a_00032_124_qa5_v3",
      "id_block": "block_3",
      "question": "Qui pense que l'erreur n'a jamais servi personne ?",
      "answer": "Marx",
      "answer_stringIds": [
        "string_319"
      ]
    },
    {
      "id_qa": "FMSH_PB188a_00032_124_qa6_v3",
      "id_block": "block_3",
      "question": "Qui a dit que l'erreur n'a jamais servi personne ?",
      "answer": "Marx",
      "answer_stringIds": [
        "string_319"
      ]
    },
    {
      "id_qa": "FMSH_PB188a_00032_124_qa11_v3",
      "id_block": "block_4",
      "question": "Que peut avoir le machiavélisme de dirigeants ?",
      "answer": "des effets imprévus",
      "answer_stringIds": [
        "string_375",
        "string_376",
        "string_377"
      ]
    }
  ]
}