{
  "num": "autog_0005-0970_1967_num_2_1",
  "article": "autog_0005-0970_1967_num_2_1_906",
  "page_name": "FMSH_PB188a_00002_141",
  "questions": [
    "Quels types de sociétés sont distinguées par Marx dans le mode de production asiatique ?",
    "Comment les communautés tribales maghrébines diffèrent-elles des sociétés hydrauliques ?",
    "Quel type de pouvoir s'exerce sur les tribus dans la société médiévale du Maghreb ?",
    "Quel rôle jouent les chefs tribaux dans le financement de l'appareil de l'Etat ?",
    "Quel type d'aristocratie règne dans les villes du Maghreb médiéval ?",
    "Comment sont organisées les relations entre l'État et les tribus dans le Maghreb médiéval ?",
    "Comment Ibn Khaldoun décrit les liens entre l'aristocratie tribale et le roi ?",
    "Qu'est l'asabiva selon Ibn Khaldoun ?",
    "Comment Ibn Khaldoun distingue l'umran badawi et l'umran hadari ?"
  ]
}