{
  "num": "autog_0005-0970_1967_num_2_1",
  "article": "autog_0005-0970_1967_num_2_1_906",
  "page_name": "FMSH_PB188a_00002_144",
  "questions": [
    "Quels écrivains ont-ils écrit à propos de formes d'associations agricoles traditionnelles en Algérie et dans d'autres pays du Maghreb ?",
    "Quels pays du Maghreb et de l'Afrique en général sont-ils en référence ?",
    "Comment ce « esprit communautaire» peut-il servir la cause de la Commune autogérée ?",
    "Quel type d'unité est la Commune autogérée ?",
    "Quels critères doivent être pris en compte pour déterminer les Communes ?",
    "Quels pouvoirs doit-elle disposer pour l'élaboration de son propre plan économico-social ?",
    "Comment l'adhésion volontaire des habitants est-elle importante ?",
    "Quel serait le résultat démocratique si on négligeait arbitrairement les lignes des tribus et des ethnies ?",
    "Quels ouvrages ont été cités en référence ?"
  ]
}