{
  "num": "autog_0249-2563_1982_num_15_8",
  "article": "autog_0249-2563_1982_num_15_8_1467",
  "page_name": "autog_0249-2563_1982_num_15_8_T1_0024_0000",
  "questions": [
    {
      "id_qa": "autog_0249-2563_1982_num_15_8_T1_0024_0000_qa0_v3",
      "id_block": "block_6",
      "question": "Qu'est ce qui ne se fait pas conne we friture ?",
      "answer": "un ragoût",
      "answer_stringIds": [
        "string_54",
        "string_55"
      ]
    },
    {
      "id_qa": "autog_0249-2563_1982_num_15_8_T1_0024_0000_qa2_v3",
      "id_block": "block_6",
      "question": "Qu'est ce qui permet de régler exactement l'imensié au cowont ?",
      "answer": "du fbible chouffoge",
      "answer_stringIds": [
        "string_29",
        "string_30",
        "string_31"
      ]
    }
  ]
}