{
  "num": "autog_0249-2563_1982_num_15_8",
  "article": "autog_0249-2563_1982_num_15_8_1467",
  "page_name": "autog_0249-2563_1982_num_15_8_T1_0023_0000",
  "questions": [
    {
      "id_qa": "autog_0249-2563_1982_num_15_8_T1_0023_0000_qa2_v3",
      "id_block": "block_0",
      "question": "Qu'est ce qui n'est pas évident de trouver pour s'intégrer là-dedans ?",
      "answer": "des gens",
      "answer_stringIds": [
        "string_7",
        "string_8"
      ]
    },
    {
      "id_qa": "autog_0249-2563_1982_num_15_8_T1_0023_0000_qa9_v3",
      "id_block": "block_0",
      "question": "Qu'est ce qui n'est pas encore en discussion ?",
      "answer": "les décisions",
      "answer_stringIds": [
        "string_53",
        "string_54"
      ]
    },
    {
      "id_qa": "autog_0249-2563_1982_num_15_8_T1_0023_0000_qa5_v3",
      "id_block": "block_6",
      "question": "Qu'est-ce qui se produit si la mégamachine se produisait ?",
      "answer": "les problèmes",
      "answer_stringIds": [
        "string_111",
        "string_112"
      ]
    },
    {
      "id_qa": "autog_0249-2563_1982_num_15_8_T1_0023_0000_qa6_v3",
      "id_block": "block_7",
      "question": "Qui assure une partie de ses besoins en énergie ?",
      "answer": "chaque",
      "answer_stringIds": [
        "string_173"
      ]
    }
  ]
}