{
  "num": "autog_0338-7259_1975_num_30_1",
  "article": "autog_0338-7259_1975_num_30_1_1120",
  "page_name": "FMSH_PB188a_30-31_009",
  "questions": [
    "Quels événements ont-ils terni l'image de l'autogestion en Yougoslavie après plus de vingt-cinq ans d'expérience ?",
    "Quels textes sont les plus pertinents pour comprendre les causes et le sens de ces événements, selon l'auteur ?",
    "Quels enseignants sont cités dans ce livre collectif ?",
    "Quels sujets sont abordés dans ce livre ?",
    "Qu'analyse S. Stojanovic dans son chapitre intitulé « le mythe étatique du socialisme » ?",
    "Quelle distinction introduit-il dans la typologie marxienne des systèmes socio-économiques ?",
    "Quel est le rôle de la ligue des Communistes dans le livre ?",
    "Quels sont les problèmes et les perspectives de développement de l'autogestion selon le livre ?",
    "Y a-t-il des écarts entre les idées socialistes et la réalité selon le livre ?"
  ]
}