{
  "num": "autog_0005-0970_1968_num_5_1",
  "article": "autog_0005-0970_1968_num_5_1_922",
  "page_name": "FMSH_PB188a_05-06_086",
  "questions": [
    {
      "id_qa": "FMSH_PB188a_05-06_086_qa12_v3",
      "id_block": "block_1",
      "question": "Qu'est ce qui révèle une structure segmentaire ?",
      "answer": "toute société",
      "answer_stringIds": [
        "string_68",
        "string_69"
      ]
    },
    {
      "id_qa": "FMSH_PB188a_05-06_086_qa13_v3",
      "id_block": "block_1",
      "question": "Qu'est-ce qui révèle une structure segmentaire ?",
      "answer": "toute société",
      "answer_stringIds": [
        "string_68",
        "string_69"
      ]
    },
    {
      "id_qa": "FMSH_PB188a_05-06_086_qa15_v3",
      "id_block": "block_1",
      "question": "Quel est la propriété privée du savoir sacré ?",
      "answer": "le sorcier",
      "answer_stringIds": [
        "string_123",
        "string_124"
      ]
    },
    {
      "id_qa": "FMSH_PB188a_05-06_086_qa21_v3",
      "id_block": "block_1",
      "question": "Où le progrès des échanges fera-t-il naître ?",
      "answer": "dans le monde indo-européen",
      "answer_stringIds": [
        "string_280",
        "string_281",
        "string_282",
        "string_283"
      ]
    },
    {
      "id_qa": "FMSH_PB188a_05-06_086_qa23_v3",
      "id_block": "block_1",
      "question": "Qu'est-ce que le prolétariat des esclaves ou des serfs ?",
      "answer": "une classe",
      "answer_stringIds": [
        "string_302",
        "string_303"
      ]
    },
    {
      "id_qa": "FMSH_PB188a_05-06_086_qa25_v3",
      "id_block": "block_1",
      "question": "Qu'est-ce qui va naître dans le monde indo-européen ?",
      "answer": "le progrès des échanges",
      "answer_stringIds": [
        "string_274",
        "string_275",
        "string_276",
        "string_277"
      ]
    },
    {
      "id_qa": "FMSH_PB188a_05-06_086_qa31_v3",
      "id_block": "block_1",
      "question": "Qui pense que la division sociale du travail tend à s'autonomiser par rapport à cette division physiologique ?",
      "answer": "Marx",
      "answer_stringIds": [
        "string_201"
      ]
    },
    {
      "id_qa": "FMSH_PB188a_05-06_086_qa33_v3",
      "id_block": "block_1",
      "question": "Qui a droit de savoir à un moment donné ?",
      "answer": "la société",
      "answer_stringIds": [
        "string_24",
        "string_25"
      ]
    },
    {
      "id_qa": "FMSH_PB188a_05-06_086_qa0_v3",
      "id_block": "block_2",
      "question": "Qu'est ce qui confirme notre thèse selon laquelle le savoir scientifique moderne n'est pas le seul à entretenir des rapports dialectiques avec les formes sociales qui lui servent d'infrastructure ?",
      "answer": "Un exemple opposé",
      "answer_stringIds": [
        "string_343",
        "string_344",
        "string_345"
      ]
    },
    {
      "id_qa": "FMSH_PB188a_05-06_086_qa2_v3",
      "id_block": "block_2",
      "question": "Qu'est ce qui recouvre toujours l'existence d'une organisation singulière des rapports sociaux ?",
      "answer": "la façade universaliste de la connaissance",
      "answer_stringIds": [
        "string_379",
        "string_380",
        "string_381",
        "string_382",
        "string_383",
        "string_384"
      ]
    },
    {
      "id_qa": "FMSH_PB188a_05-06_086_qa3_v3",
      "id_block": "block_2",
      "question": "Quel est le seul à entretenir des rapports dialectiques avec les formes sociales qui lui servent d'infrastructure ?",
      "answer": "le savoir scientifique moderne",
      "answer_stringIds": [
        "string_354",
        "string_355",
        "string_356",
        "string_357"
      ]
    },
    {
      "id_qa": "FMSH_PB188a_05-06_086_qa47_v3",
      "id_block": "block_2",
      "question": "Qu'est ce qui indique que la pensée sauvage n'est pas une science unitaire, totalisatrice, universelle ?",
      "answer": "Ce très bref rappel nous",
      "answer_stringIds": [
        "string_304",
        "string_305",
        "string_306",
        "string_307",
        "string_308"
      ]
    },
    {
      "id_qa": "FMSH_PB188a_05-06_086_qa34_v3",
      "id_block": "block_3",
      "question": "Qu'est-ce que l'Université ?",
      "answer": "du savoir institué",
      "answer_stringIds": [
        "string_412",
        "string_413",
        "string_414"
      ]
    },
    {
      "id_qa": "FMSH_PB188a_05-06_086_qa35_v3",
      "id_block": "block_3",
      "question": "Quelle est la vision de l'universalité du concept d'Université ?",
      "answer": "du savoir",
      "answer_stringIds": [
        "string_129",
        "string_130"
      ]
    },
    {
      "id_qa": "FMSH_PB188a_05-06_086_qa41_v3",
      "id_block": "block_3",
      "question": "Quelle est la conséquence de l'institution du savoir à prétention universelle ?",
      "answer": "avec la déchirure de la tunique théologique en deux savoirs",
      "answer_stringIds": [
        "string_467",
        "string_468",
        "string_469",
        "string_470",
        "string_471",
        "string_472",
        "string_473",
        "string_474",
        "string_475",
        "string_476"
      ]
    },
    {
      "id_qa": "FMSH_PB188a_05-06_086_qa43_v3",
      "id_block": "block_3",
      "question": "A quand remonte la naissance des institutions universitaires en Occident ?",
      "answer": "au Moyen Age",
      "answer_stringIds": [
        "string_444",
        "string_445",
        "string_446"
      ]
    },
    {
      "id_qa": "FMSH_PB188a_05-06_086_qa45_v3",
      "id_block": "block_3",
      "question": "Quand a eu lieu la naissance des institutions universitaires en Occident ?",
      "answer": "au Moyen Age",
      "answer_stringIds": [
        "string_444",
        "string_445",
        "string_446"
      ]
    },
    {
      "id_qa": "FMSH_PB188a_05-06_086_qa46_v3",
      "id_block": "block_3",
      "question": "Qu'est ce qui confisque toute la rationalité, toute la positivité ?",
      "answer": "Ce savoir",
      "answer_stringIds": [
        "string_422",
        "string_423"
      ]
    }
  ]
}