{
  "num": "autog_0005-0970_1968_num_5_1",
  "article": "autog_0005-0970_1968_num_5_1_922",
  "page_name": "FMSH_PB188a_05-06_090",
  "questions": [
    {
      "id_qa": "FMSH_PB188a_05-06_090_qa0_v3",
      "id_block": "block_1",
      "question": "De quelle philosophie Marx a-t-il repris la critique ?",
      "answer": "la critique de la philosophie du droit de Hegel",
      "answer_stringIds": [
        "string_129",
        "string_130",
        "string_131",
        "string_132",
        "string_133",
        "string_134",
        "string_135",
        "string_136",
        "string_137"
      ]
    },
    {
      "id_qa": "FMSH_PB188a_05-06_090_qa1_v3",
      "id_block": "block_1",
      "question": "Qui a écrit la critique de la philosophie du droit de Hegel ?",
      "answer": "Marx",
      "answer_stringIds": [
        "string_93"
      ]
    },
    {
      "id_qa": "FMSH_PB188a_05-06_090_qa4_v3",
      "id_block": "block_1",
      "question": "Quelle est l'hypothèse selon laquelle une façon de penser Marx consiste à reprendre où Marx l'a laissée ?",
      "answer": "à notre époque",
      "answer_stringIds": [
        "string_110",
        "string_111",
        "string_112"
      ]
    },
    {
      "id_qa": "FMSH_PB188a_05-06_090_qa15_v3",
      "id_block": "block_1",
      "question": "Qui a écrit l'aporie anarchiste ?",
      "answer": "Kropotkine",
      "answer_stringIds": [
        "string_265"
      ]
    },
    {
      "id_qa": "FMSH_PB188a_05-06_090_qa23_v3",
      "id_block": "block_1",
      "question": "Qu'est-ce que le marxisme révèle ?",
      "answer": "les problèmes de notre époque",
      "answer_stringIds": [
        "string_151",
        "string_152",
        "string_153",
        "string_154",
        "string_155"
      ]
    },
    {
      "id_qa": "FMSH_PB188a_05-06_090_qa39_v3",
      "id_block": "block_1",
      "question": "Quel système de référence est exposé dans la théorie marxiste ?",
      "answer": "le système des formes économiques",
      "answer_stringIds": [
        "string_53",
        "string_54",
        "string_55",
        "string_56",
        "string_57"
      ]
    },
    {
      "id_qa": "FMSH_PB188a_05-06_090_qa40_v3",
      "id_block": "block_1",
      "question": "Qu'exige la problématique soulevée par l'autogestion ?",
      "answer": "un système de référence autre",
      "answer_stringIds": [
        "string_44",
        "string_45",
        "string_46",
        "string_47",
        "string_48"
      ]
    },
    {
      "id_qa": "FMSH_PB188a_05-06_090_qa45_v3",
      "id_block": "block_1",
      "question": "Qu'est ce que l'autogestion ?",
      "answer": "une transformation des rapports sociaux analysés comme rapports des individus aux institutions",
      "answer_stringIds": [
        "string_5",
        "string_6",
        "string_7",
        "string_8",
        "string_9",
        "string_10",
        "string_11",
        "string_12",
        "string_13",
        "string_14",
        "string_15",
        "string_16"
      ]
    },
    {
      "id_qa": "FMSH_PB188a_05-06_090_qa46_v3",
      "id_block": "block_1",
      "question": "Qu'est-ce que l'autogestion ?",
      "answer": "une transformation des rapports sociaux",
      "answer_stringIds": [
        "string_5",
        "string_6",
        "string_7",
        "string_8",
        "string_9"
      ]
    },
    {
      "id_qa": "FMSH_PB188a_05-06_090_qa47_v3",
      "id_block": "block_1",
      "question": "Quel est le nom de l'analyse institutionnelle ?",
      "answer": "celui de Hegel",
      "answer_stringIds": [
        "string_85",
        "string_86",
        "string_87"
      ]
    },
    {
      "id_qa": "FMSH_PB188a_05-06_090_qa6_v3",
      "id_block": "block_2",
      "question": "Qu'est ce qui rend problématique l'autogestion ?",
      "answer": "les institutions",
      "answer_stringIds": [
        "string_77",
        "string_78"
      ]
    },
    {
      "id_qa": "FMSH_PB188a_05-06_090_qa33_v3",
      "id_block": "block_3",
      "question": "Qui contrôle les moyens de production dans le procès de travail capitaliste ?",
      "answer": "le capital et la classe exploiteuse",
      "answer_stringIds": [
        "string_444",
        "string_445",
        "string_446",
        "string_447",
        "string_448",
        "string_449"
      ]
    },
    {
      "id_qa": "FMSH_PB188a_05-06_090_qa35_v3",
      "id_block": "block_3",
      "question": "Qui dirige le procès de travail capitaliste ?",
      "answer": "le capital et la classe exploiteuse",
      "answer_stringIds": [
        "string_444",
        "string_445",
        "string_446",
        "string_447",
        "string_448",
        "string_449"
      ]
    },
    {
      "id_qa": "FMSH_PB188a_05-06_090_qa44_v3",
      "id_block": "block_3",
      "question": "Qu'est-ce que l'autogestion ?",
      "answer": "le concept marxiste de « procès de travail",
      "answer_stringIds": [
        "string_399",
        "string_400",
        "string_401",
        "string_402",
        "string_403",
        "string_404",
        "string_405",
        "string_406"
      ]
    }
  ]
}