{
  "num": "autog_0249-2563_1984_num_17_15",
  "article": "autog_0249-2563_1984_num_17_15_1869_t1_0131_0000_2",
  "page_name": "autog_0249-2563_1984_num_17_15_T1_0132_0000",
  "questions": [
    "Quels sont les éléments de la réalité socialiste en peinture et en littérature qui sont qualifiés de ridicules dans le texte ?",
    "Quels sont les besoins psychologiques des intellectuels prolétariens selon Max Weber ?",
    "Quel est le besoin particulier de l'intellectuel petit-bourgeois selon François Perroux ?",
    "Quels sont les différents types de pourboires que Perroux distingue pour les intellectuels ?",
    "Quels sont les caractéristiques des intellectuels staliniens selon le texte ?",
    "Quel est le rôle de la vigilance et de l'humilité selon J. Verdès-Leroux ?",
    "Quelle est la différence radicale entre nazisme et stalinisme selon J. Verdès-Leroux ?",
    "Qu'est-ce qui fait de l'homme le nazi ou le staliniste ?",
    "Quels rapports ont les intellectuels avec le parti communiste selon le texte ?",
    "Pourquoi est le livre de J. Verdès-Leroux considéré comme d'une absolue décence ?",
    "Quel est le lien entre l'écriture de J. Verdès-Leroux et le féminin ?"
  ]
}