{
  "num": "autog_0338-7259_1972_num_20_1",
  "article": "autog_0338-7259_1972_num_20_1_1061",
  "page_name": "FMSH_PB188a_20-21_010",
  "questions": [
    {
      "id_qa": "FMSH_PB188a_20-21_010_qa13_v3",
      "id_block": "block_1",
      "question": "Qu'est-ce que les marxistes et fouriéristes ont refusé de vendre ?",
      "answer": "leur force de travail",
      "answer_stringIds": [
        "string_48",
        "string_49",
        "string_50",
        "string_51"
      ]
    },
    {
      "id_qa": "FMSH_PB188a_20-21_010_qa5_v3",
      "id_block": "block_2",
      "question": "Qu'est ce qui résulte de ce que les uns ont les moyens d'acheter ?",
      "answer": "la société de classe",
      "answer_stringIds": [
        "string_75",
        "string_76",
        "string_77",
        "string_78"
      ]
    },
    {
      "id_qa": "FMSH_PB188a_20-21_010_qa24_v3",
      "id_block": "block_2",
      "question": "Qu'est-ce que l'autogestion ?",
      "answer": "une organisation de la société",
      "answer_stringIds": [
        "string_183",
        "string_184",
        "string_185",
        "string_186",
        "string_187"
      ]
    },
    {
      "id_qa": "FMSH_PB188a_20-21_010_qa27_v3",
      "id_block": "block_2",
      "question": "De quoi l'autogestion est-elle issue ?",
      "answer": "parti des inventions scientifiques et techniques",
      "answer_stringIds": [
        "string_190",
        "string_191",
        "string_192",
        "string_193",
        "string_194",
        "string_195"
      ]
    },
    {
      "id_qa": "FMSH_PB188a_20-21_010_qa28_v3",
      "id_block": "block_2",
      "question": "Quelle est la conséquence de l'autogestion ?",
      "answer": "de coupure entre la caste des « dirigeants",
      "answer_stringIds": [
        "string_210",
        "string_211",
        "string_212",
        "string_213",
        "string_214",
        "string_215",
        "string_216",
        "string_217"
      ]
    },
    {
      "id_qa": "FMSH_PB188a_20-21_010_qa31_v3",
      "id_block": "block_6",
      "question": "Qu'est-ce que la révolution libératrice ?",
      "answer": "à une « reconversion des surfaces",
      "answer_stringIds": [
        "string_303",
        "string_304",
        "string_305",
        "string_306",
        "string_307",
        "string_308"
      ]
    }
  ]
}