{
  "num": "autog_0249-2563_1982_num_16_12",
  "article": "autog_0249-2563_1982_num_16_12_1529",
  "page_name": "autog_0249-2563_1982_num_16_12_T1_0066_0000",
  "questions": [
    "Quel est le contexte dans lequel ce texte a été écrit ?",
    "Quel est le rôle du narrateur dans ce texte ?",
    "Quel est le motif qui pousse le narrateur à écrire ce texte ?",
    "Quel est le genre de texte que représente ce passage ?",
    "Quel est le ton employé par le narrateur ?",
    "Quel est le sens de \"SRE on\" ?",
    "Quel est le sens de \"Pou ru qu'un de ces jours\" ?",
    "Quel est le sens de \"faute de crédits\" ?",
    "Quel est le sens de \"on re m'oblige pas\" ?",
    "Quel est le sens de \"ances !\" ?",
    "Quel est le sens de \"x\" ?",
    "Quel est le sens global du texte ?",
    "Quel est le message social ou politique que transmet ce texte ?",
    "Quel est le style de écriture du texte ?",
    "Quel est le niveau de langue employé dans ce texte ?",
    "Quel est le niveau de formelité employé dans ce texte ?",
    "Quel est le niveau de ironie employé dans ce texte ?",
    "Quel est le niveau de humour employé dans ce texte ?",
    "Quel est le niveau de colloquialité employé dans ce texte ?",
    "Quel est le niveau de vulgarité employé dans ce texte ?",
    "Quel est le niveau de satire employé dans ce texte ?",
    "Quel est le niveau de critique sociale employé dans ce texte ?",
    "Quel est le niveau de révolte employé dans ce texte ?",
    "Quel est le niveau de résignation employé dans ce texte ?",
    "Quel est le niveau de frustration employé dans ce texte ?",
    "Quel est le niveau de déception employé dans ce texte ?",
    "Quel est le niveau de désespoir employé dans ce texte ?",
    "Quel est le niveau de colère employé dans ce texte ?"
  ]
}