{
  "num": "autog_0249-2563_1982_num_16_12",
  "article": "autog_0249-2563_1982_num_16_12_1529",
  "page_name": "autog_0249-2563_1982_num_16_12_T1_0059_0000",
  "questions": [
    "Quel conflit inavoué est-il question ici et comment a-t-il conduit à l'immobilisme et à la fuite individuelle ?",
    "Pourquoi ont les investissements en temps et en main d'œuvre sur des tâches concrètes menant à des productions visibles été moins évidents qu'attendus ?",
    "Pourquoi le tabagisme a-t-il été un phénomène remarquable au Centre expérimental ?",
    "Quels sujets ont pu être abordés dans des débats au Centre expérimental ?",
    "Quels objectifs doivent être réaffirmés pour le Centre expérimental ?",
    "Comment le Centre expérimental peut-il aborder la crise actuelle de la jeunesse ?",
    "Quels sont les objectifs pédagogiques différents pour le lycée expérimental ?",
    "Comment l'autonomie individuelle et l'autogestion collective doivent-elles être approchées dans le lycée expérimental ?",
    "Comment le lycée expérimental doit-il accepter les élèves ?"
  ]
}