{
  "num": "autog_0338-7259_1978_num_41_1",
  "article": "autog_0338-7259_1978_num_41_1_1321",
  "page_name": "FMSH_PB188a_41-42_146",
  "questions": [
    {
      "id_qa": "FMSH_PB188a_41-42_146_qa2_v3",
      "id_block": "block_4",
      "question": "Qu'est ce qui peut provoquer de fortes nausées chez les \"politiques\" traditionnels ?",
      "answer": "cette communication",
      "answer_stringIds": [
        "string_X"
      ]
    },
    {
      "id_qa": "FMSH_PB188a_41-42_146_qa14_v3",
      "id_block": "block_5",
      "question": "Qui a écrit le jeu du capitalisme ?",
      "answer": "Marx",
      "answer_stringIds": [
        "string_X"
      ]
    },
    {
      "id_qa": "FMSH_PB188a_41-42_146_qa15_v3",
      "id_block": "block_5",
      "question": "Qu'est-ce que nous faisions ?",
      "answer": "le jeu du capitalisme",
      "answer_stringIds": [
        "string_X"
      ]
    },
    {
      "id_qa": "FMSH_PB188a_41-42_146_qa0_v3",
      "id_block": "block_6",
      "question": "Qu'est ce qui a été négligé dans la solution de l'autogestion ?",
      "answer": "la question de lEtat",
      "answer_stringIds": [
        "string_X"
      ]
    },
    {
      "id_qa": "FMSH_PB188a_41-42_146_qa17_v3",
      "id_block": "block_7",
      "question": "Qu'est-ce qui avait des difficultés à résoudre ?",
      "answer": "le problème sur le papier",
      "answer_stringIds": [
        "string_X"
      ]
    }
  ]
}