{
  "num": "autog_0249-2563_1984_num_17_17",
  "article": "autog_0249-2563_1984_num_17_17_1608",
  "page_name": "autog_0249-2563_1984_num_17_17_T1_0030_0000",
  "questions": [
    {
      "id_qa": "autog_0249-2563_1984_num_17_17_T1_0030_0000_qa37_v3",
      "id_block": "block_0",
      "question": "Qu'est-ce que \"Arts et lettres\" ?",
      "answer": "une série de textes",
      "answer_stringIds": [
        "string_0",
        "string_1",
        "string_2",
        "string_3"
      ]
    },
    {
      "id_qa": "autog_0249-2563_1984_num_17_17_T1_0030_0000_qa5_v3",
      "id_block": "block_1",
      "question": "Qu'est ce qui est publié par Maïson d'édition du peuple ?",
      "answer": "Oeuvres",
      "answer_stringIds": [
        "string_204"
      ]
    },
    {
      "id_qa": "autog_0249-2563_1984_num_17_17_T1_0030_0000_qa23_v3",
      "id_block": "block_1",
      "question": "Que cherche-t-il à jeter entre ces deux entreprises parallèles ?",
      "answer": "un pont",
      "answer_stringIds": [
        "string_114",
        "string_115"
      ]
    },
    {
      "id_qa": "autog_0249-2563_1984_num_17_17_T1_0030_0000_qa10_v3",
      "id_block": "block_3",
      "question": "Qu'est ce que Deng Xiaoping nettoie ?",
      "answer": "la Chine",
      "answer_stringIds": [
        "string_458",
        "string_459"
      ]
    },
    {
      "id_qa": "autog_0249-2563_1984_num_17_17_T1_0030_0000_qa11_v3",
      "id_block": "block_3",
      "question": "Qui nettoie la Chine ?",
      "answer": "Deng Xiaoping",
      "answer_stringIds": [
        "string_207",
        "string_208"
      ]
    },
    {
      "id_qa": "autog_0249-2563_1984_num_17_17_T1_0030_0000_qa12_v3",
      "id_block": "block_3",
      "question": "Quand est-ce que Deng Xiaoping nettoie la Chine ?",
      "answer": "janvier 1984",
      "answer_stringIds": [
        "string_475",
        "string_476"
      ]
    }
  ]
}