{
  "num": "autog_0249-2563_1982_num_15_8",
  "article": "autog_0249-2563_1982_num_15_8_1466",
  "page_name": "autog_0249-2563_1982_num_15_8_T1_0013_0000",
  "questions": [
    "Quel est le point de vue du texte sur l'auto-emploi et le partage de l'emploi ?",
    "Quels sont les principaux types d'emplois qui s'opposent aux emplois garantis ?",
    "Quand l'idée de travail est-elle devenue un concept économique ?",
    "Quels sont les groupes sociaux qui privilégient des formes d'action autre que le travail et les activités de loisir ?",
    "Comment l'action est-elle socialement stratifiée selon le texte ?",
    "Quels sont les types de réponses possibles à la crise de l'emploi selon le texte ?",
    "Quel est le danger potentiel si aucune réponse nouvelle n'est trouvée à la crise de l'emploi ?"
  ]
}