{
  "num": "autog_0338-7259_1972_num_20_1",
  "article": "autog_0338-7259_1972_num_20_1_1065",
  "page_name": "FMSH_PB188a_20-21_085",
  "questions": [
    {
      "id_qa": "FMSH_PB188a_20-21_085_qa18_v3",
      "id_block": "block_1",
      "question": "Qui est l'ami de Tandonnet ?",
      "answer": "Sarmiento",
      "answer_stringIds": [
        "string_11"
      ]
    },
    {
      "id_qa": "FMSH_PB188a_20-21_085_qa0_v3",
      "id_block": "block_5",
      "question": "Où s'installe-t-il en 1845 ?",
      "answer": "à Rio de Janeiro",
      "answer_stringIds": [
        "string_216",
        "string_217",
        "string_218",
        "string_219"
      ]
    },
    {
      "id_qa": "FMSH_PB188a_20-21_085_qa1_v3",
      "id_block": "block_5",
      "question": "Quand est publié la Revue socialiste ?",
      "answer": "en 1845",
      "answer_stringIds": [
        "string_224",
        "string_225"
      ]
    },
    {
      "id_qa": "FMSH_PB188a_20-21_085_qa2_v3",
      "id_block": "block_5",
      "question": "Où se transfère-t-il ?",
      "answer": "à Rio de Janeiro",
      "answer_stringIds": [
        "string_216",
        "string_217",
        "string_218",
        "string_219"
      ]
    },
    {
      "id_qa": "FMSH_PB188a_20-21_085_qa5_v3",
      "id_block": "block_5",
      "question": "Qui est en contact avec le général Rosas ?",
      "answer": "Tandonnet",
      "answer_stringIds": [
        "string_15",
        "string_16"
      ]
    },
    {
      "id_qa": "FMSH_PB188a_20-21_085_qa8_v3",
      "id_block": "block_5",
      "question": "Qu'obtient Tandonnet pour une réalisation sociétaire ?",
      "answer": "son appui",
      "answer_stringIds": [
        "string_202",
        "string_203"
      ]
    },
    {
      "id_qa": "FMSH_PB188a_20-21_085_qa9_v3",
      "id_block": "block_5",
      "question": "De quelle ville est originaire Tandonnet ?",
      "answer": "de Montevideo",
      "answer_stringIds": [
        "string_177",
        "string_178"
      ]
    },
    {
      "id_qa": "FMSH_PB188a_20-21_085_qa10_v3",
      "id_block": "block_5",
      "question": "Pour quelle raison Tandonnet sollicite-t-il son appui ?",
      "answer": "pour une « réalisation sociétaire",
      "answer_stringIds": [
        "string_204",
        "string_205",
        "string_206",
        "string_207",
        "string_208"
      ]
    },
    {
      "id_qa": "FMSH_PB188a_20-21_085_qa11_v3",
      "id_block": "block_5",
      "question": "Où est passé Tandonnet ?",
      "answer": "à Buenos Aires",
      "answer_stringIds": [
        "string_179",
        "string_180",
        "string_181"
      ]
    },
    {
      "id_qa": "FMSH_PB188a_20-21_085_qa13_v3",
      "id_block": "block_5",
      "question": "Qui dénonce le général Rosas ?",
      "answer": "Sarmiento",
      "answer_stringIds": [
        "string_11"
      ]
    },
    {
      "id_qa": "FMSH_PB188a_20-21_085_qa14_v3",
      "id_block": "block_5",
      "question": "Combien de temps Tandonnet a-t-il vécu à Montevideo ?",
      "answer": "pendant trois ans",
      "answer_stringIds": [
        "string_127",
        "string_128",
        "string_129"
      ]
    },
    {
      "id_qa": "FMSH_PB188a_20-21_085_qa15_v3",
      "id_block": "block_5",
      "question": "Qui publie Le Messager français ?",
      "answer": "Tandonnet",
      "answer_stringIds": [
        "string_15",
        "string_16"
      ]
    },
    {
      "id_qa": "FMSH_PB188a_20-21_085_qa16_v3",
      "id_block": "block_5",
      "question": "Où Tandonnet a-t-il écrit Le Messager français ?",
      "answer": "à Montevideo",
      "answer_stringIds": [
        "string_130",
        "string_131"
      ]
    },
    {
      "id_qa": "FMSH_PB188a_20-21_085_qa26_v3",
      "id_block": "block_5",
      "question": "A qui est consacré le premier journal socialiste de l'Amérique méridionale ?",
      "answer": "à Fourier",
      "answer_stringIds": [
        "string_169",
        "string_170"
      ]
    },
    {
      "id_qa": "FMSH_PB188a_20-21_085_qa25_v3",
      "id_block": "block_9",
      "question": "Quel ouvrage a été publié par J.Maitron ?",
      "answer": "Dictionnaire biographique du mouvement ouvrier français",
      "answer_stringIds": [
        "string_266",
        "string_267",
        "string_268",
        "string_269",
        "string_270",
        "string_271"
      ]
    }
  ]
}