{
  "num": "autog_0249-2563_1981_num_14_6",
  "article": "autog_0249-2563_1981_num_14_6_1439",
  "page_name": "autog_0249-2563_1981_num_14_6_T1_0240_0000",
  "questions": [
    "Yougoslavie et à l'étranger ?",
    "Quels sont les points de similarité et de différence entre le féminisme yougoslave et le féminisme dans les pays occidentaux ?",
    "Comment la situation légale en Yougoslavie diffère-telle de celle de certains pays occidentaux en matière de féminisme ?",
    "Comment les hommes sont-ils impliqués dans le féminisme yougoslave ?",
    "En quelle mesure l'influence de l'Église est-elle moins forte sur le féminisme yougoslave par rapport à l'Italie ?",
    "Comment la société autogestionnaire permet-elle l'émergence de propositions concernant les femmes ?",
    "Comment les femmes peuvent-elles contribuer à résoudre les problèmes de genre en Yougoslavie ?",
    "Comment vous voyez-vous promouvoir la cause des femmes dans votre cercle ?",
    "Comment vous voyez-vous faire grand-chose en matière de féminisme dans un avenir proche ?"
  ]
}