{
  "num": "autog_0338-7259_1971_num_15_1",
  "article": "autog_0338-7259_1971_num_15_1_996",
  "page_name": "FMSH_PB188a_00015_018",
  "questions": [
    "Quel lien y a-t-il entre l'autogestion et le développement des forces productives, selon Albert Meister et Rene Lourau ?",
    "Quel rôle joue la crise dans l'adoption de l'autogestion dans certains pays ou secteurs industriels ?",
    "En dehors de toute fétichisation ou dédain théorique, qu'est l'autogestion selon Rene Lourau ?",
    "Comment l'autogestion analyse les contradictions entre le développement des forces productives et la reproduction des rapports sociaux ?",
    "Quels sont les exemples de grandes innovations institutionnelles de la [ème République qui ont été reprises par la nouvelle classe au pouvoir ?",
    "Comment les innovations de la Commune de 1871 s'inscrivent-elles dans une dialectique historique plutôt qu'un fantasme proudhonien et utopique ?"
  ]
}