{
  "num": "autog_0005-0970_1969_num_8_1",
  "article": "autog_0005-0970_1969_num_8_1_950",
  "page_name": "FMSH_PB188a_00008_137",
  "questions": [
    {
      "id_qa": "FMSH_PB188a_00008_137_qa1_v3",
      "id_block": "block_4",
      "question": "Qu'est-ce que l'autogestion ?",
      "answer": "organiser la société",
      "answer_stringIds": [
        "string_86",
        "string_87",
        "string_88"
      ]
    },
    {
      "id_qa": "FMSH_PB188a_00008_137_qa5_v3",
      "id_block": "block_5",
      "question": "Qu'est ce qui désorganiserait les mécanismes régulateurs de l'économie ?",
      "answer": "votre prétendue autogestion",
      "answer_stringIds": [
        "string_160",
        "string_161",
        "string_162"
      ]
    },
    {
      "id_qa": "FMSH_PB188a_00008_137_qa7_v3",
      "id_block": "block_5",
      "question": "Qu'est-ce que la société-sansclasse-en-acte ?",
      "answer": "cette autogestion",
      "answer_stringIds": [
        "string_124",
        "string_125"
      ]
    }
  ]
}