{
  "num": "autog_0338-7259_1978_num_40_1",
  "article": "autog_0338-7259_1978_num_40_1_1275",
  "page_name": "FMSH_PB188a_00040_056",
  "questions": [
    "Qu'implique le titre Les béquilles du capital pour le capitalisme actuel ?",
    "En quoi les communistes proposent-ils une solution différente au système actuel ?",
    "Comment les communistes caractérisent-ils le système actuel de capitalisme ?",
    "Quel est le rôle de l'État dans le système proposé par les communistes ?",
    "Comment les communistes justifient-ils leur critique du capitalisme actuel ?",
    "Comment les communistes expliquent-ils l'attrait des électeurs potentiels pour le PS ?",
    "Qu'entend Le Pors par « démocratie industrielle » et comment il s'en sépare-t-il radicalement ?"
  ]
}