{
  "num": "autog_0338-7259_1972_num_18_1",
  "article": "autog_0338-7259_1972_num_18_1_1052",
  "page_name": "FMSH_PB188a_18-19_263",
  "questions": [
    {
      "id_qa": "FMSH_PB188a_18-19_263_qa2_v3",
      "id_block": "block_1",
      "question": "Qui peut s'appuyer avec confiance dans leur combat ?",
      "answer": "les masses",
      "answer_stringIds": [
        "string_4",
        "string_5"
      ]
    },
    {
      "id_qa": "FMSH_PB188a_18-19_263_qa3_v3",
      "id_block": "block_1",
      "question": "Sur quoi les masses peuvent-elles s'appuyer ?",
      "answer": "dans leur combat",
      "answer_stringIds": [
        "string_10",
        "string_11",
        "string_12"
      ]
    },
    {
      "id_qa": "FMSH_PB188a_18-19_263_qa0_v3",
      "id_block": "block_2",
      "question": "Quel mouvement a fait sien le mot d'ordre ?",
      "answer": "le mouvement makhnoviste",
      "answer_stringIds": [
        "string_51",
        "string_52",
        "string_53"
      ]
    }
  ]
}