{
  "num": "autog_0249-2563_1982_num_15_11",
  "article": "autog_0249-2563_1982_num_15_11_1516",
  "page_name": "autog_0249-2563_1982_num_15_11_T1_0088_0000",
  "questions": [
    "Quels types de pratiques et de modes de vie sont-ils observés dans les habitats communs ?",
    "Comment les groupes révèlent-ils une transformation plus large des modes de vie ?",
    "Quels groupes sont-ils en question et quels sont leurs différences dans la conception de la vie ?",
    "Quels facteurs peuvent être des facteurs d'homogénéité ou d'hétérogénéité dans les groupes ?",
    "Quels éléments divers ont-on observés dans les pages précédentes ?",
    "Est-ce qu'un seul des éléments observés peut expliquer entièrement les configurations des groupes ?",
    "Quel rôle joue l'estime des personnes dans la pratique sociale ?",
    "Comment la société ne peut-elle pas être totalement pensée ?"
  ]
}