{
  "num": "autog_0249-2563_1982_num_15_11",
  "article": "autog_0249-2563_1982_num_15_11_1516",
  "page_name": "autog_0249-2563_1982_num_15_11_T1_0083_0000",
  "questions": [
    "Quel est le contexte social dans lequel règne la générosité sociale dans le mouvement « Vie Nouvelle » ?",
    "Quels facteurs facilitent la rencontre et l'échange entre les membres du mouvement ?",
    "Quels autres groupes se sont constitués à partir du même mouvement ?",
    "Quels modèles utopiques ont pu jouer dans la constitution de ces groupes ?",
    "Comment la pratique des « fraternités » a-t-elle influencé l'échelle de ces groupes ?",
    "Quel rôle joue la mémoire des lieux habités et des relations sociales dans la constitution des modèles de référence pour les habitants ?",
    "Pourquoi les sociologues et architectes prennent-ils rarement en compte l'expérience résidentielle et la mémoire des lieux habités dans leur mode de pensée ?",
    "Quels souvenirs des habitants guident leurs choix futurs ?"
  ]
}