{
  "num": "autog_0249-2563_1982_num_15_11",
  "article": "autog_0249-2563_1982_num_15_11_1516",
  "page_name": "autog_0249-2563_1982_num_15_11_T1_0077_0000",
  "questions": [
    "Quel est le sujet de la phrase \"C'est effectivement ce que nous avons pu constater\"?",
    "Quel phobie est-il question de dans le texte ?",
    "Quels moyens de régulation des naissances sont mentionnés ?",
    "Comment les familles plus grandes que la moyenne sont-elles affectées dans leur recherche de logement ?",
    "Quels types de rapports sont-ils décrits entre les enfants et leurs parents en ce qui concerne l'éducation ?",
    "Quels types de rapports sont-ils décrits entre les enfants et leurs parents en ce qui concerne l'autorité et les conventions ?",
    "Quels types de familles sont-elles décrites comme ayant une attitude indépendante envers les autorités scolaires ou religieuses ?",
    "Quels types de souvenirs des enfants envers leur éducation sont décrits comme heureux de mettre une certaine distance entre eux et leur famille ?",
    "Quels types de souvenirs des enfants envers leur éducation sont décrits comme négatifs ?",
    "Quels types de familles sont-elles décrites comme contraignantes ?",
    "Quels types de familles sont-elles décrites comme ayant un père autoritaire ?",
    "Quels types de familles sont-elles décrites comme ayant un père disant à son fils qu'il ne sera pas capable de gagner sa vie ?",
    "Quels types de familles sont-elles décrites comme ayant une grande liberté pour l'apprentissage de la responsabilité ?",
    "Quels types de familles sont-elles décrites comme aisées ?",
    "Quels contre-exemples sont-ils mentionnés ?",
    "Quels groupes sont-ils préoccupés par la question de la garde des enfants ?",
    "Quels groupes sont-ils décrits comme la rencontre de \"familles à enfants\" ?",
    "Quels sont les espaces ouverts et bornés mentionnés en ce qui concerne l'éducation ?",
    "Qu?"
  ]
}