{
  "num": "autog_0249-2563_1982_num_15_11",
  "article": "autog_0249-2563_1982_num_15_11_1516",
  "page_name": "autog_0249-2563_1982_num_15_11_T1_0080_0000",
  "questions": [
    "Quels sont les dispositions durables que l'on peut former grâce à l'apprentissage associatif ?",
    "Comment l'associationnisme a-t-il pu être un mode de socialisation et d'apprentissage du jeu démocratique ?",
    "En quelle mesure l'associationnisme a-t-il pu répondre à la demande de démultiplication des rencontres et des confrontations pour les personnes issus de familles peu nombreuses ?",
    "Comment l'associationnisme a-t-il pu servir de milieu de formation pour ceux qui y ont pris des responsabilités ?",
    "Quels sont les compétences sociales que l'on peut apprendre grâce à l'engagement associatif ?",
    "Comment l'expérience militaire peut-elle être considérée comme une forme d'apprentissage associatif ?",
    "Quels sont les difficultés rencontrées par ceux qui n'ont quasiment pas d'expérience d'engagement associatif ?",
    "En quelle mesure l'apprentissage associatif peut-il être considéré comme un mode de parachèvement ou de compensation de la socialisation ?",
    "Quels sont les différents stades de la vie où l'apprentissage associatif a pu avoir une importance particulière ?",
    "Comment l'apprentissage associatif a-t-il pu être un lieu d'analyse de la vie sociale ?"
  ]
}