{
  "num": "autog_0338-7259_1974_num_28_1",
  "article": "autog_0338-7259_1974_num_28_1_1200",
  "page_name": "FMSH_PB188a_28-29_159",
  "questions": [
    "Quels dangers douteux fait référencer Rocard dans le contexte de l'autogestion ?",
    "Pourquoi Rocard ne supprime-t-il pas les conseils dans une société autogérée ?",
    "Quels types de conseils sont-ils prévus dans une société autogérée selon Rocard ?",
    "Quels secteurs de l'économie sont-ils prévus pour être autogérés selon Rocard ?",
    "Quels sont les arguments de Rocard pour justifier la création de secteurs expérimentaux autogérés ?",
    "Comment perçoivent les militants du PS.U. l'autogestion ?",
    "Quel est le point de vue des militants du PS.U. sur la gestion de la société par les hommes ?",
    "Quel est le point de vue des militants du PS.U. sur le rôle de l'État dans une société autogérée ?",
    "Quel est le nombre d'adhérents du PS.U. après le congrès de Décembre 74 ?",
    "Quel est le statut des travailleurs dans les entreprises autogérées selon Rocard ?",
    "Quel est le nom donné par Rocard à ce qu'il propose ?",
    "Quel est le nom donné par les militants du PS.U. à ce qu'ils proposent ?",
    "Quel est le résultat attendu de l'autogestion selon les militants du PS.U. ?",
    "Quel est le résultat attendu de l'autogestion selon Rocard ?",
    "Quel est le lien entre l'autogestion et la révolution selon les militants du PS.U. ?",
    "Quel est le lien entre l'autogestion et la réforme selon Rocard ?",
    "Quel est le lien entre l'autogestion et la bourgeoisie selon les militants du PS.U. ?",
    "Quel est le lien entre l'autogestion et le prolétariat selon les militants du?"
  ]
}