{
  "num": "autog_0249-2563_1982_num_15_8",
  "article": "autog_0249-2563_1982_num_15_8_1467",
  "page_name": "autog_0249-2563_1982_num_15_8_T1_0019_0000",
  "questions": [
    "Quels sont les cinq types de chauffe-eau solaires de Synopsis ?",
    "Quels sont les trois types de chauffe-eau solaires passifs fonctionnant toute saison ?",
    "Quel est le nouveau type de capteur d'eau chaude solaire utilisé dans le chauffe-eau actif ?",
    "Quel est le but du développement du capteur solaire hybride ?",
    "Quel est le type de capteur solaire utilisé pour le chauffage des immeubles et maisons ?",
    "Quel est le coût de montage simplicité de montage de ce système de chauffage de façade ?",
    "Quel est le but de l'éolienne à production d'électricité ?",
    "Quelle est la puissance mécanique fournie par l'éolienne à 10m/s de vent ?",
    "Quel est le but du stockage d'énergie thermique à froid ?",
    "Comment Synopsis évalue les performances des différentes machines ?"
  ]
}