{
  "num": "autog_0249-2563_1982_num_15_8",
  "article": "autog_0249-2563_1982_num_15_8_1467",
  "page_name": "autog_0249-2563_1982_num_15_8_T1_0018_0000",
  "questions": [
    "Quels moyens disposiez-vous initialement pour commencer cette recherche ?",
    "Quels sont les principaux financements de Synopsis depuis quatre ans ?",
    "Comment fonctionne le groupe au quotidien ?",
    "Comment naissent les projets d'outils solaires au sein du groupe ?",
    "Quel est le processus de création d'un projet d'outil solaire ?",
    "Comment fonctionne la machine à laver éo-solaire ?",
    "Qu'arrive-t-il lorsque le vent et le soleil manquent ?",
    "Comment peut-on définir la structure de travail du groupe ?"
  ]
}