{
  "num": "autog_0249-2563_1982_num_15_8",
  "article": "autog_0249-2563_1982_num_15_8_1467",
  "page_name": "autog_0249-2563_1982_num_15_8_T1_0022_0000",
  "questions": [
    "Quels types de compétences sont nécessaires pour mener ce projet et comment les obtient-ils ?",
    "Quels sont les collaborateurs extérieurs actuels de Synopsis ?",
    "Quels sont les thèmes des séminaires organisés par Synopsis jusqu'à présent ?",
    "Quels sont les bénéfices des séminaires pour Synopsis ?",
    "Quel thème sera abordé au séminaire de cette année ?",
    "Comment fonctionne la communauté de Synopsis en termes de rémunération et de logement ?",
    "Quel est le problème de l'élargissement des effectifs de Synopsis ?",
    "Quel type de travail et quelle type de société résultent des auto-constructions des technologies que Synopsis préconise ?"
  ]
}