{
  "num": "autog_0249-2563_1982_num_15_8",
  "article": "autog_0249-2563_1982_num_15_8_1467",
  "page_name": "autog_0249-2563_1982_num_15_8_T1_0020_0000",
  "questions": [
    "Quels sont les principes clés qui guident la conception de ces outils ?",
    "Quelles conditions de simplicité et d'adaptabilité sont-elles imposées ?",
    "Quels sont les avantages en termes de coût et de fonctionnement ?",
    "Quels types de solutions sont-elles envisagées ?",
    "Quel est le rôle de la diffusion et de la publication des résultats ?",
    "Quels sont les retentissements et les réactions autour de vos machines à Lodève depuis cinq ans ?",
    "Quels types de personnes viennent vous consulter ?",
    "Quels sont les domaines d'application des solutions proposées ?",
    "Quels sont les moyens de diffusion utilisés ?",
    "Quel est le rapport entre la production de machines uniques et la diffusion des résultats ?"
  ]
}