{
  "num": "autog_0338-7259_1972_num_18_1",
  "article": "autog_0338-7259_1972_num_18_1_1041",
  "page_name": "FMSH_PB188a_18-19_181",
  "questions": [
    "Quel est l'origine de la dictature ?",
    "Comment la dictature est-elle liée à l'aspiration au pouvoir politique ?",
    "Qu'est la dictature selon le texte ?",
    "Comment la dictature est-elle une obstacle à la révolution sociale ?",
    "Qu'est l'argument utilisé pour justifier la dictature sur le peuple ?",
    "Quels sont les partisans de la dictature dans le contexte du texte ?",
    "Comment les socialistes-étatistes ont-ils emprunté l'idée de la dictature ?",
    "Quels sont les chefs des Jacobins cités dans le texte ?",
    "Comment les historiens bourgeois ont-ils influencé la majorité en ce qui concerne la représentation de la Grande Révolution ?",
    "Comment la majorité est-elle affectée par le culte des martyrs ?"
  ]
}