{
  "num": "autog_0338-7259_1974_num_26_1",
  "article": "autog_0338-7259_1974_num_26_1_1109",
  "page_name": "FMSH_PB188a_26-27_057",
  "questions": [
    "Quel document est-ce que Gramsci a adressé au Comité Exécutif de l'Internationale Communiste en juillet 1920 ?",
    "Dans quelles éditions (française, allemande et russe) a-t-il été publié ce rapport de Gramsci ?",
    "Quand a-t-il été publié pour la première fois en Italie, dans le journal Ordine Nuovo ?",
    "Quel événement marque le sommet de la combativité ouvrière de l'après-guerre italienne ?",
    "Quel événement marque la dernière tentative de gestion directe des luttes du prolétariat en Italie ?",
    "Quel événement a-t-il inspiré l'inscription « Vive la grève générale de Turin en avril » à Cronstadt ?"
  ]
}