{
  "num": "autog_0005-0970_1968_num_7_1",
  "article": "autog_0005-0970_1968_num_7_1_932",
  "page_name": "FMSH_PB188a_00007_032",
  "questions": [
    {
      "id_qa": "FMSH_PB188a_00007_032_qa32_v3",
      "id_block": "block_1",
      "question": "A qui l'assistante de Psychologie refuse-t-elle de suivre ?",
      "answer": "les « clients",
      "answer_stringIds": [
        "string_44",
        "string_45",
        "string_46"
      ]
    },
    {
      "id_qa": "FMSH_PB188a_00007_032_qa19_v3",
      "id_block": "block_3",
      "question": "Qu'est ce qui remplace l'autorité morale perdue ?",
      "answer": "la vague de répression",
      "answer_stringIds": [
        "string_320",
        "string_321",
        "string_322",
        "string_323"
      ]
    },
    {
      "id_qa": "FMSH_PB188a_00007_032_qa20_v3",
      "id_block": "block_3",
      "question": "Qui se réunit pour endiguer la vague de répression ?",
      "answer": "Ceux qui",
      "answer_stringIds": [
        "string_311",
        "string_312"
      ]
    }
  ]
}