{
  "num": "autog_0005-0970_1968_num_7_1",
  "article": "autog_0005-0970_1968_num_7_1_932",
  "page_name": "FMSH_PB188a_00007_030",
  "questions": [
    {
      "id_qa": "FMSH_PB188a_00007_030_qa1_v3",
      "id_block": "block_2",
      "question": "Qui ne supporte pas cette phase sauvage de l'autogestion ?",
      "answer": "Quelques étudiantes et étudiants",
      "answer_stringIds": [
        "string_29",
        "string_30",
        "string_31",
        "string_32",
        "string_33"
      ]
    },
    {
      "id_qa": "FMSH_PB188a_00007_030_qa15_v3",
      "id_block": "block_2",
      "question": "A quoi s'identifient ceux qui résistent jusqu'au bout ?",
      "answer": "mon entreprise",
      "answer_stringIds": [
        "string_61",
        "string_62"
      ]
    },
    {
      "id_qa": "FMSH_PB188a_00007_030_qa12_v3",
      "id_block": "block_4",
      "question": "Qu'est-ce qui se développe en sociologie ?",
      "answer": "la grève",
      "answer_stringIds": [
        "string_155",
        "string_156"
      ]
    },
    {
      "id_qa": "FMSH_PB188a_00007_030_qa27_v3",
      "id_block": "block_4",
      "question": "Qu'est-ce que la commission paritaire ?",
      "answer": "la cogestion",
      "answer_stringIds": [
        "string_212",
        "string_213"
      ]
    },
    {
      "id_qa": "FMSH_PB188a_00007_030_qa20_v3",
      "id_block": "block_5",
      "question": "Quel théâtre donne une représentation à la fin de la grève ?",
      "answer": "le Living Theatre",
      "answer_stringIds": [
        "string_309",
        "string_310",
        "string_311"
      ]
    },
    {
      "id_qa": "FMSH_PB188a_00007_030_qa21_v3",
      "id_block": "block_5",
      "question": "Que donne le Living Theatre à la fin de la grève ?",
      "answer": "une représentation",
      "answer_stringIds": [
        "string_314",
        "string_315"
      ]
    },
    {
      "id_qa": "FMSH_PB188a_00007_030_qa22_v3",
      "id_block": "block_5",
      "question": "Quel théâtre donne une représentation dans un des grands amphithéâtres ?",
      "answer": "le Living Theatre",
      "answer_stringIds": [
        "string_309",
        "string_310",
        "string_311"
      ]
    },
    {
      "id_qa": "FMSH_PB188a_00007_030_qa23_v3",
      "id_block": "block_5",
      "question": "Où le Living Theatre donne-t-il une représentation ?",
      "answer": "dans un des grands amphithéâtres",
      "answer_stringIds": [
        "string_316",
        "string_317",
        "string_318",
        "string_319",
        "string_320"
      ]
    },
    {
      "id_qa": "FMSH_PB188a_00007_030_qa24_v3",
      "id_block": "block_5",
      "question": "Quand le Living Theatre vient-il donner une représentation dans un des grands amphithéâtres ?",
      "answer": "Dès la fin de la grève",
      "answer_stringIds": [
        "string_303",
        "string_304",
        "string_305",
        "string_306",
        "string_307",
        "string_308"
      ]
    }
  ]
}