{
  "num": "autog_0338-7259_1970_num_13_1",
  "article": "autog_0338-7259_1970_num_13_1_1794",
  "page_name": "FMSH_PB188a_13-14_248",
  "questions": [
    "Quels individus et groupes préparent cette Rencontre Internationale sur l'Autogestion pour l'été 1971 ?",
    "Dans quel contexte cette rencontre est-elle prévue ?",
    "Quels sont les partisans de l'autogestion et comment est-ce qu'ils se définissent ?",
    "Comment est-ce que l'autogestion est décrite dans le texte ?",
    "Quel est l'objectif de cette rencontre ?",
    "Pourquoi ces partisans veulent se rencontrer ?",
    "Quels sont les micro-organisations mentionnées et quels sont leurs discours ?",
    "Comment la notion d'autogestion est-elle utilisée dans le texte ?",
    "Quel est le lien entre l'autogestion et l'abstraction mentionnée dans le texte ?"
  ]
}