{
  "num": "autog_0338-7259_1970_num_13_1",
  "article": "autog_0338-7259_1970_num_13_1_1794",
  "page_name": "FMSH_PB188a_13-14_247",
  "questions": [
    "Quels auteurs sont mentionnés dans ce sommaire ?",
    "Qu'est-ce que Pierre Denis propose pour l'autogestion à travers une rencontre internationale ?",
    "Qu'est l'idée d'André Jeanson quant à l'autogestion pour une entreprise ?",
    "Qu'est la grève du zèle à Orly et comment est-elle liée à l'autogestion ?",
    "Quels livres ont été reçus sur le sujet de l'autogestion ?",
    "Quel est l'état actuel des « Soviets à Saclay » ?"
  ]
}