{
  "num": "autog_0338-7259_1970_num_11_1",
  "article": "autog_0338-7259_1970_num_11_1_966",
  "page_name": "FMSH_PB188a_11-12_150",
  "questions": [
    "Quel est le rôle des conseils ouvriers dans la politique commerciale de l'entreprise selon les résultats de l'enquête ?",
    "Quels sont les plans de développement techniques de l'entreprise selon les résultats de l'enquête ?",
    "Comment est réparti le revenu brut et les bénéfices de l'entreprise selon les résultats de l'enquête ?",
    "Quels sont les plans annuels des investissements de l'entreprise selon les résultats de l'enquête ?",
    "Comment sont jugés les qualités professionnelles des directeurs d'entreprise et de leurs adjoints selon les résultats de l'enquête ?",
    "En quelle mesure les résultats de l'enquête sur les conseils ouvriers français correspondent aux résultats obtenus en Yougoslavie en 1963 ?",
    "Quel est le rôle des organes d'autogestion en Yougoslavie et comment ont-ils été contraints à entreprendre ?",
    "Quel est l'ordre des sujets traités lors des réunions des conseils ouvriers yougoslaves et combien de réunions ont-ils eu lieu en 1963 ?",
    "Quels sont les principaux sujets abordés lors des réunions des conseils ouvriers yougoslaves en 1963 ?",
    "Quel est le système de direction, le système technique, le système économique et le système social dans l'entreprise selon l'auteur ?",
    "Quel est le rôle de l'auteur dans ce texte et quels sont ses sources d'information ?"
  ]
}