{
  "num": "autog_0338-7259_1970_num_11_1",
  "article": "autog_0338-7259_1970_num_11_1_966",
  "page_name": "FMSH_PB188a_11-12_158",
  "questions": [
    "Quels sont les différents domaines de prérogatives du directeur d'entreprise selon le document ?",
    "Quel est le poids relatif de la nomination et révocation des directeurs et de leurs adjoints par rapport aux autres prérogatives ?",
    "Quels sont les éléments de retardement cités par les personnes enquêtées et dans quelle proportion ?",
    "Quel est le pourcentage de personnes qui mentionnent le non-légalisation des conseils ouvriers comme élément de retardement ?",
    "Quel est le pourcentage de personnes qui mentionnent le danger des interventions centrales comme élément de retardement ?",
    "Quel est le poids relatif des prérogatives liées à la politique personnelle et sociale par rapport aux autres prérogatives ?",
    "Quels sont les domaines de prérogatives qui ont le plus faible poids relatif ?",
    "Quels sont les domaines de recherches industrielles et psychologiques mentionnés dans le document ?",
    "Quel est le pourcentage de personnes qui mentionnent la convention collective comme élément de prérogative ?",
    "Quels sont les domaines de prérogatives qui ne sont pas mentionnés dans le document ?",
    "Quels sont les facteurs externes qui peuvent influencer les prérogatives du directeur d'entreprise ?",
    "Quels sont les facteurs internes qui peuvent influencer les prérogatives du directeur d'entreprise ?"
  ]
}