{
  "num": "autog_0338-7259_1970_num_11_1",
  "article": "autog_0338-7259_1970_num_11_1_966",
  "page_name": "FMSH_PB188a_11-12_160",
  "questions": [
    "Quels sont les principaux obstacles à la progression du conseil ouvrier selon les membres du comité d'entreprise ?",
    "Quel est l'attitude des travailleurs économiques supérieurs envers l'institution des conseils ouvriers ?",
    "Comment les membres du conseil ouvrier perçoivent-ils leur rôle dans la résolution des problèmes essentiels et prospectifs ?",
    "Quel est le rôle perçu des prix dans la prise de décisions économiques ?",
    "Quel est l'impact de la gestion centralisée sur le fonctionnement du conseil ouvrier ?",
    "Comment les membres du conseil ouvrier sont-ils perçus par les cadres supérieurs ?",
    "Quels sont les niveaux d'expérience des membres des conseils ouvriers ?",
    "Quel est l'état actuel des niveaux de gestion dans le domaine des conseils ouvriers ?",
    "Comment les électeurs perçoivent-ils le rôle du conseil ouvrier ?",
    "Quels sont les effets potentiels de l'étendue trop large du travail sur la maîtrise du conseil ouvrier ?"
  ]
}