{
  "num": "autog_0338-7259_1975_num_30_1",
  "article": "autog_0338-7259_1975_num_30_1_1130",
  "page_name": "FMSH_PB188a_30-31_155",
  "questions": [
    {
      "id_qa": "FMSH_PB188a_30-31_155_qa9_v3",
      "id_block": "block_1",
      "question": "Qu'impose l'évolution de la société ?",
      "answer": "une conception du fonctionnement de la société",
      "answer_stringIds": [
        "string_2",
        "string_3",
        "string_4",
        "string_5",
        "string_6",
        "string_7",
        "string_8"
      ]
    },
    {
      "id_qa": "FMSH_PB188a_30-31_155_qa11_v3",
      "id_block": "block_2",
      "question": "Qui est à l'origine de la révolution algérienne ?",
      "answer": "Ben bella",
      "answer_stringIds": [
        "string_253",
        "string_254"
      ]
    },
    {
      "id_qa": "FMSH_PB188a_30-31_155_qa14_v3",
      "id_block": "block_2",
      "question": "Qu'est-ce qui a marqué la révolution algérienne ?",
      "answer": "les conflits",
      "answer_stringIds": [
        "string_183",
        "string_184"
      ]
    },
    {
      "id_qa": "FMSH_PB188a_30-31_155_qa13_v3",
      "id_block": "block_2",
      "question": "Qu'est ce qui est à l'origine de la révolution algérienne ?",
      "answer": "les conflits",
      "answer_stringIds": [
        "string_183",
        "string_184"
      ]
    },
    {
      "id_qa": "FMSH_PB188a_30-31_155_qa16_v3",
      "id_block": "block_2",
      "question": "Qu'a nécessité la Révolution Nationale ?",
      "answer": "Les complexes alliances",
      "answer_stringIds": [
        "string_213",
        "string_214",
        "string_215"
      ]
    },
    {
      "id_qa": "FMSH_PB188a_30-31_155_qa17_v3",
      "id_block": "block_2",
      "question": "Dans quel programme la révolution algérienne a-t-elle marqué le pouvoir politique en Algérie ?",
      "answer": "dans le Programme de Tripoli",
      "answer_stringIds": [
        "string_193",
        "string_194",
        "string_195",
        "string_196",
        "string_197"
      ]
    },
    {
      "id_qa": "FMSH_PB188a_30-31_155_qa19_v3",
      "id_block": "block_2",
      "question": "Qu'est-ce qui traduit une opposition entre tenants du Capitalisme et tenants du Socialisme ?",
      "answer": "Le conflit profond",
      "answer_stringIds": [
        "string_272",
        "string_273",
        "string_274"
      ]
    },
    {
      "id_qa": "FMSH_PB188a_30-31_155_qa4_v3",
      "id_block": "block_3",
      "question": "Qu'est-ce que l'Etat ne connait pas ?",
      "answer": "la « planification",
      "answer_stringIds": [
        "string_371",
        "string_372",
        "string_373",
        "string_374"
      ]
    }
  ]
}