{
  "num": "autog_0338-7259_1975_num_30_1",
  "article": "autog_0338-7259_1975_num_30_1_1130",
  "page_name": "FMSH_PB188a_30-31_138",
  "questions": [
    {
      "id_qa": "FMSH_PB188a_30-31_138_qa5_v3",
      "id_block": "block_1",
      "question": "A quoi correspondait l'intégration de l'autogestion dans \"l'Etat\" en 1963 ?",
      "answer": "des possibilités économiques et politiques suffisantes ou",
      "answer_stringIds": [
        "string_5",
        "string_6",
        "string_7",
        "string_8",
        "string_9",
        "string_10",
        "string_11"
      ]
    },
    {
      "id_qa": "FMSH_PB188a_30-31_138_qa6_v3",
      "id_block": "block_1",
      "question": "Qu'est ce qui permet de renforcer l'autogestion en 1965 ?",
      "answer": "une nette orientation socialiste",
      "answer_stringIds": [
        "string_71",
        "string_72",
        "string_73",
        "string_74"
      ]
    },
    {
      "id_qa": "FMSH_PB188a_30-31_138_qa13_v3",
      "id_block": "block_1",
      "question": "Par quoi est réalisée l'intégration de l'autogestion ?",
      "answer": "par son organisation même",
      "answer_stringIds": [
        "string_125",
        "string_126",
        "string_127",
        "string_128"
      ]
    },
    {
      "id_qa": "FMSH_PB188a_30-31_138_qa14_v3",
      "id_block": "block_1",
      "question": "Combien de pages ont été consacrées à l'intégration de l'autogestion ?",
      "answer": "Les quatrevingt pages",
      "answer_stringIds": [
        "string_113",
        "string_114",
        "string_115",
        "string_116"
      ]
    },
    {
      "id_qa": "FMSH_PB188a_30-31_138_qa17_v3",
      "id_block": "block_1",
      "question": "Quelle était la réaction de l'autogestion ?",
      "answer": "les bottes laissées par le pouvoir colonial",
      "answer_stringIds": [
        "string_187",
        "string_188",
        "string_189",
        "string_190",
        "string_191",
        "string_192",
        "string_193"
      ]
    },
    {
      "id_qa": "FMSH_PB188a_30-31_138_qa18_v3",
      "id_block": "block_1",
      "question": "Qui a laissé chausser les bottes des travailleurs?",
      "answer": "le pouvoir colonial",
      "answer_stringIds": [
        "string_191",
        "string_192",
        "string_193"
      ]
    },
    {
      "id_qa": "FMSH_PB188a_30-31_138_qa1_v3",
      "id_block": "block_2",
      "question": "Qu'est-ce qui a disparu de Pautogestion ?",
      "answer": "le secteur",
      "answer_stringIds": [
        "string_291",
        "string_292"
      ]
    },
    {
      "id_qa": "FMSH_PB188a_30-31_138_qa8_v3",
      "id_block": "block_2",
      "question": "Quelle est la conséquence du coup d'Etat militaire ?",
      "answer": "une nouvelle bourgeoisie nationale",
      "answer_stringIds": [
        "string_208",
        "string_209",
        "string_210",
        "string_211"
      ]
    },
    {
      "id_qa": "FMSH_PB188a_30-31_138_qa10_v3",
      "id_block": "block_2",
      "question": "Quel était le but du coup d'Etat militaire ?",
      "answer": "le développement",
      "answer_stringIds": [
        "string_221",
        "string_222"
      ]
    },
    {
      "id_qa": "FMSH_PB188a_30-31_138_qa20_v3",
      "id_block": "block_2",
      "question": "Qu'est ce qui permet aux entreprises privées de se développer?",
      "answer": "le nouveau code des investissements",
      "answer_stringIds": [
        "string_389",
        "string_390",
        "string_391",
        "string_392",
        "string_393"
      ]
    }
  ]
}