{
  "num": "autog_0249-2563_1980_num_13_1",
  "article": "autog_0249-2563_1980_num_13_1_1355",
  "page_name": "autog_0249-2563_1980_num_13_1_T1_0136_0000",
  "questions": [
    {
      "id_qa": "autog_0249-2563_1980_num_13_1_T1_0136_0000_qa17_v3",
      "id_block": "block_1",
      "question": "Qu'est ce qui est chargé des termes d'autogestion et de socialisme ?",
      "answer": "Les ambiguïtés",
      "answer_stringIds": [
        "string_83",
        "string_84"
      ]
    },
    {
      "id_qa": "autog_0249-2563_1980_num_13_1_T1_0136_0000_qa18_v3",
      "id_block": "block_1",
      "question": "Que risque les termes d'autogestion et de socialisme ?",
      "answer": "se cumuler",
      "answer_stringIds": [
        "string_102",
        "string_103"
      ]
    },
    {
      "id_qa": "autog_0249-2563_1980_num_13_1_T1_0136_0000_qa20_v3",
      "id_block": "block_2",
      "question": "Par quoi s'explique le choix définitif du titre Autogestions ?",
      "answer": "par les raisons suivantes",
      "answer_stringIds": [
        "string_112",
        "string_113",
        "string_114",
        "string_115"
      ]
    },
    {
      "id_qa": "autog_0249-2563_1980_num_13_1_T1_0136_0000_qa6_v3",
      "id_block": "block_3",
      "question": "Qu'est ce qui est mis en avant dans la revue ?",
      "answer": "des expériences et des opinions",
      "answer_stringIds": [
        "string_125",
        "string_126",
        "string_127",
        "string_128",
        "string_129",
        "string_130"
      ]
    },
    {
      "id_qa": "autog_0249-2563_1980_num_13_1_T1_0136_0000_qa7_v3",
      "id_block": "block_3",
      "question": "Où sont présentées les différentes approches d'autogestion ?",
      "answer": "dans la revue",
      "answer_stringIds": [
        "string_132",
        "string_133",
        "string_134"
      ]
    },
    {
      "id_qa": "autog_0249-2563_1980_num_13_1_T1_0136_0000_qa1_v3",
      "id_block": "block_4",
      "question": "Quelle est l'ambition de la pluralisation ?",
      "answer": "la revue",
      "answer_stringIds": [
        "string_133",
        "string_134"
      ]
    },
    {
      "id_qa": "autog_0249-2563_1980_num_13_1_T1_0136_0000_qa21_v3",
      "id_block": "block_6",
      "question": "Quelle est la traduction pratique de l'autogestion de la revue ?",
      "answer": "une autogestion de la revue",
      "answer_stringIds": [
        "string_396",
        "string_397",
        "string_398",
        "string_399",
        "string_400"
      ]
    },
    {
      "id_qa": "autog_0249-2563_1980_num_13_1_T1_0136_0000_qa23_v3",
      "id_block": "block_6",
      "question": "Comment s'appelle le comité de patronnage ?",
      "answer": "fonctionner",
      "answer_stringIds": [
        "string_325"
      ]
    }
  ]
}