{
  "num": "autog_0249-2563_1982_num_16_12",
  "article": "autog_0249-2563_1982_num_16_12_1531",
  "page_name": "autog_0249-2563_1982_num_16_12_T1_0076_0000",
  "questions": [
    "Quels postes avais le professeur refusé avant son retour au Poitou ?",
    "Pourquoi le retour au Poitou ne lui disait rien ?",
    "Quel comportement pédagogique reprochait-il au certain inspecteur de l'Éducation nationale ?",
    "Quels idées généreuses avaient été transformées en instruments de torture par ce même inspecteur ?",
    "Qui étaient Chantal Manès et Jean Lévi et quels étaient leurs responsabilités dans l'équipe du lycée ?",
    "Quand avait-on obtenu une acceptation de principe pour travailler ensemble ?",
    "Quel était le problème avec le local initialement envisagé ?",
    "Quelles alternatives avaient été proposées par l'Administration ?",
    "Comment les élus de l'Éducation nationale étaient-ils traités par Mme Pouplin ?",
    "Quel était la mission de la «structure horizontale» de l'administration centrale de l'Éducation nationale ?"
  ]
}