{
  "num": "autog_0249-2563_1982_num_16_12",
  "article": "autog_0249-2563_1982_num_16_12_1531",
  "page_name": "autog_0249-2563_1982_num_16_12_T1_0074_0000",
  "questions": [
    "Ces gens du terrain, sont-ils l'objet d'une opération publicitaire ou bien chirurgicale ?",
    "Comment échapper à l'évaluation et à ce mot ?",
    "Qu'arrivent-ils lorsque l'évaluation est conçue comme activité séparée ?",
    "Est-il souhaitable de questionner la valeur et le sens de nos pratiques autonomes ?",
    "Quels sont les gens concernés par notre recherche dans cette forme dl'évaluation ?",
    "Quels événements historiques ont conduit Norbert Wiener à écrire Cyberneretics en 1948 ?",
    "Quels établissements sont cités au début de l'article ?",
    "Qu'est-il arrivé ?"
  ]
}