{
  "num": "autog_0249-2563_1982_num_15_10",
  "article": "autog_0249-2563_1982_num_15_10_1502",
  "page_name": "autog_0249-2563_1982_num_15_10_T1_0090_0000",
  "questions": [
    {
      "id_qa": "autog_0249-2563_1982_num_15_10_T1_0090_0000_qa7_v3",
      "id_block": "block_0",
      "question": "Qu'est ce qui n'a jamais été au Parti ?",
      "answer": "un engagement de type politique",
      "answer_stringIds": [
        "string_46",
        "string_47",
        "string_48",
        "string_49",
        "string_50"
      ]
    },
    {
      "id_qa": "autog_0249-2563_1982_num_15_10_T1_0090_0000_qa15_v3",
      "id_block": "block_0",
      "question": "Qu'est ce qui se réalisait là-bas ?",
      "answer": "un monde nouveau",
      "answer_stringIds": [
        "string_70",
        "string_71",
        "string_72"
      ]
    },
    {
      "id_qa": "autog_0249-2563_1982_num_15_10_T1_0090_0000_qa1_v3",
      "id_block": "block_1",
      "question": "Qui est considéré comme un renégat ?",
      "answer": "Tito",
      "answer_stringIds": [
        "string_83"
      ]
    },
    {
      "id_qa": "autog_0249-2563_1982_num_15_10_T1_0090_0000_qa3_v3",
      "id_block": "block_1",
      "question": "Comment est considéré Tito ?",
      "answer": "un renégat",
      "answer_stringIds": [
        "string_88",
        "string_89"
      ]
    },
    {
      "id_qa": "autog_0249-2563_1982_num_15_10_T1_0090_0000_qa14_v3",
      "id_block": "block_1",
      "question": "Qu'est-ce que j'ai repensé ces jours-ci ?",
      "answer": "J'",
      "answer_stringIds": [
        "string_99"
      ]
    },
    {
      "id_qa": "autog_0249-2563_1982_num_15_10_T1_0090_0000_qa17_v3",
      "id_block": "block_1",
      "question": "Qu'est-ce que j'avais déjà un petit peu le ver dans le fruit ?",
      "answer": "acheter ce livre",
      "answer_stringIds": [
        "string_176",
        "string_177",
        "string_178"
      ]
    },
    {
      "id_qa": "autog_0249-2563_1982_num_15_10_T1_0090_0000_qa0_v3",
      "id_block": "block_4",
      "question": "Pourquoi travaille-t-il ?",
      "answer": "être seul",
      "answer_stringIds": [
        "string_276",
        "string_277"
      ]
    },
    {
      "id_qa": "autog_0249-2563_1982_num_15_10_T1_0090_0000_qa26_v3",
      "id_block": "block_5",
      "question": "Où travaillait Olivetti ?",
      "answer": "en Italie",
      "answer_stringIds": [
        "string_336",
        "string_337"
      ]
    },
    {
      "id_qa": "autog_0249-2563_1982_num_15_10_T1_0090_0000_qa16_v3",
      "id_block": "block_9",
      "question": "A qui pensait-on surtout ?",
      "answer": "à lui",
      "answer_stringIds": [
        "string_370",
        "string_371"
      ]
    },
    {
      "id_qa": "autog_0249-2563_1982_num_15_10_T1_0090_0000_qa29_v3",
      "id_block": "block_9",
      "question": "Qu'est-ce qu'on allait manger ensemble ?",
      "answer": "des spaghetti",
      "answer_stringIds": [
        "string_394",
        "string_395"
      ]
    }
  ]
}