{
  "num": "autog_0249-2563_1982_num_15_10",
  "article": "autog_0249-2563_1982_num_15_10_1502",
  "page_name": "autog_0249-2563_1982_num_15_10_T1_0085_0000",
  "questions": [
    {
      "id_qa": "autog_0249-2563_1982_num_15_10_T1_0085_0000_qa28_v3",
      "id_block": "block_2",
      "question": "Comment s'appelait Velasco ?",
      "answer": "le « chino",
      "answer_stringIds": [
        "string_131",
        "string_132",
        "string_133"
      ]
    },
    {
      "id_qa": "autog_0249-2563_1982_num_15_10_T1_0085_0000_qa30_v3",
      "id_block": "block_2",
      "question": "Qu'entend-on parmi les officiers ?",
      "answer": "J'",
      "answer_stringIds": [
        "string_123"
      ]
    },
    {
      "id_qa": "autog_0249-2563_1982_num_15_10_T1_0085_0000_qa31_v3",
      "id_block": "block_2",
      "question": "Qui entends-on ?",
      "answer": "parmi les officiers",
      "answer_stringIds": [
        "string_124",
        "string_125",
        "string_126"
      ]
    },
    {
      "id_qa": "autog_0249-2563_1982_num_15_10_T1_0085_0000_qa1_v3",
      "id_block": "block_3",
      "question": "Qu'occupait l'armée de Terre ?",
      "answer": "les postes dirigeants",
      "answer_stringIds": [
        "string_156",
        "string_157",
        "string_158"
      ]
    },
    {
      "id_qa": "autog_0249-2563_1982_num_15_10_T1_0085_0000_qa2_v3",
      "id_block": "block_3",
      "question": "Quelle était la particularité de l'armée de Terre ?",
      "answer": "une sensibilité plus populaire",
      "answer_stringIds": [
        "string_161",
        "string_162",
        "string_163",
        "string_164"
      ]
    },
    {
      "id_qa": "autog_0249-2563_1982_num_15_10_T1_0085_0000_qa9_v3",
      "id_block": "block_4",
      "question": "Dans quoi les militaires ont-ils inscrit les cours aux militaires ?",
      "answer": "dans leur programme des choses",
      "answer_stringIds": [
        "string_310",
        "string_311",
        "string_312",
        "string_313",
        "string_314"
      ]
    },
    {
      "id_qa": "autog_0249-2563_1982_num_15_10_T1_0085_0000_qa5_v3",
      "id_block": "block_5",
      "question": "Qu'est-ce qui est arrivé à généraliser ?",
      "answer": "le processus péruvien",
      "answer_stringIds": [
        "string_337",
        "string_338",
        "string_339"
      ]
    }
  ]
}