{
  "num": "autog_0249-2563_1982_num_15_10",
  "article": "autog_0249-2563_1982_num_15_10_1502",
  "page_name": "autog_0249-2563_1982_num_15_10_T1_0084_0000",
  "questions": [
    {
      "id_qa": "autog_0249-2563_1982_num_15_10_T1_0084_0000_qa24_v3",
      "id_block": "block_0",
      "question": "Qu'est ce qui se passe actuellement ?",
      "answer": "des nouvelles",
      "answer_stringIds": [
        "string_5",
        "string_6"
      ]
    },
    {
      "id_qa": "autog_0249-2563_1982_num_15_10_T1_0084_0000_qa19_v3",
      "id_block": "block_2",
      "question": "Quelle est la conséquence du coup d'Etat d'Ongania en 1964 ?",
      "answer": "non pas",
      "answer_stringIds": [
        "string_56",
        "string_57"
      ]
    },
    {
      "id_qa": "autog_0249-2563_1982_num_15_10_T1_0084_0000_qa0_v3",
      "id_block": "block_4",
      "question": "Quel est le défaut dans ces trucs ?",
      "answer": "tu fais une étude",
      "answer_stringIds": [
        "string_94",
        "string_95",
        "string_96",
        "string_97"
      ]
    },
    {
      "id_qa": "autog_0249-2563_1982_num_15_10_T1_0084_0000_qa1_v3",
      "id_block": "block_4",
      "question": "Quel est le défaut de l'étude ?",
      "answer": "trop de temps",
      "answer_stringIds": [
        "string_121",
        "string_122",
        "string_123"
      ]
    },
    {
      "id_qa": "autog_0249-2563_1982_num_15_10_T1_0084_0000_qa2_v3",
      "id_block": "block_4",
      "question": "Quand commence l'étude ?",
      "answer": "quelque chose",
      "answer_stringIds": [
        "string_131",
        "string_132"
      ]
    },
    {
      "id_qa": "autog_0249-2563_1982_num_15_10_T1_0084_0000_qa3_v3",
      "id_block": "block_4",
      "question": "Que met-on dans le coup au moment de l'étude ?",
      "answer": "des gens",
      "answer_stringIds": [
        "string_109",
        "string_110"
      ]
    },
    {
      "id_qa": "autog_0249-2563_1982_num_15_10_T1_0084_0000_qa4_v3",
      "id_block": "block_4",
      "question": "Qu'est ce qui manque dans ces trucs ?",
      "answer": "une étude",
      "answer_stringIds": [
        "string_96",
        "string_97"
      ]
    },
    {
      "id_qa": "autog_0249-2563_1982_num_15_10_T1_0084_0000_qa14_v3",
      "id_block": "block_4",
      "question": "Qu'est ce qui plaisait aux universitaires ?",
      "answer": "des statistiques",
      "answer_stringIds": [
        "string_154",
        "string_155"
      ]
    },
    {
      "id_qa": "autog_0249-2563_1982_num_15_10_T1_0084_0000_qa31_v3",
      "id_block": "block_4",
      "question": "Quel est le meilleur moyen de commencer sans étude ?",
      "answer": "mieux",
      "answer_stringIds": [
        "string_135"
      ]
    },
    {
      "id_qa": "autog_0249-2563_1982_num_15_10_T1_0084_0000_qa27_v3",
      "id_block": "block_7",
      "question": "Quel gouvernement a repris les projets de développement communautaire ?",
      "answer": "le gouvernement militaire",
      "answer_stringIds": [
        "string_259",
        "string_260",
        "string_261"
      ]
    },
    {
      "id_qa": "autog_0249-2563_1982_num_15_10_T1_0084_0000_qa21_v3",
      "id_block": "block_8",
      "question": "Où est-ce que j'ai passé une dizaine de jours ?",
      "answer": "au Pérou",
      "answer_stringIds": [
        "string_180",
        "string_181"
      ]
    },
    {
      "id_qa": "autog_0249-2563_1982_num_15_10_T1_0084_0000_qa23_v3",
      "id_block": "block_8",
      "question": "Qu'est-ce que j'ai rencontré au Pérou ?",
      "answer": "ces gens",
      "answer_stringIds": [
        "string_317",
        "string_318"
      ]
    },
    {
      "id_qa": "autog_0249-2563_1982_num_15_10_T1_0084_0000_qa9_v3",
      "id_block": "block_9",
      "question": "Par qui j'avais un contrat ?",
      "answer": "la FAO",
      "answer_stringIds": [
        "string_349",
        "string_350"
      ]
    },
    {
      "id_qa": "autog_0249-2563_1982_num_15_10_T1_0084_0000_qa10_v3",
      "id_block": "block_9",
      "question": "Qu'est ce qui a été demandé par la FAO pour faire une espèce d'évaluation du processus coopératif dans la réforme agraire ?",
      "answer": "un contrat",
      "answer_stringIds": [
        "string_343",
        "string_344"
      ]
    },
    {
      "id_qa": "autog_0249-2563_1982_num_15_10_T1_0084_0000_qa11_v3",
      "id_block": "block_9",
      "question": "Où j'avais un contrat ?",
      "answer": "Là",
      "answer_stringIds": [
        "string_341"
      ]
    }
  ]
}