{
  "num": "autog_0249-2563_1980_num_13_1",
  "article": "autog_0249-2563_1980_num_13_1_1352_t1_0126_0000_3",
  "page_name": "autog_0249-2563_1980_num_13_1_T1_0126_0000",
  "questions": [
    "Quel est le but principal du P.S. en vis-à-vis du P.C.F. selon le texte ?",
    "Quels sont les réactions observables à la prise de position du P.C.F. sur l'autogestion ?",
    "Qu'est la signification de la doctrine de l'autogestion pour le P.C.F. ?",
    "Quels intellectuels démontrent que toute théorie, y compris celle de l'autogestion, engendre le totalitarisme et la terreur ?",
    "Où pourrait conduire l'expérimentation sociale en autogestion ?",
    "Qu'est l'avis de J.-P. Chevènement sur l'avantage que donnerait au socialisme la maîtrise de l'appareil étatique le plus perfectionné d'Europe ?",
    "Qu'est la conception héroïque de la part de M. Charzat ?",
    "Qu'est le projet politique de la « gauche américaine » selon M. Charzat ?",
    "Qu'est la culture sociale-démocrate libertaire selon M. Charzat ?",
    "Quels sont les porte-voix de la « gauche américaine » selon M. Charzat ?"
  ]
}