{
  "num": "autog_0249-2563_1982_num_15_8",
  "article": "autog_0249-2563_1982_num_15_8_1475",
  "page_name": "autog_0249-2563_1982_num_15_8_T1_0100_0000",
  "questions": [
    {
      "id_qa": "autog_0249-2563_1982_num_15_8_T1_0100_0000_qa40_v3",
      "id_block": "block_0",
      "question": "Qu'est ce qui n'a plus de légitimité depuis longtemps ?",
      "answer": "produits",
      "answer_stringIds": [
        "string_62",
        "string_63"
      ]
    },
    {
      "id_qa": "autog_0249-2563_1982_num_15_8_T1_0100_0000_qa2_v3",
      "id_block": "block_1",
      "question": "Qu'est-ce qui ne causera pas un produit en un autre temps ou en autre lieu ?",
      "answer": "aucun dommage",
      "answer_stringIds": [
        "string_153",
        "string_154"
      ]
    },
    {
      "id_qa": "autog_0249-2563_1982_num_15_8_T1_0100_0000_qa3_v3",
      "id_block": "block_1",
      "question": "A qui est imposée l'obligation de fournir la preuve ?",
      "answer": "les dommages",
      "answer_stringIds": [
        "string_77",
        "string_78"
      ]
    },
    {
      "id_qa": "autog_0249-2563_1982_num_15_8_T1_0100_0000_qa4_v3",
      "id_block": "block_1",
      "question": "Que doit prouver l'obligation de fournir la preuve à celui qui subit ?",
      "answer": "un produit ne causera aucun dommage en un autre temps ou en un autre lieu",
      "answer_stringIds": [
        "string_148",
        "string_149",
        "string_150",
        "string_151",
        "string_152",
        "string_153",
        "string_154",
        "string_155",
        "string_156",
        "string_157",
        "string_158",
        "string_159",
        "string_160",
        "string_161",
        "string_162",
        "string_163"
      ]
    },
    {
      "id_qa": "autog_0249-2563_1982_num_15_8_T1_0100_0000_qa5_v3",
      "id_block": "block_1",
      "question": "Qu'impose l'obligation à celui qui subit les dommages ?",
      "answer": "la preuve",
      "answer_stringIds": [
        "string_25",
        "string_26"
      ]
    },
    {
      "id_qa": "autog_0249-2563_1982_num_15_8_T1_0100_0000_qa6_v3",
      "id_block": "block_1",
      "question": "Qu'est ce qui ne causera aucun dommage en un autre temps ou dans un autre lieu ?",
      "answer": "un produit",
      "answer_stringIds": [
        "string_148",
        "string_149"
      ]
    },
    {
      "id_qa": "autog_0249-2563_1982_num_15_8_T1_0100_0000_qa7_v3",
      "id_block": "block_1",
      "question": "Qui pourrait taxer d'activité subversive cette exigence du strict respect des règles de l'économie de marché ?",
      "answer": "Personne",
      "answer_stringIds": [
        "string_201"
      ]
    },
    {
      "id_qa": "autog_0249-2563_1982_num_15_8_T1_0100_0000_qa33_v3",
      "id_block": "block_1",
      "question": "Qu'est-ce qui constitue une infraction aux règles de l'économie de marché ?",
      "answer": "cet état de choses",
      "answer_stringIds": [
        "string_84",
        "string_85",
        "string_86",
        "string_87"
      ]
    },
    {
      "id_qa": "autog_0249-2563_1982_num_15_8_T1_0100_0000_qa34_v3",
      "id_block": "block_1",
      "question": "Qu'est-ce qui est à l'origine de cet état de choses ?",
      "answer": "le malaise général",
      "answer_stringIds": [
        "string_90",
        "string_91",
        "string_92"
      ]
    },
    {
      "id_qa": "autog_0249-2563_1982_num_15_8_T1_0100_0000_qa15_v3",
      "id_block": "block_2",
      "question": "Qui ne trouverait pas de possibilités de reconversion ?",
      "answer": "Les entreprises",
      "answer_stringIds": [
        "string_270",
        "string_271"
      ]
    },
    {
      "id_qa": "autog_0249-2563_1982_num_15_8_T1_0100_0000_qa29_v3",
      "id_block": "block_4",
      "question": "Qui perdrait sans doute leur emploi ?",
      "answer": "les gens",
      "answer_stringIds": [
        "string_304",
        "string_305"
      ]
    },
    {
      "id_qa": "autog_0249-2563_1982_num_15_8_T1_0100_0000_qa30_v3",
      "id_block": "block_4",
      "question": "Que perdraient les gens qui produisaient jusqu'alors des produits devenus invendables ?",
      "answer": "leur emploi",
      "answer_stringIds": [
        "string_316",
        "string_317"
      ]
    },
    {
      "id_qa": "autog_0249-2563_1982_num_15_8_T1_0100_0000_qa31_v3",
      "id_block": "block_4",
      "question": "Qu'est ce qui perdrait sans doute leur emploi ?",
      "answer": "des produits devenus invendables",
      "answer_stringIds": [
        "string_309",
        "string_310",
        "string_311",
        "string_312"
      ]
    },
    {
      "id_qa": "autog_0249-2563_1982_num_15_8_T1_0100_0000_qa37_v3",
      "id_block": "block_4",
      "question": "Où a eu lieu la manifestation de travailleurs de l'industrie électrique ?",
      "answer": "à Dortmund",
      "answer_stringIds": [
        "string_358",
        "string_359"
      ]
    }
  ]
}