{
  "num": "autog_0338-7259_1975_num_30_1",
  "article": "autog_0338-7259_1975_num_30_1_1136_t1_0196_0000_1",
  "page_name": "FMSH_PB188a_30-31_201",
  "questions": [
    {
      "id_qa": "FMSH_PB188a_30-31_201_qa17_v3",
      "id_block": "block_1",
      "question": "Qui se résigne à devenir mangeable ?",
      "answer": "de la vieille poule",
      "answer_stringIds": [
        "string_10",
        "string_11",
        "string_12",
        "string_13"
      ]
    },
    {
      "id_qa": "FMSH_PB188a_30-31_201_qa19_v3",
      "id_block": "block_1",
      "question": "Que devient le fumet de la vieille poule au pot ?",
      "answer": "mangeable",
      "answer_stringIds": [
        "string_21"
      ]
    },
    {
      "id_qa": "FMSH_PB188a_30-31_201_qa20_v3",
      "id_block": "block_1",
      "question": "Qu'est-ce qui se résigne à devenir mangeable ?",
      "answer": "le fumet de la vieille poule",
      "answer_stringIds": [
        "string_8",
        "string_9",
        "string_10",
        "string_11",
        "string_12",
        "string_13"
      ]
    },
    {
      "id_qa": "FMSH_PB188a_30-31_201_qa21_v3",
      "id_block": "block_1",
      "question": "Qu'est ce qui semble flotter sur toute l'oeuvre ?",
      "answer": "des effluves",
      "answer_stringIds": [
        "string_23",
        "string_24"
      ]
    },
    {
      "id_qa": "FMSH_PB188a_30-31_201_qa29_v3",
      "id_block": "block_1",
      "question": "Qu'est ce qui est constamment remué ?",
      "answer": "une poussière de vieux bouquins",
      "answer_stringIds": [
        "string_46",
        "string_47",
        "string_48",
        "string_49",
        "string_50"
      ]
    },
    {
      "id_qa": "FMSH_PB188a_30-31_201_qa5_v3",
      "id_block": "block_2",
      "question": "Quelle révolution a eu lieu à Summerhill ?",
      "answer": "la révolution russe",
      "answer_stringIds": [
        "string_87",
        "string_88",
        "string_89"
      ]
    },
    {
      "id_qa": "FMSH_PB188a_30-31_201_qa14_v3",
      "id_block": "block_2",
      "question": "Que reçoivent les plus lourds subterfuges du pouvoir maoïste ?",
      "answer": "une justification très inattendue",
      "answer_stringIds": [
        "string_191",
        "string_192",
        "string_193",
        "string_194"
      ]
    }
  ]
}