{
  "num": "autog_0338-7259_1978_num_40_1",
  "article": "autog_0338-7259_1978_num_40_1_1279",
  "page_name": "FMSH_PB188a_00040_096",
  "questions": [
    "Quel recensement a été effectué avant l'élection et à quoi servait-il ?",
    "Quels étaient les principaux besoins ressentis par la population à l'époque ?",
    "Quels groupes ont été consultés pour élaborer les réponses aux besoins ?",
    "Comment a été décidé de faire une piscine de taille particulière ?",
    "Qu'est-il dit à propos de la démocratie directe et du rôle des associations ?",
    "Quels sont les objectifs visés par le professeur Careme en matière de développement associatif ?"
  ]
}