{
  "num": "autog_0338-7259_1978_num_40_1",
  "article": "autog_0338-7259_1978_num_40_1_1279",
  "page_name": "FMSH_PB188a_00040_095",
  "questions": [
    "Quel était l'état financier de la ligne de Coupvray une année auparavant ?",
    "Pourquoi la ligne de Coupvray n'était-elle pas rentable certaines périodes ?",
    "Quel était le rôle initial de la petite bus dans la commune ?",
    "Quand a commencé la création de la régie communale ?",
    "Quels ont été les principaux obstacles à la création de la régie communale ?",
    "Qui gèrent actuellement le matériel du service de transport communal ?",
    "Comment les usagers sont-ils impliqués dans la gestion du service de transport communal ?",
    "Quels autres services sont disponibles à Coupvray ?",
    "Quand et comment a commencé l'élaboration de la Charte Municipale ?",
    "Quels sont les principaux axes de la Charte Municipale en cours d'élaboration ?",
    "Comment les habitants sont-ils consultés dans l'élaboration de la Charte Municipale ?"
  ]
}