{
  "num": "autog_0338-7259_1978_num_40_1",
  "article": "autog_0338-7259_1978_num_40_1_1279",
  "page_name": "FMSH_PB188a_00040_101",
  "questions": [
    "Quels moyens matériels et politiques RC demande-t-il pour les personnes qui agissent ?",
    "Quand RC parle de \"se coucher\" et \"se lever\", qu'il entend-il exactement ?",
    "Qu'est-ce qui cause la fatigue des gens qui agissent ?",
    "Pourquoi RC pense-t-il qu'il n'est pas nécessaire de attendre que tout change pour commencer l'autogestion ?",
    "Quels sont les facteurs clés de l'autogestion selon RC ?",
    "Comment RC décrit-il le processus d'autogestion ?",
    "Quels sont les différentes manières d'amorcer les premiers pas vers l'autogestion selon RC ?",
    "Comment RC caractérise-t-il les idées autogestionnaires ?"
  ]
}