{
  "num": "autog_0249-2563_1982_num_15_11",
  "article": "autog_0249-2563_1982_num_15_11_1512",
  "page_name": "autog_0249-2563_1982_num_15_11_T1_0003_0000",
  "questions": [
    "Quel est le phénomène social que l'auteur veut aborder dans ce dossier ?",
    "Quels critères caractérisent les groupes d'habitat autogéré ?",
    "Quels sont les domaines d'expertise des deux personnes mentionnées dans le texte ?",
    "En quels domaines les auteurs ont-ils publié des travaux communs ou séparés ?",
    "Quels sont les problèmes principaux que les auteurs abordent dans leurs recherches ?",
    "Quels sont les groupes de recherche auxquels appartiennent les auteurs ?",
    "Quels sont les titres de leurs publications les plus récentes ?"
  ]
}