{
  "num": "autog_0338-7259_1970_num_13_1",
  "article": "autog_0338-7259_1970_num_13_1_985",
  "page_name": "FMSH_PB188a_13-14_198",
  "questions": [
    "Quels membres de la section sont-ils en question dans ce passage ?",
    "Pourquoi Georges Lienard est-il prêt à croire qu'il est dans le groupe qui lui convient ?",
    "Comment le groupe B gère-t-il sa situation dans le groupe et sa perception de la démocratie ?",
    "Quels mécanismes met-on en place le groupe B pour rendre difficile une rupture de la solidarité ?",
    "Pourquoi le groupe B accepte une loi nouvelle mais définitive ?",
    "Comment le groupe B veut faire évoluer la loi imposée ?",
    "Comment le groupe B partage-t-il l'imaginaire démocratique avec le groupe A ?",
    "Comment ce type d'analyse pourrait-il résoudre le conflit au sein de l'Ecole ?",
    "Quel est le rôle de la conscience collective dans la résolution du conflit au sein de l'Ecole ?"
  ]
}