{
  "num": "autog_0338-7259_1970_num_13_1",
  "article": "autog_0338-7259_1970_num_13_1_985",
  "page_name": "FMSH_PB188a_13-14_182",
  "questions": [
    "Quel était le rôle du secrétaire régional du mouvement ouvrier chrétien dans l'organisation de l'I.S.C.O. ?",
    "Comment se comportait l'étudiant vis-à-vis de l'assiduité et de la régularité par rapport à la moyenne des étudiants ?",
    "Quels propositions avaient les professeurs faits pour modifier la relation pédagogique et organiser la vie commune de manière plus égalitaire ?",
    "Comment les étudiants adultes, parfois même âgés, avaient-ils influencé la direction de l'école pour ne pas recourir aux procédures paternalistes ?",
    "Comment s'organisaient les choses dans l'I.S.C.O. à la fin de l'année ?",
    "Quels phénomènes inattendus se sont manifestés lors de la reprise des cours en 69 ?",
    "Comment les plaintes individuelles et les conflits de personnes ont-ils affecté l'I.S.C.O. ?",
    "Comment cette analyse de la fonctionnement de l'I.S.C.O. fait-elle apparaître l'illusion démocratique propagée par le système scolaire traditionnel ?"
  ]
}