{
  "num": "autog_0338-7259_1970_num_13_1",
  "article": "autog_0338-7259_1970_num_13_1_985",
  "page_name": "FMSH_PB188a_13-14_184",
  "questions": [
    "Quels enseignants sont-ils à l'origine de ces inquiétudes ?",
    "Quel sentiment est-il exprimé à propos de l'organisation de l'école ?",
    "Pourquoi ces enseignants regrette-t-on de ne pas être suffisamment soutenus dans leur travail ?",
    "Comment est-il difficile de mesurer la progression des élèves ?",
    "Quel sentiment est exprimé par certains élèves ?",
    "Pourquoi les enseignants reviennent plusieurs fois sur la nécessité de renforcer la discipline ?",
    "Qu'est-il arrivé à la discussion de l'ordre du jour ?",
    "Quel est le refus de Pierre en ce qui concerne l'ordre du jour ?",
    "Quel est le problème des absences que propose l'ordre du jour ?",
    "Quels sont les autres sujets abordés dans l'ordre du jour ?"
  ]
}