{
  "num": "autog_0005-0970_1968_num_7_1",
  "article": "autog_0005-0970_1968_num_7_1_939",
  "page_name": "FMSH_PB188a_00007_130",
  "questions": [
    {
      "id_qa": "FMSH_PB188a_00007_130_qa22_v3",
      "id_block": "block_1",
      "question": "Qu'est ce qui s'imposeront comme avant par la répression ?",
      "answer": "les anciennes structures",
      "answer_stringIds": [
        "string_14",
        "string_15",
        "string_16"
      ]
    },
    {
      "id_qa": "FMSH_PB188a_00007_130_qa24_v3",
      "id_block": "block_1",
      "question": "Que réinstitue la répression ?",
      "answer": "la privation du savoir et des structures bureaucratiques plus fines",
      "answer_stringIds": [
        "string_27",
        "string_28",
        "string_29",
        "string_30",
        "string_31",
        "string_32",
        "string_33",
        "string_34",
        "string_35",
        "string_36"
      ]
    },
    {
      "id_qa": "FMSH_PB188a_00007_130_qa25_v3",
      "id_block": "block_1",
      "question": "Qu'est-ce que le pouvoir accepte ?",
      "answer": "la concèssion faite à la co-gestion",
      "answer_stringIds": [
        "string_52",
        "string_53",
        "string_54",
        "string_55",
        "string_56",
        "string_57"
      ]
    },
    {
      "id_qa": "FMSH_PB188a_00007_130_qa26_v3",
      "id_block": "block_1",
      "question": "Qu'est-ce qui est accepté par le pouvoir ?",
      "answer": "la co-gestion",
      "answer_stringIds": [
        "string_56",
        "string_57"
      ]
    },
    {
      "id_qa": "FMSH_PB188a_00007_130_qa28_v3",
      "id_block": "block_1",
      "question": "Qui accepte la concèssion faite à la co-gestion ?",
      "answer": "le pouvoir",
      "answer_stringIds": [
        "string_49",
        "string_50"
      ]
    },
    {
      "id_qa": "FMSH_PB188a_00007_130_qa15_v3",
      "id_block": "block_2",
      "question": "Qui est soumise à l'aliénation sexuelle ?",
      "answer": "la jeunesse",
      "answer_stringIds": [
        "string_103",
        "string_104"
      ]
    },
    {
      "id_qa": "FMSH_PB188a_00007_130_qa16_v3",
      "id_block": "block_2",
      "question": "Qui est placé dans le procès de travail ?",
      "answer": "Les étudiants",
      "answer_stringIds": [
        "string_68",
        "string_69"
      ]
    },
    {
      "id_qa": "FMSH_PB188a_00007_130_qa21_v3",
      "id_block": "block_2",
      "question": "Qu'est ce qui est exploité par les étudiants ?",
      "answer": "la force de travail",
      "answer_stringIds": [
        "string_85",
        "string_86",
        "string_87",
        "string_88"
      ]
    },
    {
      "id_qa": "FMSH_PB188a_00007_130_qa14_v3",
      "id_block": "block_3",
      "question": "Qu'est-ce que l'autogestion ?",
      "answer": "la co-gestion",
      "answer_stringIds": [
        "string_56",
        "string_57"
      ]
    },
    {
      "id_qa": "FMSH_PB188a_00007_130_qa4_v3",
      "id_block": "block_4",
      "question": "Qu'est ce qui indique que l'autogestion se pratique ?",
      "answer": "Ces précisions",
      "answer_stringIds": [
        "string_272",
        "string_273"
      ]
    },
    {
      "id_qa": "FMSH_PB188a_00007_130_qa7_v3",
      "id_block": "block_4",
      "question": "Qu'est ce qui implique une souveraineté des instances regroupant la base ?",
      "answer": "à des systèmes représentatifs nouveaux caractérisés par la révocabilité des élus",
      "answer_stringIds": [
        "string_248",
        "string_249",
        "string_250",
        "string_251",
        "string_252",
        "string_253",
        "string_254",
        "string_255",
        "string_256",
        "string_257",
        "string_258"
      ]
    },
    {
      "id_qa": "FMSH_PB188a_00007_130_qa10_v3",
      "id_block": "block_4",
      "question": "Qui est responsable de l'autogestion ?",
      "answer": "la base",
      "answer_stringIds": [
        "string_233",
        "string_234"
      ]
    },
    {
      "id_qa": "FMSH_PB188a_00007_130_qa13_v3",
      "id_block": "block_4",
      "question": "Qu'implique la révocabilité des élus à chaque instant (5) ?",
      "answer": "une souveraineté des instances regroupant la base",
      "answer_stringIds": [
        "string_265",
        "string_266",
        "string_267",
        "string_268",
        "string_269",
        "string_270",
        "string_271"
      ]
    },
    {
      "id_qa": "FMSH_PB188a_00007_130_qa30_v3",
      "id_block": "block_4",
      "question": "Qu'est ce qui détermine l'autogestion ?",
      "answer": "la pratique sociale",
      "answer_stringIds": [
        "string_195",
        "string_196",
        "string_197"
      ]
    },
    {
      "id_qa": "FMSH_PB188a_00007_130_qa0_v3",
      "id_block": "block_6",
      "question": "Qu'est-ce que choisir par soi-même ?",
      "answer": "un système",
      "answer_stringIds": [
        "string_300",
        "string_301"
      ]
    },
    {
      "id_qa": "FMSH_PB188a_00007_130_qa2_v3",
      "id_block": "block_6",
      "question": "Qu'est-ce que diriger par soi-même un ensemble d'instruments de production ?",
      "answer": "un système",
      "answer_stringIds": [
        "string_300",
        "string_301"
      ]
    },
    {
      "id_qa": "FMSH_PB188a_00007_130_qa31_v3",
      "id_block": "block_8",
      "question": "Qu'est-ce que Maspéro, 1966, P. ?",
      "answer": "les inconvénients et préccautions",
      "answer_stringIds": [
        "string_413",
        "string_414",
        "string_415",
        "string_416"
      ]
    }
  ]
}