{
  "num": "autog_0005-0970_1968_num_7_1",
  "article": "autog_0005-0970_1968_num_7_1_939",
  "page_name": "FMSH_PB188a_00007_125",
  "questions": [
    {
      "id_qa": "FMSH_PB188a_00007_125_qa16_v3",
      "id_block": "block_1",
      "question": "Qu'est ce qui n'a pas ébranlé les structures du capitalisme ?",
      "answer": "Le « managment",
      "answer_stringIds": [
        "string_179",
        "string_180",
        "string_181"
      ]
    },
    {
      "id_qa": "FMSH_PB188a_00007_125_qa17_v3",
      "id_block": "block_1",
      "question": "Qu'a ébranlé le managment ?",
      "answer": "les structures du capitalisme",
      "answer_stringIds": [
        "string_186",
        "string_187",
        "string_188",
        "string_189"
      ]
    },
    {
      "id_qa": "FMSH_PB188a_00007_125_qa18_v3",
      "id_block": "block_1",
      "question": "Que reste-t-il du managment ?",
      "answer": "le capital",
      "answer_stringIds": [
        "string_177",
        "string_178"
      ]
    },
    {
      "id_qa": "FMSH_PB188a_00007_125_qa21_v3",
      "id_block": "block_1",
      "question": "Qu'est ce qui existe toujours ?",
      "answer": "Les luttes de classes",
      "answer_stringIds": [
        "string_197",
        "string_198",
        "string_199",
        "string_200"
      ]
    },
    {
      "id_qa": "FMSH_PB188a_00007_125_qa26_v3",
      "id_block": "block_1",
      "question": "Qu'est ce qui a transformé la conscience sociale en conscience de groupe ?",
      "answer": "les systèmes participationnistes",
      "answer_stringIds": [
        "string_254",
        "string_255",
        "string_256",
        "string_257"
      ]
    },
    {
      "id_qa": "FMSH_PB188a_00007_125_qa30_v3",
      "id_block": "block_1",
      "question": "Qu'est ce qui rénoverait la société ?",
      "answer": "La co-gestion",
      "answer_stringIds": [
        "string_60",
        "string_61"
      ]
    },
    {
      "id_qa": "FMSH_PB188a_00007_125_qa9_v3",
      "id_block": "block_2",
      "question": "Qu'est-ce que la lutte des travailleurs ?",
      "answer": "un tel « système",
      "answer_stringIds": [
        "string_341",
        "string_342",
        "string_343",
        "string_344"
      ]
    },
    {
      "id_qa": "FMSH_PB188a_00007_125_qa11_v3",
      "id_block": "block_2",
      "question": "Qu'est-ce qui est déviée par les comités d'entreprises ?",
      "answer": "la force de contestation",
      "answer_stringIds": [
        "string_373",
        "string_374",
        "string_375",
        "string_376"
      ]
    },
    {
      "id_qa": "FMSH_PB188a_00007_125_qa31_v3",
      "id_block": "block_2",
      "question": "Qu'est-ce qu'une stratégie ?",
      "answer": "une co-gestion",
      "answer_stringIds": [
        "string_402",
        "string_403"
      ]
    },
    {
      "id_qa": "FMSH_PB188a_00007_125_qa29_v3",
      "id_block": "block_3",
      "question": "Quand a eu lieu l'Institut autogéré d'Urbanisme ?",
      "answer": "Juin",
      "answer_stringIds": [
        "string_439"
      ]
    }
  ]
}