{
  "num": "autog_0005-0970_1967_num_4_1",
  "article": "autog_0005-0970_1967_num_4_1_909",
  "page_name": "FMSH_PB188a_00004_057",
  "questions": [
    "Quel rôle devait-il y avoir de l'État prolétarien pour que la révolution puisse avoir lieu à l'échelle nationale ?",
    "Comment les commissions de contrôle des comités d'usines et les soviets du contrôle ouvrier ont-ils dépassé les limites du décret du 14 novembre ?",
    "Quels obstacles rencontrèrent les ouvriers dans leur tentative de normalisation publique de la production ?",
    "Comment les patrons réagissaient-ils aux tentatives des ouvriers de prendre le contrôle des usines ?",
    "Quels événements renforcèrent l'intransigeance des patrons et la menace d'une complète liquidation de la production ?",
    "Quels moyens utilisaient les ouvriers pour imposer le contrôle dans les usines ?",
    "Quels types de comités ont été mis sur pied dans les usines de l'Oural et quels étaient leurs tâches ?",
    "Comment les commissions administratives-économiques ont-elles été chargées dans les usines abandonnées par l'administration ?",
    "Dans quels documents peuvent-on trouver des informations supplémentaires sur les pratiques du contrôle ouvrier et les premiers arrêtés de nationalisation ?"
  ]
}