{
  "num": "autog_0005-0970_1967_num_4_1",
  "article": "autog_0005-0970_1967_num_4_1_909",
  "page_name": "FMSH_PB188a_00004_037",
  "questions": [
    "Quels textes gouvernementaux sont-ils questionnés dans ce passage ?",
    "En quelle loi du gouvernement provisoire les comités d'usines voient une servitude de la classe ouvrière ?",
    "Quels instruments de combat sont mis entre les mains des capitalistes par les arrêtés du gouvernement provisoire ?",
    "Quels droits ont les comités d'usines au moment actuel selon le droit révolutionnaire coutumier ?",
    "Quel rôle doit-on confier au Comité Central dans la législation sur l'embauche ?",
    "Quels sont les objectifs de la législation ouvrière selon les comités d'usines ?",
    "Quels événements ont précédé la demande d'abrogation des circulaires du ministère du Travail ?",
    "Dans quels lieux ont exigé la révision de la loi du 23 avril et l'abrogation des circulaires du ministère du Travail les comités d'usines de Moscou et de province ?",
    "Quel est le but de la législation ouvrière selon les comités dusines dans la période révolutionnaire ?",
    "Quels textes sont cités dans le passage pour en apporter des précisions ?"
  ]
}