{
  "num": "autog_0005-0970_1967_num_4_1",
  "article": "autog_0005-0970_1967_num_4_1_909",
  "page_name": "FMSH_PB188a_00004_023",
  "questions": [
    "Quels deux courants se heurtent dans la première conférence des comités d'usines en Russie ?",
    "Quels sont les dirigeants idéologiques et inspirateurs de cette conférence ?",
    "Quel groupe important décide du sort du Soviet des comités d'usines élu à la conférence ?",
    "Comment le Soviet central des comités d'usines devient-il très populaire et l'organe militant du prolétariat ?",
    "Dans quelles villes sont créés les Soviets des comités d'usines beaucoup plus tard ?",
    "Quels domaines abordent les mesures indiquées par la conférence ?",
    "Quel rôle doit jouer le Soviet central des comités d'usines dans la lutte économique du prolétariat ?",
    "Quel rôle doit jouer le Soviet des députés ouvriers de Pétrograd dans la lutte politique ?",
    "Quand a-t-il lieu la conférence panrusse de ces comités qui eut lieu tout de suite avant la révolution d'Octobre ?"
  ]
}