{
  "num": "autog_0005-0970_1968_num_7_1",
  "article": "autog_0005-0970_1968_num_7_1_931",
  "page_name": "FMSH_PB188a_00007_009",
  "questions": [
    "Quel débat interdit est-il question ici et comment est-il lié à l'autogestion ?",
    "Quand était prévue initialement cette conférence et qui avait donné son accord ?",
    "Pourquoi le proviseur a-t-il demandé de reporter la conférence ?",
    "Quand a-t-il été annulée et interdite par le rectorat ?",
    "Qui ont soutenu le débat prévu le 11 décembre ?",
    "Quels groupes sont mentionnés comme étant présents lors de ce débat ?",
    "Pourquoi l'interdiction de dernière heure par le recteur ?",
    "Quel rôle joue la lettre du recteur Antoine dans cette interdiction ?",
    "Quels événements ont précédé la réception de cette lettre ?"
  ]
}