{
  "num": "autog_0005-0970_1968_num_7_1",
  "article": "autog_0005-0970_1968_num_7_1_931",
  "page_name": "FMSH_PB188a_00007_010",
  "questions": [
    "Quel est le but de la réunion du 20 novembre ?",
    "Quel est le rôle de René Lourau dans cette réunion ?",
    "Quels sont les six thèmes de travail décidés par les étudiants ?",
    "Comment les étudiants mettent-ils en place l'autogestion ?",
    "Quel est le rôle de l'enseignant dans l'autogestion ?",
    "Quel est l'allusion évidente faite dans le tract ?",
    "Comment l'autogestion fonctionne-t-elle le 21 novembre ?",
    "Quel programme remplace les programmes prévus par les enseignants ?",
    "Quel est l'incompatibilité de l'autogestion avec la cogestion prévue par la loi ?"
  ]
}