{
  "num": "autog_0005-0970_1968_num_7_1",
  "article": "autog_0005-0970_1968_num_7_1_931",
  "page_name": "FMSH_PB188a_00007_016",
  "questions": [
    "Quels sont les délégués des étudiants qui font des réserves sur le système de cogestion ?",
    "Quand a-t-il échoué et pourquoi la cogestion ?",
    "Comment la cogestion organise-t-elle le rapport entre le « corps enseignant » et le « groupe étudiant » ?",
    "Quels sont les enseignants et les étudiants qui défendent la cogestion avec des réserves importantes ?",
    "Quels sont les arguments des étudiants communistes pour continuer à siéger dans les organismes de cogestion ?",
    "Quels sont les étudiants qui ont proposé le rejet de la cogestion et quelle a été la réaction des étudiants ?",
    "Quels sont les réformistes gouvernementaux dans les universités et où les on trouve-t-on ?",
    "Comment sont affaiblis les courants cogestionnaires ?",
    "Qu'a déclaré le Ministre de l'Éducation Nationale au sujet de sa Loi et quelle était sa volonté réelle ?"
  ]
}