{
  "num": "autog_0005-0970_1968_num_7_1",
  "article": "autog_0005-0970_1968_num_7_1_931",
  "page_name": "FMSH_PB188a_00007_015",
  "questions": [
    "Quand ont eu lieu les premiers signes de malaissement des institutions instaurées en mai 1968 ?",
    "Quel type de cogestion est critiquée dans le texte ?",
    "Quels sont les arguments avancés contre la cogestion bipartite instaurée en mai 1968 ?",
    "Quand la loi d'orientation prenant effet en ce qui concerne la cogestion ?",
    "Dans quels lieux on peut lire la critique de la cogestion ?",
    "Quel est un autre aspect négatif de la cogestion selon les délégués des étudiants ?",
    "Quels enseignants refusent la cogestion et pourquoi ?",
    "Comment les étudiants perçoivent la cogestion ?",
    "Comment les enseignants critiques de la cogestion la perçoivent-ils ?",
    "Comment les étudiants détectent les arrièrepensées des enseignants vis-à-vis de la cogestion ?"
  ]
}