{
  "num": "autog_0249-2563_1982_num_16_12",
  "article": "autog_0249-2563_1982_num_16_12_1535",
  "page_name": "autog_0249-2563_1982_num_16_12_T1_0112_0000",
  "questions": [
    "Quels nouveaux programmes de mathématiques est chargée la classe d'expérimenter?",
    "Quel est l'impression première lorsque l'on entre dans la classe?",
    "Comment parlent les élèves entre eux?",
    "Qu'est-ce qui est autorisé ou recommandé dans ces échanges?",
    "Qui est M. Z. Dienes et de quelle nationalité est-il?",
    "Dans quelle université enseigne-t-il actuellement?",
    "Quel est la manière d'enseigner les mathématiques selon M. Dienes?",
    "Comment a-t-il été possible d'accroître considérablement le volume et l'identité du langage mathématique acquis?",
    "Quels types de structures communes cherchent les programmes à mettre en évidence?",
    "Qu'est l'objectif principal des programmes d'enseignement des mathématiques dans ces classes?",
    "Pourquoi les idées de M. Dienes n'ont-elles pas été appliquées plus largement à l'enseignement des sciences?",
    "Quel équipement envisagez-vous pour ce laboratoire de sciences?",
    "Dans quelle bibliothèque-centre documentaire les élèves pourraient-ils consulter librement des documents et des livres?",
    "Comment compléterait votre équipement par rapport à celui du [nom de l'établissement mentionné dans le texte]?"
  ]
}