{
  "num": "autog_0338-7259_1970_num_13_1",
  "article": "autog_0338-7259_1970_num_13_1_982",
  "page_name": "FMSH_PB188a_13-14_147",
  "questions": [
    "Quel est le rôle stratégique de l'agent de maîtrise dans le maintien de l'ordre technique et économique de l'entreprise ?",
    "Quelles sont les réponses pédagogiques pratiquées par l'institution face à la demande de former des agents de maîtrise ?",
    "Est-il contradictoire de parler de formation au commandement dans les termes ?",
    "Quel est l'essentiel de la formation des agents de maîtrise selon l'institution ?",
    "Quelles structures de fonctionnement et d'autorité sont mises en place dans l'institution pour rendre les moins \"aliénantes\" possible ?",
    "Quelles méthodes sont inspirées par la formation générale pour favoriser le développement personnel des agents de maîtrise ?",
    "Pourquoi les formateurs et la direction hésitent à appliquer l'idée de stage autogéré comme outil privilégié d'apprentissage à la maîtrise d'un groupe ?",
    "Quelles structures de commandement existent-elles dans l'usine qui rendent antagoniques un tel projet pédagogique ?"
  ]
}