{
  "num": "autog_0338-7259_1970_num_13_1",
  "article": "autog_0338-7259_1970_num_13_1_982",
  "page_name": "FMSH_PB188a_13-14_144",
  "questions": [
    "Quels théoriciens et praticiens du développement se sont heurtés à des résistances ou freins au progrès ?",
    "En quelle mesure les actions de formation de cadres et de techniciens rencontrent des difficultés particulières en matière de relations d'autorité ?",
    "Quels types de projets de réorganisation économique et sociale impliquent des nouveaux modèles socio-culturels ?",
    "Comment les idéologies et pratiques de changement échappent-elles souvent à l'examen des nouveaux rapports de pouvoir ?",
    "En Algérie, comment les exigences du développement industriel influencent-elles les relations d'autorité ?",
    "Existe-t-il une zone d'autorité relevant encore des archétypes de la société traditionnelle en Algérie ?",
    "Comment la légitimité de la relation d'autorité technocratique est-elle fondée dans les sociétés industrielles avancées ?",
    "Quels modes de souveraineté peuvent subsister aux côtés des normes industrielles de relation d'autorité ?"
  ]
}