{
  "num": "autog_0249-2563_1982_num_15_11",
  "article": "autog_0249-2563_1982_num_15_11_1519",
  "page_name": "autog_0249-2563_1982_num_15_11_T1_0134_0000",
  "questions": [
    "Quels pays sont mentionnés dans le numéro 30-31 comme ayant des mouvements d'autogestion ?",
    "Quel est le sujet de l'article dans le numéro 32 ?",
    "Quels sont les sujets abordés dans le numéro 33 et 34 ?",
    "Quel est le prix du numéro 40 ?",
    "Quel est le thème de la conférence internationale sur l'autogestion mentionnée dans le numéro 41-42 ?",
    "Quel est le prix du numéro 43 ?",
    "Quels sont les thèmes abordés dans le numéro 43 ?",
    "Quels sont les pays d'Europe de l'Est mentionnés dans le texte ?",
    "Quels sont les thèmes abordés dans les numéros 30-31 et 32 concernant l'autogestion aux États-Unis ?",
    "Quels sont les thèmes abordés dans le numéro 33 et 34 concernant le Portugal ?",
    "Quels sont les thèmes abordés dans le numéro 40 concernant l'autogestion par les élections ?",
    "Quels sont les auteurs mentionnés dans le numéro 41-42 ?",
    "Quels sont les thèmes abordés dans le numéro 43 concernant l'identité collective et la souveraineté communautaire ?",
    "Quels sont les thèmes abordés dans le numéro 43 concernant l'autogestion de l'outil ?",
    "Quels sont les thèmes abordés dans le numéro 43 concernant la participation d'appartenance ?",
    "Quels sont les thèmes abordés dans le numéro 43 concernant la référence à l'autogestion en Roumanie ?"
  ]
}