{
  "num": "autog_0249-2563_1981_num_14_7",
  "article": "autog_0249-2563_1981_num_14_7_1458",
  "page_name": "autog_0249-2563_1981_num_14_7_T1_0375_0000",
  "questions": [
    {
      "id_qa": "autog_0249-2563_1981_num_14_7_T1_0375_0000_qa0_v3",
      "id_block": "block_3",
      "question": "Qui promet une transition démocratique ?",
      "answer": "les nouveaux maîtres de l'État",
      "answer_stringIds": [
        "string_279"
      ]
    },
    {
      "id_qa": "autog_0249-2563_1981_num_14_7_T1_0375_0000_qa1_v3",
      "id_block": "block_3",
      "question": "Que promettent les nouveaux maîtres de l'Etat ?",
      "answer": "une « transition démocratique",
      "answer_stringIds": [
        "string_55",
        "string_56",
        "string_57",
        "string_58"
      ]
    },
    {
      "id_qa": "autog_0249-2563_1981_num_14_7_T1_0375_0000_qa3_v3",
      "id_block": "block_3",
      "question": "Qu'est-ce que l'impôt sur les successions ?",
      "answer": "la décentralisation",
      "answer_stringIds": [
        "string_172",
        "string_173"
      ]
    },
    {
      "id_qa": "autog_0249-2563_1981_num_14_7_T1_0375_0000_qa8_v3",
      "id_block": "block_3",
      "question": "Dans quelle ville les nationalisations ont-elles des raisons d'espérer ?",
      "answer": "à Billancourt",
      "answer_stringIds": [
        "string_161",
        "string_162"
      ]
    },
    {
      "id_qa": "autog_0249-2563_1981_num_14_7_T1_0375_0000_qa11_v3",
      "id_block": "block_3",
      "question": "Qu'est ce qui va sans doute donner à Billancourt des raisons d'espérer ?",
      "answer": "les redoutables nationalisations",
      "answer_stringIds": [
        "string_153",
        "string_154",
        "string_155"
      ]
    },
    {
      "id_qa": "autog_0249-2563_1981_num_14_7_T1_0375_0000_qa12_v3",
      "id_block": "block_3",
      "question": "Dans quelle ville les nationalisations vont-elles donner des raisons d'espérer ?",
      "answer": "à Billancourt",
      "answer_stringIds": [
        "string_161",
        "string_162"
      ]
    },
    {
      "id_qa": "autog_0249-2563_1981_num_14_7_T1_0375_0000_qa13_v3",
      "id_block": "block_3",
      "question": "Qui est à l'origine de ces réformes ?",
      "answer": "les dirigeants de la Gauche",
      "answer_stringIds": [
        "string_114",
        "string_115",
        "string_116",
        "string_117",
        "string_118"
      ]
    },
    {
      "id_qa": "autog_0249-2563_1981_num_14_7_T1_0375_0000_qa15_v3",
      "id_block": "block_3",
      "question": "Qu'est ce qui va donner à Billancourt des raisons d'espérer ?",
      "answer": "les redoutables nationalisations",
      "answer_stringIds": [
        "string_153",
        "string_154",
        "string_155"
      ]
    },
    {
      "id_qa": "autog_0249-2563_1981_num_14_7_T1_0375_0000_qa17_v3",
      "id_block": "block_3",
      "question": "Qui sont les dirigeants de la Gauche établie ?",
      "answer": "leurs idéologues",
      "answer_stringIds": [
        "string_121",
        "string_122"
      ]
    },
    {
      "id_qa": "autog_0249-2563_1981_num_14_7_T1_0375_0000_qa24_v3",
      "id_block": "block_3",
      "question": "Qui agitent le spectre du communisme ?",
      "answer": "les anciens gouvernants",
      "answer_stringIds": [
        "string_70",
        "string_71",
        "string_72"
      ]
    }
  ]
}