{
  "num": "autog_0249-2563_1981_num_14_7",
  "article": "autog_0249-2563_1981_num_14_7_1458",
  "page_name": "autog_0249-2563_1981_num_14_7_T1_0376_0000",
  "questions": [
    {
      "id_qa": "autog_0249-2563_1981_num_14_7_T1_0376_0000_qa0_v3",
      "id_block": "block_0",
      "question": "Qui pense que les mesures sont du ressort d'un gouvernement ?",
      "answer": "les possédants",
      "answer_stringIds": [
        "string_15",
        "string_16"
      ]
    },
    {
      "id_qa": "autog_0249-2563_1981_num_14_7_T1_0376_0000_qa10_v3",
      "id_block": "block_0",
      "question": "Qu'est ce qui entrave le développement même du capitalisme ?",
      "answer": "les disparités de revenus",
      "answer_stringIds": [
        "string_60",
        "string_61",
        "string_62",
        "string_63"
      ]
    },
    {
      "id_qa": "autog_0249-2563_1981_num_14_7_T1_0376_0000_qa11_v3",
      "id_block": "block_0",
      "question": "Dans quel pays les inégalités sociales ont-elles atteint une ampleur ?",
      "answer": "dans un pays où les disparités de revenus ont atteint une ampleur qui entrave le développement même du capitalisme",
      "answer_stringIds": [
        "string_56",
        "string_57",
        "string_58",
        "string_59",
        "string_60",
        "string_61",
        "string_62",
        "string_63",
        "string_64",
        "string_65",
        "string_66",
        "string_67",
        "string_68",
        "string_69",
        "string_70",
        "string_71",
        "string_72",
        "string_73",
        "string_74"
      ]
    },
    {
      "id_qa": "autog_0249-2563_1981_num_14_7_T1_0376_0000_qa12_v3",
      "id_block": "block_0",
      "question": "Qu'est ce qui a mis à mal la cogestion ?",
      "answer": "la domination du capital",
      "answer_stringIds": [
        "string_102",
        "string_103",
        "string_104",
        "string_105",
        "string_106"
      ]
    },
    {
      "id_qa": "autog_0249-2563_1981_num_14_7_T1_0376_0000_qa23_v3",
      "id_block": "block_1",
      "question": "Qu'est-ce qui permet à la gestion privée d'affronter la concurrence étrangère sur le marché mondial ?",
      "answer": "la concentration du capital",
      "answer_stringIds": [
        "string_249",
        "string_250",
        "string_251",
        "string_252"
      ]
    },
    {
      "id_qa": "autog_0249-2563_1981_num_14_7_T1_0376_0000_qa29_v3",
      "id_block": "block_3",
      "question": "Qu'est ce qui conservera ses attributs régaliens ?",
      "answer": "un centre",
      "answer_stringIds": [
        "string_396",
        "string_397"
      ]
    },
    {
      "id_qa": "autog_0249-2563_1981_num_14_7_T1_0376_0000_qa30_v3",
      "id_block": "block_3",
      "question": "Qu'est-ce que restructurer l'Etat ?",
      "answer": "lui permettre de faire face aux problèmes nés de la restructuration économique du capitalisme",
      "answer_stringIds": [
        "string_375",
        "string_376",
        "string_377",
        "string_378",
        "string_379",
        "string_380",
        "string_381",
        "string_382",
        "string_383",
        "string_384",
        "string_385",
        "string_386",
        "string_387",
        "string_388"
      ]
    }
  ]
}