{
  "num": "autog_0249-2563_1984_num_17_15",
  "article": "autog_0249-2563_1984_num_17_15_1584_t1_0113_0000_1",
  "page_name": "autog_0249-2563_1984_num_17_15_T1_0114_0000",
  "questions": [
    {
      "id_qa": "autog_0249-2563_1984_num_17_15_T1_0114_0000_qa21_v3",
      "id_block": "block_1",
      "question": "Qu'est ce qui est à l'origine de la création d'un tel Institut ?",
      "answer": "les enjeux du développement local",
      "answer_stringIds": [
        "string_28",
        "string_29",
        "string_30",
        "string_31",
        "string_32",
        "string_33"
      ]
    },
    {
      "id_qa": "autog_0249-2563_1984_num_17_15_T1_0114_0000_qa87_v3",
      "id_block": "block_14",
      "question": "Quel peuple n'accédera à sa maturité politique et culturelle qu'en construisant son autonomie ?",
      "answer": "le peuple wallon",
      "answer_stringIds": [
        "string_393",
        "string_394",
        "string_395"
      ]
    },
    {
      "id_qa": "autog_0249-2563_1984_num_17_15_T1_0114_0000_qa75_v3",
      "id_block": "block_2",
      "question": "Qu'est-ce qui intéresse le CIRED ?",
      "answer": "le développement local",
      "answer_stringIds": [
        "string_71",
        "string_72",
        "string_73",
        "string_74"
      ]
    },
    {
      "id_qa": "autog_0249-2563_1984_num_17_15_T1_0114_0000_qa108_v3",
      "id_block": "block_4",
      "question": "Qu'est ce qui est en voie d'être constitué ?",
      "answer": "Un réseau",
      "answer_stringIds": [
        "string_92",
        "string_93"
      ]
    },
    {
      "id_qa": "autog_0249-2563_1984_num_17_15_T1_0114_0000_qa109_v3",
      "id_block": "block_4",
      "question": "A qui pourra être associé un réseau ?",
      "answer": "ceux qui",
      "answer_stringIds": [
        "string_103",
        "string_104"
      ]
    },
    {
      "id_qa": "autog_0249-2563_1984_num_17_15_T1_0114_0000_qa28_v3",
      "id_block": "block_6",
      "question": "Qu'est ce qui a été créé par Vincent ?",
      "answer": "une Convivialité de quartier",
      "answer_stringIds": [
        "string_197",
        "string_198",
        "string_199",
        "string_200",
        "string_201"
      ]
    },
    {
      "id_qa": "autog_0249-2563_1984_num_17_15_T1_0114_0000_qa31_v3",
      "id_block": "block_6",
      "question": "Qu'est ce que Vincent a voulu recréer ?",
      "answer": "une Convivialité de quartier",
      "answer_stringIds": [
        "string_197",
        "string_198",
        "string_199",
        "string_200",
        "string_201"
      ]
    },
    {
      "id_qa": "autog_0249-2563_1984_num_17_15_T1_0114_0000_qa121_v3",
      "id_block": "block_6",
      "question": "Quel est le projet de Cultures au quotidien ?",
      "answer": "la culture",
      "answer_stringIds": [
        "string_138",
        "string_139"
      ]
    },
    {
      "id_qa": "autog_0249-2563_1984_num_17_15_T1_0114_0000_qa55_v3",
      "id_block": "block_7",
      "question": "Qui pense que c'est des retrouvailles ?",
      "answer": "certains",
      "answer_stringIds": [
        "string_209"
      ]
    },
    {
      "id_qa": "autog_0249-2563_1984_num_17_15_T1_0114_0000_qa100_v3",
      "id_block": "block_8",
      "question": "Qu'est ce qui a été créé dans la rue de la Butte-aux-Cailles ?",
      "answer": "une crèche parentale",
      "answer_stringIds": [
        "string_276",
        "string_277",
        "string_278"
      ]
    }
  ]
}