{
  "num": "autog_0338-7259_1972_num_20_1",
  "article": "autog_0338-7259_1972_num_20_1_1064",
  "page_name": "FMSH_PB188a_20-21_069",
  "questions": [
    "Quel est le sujet de l'oubli que l'auteur veut aborder ?",
    "Pourquoi l'esprit de Fourier est-il cru, selon Lehouck ?",
    "Quel est la faiblesse essentielle de la théorie de Fourier, selon Lehouck ?",
    "Quels sont les premiers établissements sociétaires que Lehouck envisage ?",
    "Quels sont les prévisions de l'économiste que Lehouck considère ?",
    "Comment la puissance de l'idéologie dominante peut-elle peser sur les premiers établissements sociétaires ?",
    "Quand Lehouck parle de « la grande finesse de Charles Fourier », à quoi il fait référence ?",
    "Quel est le mode de vie préféré de Fourier, selon Barthes ?",
    "Comment Fourier peut-il être qualifié d'Anti-Pascal ?",
    "Quel est la grande magie de Charles Fourier ?",
    "Comment la tactique ancienne dite de la terre brûlée est-elle maladroitement appliquée contre les communautés ?",
    "Quel est l'affaire de la communauté de Frayssinou que Lehouck mentionne ?",
    "Dans quelle édition de Fourier aujourd'hui Lehouck a-t-il trouvé la citation qu'il utilise ?"
  ]
}