{
  "num": "autog_0249-2563_1980_num_13_2",
  "article": "autog_0249-2563_1980_num_13_2_1360",
  "page_name": "autog_0249-2563_1980_num_13_2_T1_0167_0000",
  "questions": [
    {
      "id_qa": "autog_0249-2563_1980_num_13_2_T1_0167_0000_qa14_v3",
      "id_block": "block_1",
      "question": "A quoi nous sommes-ils revenus ?",
      "answer": "revenus à notre propos initial",
      "answer_stringIds": [
        "string_86",
        "string_87",
        "string_88",
        "string_89",
        "string_90"
      ]
    },
    {
      "id_qa": "autog_0249-2563_1980_num_13_2_T1_0167_0000_qa20_v3",
      "id_block": "block_1",
      "question": "Que veut dire l'ABC du mouvement alternatif ?",
      "answer": "toute chose de manière",
      "answer_stringIds": [
        "string_73",
        "string_74",
        "string_75",
        "string_76"
      ]
    },
    {
      "id_qa": "autog_0249-2563_1980_num_13_2_T1_0167_0000_qa24_v3",
      "id_block": "block_1",
      "question": "Qu'est ce qui ne s'embarrasse guère d'élucubrations théorisantes ?",
      "answer": "La « croissance organique",
      "answer_stringIds": [
        "string_91",
        "string_92",
        "string_93",
        "string_94"
      ]
    },
    {
      "id_qa": "autog_0249-2563_1980_num_13_2_T1_0167_0000_qa16_v3",
      "id_block": "block_2",
      "question": "Quelle est la date de naissance du mouvement ?",
      "answer": "le jour",
      "answer_stringIds": [
        "string_186",
        "string_187"
      ]
    },
    {
      "id_qa": "autog_0249-2563_1980_num_13_2_T1_0167_0000_qa1_v3",
      "id_block": "block_3",
      "question": "Qu'est ce qui est laissé par les mouvements politiques d'extrême-gauche ?",
      "answer": "Un vide politique",
      "answer_stringIds": [
        "string_206",
        "string_207",
        "string_208"
      ]
    },
    {
      "id_qa": "autog_0249-2563_1980_num_13_2_T1_0167_0000_qa2_v3",
      "id_block": "block_3",
      "question": "Comment sont qualifiés les mouvements politiques d'extrême-gauche ?",
      "answer": "à un discours presque masochiste",
      "answer_stringIds": [
        "string_220",
        "string_221",
        "string_222",
        "string_223",
        "string_224"
      ]
    },
    {
      "id_qa": "autog_0249-2563_1980_num_13_2_T1_0167_0000_qa4_v3",
      "id_block": "block_4",
      "question": "Où le pouvoir interdit-il l'accès à la fonction publique ?",
      "answer": "dans les universités",
      "answer_stringIds": [
        "string_303",
        "string_304",
        "string_305"
      ]
    },
    {
      "id_qa": "autog_0249-2563_1980_num_13_2_T1_0167_0000_qa7_v3",
      "id_block": "block_4",
      "question": "A quoi les gauchistes étaient-ils déterminés ?",
      "answer": "les institutions",
      "answer_stringIds": [
        "string_272",
        "string_273"
      ]
    },
    {
      "id_qa": "autog_0249-2563_1980_num_13_2_T1_0167_0000_qa9_v3",
      "id_block": "block_4",
      "question": "Qui était déterminé à infiltrer les institutions?",
      "answer": "les gauchistes",
      "answer_stringIds": [
        "string_280",
        "string_281"
      ]
    },
    {
      "id_qa": "autog_0249-2563_1980_num_13_2_T1_0167_0000_qa11_v3",
      "id_block": "block_4",
      "question": "Où les gauchistes étaient-ils déterminés à infiltrer les institutions?",
      "answer": "dans la vie professionnelle",
      "answer_stringIds": [
        "string_276",
        "string_277",
        "string_278",
        "string_279"
      ]
    }
  ]
}