{
  "num": "autog_0249-2563_1980_num_13_2",
  "article": "autog_0249-2563_1980_num_13_2_1360",
  "page_name": "autog_0249-2563_1980_num_13_2_T1_0171_0000",
  "questions": [
    {
      "id_qa": "autog_0249-2563_1980_num_13_2_T1_0171_0000_qa22_v3",
      "id_block": "block_0",
      "question": "Où sont logés les ouvriers turcs et leurs familles ?",
      "answer": "dans le quartier de Kreuzberg",
      "answer_stringIds": [
        "string_77",
        "string_78",
        "string_79",
        "string_80",
        "string_81"
      ]
    },
    {
      "id_qa": "autog_0249-2563_1980_num_13_2_T1_0171_0000_qa20_v3",
      "id_block": "block_1",
      "question": "Que font les jeunes intellectuels en 1979 ?",
      "answer": "le chemin inverse",
      "answer_stringIds": [
        "string_154",
        "string_155",
        "string_156"
      ]
    },
    {
      "id_qa": "autog_0249-2563_1980_num_13_2_T1_0171_0000_qa25_v3",
      "id_block": "block_2",
      "question": "Quel était le comportement des jeunes intellectuels ?",
      "answer": "un comportement provocateur et violent",
      "answer_stringIds": [
        "string_218",
        "string_219",
        "string_220",
        "string_221",
        "string_222"
      ]
    },
    {
      "id_qa": "autog_0249-2563_1980_num_13_2_T1_0171_0000_qa5_v3",
      "id_block": "block_5",
      "question": "Qu'est-ce qui frappait les militants ?",
      "answer": "la répression",
      "answer_stringIds": [
        "string_335",
        "string_336"
      ]
    },
    {
      "id_qa": "autog_0249-2563_1980_num_13_2_T1_0171_0000_qa7_v3",
      "id_block": "block_5",
      "question": "A quoi l'Etat s'applique-t-il ?",
      "answer": "ce Big",
      "answer_stringIds": [
        "string_359",
        "string_360"
      ]
    }
  ]
}