{
  "num": "autog_0338-7259_1973_num_22_1",
  "article": "autog_0338-7259_1973_num_22_1_1093",
  "page_name": "FMSH_PB188a_22-23_229",
  "questions": [
    {
      "id_qa": "FMSH_PB188a_22-23_229_qa10_v3",
      "id_block": "block_1",
      "question": "Pour quelle période le lieu dominant du pouvoir est-il déplacé ?",
      "answer": "pour une période historique prévisible",
      "answer_stringIds": [
        "string_29",
        "string_30",
        "string_31",
        "string_32",
        "string_33"
      ]
    },
    {
      "id_qa": "FMSH_PB188a_22-23_229_qa11_v3",
      "id_block": "block_1",
      "question": "Qu'est ce qui est déplacé pour une période historique prévisible ?",
      "answer": "le lieu dominant du pouvoir",
      "answer_stringIds": [
        "string_21",
        "string_22",
        "string_23",
        "string_24",
        "string_25"
      ]
    },
    {
      "id_qa": "FMSH_PB188a_22-23_229_qa3_v3",
      "id_block": "block_3",
      "question": "Sur quoi repose le pouvoir ?",
      "answer": "sur une quelconque Société du Dix Décembre",
      "answer_stringIds": [
        "string_39",
        "string_40",
        "string_41",
        "string_42",
        "string_43",
        "string_44",
        "string_45",
        "string_46"
      ]
    },
    {
      "id_qa": "FMSH_PB188a_22-23_229_qa5_v3",
      "id_block": "block_3",
      "question": "Sur quoi repose la Société du Dix Décembre ?",
      "answer": "Le pouvoir",
      "answer_stringIds": [
        "string_35",
        "string_36"
      ]
    },
    {
      "id_qa": "FMSH_PB188a_22-23_229_qa21_v3",
      "id_block": "block_3",
      "question": "Qui a montré que les cigares et le champagne sont toujours moyens et suppôts du pouvoir ?",
      "answer": "Marx",
      "answer_stringIds": [
        "string_103"
      ]
    },
    {
      "id_qa": "FMSH_PB188a_22-23_229_qa22_v3",
      "id_block": "block_3",
      "question": "Quand Marx montrait-il que les cigares et le champagne sont toujours moyens et suppôts du pouvoir ?",
      "answer": "en 1852",
      "answer_stringIds": [
        "string_106",
        "string_107"
      ]
    },
    {
      "id_qa": "FMSH_PB188a_22-23_229_qa14_v3",
      "id_block": "block_4",
      "question": "Qu'est-ce que le pouvoir n'abreuve pas ?",
      "answer": "une conscience",
      "answer_stringIds": [
        "string_174",
        "string_175"
      ]
    },
    {
      "id_qa": "FMSH_PB188a_22-23_229_qa19_v3",
      "id_block": "block_4",
      "question": "Qu'arrive-t-il quand le saucisson à l'ail change de main ?",
      "answer": "le pouvoir",
      "answer_stringIds": [
        "string_159",
        "string_160"
      ]
    }
  ]
}