{
  "num": "autog_0249-2563_1982_num_15_11",
  "article": "autog_0249-2563_1982_num_15_11_1514",
  "page_name": "autog_0249-2563_1982_num_15_11_T1_0047_0000",
  "questions": [
    {
      "id_qa": "autog_0249-2563_1982_num_15_11_T1_0047_0000_qa13_v3",
      "id_block": "block_0",
      "question": "Qu'est-ce qui motive les premiers à surmonter les obstacles ?",
      "answer": "conscience des difficultés",
      "answer_stringIds": [
        "string_81",
        "string_82",
        "string_83"
      ]
    },
    {
      "id_qa": "autog_0249-2563_1982_num_15_11_T1_0047_0000_qa17_v3",
      "id_block": "block_0",
      "question": "Qu'est-ce qui oblige les premiers à prendre conscience des difficultés ?",
      "answer": "ces obstacles",
      "answer_stringIds": [
        "string_74",
        "string_75"
      ]
    },
    {
      "id_qa": "autog_0249-2563_1982_num_15_11_T1_0047_0000_qa6_v3",
      "id_block": "block_1",
      "question": "Quel est le rôle social du groupe ?",
      "answer": "la société",
      "answer_stringIds": [
        "string_157",
        "string_158"
      ]
    },
    {
      "id_qa": "autog_0249-2563_1982_num_15_11_T1_0047_0000_qa8_v3",
      "id_block": "block_1",
      "question": "Qui a créé la société civile immobilière d'attribution ?",
      "answer": "une grande partie du groupe",
      "answer_stringIds": [
        "string_89",
        "string_90",
        "string_91",
        "string_92",
        "string_93"
      ]
    },
    {
      "id_qa": "autog_0249-2563_1982_num_15_11_T1_0047_0000_qa11_v3",
      "id_block": "block_1",
      "question": "A quoi s'élargit la société civile immobilière d'attribution ?",
      "answer": "une vision du rôle social du groupe",
      "answer_stringIds": [
        "string_137",
        "string_138",
        "string_139",
        "string_140",
        "string_141",
        "string_142",
        "string_143"
      ]
    },
    {
      "id_qa": "autog_0249-2563_1982_num_15_11_T1_0047_0000_qa12_v3",
      "id_block": "block_1",
      "question": "Que veut faire bouger la société ?",
      "answer": "le droit",
      "answer_stringIds": [
        "string_161",
        "string_162"
      ]
    },
    {
      "id_qa": "autog_0249-2563_1982_num_15_11_T1_0047_0000_qa18_v3",
      "id_block": "block_10",
      "question": "Quelle est la surface totale du terrain ?",
      "answer": "1400",
      "answer_stringIds": [
        "string_233"
      ]
    },
    {
      "id_qa": "autog_0249-2563_1982_num_15_11_T1_0047_0000_qa26_v3",
      "id_block": "block_12",
      "question": "Qu'est ce qui vient d'être construit par les habitants ?",
      "answer": "une nouvelle salle de réunion",
      "answer_stringIds": [
        "string_276",
        "string_277",
        "string_278",
        "string_279",
        "string_280"
      ]
    },
    {
      "id_qa": "autog_0249-2563_1982_num_15_11_T1_0047_0000_qa29_v3",
      "id_block": "block_13",
      "question": "Quand le groupe s'est-il constitué ?",
      "answer": "après 1968",
      "answer_stringIds": [
        "string_293",
        "string_294"
      ]
    },
    {
      "id_qa": "autog_0249-2563_1982_num_15_11_T1_0047_0000_qa30_v3",
      "id_block": "block_7",
      "question": "De quand date l'achat du terrain ?",
      "answer": "1975",
      "answer_stringIds": [
        "string_209"
      ]
    }
  ]
}