{
  "num": "autog_0249-2563_1982_num_15_11",
  "article": "autog_0249-2563_1982_num_15_11_1514",
  "page_name": "autog_0249-2563_1982_num_15_11_T1_0051_0000",
  "questions": [
    {
      "id_qa": "autog_0249-2563_1982_num_15_11_T1_0051_0000_qa37_v3",
      "id_block": "block_1",
      "question": "Quand s'est formé le Mouvement de l'Habitat Groupé Autogéré ?",
      "answer": "en novembre 1977",
      "answer_stringIds": [
        "string_15",
        "string_16",
        "string_17"
      ]
    },
    {
      "id_qa": "autog_0249-2563_1982_num_15_11_T1_0051_0000_qa32_v3",
      "id_block": "block_2",
      "question": "Qu'est ce qui est abordé lors des journées nationales ?",
      "answer": "questions",
      "answer_stringIds": [
        "string_141"
      ]
    },
    {
      "id_qa": "autog_0249-2563_1982_num_15_11_T1_0051_0000_qa34_v3",
      "id_block": "block_2",
      "question": "Qu'organise le MHGA 2 ?",
      "answer": "des journées nationales",
      "answer_stringIds": [
        "string_94",
        "string_95",
        "string_96"
      ]
    },
    {
      "id_qa": "autog_0249-2563_1982_num_15_11_T1_0051_0000_qa35_v3",
      "id_block": "block_2",
      "question": "Quel organisme organise des journées nationales ?",
      "answer": "Le MHGA 2",
      "answer_stringIds": [
        "string_89",
        "string_90",
        "string_91"
      ]
    },
    {
      "id_qa": "autog_0249-2563_1982_num_15_11_T1_0051_0000_qa45_v3",
      "id_block": "block_2",
      "question": "Qu'est ce qui a provoqué la tenue de rencontres régionales ?",
      "answer": "Son développement",
      "answer_stringIds": [
        "string_146",
        "string_147"
      ]
    },
    {
      "id_qa": "autog_0249-2563_1982_num_15_11_T1_0051_0000_qa46_v3",
      "id_block": "block_2",
      "question": "Qu'est ce qui a provoqué son développement dans certaines régions ?",
      "answer": "la tenue de rencontres régionales",
      "answer_stringIds": [
        "string_162",
        "string_163",
        "string_164",
        "string_165",
        "string_166"
      ]
    },
    {
      "id_qa": "autog_0249-2563_1982_num_15_11_T1_0051_0000_qa1_v3",
      "id_block": "block_3",
      "question": "Qu'est-ce qui a été réalisé sur les critères de sa charte ?",
      "answer": "ce recensement",
      "answer_stringIds": [
        "string_200",
        "string_201"
      ]
    },
    {
      "id_qa": "autog_0249-2563_1982_num_15_11_T1_0051_0000_qa17_v3",
      "id_block": "block_3",
      "question": "Quel est le type d'habitat en France ?",
      "answer": "Les groupes",
      "answer_stringIds": [
        "string_245",
        "string_246"
      ]
    },
    {
      "id_qa": "autog_0249-2563_1982_num_15_11_T1_0051_0000_qa30_v3",
      "id_block": "block_4",
      "question": "Quel organisme essaie d'élaborer collectivement des outils ?",
      "answer": "le MHGA",
      "answer_stringIds": [
        "string_315",
        "string_316"
      ]
    }
  ]
}