{
  "num": "autog_0249-2563_1981_num_14_5",
  "article": "autog_0249-2563_1981_num_14_5_1411",
  "page_name": "autog_0249-2563_1981_num_14_5_T1_0055_0000",
  "questions": [
    "Quel rôle impossible joue-t-elle pour Solidarité dans ce contexte ?",
    "Quels types de convictions politiques sont-ils présents dans l'organisation ?",
    "Quels journaux soulignent fortement l'extrémisme dans la direction de Solidarité ?",
    "Quelle section de Solidarité est soupçonnée d'extrémisme ?",
    "Quel rapport a-t-il fait le rapporteur sur l'ajout de compromis aux statuts ?",
    "Quels types de questions ne vous intéressent pas dans ce contexte ?",
    "Est-ce que Solidarité a tendance à négocier ou à recourir à la force ?",
    "Quel type d'association est Solidarité ?",
    "Quels événements prouvent que Solidarité n'a pas réagi de manière irréfléchie à des situations conflictuelles ?",
    "Quels moyens utiliserait-elle dans le cas d'une grève ?"
  ]
}