{
  "num": "autog_0249-2563_1981_num_14_5",
  "article": "autog_0249-2563_1981_num_14_5_1411",
  "page_name": "autog_0249-2563_1981_num_14_5_T1_0056_0000",
  "questions": [
    "Quels types de propositions ont provoqué une réaction vive de la personne écrivant cette lettre ?",
    "Quels militants de Solidarité sont-ils visés par ces propositions ?",
    "Quel est le rôle de Solidarité dans les confrontations politiques actuelles ?",
    "Comment peut-on atteindre un point de vue commun entre personnes qui pensent différemment dans le cadre de Solidarité ?",
    "Quel serait le sort du pays si Solidarité ne remplit pas ces fonctions dans la situation actuelle ?",
    "Comment les appréciations de l'opinion publique peuvent-elles être perçues par les militants syndicaux polonais ?",
    "Est-ce que les étiquettes négatives attribuées aux militants syndicaux peuvent être considérées comme une menace ?",
    "Comment peut-on se défendre contre ces étiquettes ?",
    "Comment la présence de Solidarité dans la vie publique peut-elle être perçue par les Polonais ?",
    "Comment peut-on traiter normalement l'affaire de Solidarité dans la vie publique ?"
  ]
}