{
  "num": "autog_0249-2563_1981_num_14_6",
  "article": "autog_0249-2563_1981_num_14_6_1430",
  "page_name": "autog_0249-2563_1981_num_14_6_T1_0196_0000",
  "questions": [
    "Quels intellectuels yougoslaves sont-ils et pourquoi est-il contesté que leur dialogue critique soit illégal ?",
    "Est-il normal que seuls certains éléments puissent discuter des problèmes sociaux dans une société socialiste autogestionnaire ?",
    "Quels principes fondamentaux de notre système socialiste autogestionnaire sont-ils : la censure ou la liberté de la presse ?",
    "Pourquoi est-il toujours en vigueur la clause de l'article 133 du Code pénal yougoslave concernant la critique des conditions sociales et quels sont ses conséquences ?",
    "Quels liens sont-ils accusés d'avoir avec des cercles réactionnaires à l'étranger et comment justifient-ils cette accusation ?",
    "Quels arguments ont poussé les auteurs à remplacer l'expression \"affaire\" par l'euphémisme \"excès\" dans certains cas de vols industriels et d'édition ?",
    "Quels sont les différences essentielles entre l'autogestion socialiste et l'arbitraire bureaucratique selon les organisateurs du Troisième congrès des autogestionnaires ?"
  ]
}