{
  "num": "autog_0249-2563_1984_num_17_16",
  "article": "autog_0249-2563_1984_num_17_16_1593",
  "page_name": "autog_0249-2563_1984_num_17_16_T1_0055_0000",
  "questions": [
    "Quels sont les raisons économiques et idéologiques qui ont entraîné la remise en cause de l'Etat-providence ?",
    "Les paysans pourraient-ils obtenir gain de cause en étant intégrés dans l'Etat-providence ?",
    "Les promesses de 1981 peuvent-elles être tenues ?",
    "Quels sont les conquêtes sociales à faire en matière d'accident, de maladie et de temps libre pour les paysans ?",
    "Comment l'industrie devrait-elle contribuer au financement de la protection sociale des paysans ?",
    "Pourquoi est-il insoutenable de demander à être payé pour la fabrication d'un produit et de recevoir une aumône qui n'a plus rien à voir avec la sécurité sociale ?",
    "Quel est le lien entre l'appellation CNST P et la marge d'initiative et d'autonomie des travailleurs et des paysans ?"
  ]
}