{
  "num": "autog_0249-2563_1984_num_17_16",
  "article": "autog_0249-2563_1984_num_17_16_1593",
  "page_name": "autog_0249-2563_1984_num_17_16_T1_0059_0000",
  "questions": [
    "Quels sont les principaux éléments de la révolution industrielle en Angleterre ?",
    "Quel rôle joue la main-d'œuvre dans le développement de la révolution industrielle ?",
    "Comment la révolution industrielle a-t-elle affecté la structure de la population en Angleterre ?",
    "Quels sont les principaux facteurs qui ont contribué au développement de la révolution industrielle en Angleterre ?",
    "Comment la révolution industrielle a-t-elle transformé l'économie anglaise ?",
    "Quels sont les principaux défis rencontrés par les travailleurs pendant la révolution industrielle ?",
    "Comment les conditions de travail ont-elles évolué pendant la révolution industrielle ?",
    "Quels sont les principaux lieux de production durant la révolution industrielle en Angleterre ?",
    "Comment la révolution industrielle a-t-elle affecté la société anglaise ?",
    "Quels sont les principaux événements marquants de la révolution industrielle en Angleterre ?",
    "Comment la révolution industrielle a-t-elle influencé le monde entier ?",
    "Quels sont les principaux acteurs de la révolution industrielle en Angleterre ?",
    "Comment la révolution industrielle a-t-elle changé la manière de travailler et de produire en Angleterre ?",
    "Quels sont les principaux enjeux de la révolution industrielle en Angleterre ?",
    "Comment la révolution industrielle a-t-elle transformé la structure de l'industrie en Angleterre ?",
    "Quels sont les principaux retards rencontrés dans le développement de la révolution industrielle en Angleterre ?",
    "Comment la révolution industrielle a-t-elle affecté la distribution des richesses en Angleterre ?",
    "Quels sont les principaux avantages et inconvénients de la révolution industrielle en Angleterre ?",
    "Comment la révolution industrielle a-t-?"
  ]
}