{
  "num": "autog_0249-2563_1984_num_17_16",
  "article": "autog_0249-2563_1984_num_17_16_1593",
  "page_name": "autog_0249-2563_1984_num_17_16_T1_0054_0000",
  "questions": [
    "Dans quelles années s'est développé ce modèle de production forçant les agriculteurs à l'accumulation ?",
    "Comment les agriculteurs ont-ils été mis dans le circuit du crédit ?",
    "Qui assure maintenant l'intensification de la production ?",
    "Quels revenus demandaient les « modernistes » ?",
    "Quelle idée a essayé de développer le courant « travailleurs-paysans » à partir des années soixante-dans-vingt ?",
    "Quel slogan a exprimé cette idée lors de la guerre du lait ?",
    "Comment les paysans sont-ils différents des autres travailleurs selon vous ?",
    "Quels droits équivalents pouvaient les paysans obtenir selon cette idée ?",
    "En quelles matières particulièrement les paysans pouvaient-ils obtenir ces droits équivalents ?",
    "Quel retard existe-t-il selon vous entre la situation des paysans et la situation générale ?"
  ]
}