{
  "num": "autog_0249-2563_1984_num_17_16",
  "article": "autog_0249-2563_1984_num_17_16_1593",
  "page_name": "autog_0249-2563_1984_num_17_16_T1_0056_0000",
  "questions": [
    "Quels sont les coûts moyens que le producteur de lait en Haute-Savoie doit couvrir pour une certaine production ?",
    "Comment est-il rémunéré le producteur de lait en Haute-Savoie ?",
    "Quel est le rôle des coopératives d'utilisation de matériel agricole (CUMA) dans la production laitière en Haute-Savoie ?",
    "Quel est le revenu nécessaire pour couvrir les charges moyennes pour un producteur de blé de la Beauce et un autre situé sur les contreforts des Pyrénées ?",
    "Qu'est-ce qui est nécessaire pour faire fonctionner un système rémunérant autrement le paysan ?",
    "Quel est le rôle de l'organisme central dans le système rémunérant alternatif pour les paysans ?",
    "Quel est le rôle de la société française dans l'acceptation de la rémunération du paysan dans la fabrication des produits alimentaires ?",
    "Quels sont les conséquences socio-économiques si le paysan produit trop cher dans certains endroits ?",
    "Comment sont les relations interprofessionnelles actuelles résolvent le problème ?"
  ]
}