{
  "num": "autog_0249-2563_1984_num_17_16",
  "article": "autog_0249-2563_1984_num_17_16_1593",
  "page_name": "autog_0249-2563_1984_num_17_16_T1_0049_0000",
  "questions": [
    "Quels groupes sont-ils en question dans le texte ?",
    "Qu'est-ce que ces groupes revendiquent en termes de garanties ?",
    "Comment ces groupes peuvent-ils atteindre ces garanties ?",
    "Quels types de production sont-ils en voie de disparition ?",
    "Comment les grands groupes industriels ont-ils influencé la production agricole ?",
    "Quels intérêts dominent dans l'environnement complexe de l'agriculture industrielle ?",
    "Quels sont les conséquences pour les paysans de l'intégration de leur production dans l'agriculture industrielle ?",
    "Quels sont les régions où des productions agricoles sont menacées ?",
    "Quels sont les solutions proposées pour protéger ces productions agricoles ?"
  ]
}