{
  "num": "autog_0249-2563_1984_num_17_16",
  "article": "autog_0249-2563_1984_num_17_16_1593",
  "page_name": "autog_0249-2563_1984_num_17_16_T1_0053_0000",
  "questions": [
    "Quel est l'objectif principal des entreprises dans la lutte entre l'ULN et Besnier ?",
    "Pourquoi les entreprises veulent reprendre un groupe particulier ?",
    "Quels sont les raisons de la crise dans l'industrie de la volaille dans l'Ouest ?",
    "Quel est le rôle des syndicats dans cette situation ?",
    "Comment les paysans sont-ils exploités et comment déterminent-ils leur mode de production ?",
    "Quels sont les défis que les syndicats agricoles rencontrent dans leur lutte contre les entreprises ?",
    "Quel est le statut des paysans vis-à-vis des entreprises et des syndicats ?",
    "Quels sont les facteurs qui rendent difficile l'installation d'un jeune paysan ?",
    "Quel est le rôle de la Caisse nationale de crédit agricole dans l'agriculture ?",
    "Quel est le rôle de Marcel Denoux dans l'agriculture ?"
  ]
}