{
  "num": "autog_0338-7259_1976_num_33_1",
  "article": "autog_0338-7259_1976_num_33_1_1152",
  "page_name": "FMSH_PB188a_33-34_026",
  "questions": [
    "Qui est Yvon Bourdet et quels sont ses idées sur la puissance du nouveau pouvoir après la révolution ?",
    "Quels sont les éléments qui limiteraient le pouvoir du guide éclairé du prolétariat ?",
    "Qu'est-ce qu'un intellectuel de droite manque d'ambition d'après Bourdet ?",
    "Comment peut-on expliquer l'existence d'un « militant autogestionnaire » ?",
    "Quels sont les réserves formulées par l'auteur en ce qui concerne la révolution portugaise ?",
    "Pourquoi peut-on soutenir que la révolution portugaise témoigne en faveur de la thèse de l'autogestion généralisée ?",
    "Qu'est la hypothèse fondamentale de l'auteur sur le mouvement égalitaire ?",
    "Qu'est arrivé au Portugal à la chute de Caetano ?",
    "Qu'est l'intention profonde du M.F.A. selon l'auteur ?"
  ]
}