{
  "num": "autog_0338-7259_1976_num_33_1",
  "article": "autog_0338-7259_1976_num_33_1_1152",
  "page_name": "FMSH_PB188a_33-34_017",
  "questions": [
    "Quels partis politiques sont mentionnés dans le texte et comment leurs relations ont-elles évolué ?",
    "Quels événements ont contribué à la perte des complexes des démocraties libérales vis-à-vis du P.C.P. ?",
    "En quelles circonstances les socialistes ont-ils perdu leurs complexes doctrinaux ?",
    "Quel rôle a joué la troisième internationale dans la relation entre les critiques des régimes communistes et les partis sociaux-démocrates ?",
    "Quel livre est mentionné dans le texte et comment il est décrit dans le contexte portugais ?",
    "Quel est le jugement du texte sur les idées personnelles de Soljenitsyne ?",
    "Comment le texte explique le stalinisme ?",
    "Quels événements sont mentionnés dans le supplément d'Est et Ouest ?",
    "Comment les communistes ont-ils tenté de s'emparer du pouvoir au Portugal ?"
  ]
}