{
  "num": "autog_0338-7259_1976_num_33_1",
  "article": "autog_0338-7259_1976_num_33_1_1152",
  "page_name": "FMSH_PB188a_33-34_022",
  "questions": [
    "Quel rôle a joué Yvon Bourdet dans le débat sur l'autogestion généralisée au Portugal ?",
    "Pourquoi est-il de l'avis que l'autogestion généralisée était impossible à instaurer au Portugal ?",
    "Quel rôle a joué Salazar dans la situation économique du Portugal et comment a-t-il permis l'expérience actuelle ?",
    "Quel était le sort des quatre types de sociétés de classe mentionnées dans le texte si l'autogestion généralisée avait été instaurée au Portugal ?",
    "En quelles circonstances l'autogestion politique généralisée aurait pu réussir ?",
    "Quel est le statut de l'État dans le système yougoslave et comment il est lié à l'autogestion politique ?",
    "Quel est le caractère de la production sociale dans le système yougoslave et comment il est contradictoire avec les structures hétérogènes ou antagonistes ?"
  ]
}