{
  "num": "autog_0338-7259_1976_num_33_1",
  "article": "autog_0338-7259_1976_num_33_1_1152",
  "page_name": "FMSH_PB188a_33-34_015",
  "questions": [
    "Qu'avoue Robespierre à propos de la difficulté de la lutte pour la liberté ?",
    "Qu'entend Robespierre par \"finir la guerre de la liberté contre la tyrannie\" ?",
    "Quels ne sont pas les objectifs de ceux qui cherchent la révolution perpétuelle ?",
    "Qu'affirme Robespierre quant à la nécessité de justifier les excès ?",
    "Qu'est la première maxime de la politique de Robespierre dans la situation de guerre ?",
    "Qu'est la terreur selon Robespierre ?",
    "Comment Robespierre caractérise la terreur révolutionnaire et la terreur conservatrice ?",
    "Qu'avoue Robespierre à propos de la nécessité du despotisme de la liberté contre la tyrannie ?",
    "Qu'appelle-t-on les ennemis intérieurs et extérieurs de la République ?",
    "Comment la théorie révolutionnaire de Robespierre s'applique-t-elle à l'histoire des révolutions ?",
    "Quels moyens Robespierre n'a pas réussi à déterminer pour le bon exercice de la terreur ?",
    "Qu'a montré l'expérience jusqu'ici sur l'engendrement de la terreur ?"
  ]
}