{
  "num": "autog_0338-7259_1976_num_33_1",
  "article": "autog_0338-7259_1976_num_33_1_1152",
  "page_name": "FMSH_PB188a_33-34_025",
  "questions": [
    "Quels groupes jouaient un rôle actif dans l'animation des commissions de travailleurs ?",
    "Quels groupes se mêlaient aux luttes autonomes selon la tactique de « poisson dans l'eau » ?",
    "Qu'était la pratique de l'organisation L.U.A.R. dans le domaine de l'autogestion ?",
    "Qu'est-ce que la « doctrine » de l'autogestion ?",
    "Quand les communistes étaient élus dans les commissions de travailleurs ?",
    "Pourquoi les autres partis suscitent-ils plus facilement le militantisme actif ?",
    "Qu'est-ce que la « volonté de » dans le contexte du texte ?",
    "Qu'est-ce que l'autogestion selon la perspective du militant autogestionnaire ?",
    "Qu'est-ce que l'auto-émancipation selon le militant autogestionnaire ?",
    "Pourquoi les exploiteurs bourgeois étaient vus comme une menace à éliminer ?",
    "Qu'est-ce que la « nécessité d'exterminer » dans le contexte du texte ?",
    "Qu'est-ce que la « violence » dans le contexte du texte ?",
    "Qu'est-ce que le « combat prolétarien » pour « prendre le pouvoir » ?",
    "Qu'est-ce que le « centralisme démocratique » ?",
    "Qu'est-ce que la « circulaire secrète » du P.C.P. ?",
    "Qu'est-ce que l'« armement du peuple » dans le contexte de l'autogestion ?",
    "Qu'est-ce que l'« inspiration autogestionnaire » ?",
    "Qu'est-ce que l'« anti-partidaire » dans le contexte de l'autogestion ?",
    "Qu'est-ce que la « théorification » dans le contexte de l'autogestion ?",
    "Qu'est-ce que l'«?"
  ]
}