{
  "num": "autog_0005-0970_1969_num_9_1",
  "article": "autog_0005-0970_1969_num_9_1_1810",
  "page_name": "FMSH_PB188a_09-10_145",
  "questions": [
    "Quelle nouvelle classe dominante est-elle questionnée dans le texte ?",
    "Quel est le rôle de cette organisation vis-à-vis de l'information ?",
    "Pourquoi la classe dominante a-t-elle intérêt à faire croire à l'irrationalité de l'autogestion ?",
    "Quels projets de l'autogestion sont considérés comme dangereux par la classe dominante ?",
    "Quel est l'apport théorique de Yvon Bourdet sur l'autogestion dans une société industrielle développée ?",
    "Quels sont les deux principes fondamentaux de l'autogestion ?",
    "Quels sont les revendications de contrôle étudiant à Liège ?",
    "Quel est le rôle du Mubef dans la lutte anti-impérialiste ?",
    "Quel est le plan d'action du Mubef en janvier 1970 ?"
  ]
}