{
  "num": "autog_0249-2563_1980_num_13_1",
  "article": "autog_0249-2563_1980_num_13_1_1343",
  "page_name": "autog_0249-2563_1980_num_13_1_T1_0057_0000",
  "questions": [
    "Quel expériment social est éloigné ici ?",
    "Quel rôle jouent les suppressions dans la société selon l'auteur ?",
    "Quels facteurs influencent les croyances religieuses ?",
    "Comment Rosanvallon critique la transparence irreligieuse ?",
    "Quel lien établit-il entre l'autogestion et le libéralisme anarchiste ?",
    "Comment le libéralisme utopique peut être dangereux selon Rosanvallon ?",
    "Comment le retournement possible de la démocratie en totalitarisme est-il perçu par Rosanvallon ?",
    "Quel est le statut actuel de l'abondance et du communisme selon l'auteur ?",
    "Comment l'état est-il décrit dans le passage ?",
    "Quel est le cheminement de la démonstration de Rosanvallon ?",
    "Quel est le rôle de l'empirique et du théorique dans la démonstration de Rosanvallon ?",
    "Quel est le point critique de ce passage pour Rosanvallon ?",
    "Quel est le rôle de l'utopie dans la pensée de Rosanvallon ?"
  ]
}