{
  "num": "autog_0249-2563_1980_num_13_1",
  "article": "autog_0249-2563_1980_num_13_1_1343",
  "page_name": "autog_0249-2563_1980_num_13_1_T1_0045_0000",
  "questions": [
    "Quel livre a J.J. Rousseau copié en se référant à Spinoza ?",
    "Quel est le titre du traité théologico-politique de Spinoza ?",
    "Quel est le nom du biographe de Spinoza qui a rapporté que Spinoza s'adonna au dessin ?",
    "Quel est le sujet du portrait de Spinoza qui ressemble à lui selon son logeur ?",
    "Quel est le point de vue de Spinoza sur la démocratie ?",
    "Qu'est-ce que Spinoza critique dans les écrits sur les femmes et les esclaves ?",
    "Qu'est-ce que Spinoza pense des assassinats politiques ?",
    "Quel est le nom du héros populaire mentionné dans le texte ?",
    "Où peut-on trouver les extraits de Spinoza par Marx ?",
    "Dans quel livre de Spinoza on trouve la remarque contre les assassinats politiques ?",
    "Quel est le chapitre du Traité de l'autorité politique de Spinoza où on trouve cette remarque ?"
  ]
}