{
  "num": "autog_0249-2563_1980_num_13_1",
  "article": "autog_0249-2563_1980_num_13_1_1343",
  "page_name": "autog_0249-2563_1980_num_13_1_T1_0060_0000",
  "questions": [
    "Quel philosophe, selon Spinoza, vaut-il mieux que les mauvais projets politiques soient révélés aux ennemis plutôt qu'ils soient cachés aux citoyens ?",
    "Quels philosophes a-t-on répété, selon Marx, que l'ignorance n'a jamais servi personne ?",
    "Quelle est cette mode rétro de la peur de la transparence qui persiste malgré Marx et Freud ?",
    "Qu'avait Spinoza l'audace de faire quelle identification ?",
    "Comment peut-on atteindre la réalisation subjective de la divinité selon Spinoza ?",
    "Comment fait-on de l'homme le démiurge du monde selon Spinoza ?",
    "Comment se révèlent les vérités des temps anciens selon Spinoza ?",
    "Où peut-on trouver la source de cette citation de Spinoza ?",
    "Quel livre de Y. Bourdeet traite-t-il de l'autogestion et de la terreur de la transparence ?"
  ]
}