{
  "num": "autog_0005-0970_1968_num_5_1",
  "article": "autog_0005-0970_1968_num_5_1_920",
  "page_name": "FMSH_PB188a_05-06_074",
  "questions": [
    "Quel rôle joue Jean Sanvoisin dans la majorité des organisations syndicales pour participer aux décisions du Comité Confédéral national de F.O. en décembre 1966 ?",
    "Quels impératifs de la grande bourgeoisie et quels plans précis sont mentionnés dans le texte ?",
    "Dans quels organismes économiques et sociaux participent les syndicats dans ce contexte ?",
    "Quel rôle joue le mouvement étudiant dans la grève générale de mai ?",
    "Quel rôle joue le syndicat FO des ouvriers horaires dans la grève générale de mai ?",
    "Quels risques pour le syndicalisme est-il question dans le texte ?",
    "Quel dialogue entre les sommets syndicaux est mentionné dans le texte ?",
    "Quel rôle joue l'intéressement dans le texte ?",
    "Quels avantages fiscaux sont mentionnés pour l'intéressement ?",
    "Quel rôle joue M. Chirac dans l'accord d'intéressement signé par la CGT en avril 1968 ?"
  ]
}