{
  "num": "autog_0005-0970_1968_num_5_1",
  "article": "autog_0005-0970_1968_num_5_1_920",
  "page_name": "FMSH_PB188a_05-06_078",
  "questions": [
    "Quel rôle joue Jean Sanvoisin dans la lutte pour la direction de la Centrale ?",
    "Quels sont les objectifs des militants rassemblés autour de C.G.T. en matière de classe ?",
    "Quels sont les forces militantes libérées par la crise du mouvement ouvrier ?",
    "Comment les militants ouvriers cherchent-ils à régénérer leur mouvement ?",
    "Quel rôle peuvent les Comités d'action jouer dans la lutte pour la démocratie ouvrière ?",
    "Quels sont les mots d'ordre qui permettaient aux militants de mettre la direction confédérale devant ses responsabilités ?",
    "Comment se définissent les Comités d'action ?",
    "Quel est l'ambiguïté de leur forme ?",
    "Comment les Comités d'action sont-ils perçus par certains comme étant des comités de grève ou des embryons d'organisations politiques ?"
  ]
}