{
  "num": "autog_0338-7259_1977_num_37_1",
  "article": "autog_0338-7259_1977_num_37_1_1230",
  "page_name": "FMSH_PB188a_37-38_088",
  "questions": [
    "Quel est le rôle de Bakounine dans le mouvement ouvrier de son époque ?",
    "Quels sont les positions des anarchistes et des marxistes quant à Bakounine ?",
    "Qu'est-ce que les marxistes ont découvert lors de Mai 68 ?",
    "Pourquoi les marxistes ont-ils cherché un Marx théoricien de l'autogestion ?",
    "Quel était le point de vue de Bakounine sur l'organisation de la révolution et de la société post-révolutionnaire ?",
    "Quand a-t-on fondé la revue Autogestion ?",
    "Quels groupes ont interprété anti-autoritairement Marx avant Mai 68 ?"
  ]
}