{
  "num": "autog_0338-7259_1978_num_41_1",
  "article": "autog_0338-7259_1978_num_41_1_1316",
  "page_name": "FMSH_PB188a_41-42_109",
  "questions": [
    {
      "id_qa": "FMSH_PB188a_41-42_109_qa15_v3",
      "id_block": "block_2",
      "question": "Qu'est ce qui s'est atténué ces derniers temps ?",
      "answer": "la lutte entre ces tendances",
      "answer_stringIds": [
        "string_X"
      ]
    },
    {
      "id_qa": "FMSH_PB188a_41-42_109_qa32_v3",
      "id_block": "block_2",
      "question": "Qu'est ce qui permettrait de dépasser leur opposition ?",
      "answer": "les éléments historiquement positifs de ces deux modèles opposés",
      "answer_stringIds": [
        "string_X"
      ]
    },
    {
      "id_qa": "FMSH_PB188a_41-42_109_qa5_v3",
      "id_block": "block_3",
      "question": "Quels systèmes socioéconomiques apparaîtront ou devraient apparaître après ?",
      "answer": "quelles",
      "answer_stringIds": [
        "string_X"
      ]
    },
    {
      "id_qa": "FMSH_PB188a_41-42_109_qa1_v3",
      "id_block": "block_4",
      "question": "Quel est le but du système de socialisation ?",
      "answer": "les intérêts du travailleur productif",
      "answer_stringIds": [
        "string_X"
      ]
    },
    {
      "id_qa": "FMSH_PB188a_41-42_109_qa2_v3",
      "id_block": "block_4",
      "question": "Qu'est-ce qui renforce le système de socialisation ?",
      "answer": "le particularisme",
      "answer_stringIds": [
        "string_X"
      ]
    },
    {
      "id_qa": "FMSH_PB188a_41-42_109_qa4_v3",
      "id_block": "block_4",
      "question": "Qu'est ce qui renforce le particularisme dans la sphère productive ?",
      "answer": "Un tel système de socialisation",
      "answer_stringIds": [
        "string_X"
      ]
    },
    {
      "id_qa": "FMSH_PB188a_41-42_109_qa11_v3",
      "id_block": "block_4",
      "question": "Qu'est-ce que le droit de propriété et les fonctions que cela impliquait ?",
      "answer": "le travail productif",
      "answer_stringIds": [
        "string_X"
      ]
    },
    {
      "id_qa": "FMSH_PB188a_41-42_109_qa30_v3",
      "id_block": "block_5",
      "question": "Qu'est ce qui permettait de supprimer ou du moins de reléguer au second plan ?",
      "answer": "cette conception",
      "answer_stringIds": [
        "string_X"
      ]
    },
    {
      "id_qa": "FMSH_PB188a_41-42_109_qa31_v3",
      "id_block": "block_5",
      "question": "Que permettait cette conception ?",
      "answer": "supprimer ou du moins",
      "answer_stringIds": [
        "string_X"
      ]
    },
    {
      "id_qa": "FMSH_PB188a_41-42_109_qa45_v3",
      "id_block": "block_5",
      "question": "Sur quoi repose la deuxième tendance ?",
      "answer": "sur la critique de la précédente",
      "answer_stringIds": [
        "string_X"
      ]
    }
  ]
}