{
  "num": "autog_0249-2563_1981_num_14_6",
  "article": "autog_0249-2563_1981_num_14_6_1431",
  "page_name": "autog_0249-2563_1981_num_14_6_T1_0202_0000",
  "questions": [
    {
      "id_qa": "autog_0249-2563_1981_num_14_6_T1_0202_0000_qa35_v3",
      "id_block": "block_0",
      "question": "A quoi ont refusé de participer les anciens collaborateurs de Praxis ?",
      "answer": "à ce nouveau projet",
      "answer_stringIds": [
        "string_75",
        "string_76",
        "string_77",
        "string_78"
      ]
    },
    {
      "id_qa": "autog_0249-2563_1981_num_14_6_T1_0202_0000_qa36_v3",
      "id_block": "block_0",
      "question": "Qui a refusé de participer à ce nouveau projet ?",
      "answer": "de nombreux anciens collaborateurs de Praxis",
      "answer_stringIds": [
        "string_64",
        "string_65",
        "string_66",
        "string_67",
        "string_68",
        "string_69",
        "string_70"
      ]
    },
    {
      "id_qa": "autog_0249-2563_1981_num_14_6_T1_0202_0000_qa31_v3",
      "id_block": "block_2",
      "question": "Qu'est-ce qui est présenté lors de congrès ?",
      "answer": "un tableau négatif de la réalité yougoslave",
      "answer_stringIds": [
        "string_167",
        "string_168",
        "string_169",
        "string_170",
        "string_171",
        "string_172",
        "string_173",
        "string_174"
      ]
    },
    {
      "id_qa": "autog_0249-2563_1981_num_14_6_T1_0202_0000_qa34_v3",
      "id_block": "block_2",
      "question": "Qu'est-ce que les congrès s'appliquent lors de congrès ?",
      "answer": "un tableau négatif de la réalité yougoslave",
      "answer_stringIds": [
        "string_167",
        "string_168",
        "string_169",
        "string_170",
        "string_171",
        "string_172",
        "string_173",
        "string_174"
      ]
    },
    {
      "id_qa": "autog_0249-2563_1981_num_14_6_T1_0202_0000_qa27_v3",
      "id_block": "block_3",
      "question": "A quoi sont ramenés les éléments de notre système autogestionnaire ?",
      "answer": "à une forme apparente de démocratie",
      "answer_stringIds": [
        "string_249",
        "string_250",
        "string_251",
        "string_252",
        "string_253",
        "string_254"
      ]
    },
    {
      "id_qa": "autog_0249-2563_1981_num_14_6_T1_0202_0000_qa28_v3",
      "id_block": "block_3",
      "question": "Qu'est-ce qu'une élite politique ?",
      "answer": "le pouvoir",
      "answer_stringIds": [
        "string_268",
        "string_269"
      ]
    },
    {
      "id_qa": "autog_0249-2563_1981_num_14_6_T1_0202_0000_qa29_v3",
      "id_block": "block_3",
      "question": "Qu'est-ce que la démocratie ?",
      "answer": "Tous les éléments et la réalité de notre système autogestionnaire",
      "answer_stringIds": [
        "string_237",
        "string_238",
        "string_239",
        "string_240",
        "string_241",
        "string_242",
        "string_243",
        "string_244",
        "string_245",
        "string_246"
      ]
    },
    {
      "id_qa": "autog_0249-2563_1981_num_14_6_T1_0202_0000_qa17_v3",
      "id_block": "block_4",
      "question": "Qu'est ce qui n'a pas encore été fait ?",
      "answer": "un démenti",
      "answer_stringIds": [
        "string_343",
        "string_344"
      ]
    },
    {
      "id_qa": "autog_0249-2563_1981_num_14_6_T1_0202_0000_qa24_v3",
      "id_block": "block_4",
      "question": "Qui s'est adressé à certains de nos camarades ?",
      "answer": "Markovic",
      "answer_stringIds": [
        "string_217"
      ]
    },
    {
      "id_qa": "autog_0249-2563_1981_num_14_6_T1_0202_0000_qa25_v3",
      "id_block": "block_4",
      "question": "Qui a déclaré qu'il n'était pas l'auteur de cet article ?",
      "answer": "Markovic",
      "answer_stringIds": [
        "string_217"
      ]
    },
    {
      "id_qa": "autog_0249-2563_1981_num_14_6_T1_0202_0000_qa26_v3",
      "id_block": "block_4",
      "question": "A qui Markovic s'est-il adressé ?",
      "answer": "certains de nos camarades",
      "answer_stringIds": [
        "string_324",
        "string_325",
        "string_326",
        "string_327"
      ]
    },
    {
      "id_qa": "autog_0249-2563_1981_num_14_6_T1_0202_0000_qa13_v3",
      "id_block": "block_5",
      "question": "Quelle organisation critique notre pratique autogestionnaire ?",
      "answer": "la Ligue des Communistes",
      "answer_stringIds": [
        "string_361",
        "string_362",
        "string_363",
        "string_364"
      ]
    },
    {
      "id_qa": "autog_0249-2563_1981_num_14_6_T1_0202_0000_qa0_v3",
      "id_block": "block_6",
      "question": "Qui a écrit une thèse de doctorat sur la Yougoslavie contemporaine ?",
      "answer": "Michel Kristin",
      "answer_stringIds": [
        "string_474",
        "string_475"
      ]
    },
    {
      "id_qa": "autog_0249-2563_1981_num_14_6_T1_0202_0000_qa2_v3",
      "id_block": "block_6",
      "question": "Qui a écrit l'article « Après la mort de Tito » ?",
      "answer": "à M. Markovic",
      "answer_stringIds": [
        "string_464",
        "string_465",
        "string_466"
      ]
    },
    {
      "id_qa": "autog_0249-2563_1981_num_14_6_T1_0202_0000_qa4_v3",
      "id_block": "block_6",
      "question": "Pourquoi l'article « Après la mort de Tito » a-t-il été attribué à M. Markovic ?",
      "answer": "par erreur",
      "answer_stringIds": [
        "string_462",
        "string_463"
      ]
    }
  ]
}