{
  "num": "autog_0249-2563_1982_num_16_12",
  "article": "autog_0249-2563_1982_num_16_12_1536",
  "page_name": "autog_0249-2563_1982_num_16_12_T1_0120_0000",
  "questions": [
    {
      "id_qa": "autog_0249-2563_1982_num_16_12_T1_0120_0000_qa6_v3",
      "id_block": "block_0",
      "question": "Qu'est ce qui est pris en Conseil d'Unité ?",
      "answer": "Les décisions sur ces points",
      "answer_stringIds": [
        "string_55",
        "string_56",
        "string_57",
        "string_58",
        "string_59"
      ]
    },
    {
      "id_qa": "autog_0249-2563_1982_num_16_12_T1_0120_0000_qa9_v3",
      "id_block": "block_2",
      "question": "Qui propose une demande d'expérimentation pour tout l'établissement ?",
      "answer": "Alain Dumont",
      "answer_stringIds": [
        "string_74",
        "string_75"
      ]
    },
    {
      "id_qa": "autog_0249-2563_1982_num_16_12_T1_0120_0000_qa11_v3",
      "id_block": "block_2",
      "question": "En quelle année Alain Dumont propose-t-il une expérimentation pour tout l'établissement ?",
      "answer": "En 1981",
      "answer_stringIds": [
        "string_72",
        "string_73"
      ]
    },
    {
      "id_qa": "autog_0249-2563_1982_num_16_12_T1_0120_0000_qa12_v3",
      "id_block": "block_2",
      "question": "Qui propose une demande d'expérimentation pour tout l'établissement en 1981 ?",
      "answer": "Alain Dumont",
      "answer_stringIds": [
        "string_74",
        "string_75"
      ]
    },
    {
      "id_qa": "autog_0249-2563_1982_num_16_12_T1_0120_0000_qa13_v3",
      "id_block": "block_7",
      "question": "Qui est à l'origine de la notion de recherche-action ?",
      "answer": "les théoriciens",
      "answer_stringIds": [
        "string_175",
        "string_176"
      ]
    },
    {
      "id_qa": "autog_0249-2563_1982_num_16_12_T1_0120_0000_qa3_v3",
      "id_block": "block_9",
      "question": "Qui élabore un plan de formation ?",
      "answer": "professeurs",
      "answer_stringIds": [
        "string_1"
      ]
    },
    {
      "id_qa": "autog_0249-2563_1982_num_16_12_T1_0120_0000_qa4_v3",
      "id_block": "block_9",
      "question": "Qu'est ce qui est proposé chaque année aux professeurs ?",
      "answer": "un plan de formation",
      "answer_stringIds": [
        "string_216",
        "string_217",
        "string_218",
        "string_219"
      ]
    },
    {
      "id_qa": "autog_0249-2563_1982_num_16_12_T1_0120_0000_qa14_v3",
      "id_block": "block_9",
      "question": "Qui entraîne trente profs du Collège dans une formation spécifique ?",
      "answer": "Dumont",
      "answer_stringIds": [
        "string_75"
      ]
    }
  ]
}