{
  "num": "autog_0338-7259_1973_num_22_1",
  "article": "autog_0338-7259_1973_num_22_1_1088",
  "page_name": "FMSH_PB188a_22-23_145",
  "questions": [
    {
      "id_qa": "FMSH_PB188a_22-23_145_qa6_v3",
      "id_block": "block_2",
      "question": "Qu'est-ce que le socialisme véritable opposé au capitalisme ?",
      "answer": "cette caricature du socialisme",
      "answer_stringIds": [
        "string_57",
        "string_58",
        "string_59",
        "string_60",
        "string_61"
      ]
    },
    {
      "id_qa": "FMSH_PB188a_22-23_145_qa1_v3",
      "id_block": "block_3",
      "question": "Qu'est ce que l'autogestion selon la CFDT ?",
      "answer": "un changement radical de la situation des travail",
      "answer_stringIds": [
        "string_190",
        "string_191",
        "string_192",
        "string_193",
        "string_194",
        "string_195",
        "string_196",
        "string_197"
      ]
    },
    {
      "id_qa": "FMSH_PB188a_22-23_145_qa4_v3",
      "id_block": "block_3",
      "question": "Qui parle de l'autogestion ?",
      "answer": "la CFDT",
      "answer_stringIds": [
        "string_32",
        "string_33"
      ]
    },
    {
      "id_qa": "FMSH_PB188a_22-23_145_qa13_v3",
      "id_block": "block_3",
      "question": "Qui annonce le contenu du «socialisme démocratique » ?",
      "answer": "la Direction de la CFDT",
      "answer_stringIds": [
        "string_130",
        "string_131",
        "string_132",
        "string_133",
        "string_134"
      ]
    }
  ]
}