{
  "num": "autog_0338-7259_1973_num_22_1",
  "article": "autog_0338-7259_1973_num_22_1_1088",
  "page_name": "FMSH_PB188a_22-23_147",
  "questions": [
    {
      "id_qa": "FMSH_PB188a_22-23_147_qa0_v3",
      "id_block": "block_1",
      "question": "Qu'est-ce qui a été exploité par les travailleurs de ces entreprises autogérées ?",
      "answer": "exploiter du personnel saisonnier",
      "answer_stringIds": [
        "string_80",
        "string_81",
        "string_82",
        "string_83"
      ]
    },
    {
      "id_qa": "FMSH_PB188a_22-23_147_qa4_v3",
      "id_block": "block_1",
      "question": "Qu'est ce qui a été exploité par les travailleurs de ces entreprises autogérées ?",
      "answer": "du personnel saisonnier",
      "answer_stringIds": [
        "string_81",
        "string_82",
        "string_83"
      ]
    },
    {
      "id_qa": "FMSH_PB188a_22-23_147_qa22_v3",
      "id_block": "block_1",
      "question": "Quand a eu lieu l'autogestion algérienne ?",
      "answer": "il y a quelques années",
      "answer_stringIds": [
        "string_13",
        "string_14",
        "string_15",
        "string_16",
        "string_17"
      ]
    },
    {
      "id_qa": "FMSH_PB188a_22-23_147_qa9_v3",
      "id_block": "block_4",
      "question": "Qui est à l'origine de l'autogestion ?",
      "answer": "les militants révolutionnaires adeptes",
      "answer_stringIds": [
        "string_111",
        "string_112",
        "string_113",
        "string_114"
      ]
    },
    {
      "id_qa": "FMSH_PB188a_22-23_147_qa19_v3",
      "id_block": "block_4",
      "question": "Qu'est-ce que l'autogestion ?",
      "answer": "la démocratie directe",
      "answer_stringIds": [
        "string_228",
        "string_229",
        "string_230"
      ]
    },
    {
      "id_qa": "FMSH_PB188a_22-23_147_qa12_v3",
      "id_block": "block_4",
      "question": "Qui pense que l'autogestion est bonne en Algérie ou en Yougoslavie ?",
      "answer": "les militants révolutionnaires adeptes",
      "answer_stringIds": [
        "string_111",
        "string_112",
        "string_113",
        "string_114"
      ]
    },
    {
      "id_qa": "FMSH_PB188a_22-23_147_qa13_v3",
      "id_block": "block_4",
      "question": "A qui est destiné l'autogestion ?",
      "answer": "aux masses",
      "answer_stringIds": [
        "string_221",
        "string_222"
      ]
    },
    {
      "id_qa": "FMSH_PB188a_22-23_147_qa14_v3",
      "id_block": "block_4",
      "question": "Que permet l'autogestion ?",
      "answer": "faire leur apprentissage de la démocratie directe orientée de bas en haut",
      "answer_stringIds": [
        "string_224",
        "string_225",
        "string_226",
        "string_227",
        "string_228",
        "string_229",
        "string_230",
        "string_231",
        "string_232",
        "string_233",
        "string_234",
        "string_235"
      ]
    },
    {
      "id_qa": "FMSH_PB188a_22-23_147_qa15_v3",
      "id_block": "block_4",
      "question": "Qui pense que l'autogestion permet aux masses de faire leur apprentissage de la démocratie directe orientée de bas en haut ?",
      "answer": "Daniel Guérin",
      "answer_stringIds": [
        "string_190",
        "string_191"
      ]
    },
    {
      "id_qa": "FMSH_PB188a_22-23_147_qa17_v3",
      "id_block": "block_4",
      "question": "Quel est le but de l'autogestion ?",
      "answer": "masses",
      "answer_stringIds": [
        "string_222"
      ]
    },
    {
      "id_qa": "FMSH_PB188a_22-23_147_qa18_v3",
      "id_block": "block_4",
      "question": "Qui est le théoricien d'un « marxisme libertaire » ?",
      "answer": "Daniel Guérin",
      "answer_stringIds": [
        "string_190",
        "string_191"
      ]
    },
    {
      "id_qa": "FMSH_PB188a_22-23_147_qa21_v3",
      "id_block": "block_4",
      "question": "Qu'est-ce que l'autogestion en Algérie ?",
      "answer": "la préfiguration du socialisme véritable",
      "answer_stringIds": [
        "string_185",
        "string_186",
        "string_187",
        "string_188",
        "string_189"
      ]
    },
    {
      "id_qa": "FMSH_PB188a_22-23_147_qa23_v3",
      "id_block": "block_4",
      "question": "Qu'est-ce qui caractérise les autogestionnaires ?",
      "answer": "se satisfaire",
      "answer_stringIds": [
        "string_312",
        "string_313"
      ]
    }
  ]
}