{
  "num": "autog_0005-0970_1968_num_5_1",
  "article": "autog_0005-0970_1968_num_5_1_1969",
  "page_name": "FMSH_PB188a_05-06_025",
  "questions": [
    "Quel est le contexte dans lequel s'exprime la personne qui parle de l'autogestion et de l'autonomie dans le contexte de l'Université ?",
    "Quel est le rôle de la classe ouvrière dans la production de révolutionnaires ?",
    "Quel est le problème posé par l'absence d'ouvriers dans l'Université ?",
    "Quel est le pourquoi de la nécessité d'avoir des ouvriers dans l'Université pour faire aboutir la révolution ?",
    "Quel est le pourquoi de la faible proportion d'ouvriers dans l'Université actuellement ?",
    "Quel est le rôle de l'autonomie de l'Éducation nationale dans la formation de contestataires ?",
    "Quel est le rôle du primaire dans la révolution ?",
    "Quel est le pourquoi de la présence de 8 % de fils d'ouvriers dans le Supérieur ?",
    "Quel est le rôle de la classe ouvrière dans la révolution, selon Anatole Kopp ?",
    "Quel est le lien entre la classe ouvrière et les étudiants selon les différents interlocuteurs ?"
  ]
}