{
  "num": "autog_0005-0970_1968_num_5_1",
  "article": "autog_0005-0970_1968_num_5_1_1969",
  "page_name": "FMSH_PB188a_05-06_031",
  "questions": [
    "Qu'est-ce qui est mis en question au sujet des intellectuels révolutionnaires issus de l'Université ?",
    "Quel est le rôle des intellectuels dans le système de lutte de classe globale selon G. ?",
    "Quel est le problème que G. souhaite ne pas perdre de vue ?",
    "Quels sont les individus produits par l'Université qui seront des révolutionnaires selon G. ?",
    "Quel est le rôle de ces révolutionnaires issus de l'Université dans une révolution ?",
    "Qu'est-ce qui empêche selon G. que les intellectuels soient révolutionnaires et puissent descendre dans la rue et dresser des barricades ?",
    "Qu'est-ce qui a empêché la révolution récente de devenir authentique selon G. ?",
    "Qu'est-ce que G. entend par \"problème de liaison travailleurs-étudiants\" ?",
    "Qu'est-ce que G. pense que l'on devrait faire pour porter ce problème au niveau d'une structure de pensée ?",
    "Qu'est-ce qui est l'exemple parfait selon G. ?",
    "Quel est le problème avec les Universités selon G. ?",
    "Qu'est-ce que G. entend par \"conscience révolutionnaire\" ?",
    "Quel est le rôle des étudiants selon G. dans la révolution ?",
    "Qu'est-ce que G. pense que les étudiants ne doivent pas faire ?",
    "Qu'est-ce que G. pense que les intellectuels doivent faire ?",
    "Qu'est-ce que G. pense que les révolutionnaires marxistes doivent faire ?"
  ]
}