{
  "num": "autog_0338-7259_1974_num_28_1",
  "article": "autog_0338-7259_1974_num_28_1_1194",
  "page_name": "FMSH_PB188a_28-29_106",
  "questions": [
    "Quels communistes et quels partisans d'autogestion s'accordent sur la définition de la société du communisme ?",
    "Qu'est-ce que Marchais signifie par « hic » dans ce contexte ?",
    "Qu'est l'opposition formulée par Edmond Maire entre le « socialisme de tradition française » et « le socialisme centralisateur et autoritaire » ?",
    "Pourquoi les communistes refusent-ils l'étiquette de « socialisme centralisateur et autoritaire » ?",
    "Qu'est l'équation « démocratie politique (ou socialisme) et démocratie économiques sont indissociables » selon Marchais ?",
    "Pourquoi Marchais considère l'expression « socialisme démocratique » comme une « lapalissade » ?",
    "Qu'est l'image du passé que le P.C. projette en arrière pour l'action ?"
  ]
}