{
  "num": "autog_0338-7259_1970_num_13_1",
  "article": "autog_0338-7259_1970_num_13_1_989",
  "page_name": "FMSH_PB188a_13-14_235",
  "questions": [
    {
      "id_qa": "FMSH_PB188a_13-14_235_qa3_v3",
      "id_block": "block_2",
      "question": "Qu'est-ce que l'audelà ?",
      "answer": "des lois objectives qui le",
      "answer_stringIds": [
        "string_36",
        "string_37",
        "string_38",
        "string_39",
        "string_40"
      ]
    },
    {
      "id_qa": "FMSH_PB188a_13-14_235_qa6_v3",
      "id_block": "block_4",
      "question": "Qu'est ce qui permet à l'institué de se maintenir ?",
      "answer": "la parcelle de contradiction",
      "answer_stringIds": [
        "string_136",
        "string_137",
        "string_138",
        "string_139"
      ]
    },
    {
      "id_qa": "FMSH_PB188a_13-14_235_qa9_v3",
      "id_block": "block_4",
      "question": "Qui a inauguré le rapport dialectique instituant ?",
      "answer": "par Lourau",
      "answer_stringIds": [
        "string_107",
        "string_108"
      ]
    },
    {
      "id_qa": "FMSH_PB188a_13-14_235_qa15_v3",
      "id_block": "block_5",
      "question": "Qu'est ce que vise une telle pratique ?",
      "answer": "la transformation institutionnelle",
      "answer_stringIds": [
        "string_199",
        "string_200",
        "string_201"
      ]
    },
    {
      "id_qa": "FMSH_PB188a_13-14_235_qa17_v3",
      "id_block": "block_5",
      "question": "Quelle est la valeur du contre-transfert institutionnel ?",
      "answer": "une valeur décisive",
      "answer_stringIds": [
        "string_182",
        "string_183",
        "string_184"
      ]
    }
  ]
}