{
  "num": "autog_0249-2563_1984_num_17_17",
  "article": "autog_0249-2563_1984_num_17_17_1608",
  "page_name": "autog_0249-2563_1984_num_17_17_T1_0035_0000",
  "questions": [
    "Quels sont les titres des œuvres d'Orwell citées dans le texte ?",
    "Dans quels éditeurs ont été publiés ces œuvres ?",
    "Quel est le point de vue de l'auteur sur la capacité des livres à prévenir la démission intellectuelle et la lâcheté politique ?",
    "Quels mythes Orwell a-t-il visé à détruire ?",
    "Quel est le rôle de l'honnêteté massive dans l'œuvre d'Orwell ?",
    "Quel est le rôle de S. Leys dans l'analyse d'Orwell ?",
    "Quel est le message de la citation d'Orwell ?",
    "Quel est le lien entre les œuvres d'Orwell et de S. Leys ?",
    "En quelle manière ont Orwell et S. Leys employé leur talent et leur critique pour atteindre leur objectif ?",
    "Quel est l'impact des œuvres d'Orwell et de S. Leys sur le lecteur ?",
    "Quel est le régime que l'auteur de la citation critique ?",
    "En quelle période S. Leys a-t-il employé sa critique pour atteindre son objectif ?"
  ]
}