{
  "num": "autog_0249-2563_1981_num_14_6",
  "article": "autog_0249-2563_1981_num_14_6_1437",
  "page_name": "autog_0249-2563_1981_num_14_6_T1_0224_0000",
  "questions": [
    {
      "id_qa": "autog_0249-2563_1981_num_14_6_T1_0224_0000_qa31_v3",
      "id_block": "block_1",
      "question": "Qu'est-ce que le mouvement au cours du conflit ?",
      "answer": "une liquidation physique",
      "answer_stringIds": [
        "string_61",
        "string_62",
        "string_63"
      ]
    },
    {
      "id_qa": "autog_0249-2563_1981_num_14_6_T1_0224_0000_qa33_v3",
      "id_block": "block_1",
      "question": "Qu'est-ce qui est condamné à une liquidation physique ?",
      "answer": "le mouvement",
      "answer_stringIds": [
        "string_55",
        "string_56"
      ]
    },
    {
      "id_qa": "autog_0249-2563_1981_num_14_6_T1_0224_0000_qa34_v3",
      "id_block": "block_1",
      "question": "Quand le mouvement était-il condamné à une liquidation physique ?",
      "answer": "au cours du conflit",
      "answer_stringIds": [
        "string_51",
        "string_52",
        "string_53",
        "string_54"
      ]
    },
    {
      "id_qa": "autog_0249-2563_1981_num_14_6_T1_0224_0000_qa11_v3",
      "id_block": "block_10",
      "question": "Quel artiste s'est intéressé à l'art pauvre en créant des environnements ?",
      "answer": "OHO",
      "answer_stringIds": [
        "string_108"
      ]
    },
    {
      "id_qa": "autog_0249-2563_1981_num_14_6_T1_0224_0000_qa13_v3",
      "id_block": "block_10",
      "question": "Quel artiste s'est orienté vers l'art pauvre ?",
      "answer": "OHO",
      "answer_stringIds": [
        "string_108"
      ]
    },
    {
      "id_qa": "autog_0249-2563_1981_num_14_6_T1_0224_0000_qa14_v3",
      "id_block": "block_10",
      "question": "Où OHO s'est-il intéressé à l'art pauvre ?",
      "answer": "à Lljubljana",
      "answer_stringIds": [
        "string_314",
        "string_315"
      ]
    },
    {
      "id_qa": "autog_0249-2563_1981_num_14_6_T1_0224_0000_qa15_v3",
      "id_block": "block_10",
      "question": "Quand OHO s'est-il orienté vers l'art pauvre ?",
      "answer": "en février 1969",
      "answer_stringIds": [
        "string_311",
        "string_312",
        "string_313"
      ]
    },
    {
      "id_qa": "autog_0249-2563_1981_num_14_6_T1_0224_0000_qa16_v3",
      "id_block": "block_10",
      "question": "Comment OHO s'est-il orienté vers l'art pauvre ?",
      "answer": "en créant",
      "answer_stringIds": [
        "string_322",
        "string_323"
      ]
    },
    {
      "id_qa": "autog_0249-2563_1981_num_14_6_T1_0224_0000_qa17_v3",
      "id_block": "block_10",
      "question": "Quel artiste s'est orienté vers l'art pauvre en créant des environnements ?",
      "answer": "OHO",
      "answer_stringIds": [
        "string_108"
      ]
    },
    {
      "id_qa": "autog_0249-2563_1981_num_14_6_T1_0224_0000_qa18_v3",
      "id_block": "block_10",
      "question": "Qui s'est orienté vers l'art pauvre ?",
      "answer": "OHO",
      "answer_stringIds": [
        "string_108"
      ]
    },
    {
      "id_qa": "autog_0249-2563_1981_num_14_6_T1_0224_0000_qa19_v3",
      "id_block": "block_10",
      "question": "De quoi OHO s'est-il orienté vers l'art pauvre ?",
      "answer": "des environnements",
      "answer_stringIds": [
        "string_324",
        "string_325"
      ]
    },
    {
      "id_qa": "autog_0249-2563_1981_num_14_6_T1_0224_0000_qa21_v3",
      "id_block": "block_10",
      "question": "Où OHO s'est-il orienté vers l'art pauvre ?",
      "answer": "à Lljubljana",
      "answer_stringIds": [
        "string_314",
        "string_315"
      ]
    },
    {
      "id_qa": "autog_0249-2563_1981_num_14_6_T1_0224_0000_qa22_v3",
      "id_block": "block_10",
      "question": "Quand OHO s'est-il intéressé à l'art pauvre ?",
      "answer": "en février 1969",
      "answer_stringIds": [
        "string_311",
        "string_312",
        "string_313"
      ]
    },
    {
      "id_qa": "autog_0249-2563_1981_num_14_6_T1_0224_0000_qa43_v3",
      "id_block": "block_10",
      "question": "Quelle est la conséquence de l'application du principe ?",
      "answer": "La plus grande attention",
      "answer_stringIds": [
        "string_348",
        "string_349",
        "string_350",
        "string_351"
      ]
    },
    {
      "id_qa": "autog_0249-2563_1981_num_14_6_T1_0224_0000_qa25_v3",
      "id_block": "block_12",
      "question": "Qu'est-ce que la transposition dans des espaces naturels ?",
      "answer": "des « esthétiques de situation",
      "answer_stringIds": [
        "string_390",
        "string_391",
        "string_392",
        "string_393",
        "string_394"
      ]
    },
    {
      "id_qa": "autog_0249-2563_1981_num_14_6_T1_0224_0000_qa23_v3",
      "id_block": "block_3",
      "question": "Qu'est ce que le réisme ?",
      "answer": "une approche",
      "answer_stringIds": [
        "string_117",
        "string_118"
      ]
    },
    {
      "id_qa": "autog_0249-2563_1981_num_14_6_T1_0224_0000_qa35_v3",
      "id_block": "block_4",
      "question": "Qui a représenté une démarcation par rapport à la tradition encombrée de sens ?",
      "answer": "OHO",
      "answer_stringIds": [
        "string_108"
      ]
    },
    {
      "id_qa": "autog_0249-2563_1981_num_14_6_T1_0224_0000_qa0_v3",
      "id_block": "block_6",
      "question": "Qu'est ce qui ne peut pas être atteint ?",
      "answer": "les atteindre",
      "answer_stringIds": [
        "string_190",
        "string_191"
      ]
    },
    {
      "id_qa": "autog_0249-2563_1981_num_14_6_T1_0224_0000_qa37_v3",
      "id_block": "block_8",
      "question": "Qui décrit l'impossibilité à laquelle nous réduit notre vision du monde conditionnée ?",
      "answer": "Tomaz Salamun",
      "answer_stringIds": [
        "string_197",
        "string_198"
      ]
    },
    {
      "id_qa": "autog_0249-2563_1981_num_14_6_T1_0224_0000_qa38_v3",
      "id_block": "block_8",
      "question": "Quelle est l'impossibilité à laquelle Tomaz Salamun décrit-il ?",
      "answer": "notre vision du monde conditionnée",
      "answer_stringIds": [
        "string_206",
        "string_207",
        "string_208",
        "string_209",
        "string_210"
      ]
    },
    {
      "id_qa": "autog_0249-2563_1981_num_14_6_T1_0224_0000_qa1_v3",
      "id_block": "block_9",
      "question": "Qu'est ce qui doit être considéré comme un support mimétique essentiel ?",
      "answer": "le dessin",
      "answer_stringIds": [
        "string_230",
        "string_231"
      ]
    },
    {
      "id_qa": "autog_0249-2563_1981_num_14_6_T1_0224_0000_qa2_v3",
      "id_block": "block_9",
      "question": "Qu'est ce qui permet l'identification de l'objet ?",
      "answer": "les contours de base",
      "answer_stringIds": [
        "string_276",
        "string_277",
        "string_278",
        "string_279"
      ]
    },
    {
      "id_qa": "autog_0249-2563_1981_num_14_6_T1_0224_0000_qa3_v3",
      "id_block": "block_9",
      "question": "Qu'est ce qui ne doit pas être considéré comme un support mimétique essentiel ?",
      "answer": "le dessin",
      "answer_stringIds": [
        "string_230",
        "string_231"
      ]
    }
  ]
}