{
  "num": "autog_0338-7259_1970_num_11_1",
  "article": "autog_0338-7259_1970_num_11_1_962",
  "page_name": "FMSH_PB188a_11-12_095",
  "questions": [
    {
      "id_qa": "FMSH_PB188a_11-12_095_qa8_v3",
      "id_block": "block_1",
      "question": "Qu'est ce qui renforce l'accroissement de la situation des travailleurs ?",
      "answer": "Paspect patrimonial de la situation des travailleurs",
      "answer_stringIds": [
        "string_172",
        "string_173",
        "string_174",
        "string_175",
        "string_176",
        "string_177",
        "string_178"
      ]
    },
    {
      "id_qa": "FMSH_PB188a_11-12_095_qa12_v3",
      "id_block": "block_2",
      "question": "Qu'est-ce qui est emprunté à l'Annuaire statistique 1968 ?",
      "answer": "Les chiffres",
      "answer_stringIds": [
        "string_327",
        "string_328"
      ]
    }
  ]
}