{
  "num": "autog_0338-7259_1970_num_11_1",
  "article": "autog_0338-7259_1970_num_11_1_962",
  "page_name": "FMSH_PB188a_11-12_080",
  "questions": [
    {
      "id_qa": "FMSH_PB188a_11-12_080_qa25_v3",
      "id_block": "block_1",
      "question": "Qu'est-ce qui est inutile dans le socialisme ?",
      "answer": "des larmes",
      "answer_stringIds": [
        "string_25",
        "string_26"
      ]
    },
    {
      "id_qa": "FMSH_PB188a_11-12_080_qa29_v3",
      "id_block": "block_1",
      "question": "Pour qui Lénine vise-t-il dans la même direction ?",
      "answer": "pour la société",
      "answer_stringIds": [
        "string_6",
        "string_7",
        "string_8"
      ]
    },
    {
      "id_qa": "FMSH_PB188a_11-12_080_qa3_v3",
      "id_block": "block_2",
      "question": "Quelle est la valeur de la force de travail selon Marx ?",
      "answer": "les frais relatifs à la force de travail nouvelle",
      "answer_stringIds": [
        "string_158",
        "string_159",
        "string_160",
        "string_161",
        "string_162",
        "string_163",
        "string_164",
        "string_165",
        "string_166"
      ]
    },
    {
      "id_qa": "FMSH_PB188a_11-12_080_qa15_v3",
      "id_block": "block_2",
      "question": "Qu'exprime les primes ajoutées au salaire brut ?",
      "answer": "la valeur de la force de travail",
      "answer_stringIds": [
        "string_108",
        "string_109",
        "string_110",
        "string_111",
        "string_112",
        "string_113",
        "string_114"
      ]
    },
    {
      "id_qa": "FMSH_PB188a_11-12_080_qa19_v3",
      "id_block": "block_3",
      "question": "Par quoi est constitué le revenu du travailleur ?",
      "answer": "le salaire",
      "answer_stringIds": [
        "string_98",
        "string_99"
      ]
    },
    {
      "id_qa": "FMSH_PB188a_11-12_080_qa24_v3",
      "id_block": "block_3",
      "question": "Qu'est-ce que la part de propriété ?",
      "answer": "objective",
      "answer_stringIds": [
        "string_288",
        "string_289"
      ]
    },
    {
      "id_qa": "FMSH_PB188a_11-12_080_qa26_v3",
      "id_block": "block_3",
      "question": "Quel est le prix du salaire ?",
      "answer": "la force de travail",
      "answer_stringIds": [
        "string_33",
        "string_34",
        "string_35",
        "string_36"
      ]
    },
    {
      "id_qa": "FMSH_PB188a_11-12_080_qa27_v3",
      "id_block": "block_3",
      "question": "Quelle est la valeur modifiée du salaire ?",
      "answer": "desquels la force de travail",
      "answer_stringIds": [
        "string_247",
        "string_248",
        "string_249",
        "string_250",
        "string_251"
      ]
    },
    {
      "id_qa": "FMSH_PB188a_11-12_080_qa11_v3",
      "id_block": "block_4",
      "question": "Quel est le cadre de l'exploitation des fonds de salaires ?",
      "answer": "le cadre des personnes économiquement ac",
      "answer_stringIds": [
        "string_344",
        "string_345",
        "string_346",
        "string_347",
        "string_348",
        "string_349"
      ]
    },
    {
      "id_qa": "FMSH_PB188a_11-12_080_qa12_v3",
      "id_block": "block_4",
      "question": "Quelle est la catégorie spéciale de l'appropriation ?",
      "answer": "la partie",
      "answer_stringIds": [
        "string_318",
        "string_319"
      ]
    }
  ]
}