{
  "num": "autog_0338-7259_1970_num_11_1",
  "article": "autog_0338-7259_1970_num_11_1_962",
  "page_name": "FMSH_PB188a_11-12_093",
  "questions": [
    {
      "id_qa": "FMSH_PB188a_11-12_093_qa11_v3",
      "id_block": "block_1",
      "question": "Combien de travailleurs sont concernés par ce processus ?",
      "answer": "quelques-uns",
      "answer_stringIds": [
        "string_80"
      ]
    },
    {
      "id_qa": "FMSH_PB188a_11-12_093_qa0_v3",
      "id_block": "block_2",
      "question": "Qu'est-ce que le salariat ?",
      "answer": "Le salaire",
      "answer_stringIds": [
        "string_246",
        "string_247"
      ]
    },
    {
      "id_qa": "FMSH_PB188a_11-12_093_qa2_v3",
      "id_block": "block_2",
      "question": "Qui reçoit le salaire ?",
      "answer": "les travailleurs",
      "answer_stringIds": [
        "string_208",
        "string_209"
      ]
    },
    {
      "id_qa": "FMSH_PB188a_11-12_093_qa21_v3",
      "id_block": "block_2",
      "question": "Qu'est-ce que la part aux résultats économiques ?",
      "answer": "de la propriété",
      "answer_stringIds": [
        "string_182",
        "string_183",
        "string_184"
      ]
    },
    {
      "id_qa": "FMSH_PB188a_11-12_093_qa4_v3",
      "id_block": "block_3",
      "question": "Quand a été faite l'enquête sur l'influence de la participation ?",
      "answer": "en 1967",
      "answer_stringIds": [
        "string_281",
        "string_282"
      ]
    },
    {
      "id_qa": "FMSH_PB188a_11-12_093_qa5_v3",
      "id_block": "block_3",
      "question": "Qui a pris une attitude sceptique au sujet de l'influence de la participation ?",
      "answer": "les ouvriers",
      "answer_stringIds": [
        "string_291",
        "string_292"
      ]
    },
    {
      "id_qa": "FMSH_PB188a_11-12_093_qa30_v3",
      "id_block": "block_4",
      "question": "Qu'est ce qui sera constitué à des échelons inférieurs aux entreprises ?",
      "answer": "les conseils",
      "answer_stringIds": [
        "string_336",
        "string_337"
      ]
    }
  ]
}