{
  "num": "autog_0338-7259_1970_num_11_1",
  "article": "autog_0338-7259_1970_num_11_1_962",
  "page_name": "FMSH_PB188a_11-12_084",
  "questions": [
    {
      "id_qa": "FMSH_PB188a_11-12_084_qa0_v3",
      "id_block": "block_2",
      "question": "Qu'est ce qui était au centre de la socialisation ?",
      "answer": "les fonctions patrimoniales",
      "answer_stringIds": [
        "string_228",
        "string_229",
        "string_230"
      ]
    },
    {
      "id_qa": "FMSH_PB188a_11-12_084_qa3_v3",
      "id_block": "block_2",
      "question": "Qui était loin d'être le propriétaire ?",
      "answer": "le travailleur",
      "answer_stringIds": [
        "string_236",
        "string_237"
      ]
    },
    {
      "id_qa": "FMSH_PB188a_11-12_084_qa6_v3",
      "id_block": "block_3",
      "question": "De quoi s'écartait le système des directives administratives ?",
      "answer": "du marxisme original",
      "answer_stringIds": [
        "string_303",
        "string_304",
        "string_305"
      ]
    },
    {
      "id_qa": "FMSH_PB188a_11-12_084_qa7_v3",
      "id_block": "block_3",
      "question": "Qu'est ce qui s'écartait du marxisme original ?",
      "answer": "le système des directives administratives",
      "answer_stringIds": [
        "string_295",
        "string_296",
        "string_297",
        "string_298",
        "string_299"
      ]
    }
  ]
}