{
  "num": "autog_0338-7259_1970_num_11_1",
  "article": "autog_0338-7259_1970_num_11_1_1787",
  "page_name": "FMSH_PB188a_11-12_246",
  "questions": [
    "Quelle est l'importance historique de l'université de Bologne en organisant ce séminaire sur la participation ouvrière ?",
    "Quel était initialement le but de ce séminaire : présenter des expériences de co-gestion ou de participation et qui devait être la cible principale ?",
    "Quels pays étaient représentés par les spécialistes universitaires ?",
    "Comment les séances se sont-elles déroulées initialement ?",
    "Quels groupes étaient les plus actifs et assidus dans les séances ?",
    "Quels types d'oppositions ont été observées et comment elles se sont manifestées ?",
    "Quel est le sens du mot « autogestion » selon les différentes personnes ?",
    "Comment les oppositions observées mettent-elles en question la théorie et la pratique du mouvement ouvrier actuel ?"
  ]
}