{
  "num": "autog_0338-7259_1976_num_33_1",
  "article": "autog_0338-7259_1976_num_33_1_1150",
  "page_name": "FMSH_PB188a_33-34_005",
  "questions": [
    {
      "id_qa": "FMSH_PB188a_33-34_005_qa22_v3",
      "id_block": "block_1",
      "question": "Qu'est-ce que l'oiseau de Minerve ?",
      "answer": "notre vol",
      "answer_stringIds": [
        "string_40",
        "string_41"
      ]
    },
    {
      "id_qa": "FMSH_PB188a_33-34_005_qa13_v3",
      "id_block": "block_2",
      "question": "Qu'est ce qui a été présenté par Joseph et Vladimir Fisera ?",
      "answer": "La documentation de premier ordre",
      "answer_stringIds": [
        "string_59",
        "string_60",
        "string_61",
        "string_62",
        "string_63",
        "string_64"
      ]
    },
    {
      "id_qa": "FMSH_PB188a_33-34_005_qa14_v3",
      "id_block": "block_2",
      "question": "Qui a présenté la documentation de premier ordre ?",
      "answer": "par Joseph et Vladimir Fisera",
      "answer_stringIds": [
        "string_69",
        "string_70",
        "string_71",
        "string_72",
        "string_73"
      ]
    },
    {
      "id_qa": "FMSH_PB188a_33-34_005_qa15_v3",
      "id_block": "block_2",
      "question": "Qui a traduit la documentation de premier ordre ?",
      "answer": "par Joseph et Vladimir Fisera",
      "answer_stringIds": [
        "string_69",
        "string_70",
        "string_71",
        "string_72",
        "string_73"
      ]
    },
    {
      "id_qa": "FMSH_PB188a_33-34_005_qa17_v3",
      "id_block": "block_2",
      "question": "Qu'est ce qui ne put paraître qu'après que l'aide fraternelle y compris une aide armée fut apportée par «les pays du pacte de Varsovie » ?",
      "answer": "La documentation de premier ordre",
      "answer_stringIds": [
        "string_59",
        "string_60",
        "string_61",
        "string_62",
        "string_63",
        "string_64"
      ]
    },
    {
      "id_qa": "FMSH_PB188a_33-34_005_qa28_v3",
      "id_block": "block_2",
      "question": "Qu'est ce qui fut gelé ?",
      "answer": "Le printemps de Prague",
      "answer_stringIds": [
        "string_109",
        "string_110",
        "string_111",
        "string_112"
      ]
    },
    {
      "id_qa": "FMSH_PB188a_33-34_005_qa26_v3",
      "id_block": "block_3",
      "question": "Par qui est fait le travail de prospection et de correction des épreuves ?",
      "answer": "un très petit groupe militant qui",
      "answer_stringIds": [
        "string_175",
        "string_176",
        "string_177",
        "string_178",
        "string_179",
        "string_180"
      ]
    },
    {
      "id_qa": "FMSH_PB188a_33-34_005_qa8_v3",
      "id_block": "block_4",
      "question": "Quel est le surnom de la classe ouvrière ?",
      "answer": "le travail obscur de « la vieille taupe",
      "answer_stringIds": [
        "string_255",
        "string_256",
        "string_257",
        "string_258",
        "string_259",
        "string_260",
        "string_261",
        "string_262"
      ]
    }
  ]
}