{
  "num": "autog_0338-7259_1970_num_13_1",
  "article": "autog_0338-7259_1970_num_13_1_975",
  "page_name": "FMSH_PB188a_13-14_051",
  "questions": [
    {
      "id_qa": "FMSH_PB188a_13-14_051_qa10_v3",
      "id_block": "block_10",
      "question": "A quelle école appartient la Ligue Communiste ?",
      "answer": "le séminaire",
      "answer_stringIds": [
        "string_151",
        "string_152",
        "string_153"
      ]
    },
    {
      "id_qa": "FMSH_PB188a_13-14_051_qa14_v3",
      "id_block": "block_11",
      "question": "Qu'est ce qui est important dans cette analyse des groupes d'appartenance ?",
      "answer": "un certain nombre de points",
      "answer_stringIds": [
        "string_163",
        "string_164",
        "string_165",
        "string_166",
        "string_167"
      ]
    },
    {
      "id_qa": "FMSH_PB188a_13-14_051_qa7_v3",
      "id_block": "block_13",
      "question": "Qu'est ce qui a été vécu par les membres du groupe ?",
      "answer": "des expériences",
      "answer_stringIds": [
        "string_208",
        "string_209"
      ]
    },
    {
      "id_qa": "FMSH_PB188a_13-14_051_qa8_v3",
      "id_block": "block_13",
      "question": "Combien de membres du groupe restent à l'intérieur de ces institutions ?",
      "answer": "3",
      "answer_stringIds": [
        "string_75"
      ]
    },
    {
      "id_qa": "FMSH_PB188a_13-14_051_qa4_v3",
      "id_block": "block_14",
      "question": "Qui a eu une influence importante dans notre action ?",
      "answer": "de la M.N.E.F. et des étudiants en médecine",
      "answer_stringIds": [
        "string_230",
        "string_231",
        "string_232",
        "string_233",
        "string_234",
        "string_235",
        "string_236",
        "string_237"
      ]
    },
    {
      "id_qa": "FMSH_PB188a_13-14_051_qa5_v3",
      "id_block": "block_14",
      "question": "Quelle était l'influence de la M.N.E.F. sur notre action ?",
      "answer": "une partie de notre recherche sur le secteur Santé",
      "answer_stringIds": [
        "string_247",
        "string_248",
        "string_249",
        "string_250",
        "string_251",
        "string_252",
        "string_253",
        "string_254",
        "string_255"
      ]
    },
    {
      "id_qa": "FMSH_PB188a_13-14_051_qa1_v3",
      "id_block": "block_4",
      "question": "Combien de personnes font référence à l'Eglise comme croyants ou ayant eu des relations avec elle ?",
      "answer": "20",
      "answer_stringIds": [
        "string_47"
      ]
    }
  ]
}