{
  "num": "autog_0338-7259_1970_num_13_1",
  "article": "autog_0338-7259_1970_num_13_1_975",
  "page_name": "FMSH_PB188a_13-14_050",
  "questions": [
    {
      "id_qa": "FMSH_PB188a_13-14_050_qa17_v3",
      "id_block": "block_1",
      "question": "Où a vécu Mai ensemble ?",
      "answer": "à Reims",
      "answer_stringIds": [
        "string_15",
        "string_16"
      ]
    },
    {
      "id_qa": "FMSH_PB188a_13-14_050_qa18_v3",
      "id_block": "block_1",
      "question": "Qui regrettèrent l'absence d'enseignement de Sciences humaines à Reims ?",
      "answer": "De jeunes étudiants en médecine",
      "answer_stringIds": [
        "string_4",
        "string_5",
        "string_6",
        "string_7",
        "string_8"
      ]
    },
    {
      "id_qa": "FMSH_PB188a_13-14_050_qa26_v3",
      "id_block": "block_1",
      "question": "Que firent des étudiants en éducation physique ?",
      "answer": "la même constatation",
      "answer_stringIds": [
        "string_27",
        "string_28",
        "string_29"
      ]
    },
    {
      "id_qa": "FMSH_PB188a_13-14_050_qa27_v3",
      "id_block": "block_1",
      "question": "Qui fit la même constatation ?",
      "answer": "Des étudiants en éducation physique",
      "answer_stringIds": [
        "string_20",
        "string_21",
        "string_22",
        "string_23",
        "string_24",
        "string_25"
      ]
    },
    {
      "id_qa": "FMSH_PB188a_13-14_050_qa25_v3",
      "id_block": "block_2",
      "question": "Comment peut-on qualifier l'importance du politique ?",
      "answer": "Sans",
      "answer_stringIds": [
        "string_65"
      ]
    },
    {
      "id_qa": "FMSH_PB188a_13-14_050_qa10_v3",
      "id_block": "block_3",
      "question": "Qui décide de s'installer à Vincennes ?",
      "answer": "Badiou",
      "answer_stringIds": [
        "string_112"
      ]
    },
    {
      "id_qa": "FMSH_PB188a_13-14_050_qa14_v3",
      "id_block": "block_3",
      "question": "Qui se démenait pour la création d'une section de philosophie à la Faculté des Lettres ?",
      "answer": "Badiou",
      "answer_stringIds": [
        "string_112"
      ]
    },
    {
      "id_qa": "FMSH_PB188a_13-14_050_qa15_v3",
      "id_block": "block_3",
      "question": "Où Badiou choisit-il de s'installer ?",
      "answer": "à Vincennes",
      "answer_stringIds": [
        "string_148",
        "string_149"
      ]
    },
    {
      "id_qa": "FMSH_PB188a_13-14_050_qa16_v3",
      "id_block": "block_3",
      "question": "Qui se démenait pour obtenir la création d'une section de philosophie à la Faculté des Lettres ?",
      "answer": "Badiou",
      "answer_stringIds": [
        "string_112"
      ]
    },
    {
      "id_qa": "FMSH_PB188a_13-14_050_qa7_v3",
      "id_block": "block_4",
      "question": "Quand a eu lieu la création d'un groupe de travail ?",
      "answer": "En juin 1969",
      "answer_stringIds": [
        "string_160",
        "string_161",
        "string_162"
      ]
    },
    {
      "id_qa": "FMSH_PB188a_13-14_050_qa9_v3",
      "id_block": "block_4",
      "question": "Qu'est-ce que le groupe de travail ?",
      "answer": "un travail en commun",
      "answer_stringIds": [
        "string_188",
        "string_189",
        "string_190",
        "string_191"
      ]
    },
    {
      "id_qa": "FMSH_PB188a_13-14_050_qa19_v3",
      "id_block": "block_8",
      "question": "Quand les membres du groupe sont-ils recrutés ?",
      "answer": "à la rentrée",
      "answer_stringIds": [
        "string_253",
        "string_254",
        "string_255"
      ]
    }
  ]
}