{
  "num": "autog_0338-7259_1970_num_13_1",
  "article": "autog_0338-7259_1970_num_13_1_975",
  "page_name": "FMSH_PB188a_13-14_058",
  "questions": [
    {
      "id_qa": "FMSH_PB188a_13-14_058_qa9_v3",
      "id_block": "block_1",
      "question": "Comment s'appelle le groupe ?",
      "answer": "leaders",
      "answer_stringIds": [
        "string_22"
      ]
    },
    {
      "id_qa": "FMSH_PB188a_13-14_058_qa10_v3",
      "id_block": "block_1",
      "question": "Pourquoi les gens se posaient des questions ?",
      "answer": "parce que cela les intéressait",
      "answer_stringIds": [
        "string_38",
        "string_39",
        "string_40",
        "string_41",
        "string_42"
      ]
    },
    {
      "id_qa": "FMSH_PB188a_13-14_058_qa13_v3",
      "id_block": "block_1",
      "question": "Qu'est ce qui rassemblait le groupe ?",
      "answer": "un grand nombre de gens qui se posaient des questions et qui sont venus parce que cela les intéressait",
      "answer_stringIds": [
        "string_24",
        "string_25",
        "string_26",
        "string_27",
        "string_28",
        "string_29",
        "string_30",
        "string_31",
        "string_32",
        "string_33",
        "string_34",
        "string_35",
        "string_36",
        "string_37",
        "string_38",
        "string_39",
        "string_40",
        "string_41",
        "string_42"
      ]
    },
    {
      "id_qa": "FMSH_PB188a_13-14_058_qa7_v3",
      "id_block": "block_2",
      "question": "Qu'est ce qui n'a pas eu un rôle de direction politique ?",
      "answer": "une stratégie",
      "answer_stringIds": [
        "string_78",
        "string_79"
      ]
    },
    {
      "id_qa": "FMSH_PB188a_13-14_058_qa2_v3",
      "id_block": "block_3",
      "question": "Qui dit que nous pratiquons la « masturbation intellectuelle » ?",
      "answer": "certains",
      "answer_stringIds": [
        "string_108"
      ]
    },
    {
      "id_qa": "FMSH_PB188a_13-14_058_qa22_v3",
      "id_block": "block_4",
      "question": "A quoi est-il possible de faire son bilan en dehors ?",
      "answer": "un groupe politique",
      "answer_stringIds": [
        "string_240",
        "string_241",
        "string_242",
        "string_243"
      ]
    },
    {
      "id_qa": "FMSH_PB188a_13-14_058_qa23_v3",
      "id_block": "block_4",
      "question": "Qu'est-ce que d'appartenir à un groupe politique ?",
      "answer": "son bilan",
      "answer_stringIds": [
        "string_247",
        "string_248"
      ]
    }
  ]
}