{
  "num": "autog_0249-2563_1982_num_16_12",
  "article": "autog_0249-2563_1982_num_16_12_1548_t1_0213_0000_2",
  "page_name": "autog_0249-2563_1982_num_16_12_T1_0213_0000",
  "questions": [
    "Quel thème a été abordé dans le volume 1982 du Jahrbuch Arbeiterbewegung ?",
    "Quels aspects de l'autogestion et du mouvement ouvrier n'ont pas pu être abordés dans ce volume ?",
    "Quel regret est exprimé par la rédaction du volume 1982 ?",
    "Quels articles sont mentionnés dans le texte et sur quel sujet traitent-ils ?",
    "Quel rôle jouent les coopératives dans l'autogestion selon Arnold Sywottek ?",
    "Quel rôle jouent les conseils d'ouvriers et de soldats dans l'autogestion selon Detlev Kehnert ?",
    "En quelle période se situe cette analyse de l'autogestion et du mouvement ouvrier ?",
    "Quel est le point de vue de l'auteur Y. Bourdet sur l'autogestion et les coopératives ?",
    "Quels études régionales ont été réalisées sur l'autogestion récemment ?"
  ]
}