{
  "num": "autog_0249-2563_1984_num_17_16",
  "article": "autog_0249-2563_1984_num_17_16_1595",
  "page_name": "autog_0249-2563_1984_num_17_16_T1_0067_0000",
  "questions": [
    {
      "id_qa": "autog_0249-2563_1984_num_17_16_T1_0067_0000_qa6_v3",
      "id_block": "block_0",
      "question": "A quoi sert l'heure de travail passée à la production ?",
      "answer": "les produits",
      "answer_stringIds": [
        "string_21",
        "string_22"
      ]
    },
    {
      "id_qa": "autog_0249-2563_1984_num_17_16_T1_0067_0000_qa7_v3",
      "id_block": "block_0",
      "question": "Qu'est ce qui permet à l'exploitant de se réapproprier une dimension stratégique de son activité ?",
      "answer": "cette stratégie",
      "answer_stringIds": [
        "string_37",
        "string_38"
      ]
    },
    {
      "id_qa": "autog_0249-2563_1984_num_17_16_T1_0067_0000_qa3_v3",
      "id_block": "block_1",
      "question": "Qui combine les activités agricoles avec des activités non agricoles ?",
      "answer": "certains paysans",
      "answer_stringIds": [
        "string_66",
        "string_67"
      ]
    },
    {
      "id_qa": "autog_0249-2563_1984_num_17_16_T1_0067_0000_qa4_v3",
      "id_block": "block_1",
      "question": "Qui va combiner les activités agricoles avec des activités non agricoles ?",
      "answer": "certains paysans",
      "answer_stringIds": [
        "string_66",
        "string_67"
      ]
    },
    {
      "id_qa": "autog_0249-2563_1984_num_17_16_T1_0067_0000_qa12_v3",
      "id_block": "block_1",
      "question": "Combien d'activités le paysan combine-t-il ?",
      "answer": "deux ou plusieurs activités",
      "answer_stringIds": [
        "string_124",
        "string_125",
        "string_126",
        "string_127"
      ]
    },
    {
      "id_qa": "autog_0249-2563_1984_num_17_16_T1_0067_0000_qa14_v3",
      "id_block": "block_1",
      "question": "Qui combine deux ou plusieurs activités ?",
      "answer": "le paysan",
      "answer_stringIds": [
        "string_121",
        "string_122"
      ]
    },
    {
      "id_qa": "autog_0249-2563_1984_num_17_16_T1_0067_0000_qa35_v3",
      "id_block": "block_1",
      "question": "Que permet la combinaison agriculture et artisanat ?",
      "answer": "les jours creux",
      "answer_stringIds": [
        "string_158",
        "string_159",
        "string_160"
      ]
    },
    {
      "id_qa": "autog_0249-2563_1984_num_17_16_T1_0067_0000_qa37_v3",
      "id_block": "block_1",
      "question": "Qu'est ce qui permet de remplir les jours creux ?",
      "answer": "la combinaison agriculture et artisanat",
      "answer_stringIds": [
        "string_149",
        "string_150",
        "string_151",
        "string_152",
        "string_153"
      ]
    },
    {
      "id_qa": "autog_0249-2563_1984_num_17_16_T1_0067_0000_qa30_v3",
      "id_block": "block_2",
      "question": "Comment se comportent les agriculteurs ?",
      "answer": "des « exploitants ruraux",
      "answer_stringIds": [
        "string_207",
        "string_208",
        "string_209",
        "string_210"
      ]
    },
    {
      "id_qa": "autog_0249-2563_1984_num_17_16_T1_0067_0000_qa31_v3",
      "id_block": "block_2",
      "question": "Qui se comporte comme des exploitants ruraux ?",
      "answer": "ces agriculteurs",
      "answer_stringIds": [
        "string_201",
        "string_202"
      ]
    },
    {
      "id_qa": "autog_0249-2563_1984_num_17_16_T1_0067_0000_qa15_v3",
      "id_block": "block_4",
      "question": "Qu'est-ce qui caractérise les vrais agriculteurs ?",
      "answer": "des formules différentes",
      "answer_stringIds": [
        "string_372",
        "string_373",
        "string_374",
        "string_375"
      ]
    },
    {
      "id_qa": "autog_0249-2563_1984_num_17_16_T1_0067_0000_qa16_v3",
      "id_block": "block_4",
      "question": "Qu'est-ce qui est refusé aux agriculteurs ?",
      "answer": "leur identité professionnelle",
      "answer_stringIds": [
        "string_385",
        "string_386",
        "string_387"
      ]
    },
    {
      "id_qa": "autog_0249-2563_1984_num_17_16_T1_0067_0000_qa19_v3",
      "id_block": "block_4",
      "question": "Quand est-ce que le terme agriculture non-professionnelle est utilisé ?",
      "answer": "aujourd'hui",
      "answer_stringIds": [
        "string_352"
      ]
    }
  ]
}