{
  "num": "autog_0338-7259_1976_num_35_1",
  "article": "autog_0338-7259_1976_num_35_1_1180",
  "page_name": "FMSH_PB188a_35-36_122",
  "questions": [
    "Quels jeunes Indiens sont-ils en question dans le texte ?",
    "Quel est le rejet des Indiens vis-à-vis de l'idée d'assimilation au melting-pot américain ?",
    "Quels sont les croyances et valeurs traditionnelles que les Indiens réfugient dans ?",
    "Qu'est-ce que les Indiens politisés appellent Red Power et les Conseils tribaux ?",
    "Qu'est l'objectif ultime de l'auto-détermination indienne ?",
    "Comment les Indiens vivent-ils vis-à-vis du gouvernement américain ?",
    "Quel est le lien entre l'absence d'autonomie politique et l'impossibilité d'autonomie économique pour les Indiens ?"
  ]
}