{
  "num": "autog_0338-7259_1976_num_35_1",
  "article": "autog_0338-7259_1976_num_35_1_1180",
  "page_name": "FMSH_PB188a_35-36_134",
  "questions": [
    "Quel est le rôle des entreprises dans le contexte décrit dans le texte ?",
    "Qui ne détient pas réellement ces entreprises ?",
    "Pourquoi les Indiens se demandent-ils pourquoi ces entreprises ne leur appartiennent pas ?",
    "Quel est le souci principal des entreprises ?",
    "Comment les entreprises ne correspondent-elles pas aux besoins et à la mentalité des Indiens ?",
    "Qu'exprime Mel Thom du National Indian Youth Council à propos des entreprises ?",
    "Quel est le conflit de valeurs entre les sociétés blanches et indiennes concernant le travail ?",
    "Comment l'Indien est-il orienté vers le travail selon son héritage culturel ?",
    "Qu'exprime le vieux Sioux sur le travail et les habitudes des Blancs ?",
    "Comment l'Indien travaille-t-il et quels sont ses objectifs ?",
    "Pourquoi les Indiens modernes savent-ils apprécier le confort mais recherchent-ils rarement le « luxe » ?"
  ]
}