{
  "num": "autog_0338-7259_1976_num_35_1",
  "article": "autog_0338-7259_1976_num_35_1_1180",
  "page_name": "FMSH_PB188a_35-36_127",
  "questions": [
    "Quels groupes sont visés par l'épuration politique des Uncle Tomahawks et Red Apples ?",
    "Quel système politique est mis en place à la place des Conseils tribaux ?",
    "Quels sont les trois formes d'autonomie que les Indiens reconnaissent ?",
    "Qu'implique l'autonomie socio-culturelle pour les Indiens ?",
    "Quels sont les exemples concrets de la restauration des valeurs et pratiques traditionnelles ?",
    "Quels sont les types d'écoles fondées par l'American Indian Movement et pourquoi sont-elles appelées Survival Schools ?",
    "Quel concept traditionnel veulent-ils raviver ?",
    "Comment fonctionnait le système de partage communautaire dans la société indienne ancienne ?",
    "Comment les Indiens modernes continuent-ils de pratiquer le partage communautaire ?",
    "Quelle distinction fait-on entre \"partager\" et \"donner\" selon les Indiens ?",
    "Comment fonctionne le système de bien-être social dans la société blanche ?",
    "Comment explique Deloria la différence entre le système de bien-être social des Indiens et celui de la société blanche ?"
  ]
}