{
  "num": "autog_0338-7259_1975_num_32_1",
  "article": "autog_0338-7259_1975_num_32_1_1140",
  "page_name": "FMSH_PB188a_00032_037",
  "questions": [
    {
      "id_qa": "FMSH_PB188a_00032_037_qa4_v3",
      "id_block": "block_1",
      "question": "A qui profite le contexte américain ?",
      "answer": "la classe ouvrière",
      "answer_stringIds": [
        "string_30",
        "string_31",
        "string_32"
      ]
    },
    {
      "id_qa": "FMSH_PB188a_00032_037_qa14_v3",
      "id_block": "block_1",
      "question": "Dans quel système les demandes ne peuvent-elles pas être satisfaites ?",
      "answer": "dans le système capitaliste de contrôle",
      "answer_stringIds": [
        "string_13",
        "string_14",
        "string_15",
        "string_16",
        "string_17",
        "string_18"
      ]
    },
    {
      "id_qa": "FMSH_PB188a_00032_037_qa15_v3",
      "id_block": "block_1",
      "question": "Qu'est ce qui ne peut être satisfait dans le système capitaliste de contrôle ?",
      "answer": "des demandes",
      "answer_stringIds": [
        "string_6",
        "string_7"
      ]
    },
    {
      "id_qa": "FMSH_PB188a_00032_037_qa17_v3",
      "id_block": "block_1",
      "question": "Qu'est-ce qui crée des demandes dans le système capitaliste de contrôle ?",
      "answer": "peuvent",
      "answer_stringIds": [
        "string_10"
      ]
    },
    {
      "id_qa": "FMSH_PB188a_00032_037_qa12_v3",
      "id_block": "block_2",
      "question": "Quel pays souffre de la compétition des forces de travail organisées et disciplinées ?",
      "answer": "les Etats-Unis",
      "answer_stringIds": [
        "string_87",
        "string_88"
      ]
    },
    {
      "id_qa": "FMSH_PB188a_00032_037_qa18_v3",
      "id_block": "block_2",
      "question": "Quel est le but de la grève de Lordstown ?",
      "answer": "des petites voitures capables de concurrencer les importations européennes et japonaises",
      "answer_stringIds": [
        "string_154",
        "string_155",
        "string_156",
        "string_157",
        "string_158",
        "string_159",
        "string_160",
        "string_161",
        "string_162",
        "string_163",
        "string_164"
      ]
    },
    {
      "id_qa": "FMSH_PB188a_00032_037_qa9_v3",
      "id_block": "block_3",
      "question": "Quelle est la conséquence d'un mouvement de contrôle ouvrier aux Etats-Unis ?",
      "answer": "un mouvement pour un contrôle plus important sur les conditions",
      "answer_stringIds": [
        "string_343",
        "string_344",
        "string_345",
        "string_346",
        "string_347",
        "string_348",
        "string_349",
        "string_350",
        "string_351",
        "string_352"
      ]
    }
  ]
}