{
  "num": "autog_0338-7259_1975_num_32_1",
  "article": "autog_0338-7259_1975_num_32_1_1140",
  "page_name": "FMSH_PB188a_00032_046",
  "questions": [
    {
      "id_qa": "FMSH_PB188a_00032_046_qa2_v3",
      "id_block": "block_1",
      "question": "Que pourrait faire un tel mouvement une fois développé ?",
      "answer": "utiliser des techniques de marketing politique",
      "answer_stringIds": [
        "string_132",
        "string_133",
        "string_134",
        "string_135",
        "string_136",
        "string_137"
      ]
    },
    {
      "id_qa": "FMSH_PB188a_00032_046_qa7_v3",
      "id_block": "block_1",
      "question": "Qu'est ce qui pourrait être utilisé par un tel mouvement ?",
      "answer": "des techniques de marketing politique",
      "answer_stringIds": [
        "string_133",
        "string_134",
        "string_135",
        "string_136",
        "string_137"
      ]
    },
    {
      "id_qa": "FMSH_PB188a_00032_046_qa21_v3",
      "id_block": "block_1",
      "question": "Que produit le système de marché capitaliste ?",
      "answer": "des biens utiles et bon marché",
      "answer_stringIds": [
        "string_26",
        "string_27",
        "string_28",
        "string_29",
        "string_30",
        "string_31"
      ]
    },
    {
      "id_qa": "FMSH_PB188a_00032_046_qa9_v3",
      "id_block": "block_2",
      "question": "Combien de travailleurs Mondragon emploie-t-il en 15 ans ?",
      "answer": "plus de 14 000 travailleurs",
      "answer_stringIds": [
        "string_281",
        "string_282",
        "string_283",
        "string_284",
        "string_285"
      ]
    },
    {
      "id_qa": "FMSH_PB188a_00032_046_qa10_v3",
      "id_block": "block_2",
      "question": "Quel est le nom de l'entreprise fondée en 15 ans ?",
      "answer": "Mondragon",
      "answer_stringIds": [
        "string_235"
      ]
    },
    {
      "id_qa": "FMSH_PB188a_00032_046_qa11_v3",
      "id_block": "block_2",
      "question": "Qu'est ce qui a permis à Mondragon de s'agrandir en 15 ans ?",
      "answer": "un ensemble coopératif",
      "answer_stringIds": [
        "string_287",
        "string_288",
        "string_289"
      ]
    },
    {
      "id_qa": "FMSH_PB188a_00032_046_qa13_v3",
      "id_block": "block_2",
      "question": "Quel groupe a créé une société de développement à Ithaca ?",
      "answer": "un groupe de « People for self management",
      "answer_stringIds": [
        "string_169",
        "string_170",
        "string_171",
        "string_172",
        "string_173",
        "string_174",
        "string_175",
        "string_176",
        "string_177"
      ]
    },
    {
      "id_qa": "FMSH_PB188a_00032_046_qa14_v3",
      "id_block": "block_2",
      "question": "Qu'est-ce que le groupe de « People for self management » à Ithaca ?",
      "answer": "une société de développement",
      "answer_stringIds": [
        "string_185",
        "string_186",
        "string_187",
        "string_188"
      ]
    },
    {
      "id_qa": "FMSH_PB188a_00032_046_qa19_v3",
      "id_block": "block_2",
      "question": "Comment s'appelle le groupe de développement ?",
      "answer": "un groupe de « People for self management",
      "answer_stringIds": [
        "string_169",
        "string_170",
        "string_171",
        "string_172",
        "string_173",
        "string_174",
        "string_175",
        "string_176",
        "string_177"
      ]
    },
    {
      "id_qa": "FMSH_PB188a_00032_046_qa26_v3",
      "id_block": "block_2",
      "question": "Combien d'ouvriers travaillent à l'usine ULGOR ?",
      "answer": "2 500 ouvriers",
      "answer_stringIds": [
        "string_309",
        "string_310",
        "string_311"
      ]
    }
  ]
}