{
  "num": "autog_0338-7259_1975_num_32_1",
  "article": "autog_0338-7259_1975_num_32_1_1140",
  "page_name": "FMSH_PB188a_00032_044",
  "questions": [
    {
      "id_qa": "FMSH_PB188a_00032_044_qa23_v3",
      "id_block": "block_1",
      "question": "Qu'est-ce qui est plus dépersonnalisé au sein de grandes organisations ?",
      "answer": "du travail",
      "answer_stringIds": [
        "string_32",
        "string_33"
      ]
    },
    {
      "id_qa": "FMSH_PB188a_00032_044_qa3_v3",
      "id_block": "block_2",
      "question": "Qu'est ce qui est dans l'impossibilité de procurer autre chose qu'un niveau de vie de subsistance ?",
      "answer": "le système",
      "answer_stringIds": [
        "string_97",
        "string_98"
      ]
    },
    {
      "id_qa": "FMSH_PB188a_00032_044_qa9_v3",
      "id_block": "block_2",
      "question": "Qu'est-ce qui doit être valorisé ?",
      "answer": "le travail",
      "answer_stringIds": [
        "string_159",
        "string_160"
      ]
    },
    {
      "id_qa": "FMSH_PB188a_00032_044_qa10_v3",
      "id_block": "block_2",
      "question": "Qu'est-ce qui doit être intrinsèquement valorisé ?",
      "answer": "le travail",
      "answer_stringIds": [
        "string_159",
        "string_160"
      ]
    },
    {
      "id_qa": "FMSH_PB188a_00032_044_qa26_v3",
      "id_block": "block_3",
      "question": "Comment est perçu le mouvement pour l'auto-détermination et l'autogestion ?",
      "answer": "la faillite morale et matérielle du système",
      "answer_stringIds": [
        "string_203",
        "string_204",
        "string_205",
        "string_206",
        "string_207",
        "string_208",
        "string_209"
      ]
    }
  ]
}