{
  "num": "autog_0338-7259_1975_num_32_1",
  "article": "autog_0338-7259_1975_num_32_1_1140",
  "page_name": "FMSH_PB188a_00032_034",
  "questions": [
    {
      "id_qa": "FMSH_PB188a_00032_034_qa9_v3",
      "id_block": "block_1",
      "question": "Qu'est ce qui indique un échec du système ?",
      "answer": "chiffres",
      "answer_stringIds": [
        "string_4"
      ]
    },
    {
      "id_qa": "FMSH_PB188a_00032_034_qa16_v3",
      "id_block": "block_2",
      "question": "Qu'est-ce que le chômage ou lemploi marginal ?",
      "answer": "système économique",
      "answer_stringIds": [
        "string_115",
        "string_116"
      ]
    },
    {
      "id_qa": "FMSH_PB188a_00032_034_qa12_v3",
      "id_block": "block_2",
      "question": "Quelle est la caractéristique structurelle du système économique ?",
      "answer": "le chômage ou lemploi marginal",
      "answer_stringIds": [
        "string_105",
        "string_106",
        "string_107",
        "string_108",
        "string_109"
      ]
    },
    {
      "id_qa": "FMSH_PB188a_00032_034_qa15_v3",
      "id_block": "block_2",
      "question": "Qu'est-ce qui ne se battront pas trop pour de meilleures conditions de travail ?",
      "answer": "travailleurs",
      "answer_stringIds": [
        "string_87"
      ]
    },
    {
      "id_qa": "FMSH_PB188a_00032_034_qa17_v3",
      "id_block": "block_3",
      "question": "A quoi se heurtent l'éducation et les espoirs du Rêve Américain ?",
      "answer": "réalités du monde du travail",
      "answer_stringIds": [
        "string_223",
        "string_224",
        "string_225",
        "string_226",
        "string_227"
      ]
    },
    {
      "id_qa": "FMSH_PB188a_00032_034_qa22_v3",
      "id_block": "block_3",
      "question": "Qu'est ce qui affecte plus lourdement les travailleurs inorganisés sous-employés ou chômeurs ?",
      "answer": "La récession actuelle",
      "answer_stringIds": [
        "string_154",
        "string_155",
        "string_156"
      ]
    },
    {
      "id_qa": "FMSH_PB188a_00032_034_qa7_v3",
      "id_block": "block_5",
      "question": "Sur quoi le lecteur pourra-t-il trouver des développements plus précis ?",
      "answer": "des développements plus précis sur cette segmentation du marché du travail en marché primaire et secondaire",
      "answer_stringIds": [
        "string_304",
        "string_305",
        "string_306",
        "string_307",
        "string_308",
        "string_309",
        "string_310",
        "string_311",
        "string_312",
        "string_313",
        "string_314",
        "string_315",
        "string_316",
        "string_317",
        "string_318",
        "string_319"
      ]
    }
  ]
}