{
  "num": "autog_0338-7259_1970_num_11_1",
  "article": "autog_0338-7259_1970_num_11_1_960",
  "page_name": "FMSH_PB188a_11-12_039",
  "questions": [
    {
      "id_qa": "FMSH_PB188a_11-12_039_qa4_v3",
      "id_block": "block_2",
      "question": "Qu'est-ce que les passages qui s'efforcent de tracer ?",
      "answer": "tracer des limites entre la qualité professionnelle et la démocratie",
      "answer_stringIds": [
        "string_118",
        "string_119",
        "string_120",
        "string_121",
        "string_122",
        "string_123",
        "string_124",
        "string_125",
        "string_126",
        "string_127"
      ]
    },
    {
      "id_qa": "FMSH_PB188a_11-12_039_qa6_v3",
      "id_block": "block_2",
      "question": "Qu'est-ce que j'ai intentionnellement cité ?",
      "answer": "les passages",
      "answer_stringIds": [
        "string_113",
        "string_114"
      ]
    },
    {
      "id_qa": "FMSH_PB188a_11-12_039_qa8_v3",
      "id_block": "block_2",
      "question": "Quelles sont les limites des passages qui s'efforcent de tracer ?",
      "answer": "des limites entre la qualité professionnelle et la démocratie",
      "answer_stringIds": [
        "string_119",
        "string_120",
        "string_121",
        "string_122",
        "string_123",
        "string_124",
        "string_125",
        "string_126",
        "string_127"
      ]
    },
    {
      "id_qa": "FMSH_PB188a_11-12_039_qa21_v3",
      "id_block": "block_2",
      "question": "Quelle est la différence entre les deux catégories ?",
      "answer": "distinguer des conclusions qui divergent dans une assez large mesure",
      "answer_stringIds": [
        "string_150",
        "string_151",
        "string_152",
        "string_153",
        "string_154",
        "string_155",
        "string_156",
        "string_157",
        "string_158",
        "string_159"
      ]
    },
    {
      "id_qa": "FMSH_PB188a_11-12_039_qa22_v3",
      "id_block": "block_2",
      "question": "Qu'est ce qui divergent dans une assez large mesure ?",
      "answer": "des conclusions",
      "answer_stringIds": [
        "string_151",
        "string_152"
      ]
    },
    {
      "id_qa": "FMSH_PB188a_11-12_039_qa12_v3",
      "id_block": "block_4",
      "question": "A quand remonte les résolutions du IVème Congrès général des Syndicats ?",
      "answer": "par celles du Vième Congrès général des Syndicats",
      "answer_stringIds": [
        "string_221",
        "string_222",
        "string_223",
        "string_224",
        "string_225",
        "string_226",
        "string_227",
        "string_228"
      ]
    },
    {
      "id_qa": "FMSH_PB188a_11-12_039_qa13_v3",
      "id_block": "block_4",
      "question": "Par quoi sont passées les résolutions du IVème Congrès général des Syndicats ?",
      "answer": "le Code du Travail",
      "answer_stringIds": [
        "string_210",
        "string_211",
        "string_212",
        "string_213"
      ]
    },
    {
      "id_qa": "FMSH_PB188a_11-12_039_qa15_v3",
      "id_block": "block_4",
      "question": "Qu'est ce qui a été modifié par le Code du Travail ?",
      "answer": "Les résolutions du IVème Congrès général des Syndicats",
      "answer_stringIds": [
        "string_194",
        "string_195",
        "string_196",
        "string_197",
        "string_198",
        "string_199",
        "string_200",
        "string_201"
      ]
    },
    {
      "id_qa": "FMSH_PB188a_11-12_039_qa1_v3",
      "id_block": "block_5",
      "question": "Par quoi s'échelonnent les attributions de l'organisation syndicale ?",
      "answer": "des décisions",
      "answer_stringIds": [
        "string_272",
        "string_273"
      ]
    },
    {
      "id_qa": "FMSH_PB188a_11-12_039_qa3_v3",
      "id_block": "block_5",
      "question": "Comment s'échelonnent les attributions de l'organisation syndicale ?",
      "answer": "depuis des décisions indépendantes",
      "answer_stringIds": [
        "string_271",
        "string_272",
        "string_273",
        "string_274",
        "string_275"
      ]
    }
  ]
}