{
  "num": "autog_0338-7259_1970_num_11_1",
  "article": "autog_0338-7259_1970_num_11_1_960",
  "page_name": "FMSH_PB188a_11-12_032",
  "questions": [
    {
      "id_qa": "FMSH_PB188a_11-12_032_qa1_v3",
      "id_block": "block_1",
      "question": "Qu'est ce qui s'interpénêtrent de façon complexe ?",
      "answer": "nombreux rôles",
      "answer_stringIds": [
        "string_21",
        "string_22"
      ]
    },
    {
      "id_qa": "FMSH_PB188a_11-12_032_qa2_v3",
      "id_block": "block_1",
      "question": "Qu'est-ce qu'une structure complexe ?",
      "answer": "un réseau de différenciations sociales",
      "answer_stringIds": [
        "string_9",
        "string_10",
        "string_11",
        "string_12",
        "string_13",
        "string_14"
      ]
    },
    {
      "id_qa": "FMSH_PB188a_11-12_032_qa10_v3",
      "id_block": "block_1",
      "question": "Qu'est-ce que la démocratisation ?",
      "answer": "une conclusion logique",
      "answer_stringIds": [
        "string_39",
        "string_40",
        "string_41"
      ]
    },
    {
      "id_qa": "FMSH_PB188a_11-12_032_qa11_v3",
      "id_block": "block_2",
      "question": "Qu'est-ce que la différenciation sociale dans la société socialiste ?",
      "answer": "le caractère du travail",
      "answer_stringIds": [
        "string_94",
        "string_95",
        "string_96",
        "string_97"
      ]
    },
    {
      "id_qa": "FMSH_PB188a_11-12_032_qa14_v3",
      "id_block": "block_2",
      "question": "Qu'est ce qui fait naître une division horizontale et une division verticale ?",
      "answer": "caractéristiques du travail",
      "answer_stringIds": [
        "string_130",
        "string_131",
        "string_132"
      ]
    },
    {
      "id_qa": "FMSH_PB188a_11-12_032_qa18_v3",
      "id_block": "block_3",
      "question": "Qu'est ce qui concerne tout le personnel ?",
      "answer": "sa participation à la gestion",
      "answer_stringIds": [
        "string_212",
        "string_213",
        "string_214",
        "string_215",
        "string_216"
      ]
    },
    {
      "id_qa": "FMSH_PB188a_11-12_032_qa29_v3",
      "id_block": "block_3",
      "question": "Qui ne remplit pas cette condition ?",
      "answer": "les syndicats",
      "answer_stringIds": [
        "string_171",
        "string_172"
      ]
    },
    {
      "id_qa": "FMSH_PB188a_11-12_032_qa30_v3",
      "id_block": "block_3",
      "question": "Qu'est ce qui n'est pas reconnu par les syndicats ?",
      "answer": "cette condition",
      "answer_stringIds": [
        "string_176",
        "string_177"
      ]
    },
    {
      "id_qa": "FMSH_PB188a_11-12_032_qa4_v3",
      "id_block": "block_4",
      "question": "Quelle est la conséquence de l'organisation du travail ?",
      "answer": "La différenciation verticale",
      "answer_stringIds": [
        "string_218",
        "string_219",
        "string_220"
      ]
    },
    {
      "id_qa": "FMSH_PB188a_11-12_032_qa8_v3",
      "id_block": "block_4",
      "question": "A base de quoi est développé le travail ?",
      "answer": "démocratisme socialiste",
      "answer_stringIds": [
        "string_238",
        "string_239"
      ]
    }
  ]
}