{
  "num": "autog_0338-7259_1972_num_18_1",
  "article": "autog_0338-7259_1972_num_18_1_1055",
  "page_name": "FMSH_PB188a_18-19_279",
  "questions": [
    "Quels domaines ont les syndicats \"mordu\" sur le pouvoir patronal ?",
    "Dans quels domaines les syndicats n'ont-ils pas encore réussi à changer l'organisation du travail ?",
    "Quels sont les points de vue sur l'évolution dans les revendications du mouvement syndical en France et en Italie ?",
    "Quel serait le rôle du travailleur selon l'autogestion ?",
    "Comment la notion de contrôle ouvrier est-elle liée à celle d'autogestion ?",
    "Quel est le rôle du pouvoir politique de l'Etat dans la transition du contrôle ouvrier à l'autogestion ?"
  ]
}