{
  "num": "autog_0338-7259_1976_num_33_1",
  "article": "autog_0338-7259_1976_num_33_1_1163",
  "page_name": "FMSH_PB188a_33-34_131",
  "questions": [
    "Quel est le concept d'autopraxis du prolétariat selon le texte ?",
    "En quels pays le tiers du monde contemporain est-il en voie de transition vers le communisme ?",
    "En quelle manière la brochure de Benbow pourrait-elle intéresser les producteurs de ces pays socialistes ?",
    "Quel rôle joue l'enseignement de Marx dans l'ère du socialisme selon l'historiographie coutumière ?",
    "Quels penseurs de l'utopie sociale et communiste sont cités dans le texte ?",
    "Dans quels auteurs on trouve des éléments pour une analyse scientifique des rapports sociaux ?",
    "Quand se situe la décennie de 1832-1842 dans le mouvement d'idées et de faits ?",
    "Quel est l'origine du discours analytique marqué au coin de la dialectique sanctionnée par l'État ou le Parti ?",
    "Comment le marxisme a-t-il hérité du prétendu fondateur ?",
    "Quel est le rôle de l'esprit dans l'avilissement systématique selon le texte ?"
  ]
}