{
  "num": "autog_0338-7259_1976_num_33_1",
  "article": "autog_0338-7259_1976_num_33_1_1163",
  "page_name": "FMSH_PB188a_33-34_135",
  "questions": [
    "Quel concept de culture est opposé à l'idolâtrie du fait accompli selon Marx ?",
    "Comment Marx perçoit les masses qui font l'histoire mais ne l'écrivent pas ?",
    "Quel est le rôle de la culture dans la relation entre la masse et le parti ?",
    "Comment l'autopraxis prolétarienne s'enracine dans la conscience de soi selon Marx ?",
    "Quels types de personnes sont considérées par Marx comme les constructeurs d'utopies et inventeurs de systèmes ?",
    "Comment Marx a-t-il pu exprimer la quintessence de ses enseignements sur ces personnes ?",
    "Quels types d'études philosophiques ont conduit Marx à formuler ses thèses et postulats dans le Manifeste communiste ?"
  ]
}