{
  "num": "autog_0338-7259_1972_num_20_1",
  "article": "autog_0338-7259_1972_num_20_1_1070",
  "page_name": "FMSH_PB188a_20-21_195",
  "questions": [
    {
      "id_qa": "FMSH_PB188a_20-21_195_qa26_v3",
      "id_block": "block_1",
      "question": "Quel était l'esprit de Proudhon ?",
      "answer": "ce réformateur",
      "answer_stringIds": [
        "string_17",
        "string_18"
      ]
    },
    {
      "id_qa": "FMSH_PB188a_20-21_195_qa28_v3",
      "id_block": "block_1",
      "question": "Qui a écrit \"Quel étrange esprit était ce réformateur ?",
      "answer": "Proudhon",
      "answer_stringIds": [
        "string_11"
      ]
    },
    {
      "id_qa": "FMSH_PB188a_20-21_195_qa29_v3",
      "id_block": "block_1",
      "question": "Qu'est ce que Proudhon a dit à propos de cet étrange esprit ?",
      "answer": "« Reste à savoir",
      "answer_stringIds": [
        "string_4",
        "string_5",
        "string_6",
        "string_7"
      ]
    },
    {
      "id_qa": "FMSH_PB188a_20-21_195_qa11_v3",
      "id_block": "block_4",
      "question": "Comment Lénine qualifie-t-il Que Faire ?",
      "answer": "comme une charrue",
      "answer_stringIds": [
        "string_96",
        "string_97",
        "string_98"
      ]
    },
    {
      "id_qa": "FMSH_PB188a_20-21_195_qa12_v3",
      "id_block": "block_4",
      "question": "Quand Lénine parle-t-il de Fourier ?",
      "answer": "lorsqu'",
      "answer_stringIds": [
        "string_33"
      ]
    },
    {
      "id_qa": "FMSH_PB188a_20-21_195_qa13_v3",
      "id_block": "block_4",
      "question": "Qui parle de Fourier ?",
      "answer": "Lénine",
      "answer_stringIds": [
        "string_78"
      ]
    },
    {
      "id_qa": "FMSH_PB188a_20-21_195_qa16_v3",
      "id_block": "block_4",
      "question": "Qu'est-ce que le pseudoinstinct de propriété ?",
      "answer": "la jalousie",
      "answer_stringIds": [
        "string_249",
        "string_250"
      ]
    },
    {
      "id_qa": "FMSH_PB188a_20-21_195_qa20_v3",
      "id_block": "block_4",
      "question": "Qui a montré en quoi consiste le retour du refoulé fouriériste chez le politique que fut Lénine ?",
      "answer": "Madame Wanda Bannour",
      "answer_stringIds": [
        "string_118",
        "string_119",
        "string_120"
      ]
    },
    {
      "id_qa": "FMSH_PB188a_20-21_195_qa23_v3",
      "id_block": "block_5",
      "question": "Qui a étudié le cas particulier de Nicolas Tchernichevsky ?",
      "answer": "Madame Wanda Bannour",
      "answer_stringIds": [
        "string_118",
        "string_119",
        "string_120"
      ]
    },
    {
      "id_qa": "FMSH_PB188a_20-21_195_qa31_v3",
      "id_block": "block_7",
      "question": "A partir de quand est-ce qu'on est amené à assumer des responsabilités ?",
      "answer": "du XVIIIème siècle",
      "answer_stringIds": [
        "string_278",
        "string_279",
        "string_280"
      ]
    },
    {
      "id_qa": "FMSH_PB188a_20-21_195_qa33_v3",
      "id_block": "block_7",
      "question": "A quand remonte le XVIIIème siècle ?",
      "answer": "à la veille des",
      "answer_stringIds": [
        "string_285",
        "string_286",
        "string_287",
        "string_288"
      ]
    }
  ]
}