{
  "num": "autog_0249-2563_1981_num_14_5",
  "article": "autog_0249-2563_1981_num_14_5_1408",
  "page_name": "autog_0249-2563_1981_num_14_5_T1_0018_0000",
  "questions": [
    {
      "id_qa": "autog_0249-2563_1981_num_14_5_T1_0018_0000_qa53_v3",
      "id_block": "block_0",
      "question": "Qui a donné la preuve qu'il est raisonnable, calme et mûr ?",
      "answer": "Le peuple polonais",
      "answer_stringIds": [
        "string_5",
        "string_6",
        "string_7"
      ]
    },
    {
      "id_qa": "autog_0249-2563_1981_num_14_5_T1_0018_0000_qa3_v3",
      "id_block": "block_2",
      "question": "Qu'est ce qui veut dire la confiance des travailleurs ?",
      "answer": "la confiance de la classe ouvrière tout entière",
      "answer_stringIds": [
        "string_200",
        "string_201",
        "string_202",
        "string_203",
        "string_204",
        "string_205",
        "string_206",
        "string_207"
      ]
    },
    {
      "id_qa": "autog_0249-2563_1981_num_14_5_T1_0018_0000_qa4_v3",
      "id_block": "block_2",
      "question": "Qu'est ce qui régit l'organisation nationale du travail en Pologne ?",
      "answer": "la convention",
      "answer_stringIds": [
        "string_253",
        "string_254"
      ]
    },
    {
      "id_qa": "autog_0249-2563_1981_num_14_5_T1_0018_0000_qa6_v3",
      "id_block": "block_2",
      "question": "Qu'est ce qu'il faut faire pour gagner la confiance des travailleurs ?",
      "answer": "de nouveaux syndicats",
      "answer_stringIds": [
        "string_213",
        "string_214",
        "string_215",
        "string_216"
      ]
    },
    {
      "id_qa": "autog_0249-2563_1981_num_14_5_T1_0018_0000_qa8_v3",
      "id_block": "block_2",
      "question": "Qu'est ce qui veut dire créer de nouveaux syndicats ?",
      "answer": "la confiance des travailleurs",
      "answer_stringIds": [
        "string_192",
        "string_193",
        "string_194",
        "string_195"
      ]
    },
    {
      "id_qa": "autog_0249-2563_1981_num_14_5_T1_0018_0000_qa15_v3",
      "id_block": "block_2",
      "question": "Qu'est ce qui prouve que les solutions sont possibles ici ?",
      "answer": "la maturité du peuple polonais",
      "answer_stringIds": [
        "string_273",
        "string_274",
        "string_275",
        "string_276",
        "string_277"
      ]
    },
    {
      "id_qa": "autog_0249-2563_1981_num_14_5_T1_0018_0000_qa18_v3",
      "id_block": "block_2",
      "question": "Qu'est ce qui témoigne de la maturité du peuple polonais ?",
      "answer": "la sérénité",
      "answer_stringIds": [
        "string_286",
        "string_287"
      ]
    },
    {
      "id_qa": "autog_0249-2563_1981_num_14_5_T1_0018_0000_qa12_v3",
      "id_block": "block_3",
      "question": "Qui doit disposer de sa propre organisation ?",
      "answer": "la communauté",
      "answer_stringIds": [
        "string_376",
        "string_377"
      ]
    },
    {
      "id_qa": "autog_0249-2563_1981_num_14_5_T1_0018_0000_qa25_v3",
      "id_block": "block_3",
      "question": "Qu'est-ce qui devient pratiquement nécessaire de faire dans le pays ?",
      "answer": "la révolution",
      "answer_stringIds": [
        "string_362",
        "string_363"
      ]
    },
    {
      "id_qa": "autog_0249-2563_1981_num_14_5_T1_0018_0000_qa35_v3",
      "id_block": "block_3",
      "question": "Qui a le droit de dire ce qu'ils ont sur le cœur ?",
      "answer": "Les travailleurs",
      "answer_stringIds": [
        "string_411",
        "string_412"
      ]
    },
    {
      "id_qa": "autog_0249-2563_1981_num_14_5_T1_0018_0000_qa41_v3",
      "id_block": "block_3",
      "question": "Qui est à l'origine de la création de nouveaux syndicats ?",
      "answer": "de la communauté de la région côtière",
      "answer_stringIds": [
        "string_484",
        "string_485",
        "string_486",
        "string_487",
        "string_488",
        "string_489",
        "string_490"
      ]
    },
    {
      "id_qa": "autog_0249-2563_1981_num_14_5_T1_0018_0000_qa45_v3",
      "id_block": "block_3",
      "question": "Qu'écoute-t-on si on ne contrecarre pas les erreurs communes ?",
      "answer": "la voix de la communauté",
      "answer_stringIds": [
        "string_373",
        "string_374",
        "string_375",
        "string_376",
        "string_377"
      ]
    },
    {
      "id_qa": "autog_0249-2563_1981_num_14_5_T1_0018_0000_qa46_v3",
      "id_block": "block_3",
      "question": "Qu'est-ce que si on écoute la voix de la communauté ?",
      "answer": "éviter les erreurs communes",
      "answer_stringIds": [
        "string_388",
        "string_389",
        "string_390",
        "string_391"
      ]
    },
    {
      "id_qa": "autog_0249-2563_1981_num_14_5_T1_0018_0000_qa47_v3",
      "id_block": "block_3",
      "question": "Qu'est-ce qui peut éviter si on écoute la voix de la communauté ?",
      "answer": "les erreurs communes",
      "answer_stringIds": [
        "string_389",
        "string_390",
        "string_391"
      ]
    },
    {
      "id_qa": "autog_0249-2563_1981_num_14_5_T1_0018_0000_qa48_v3",
      "id_block": "block_3",
      "question": "Qui a raison dans ses propres entreprises ?",
      "answer": "ceux qui",
      "answer_stringIds": [
        "string_441",
        "string_442"
      ]
    }
  ]
}