{
  "num": "autog_0338-7259_1971_num_15_1",
  "article": "autog_0338-7259_1971_num_15_1_1007_t1_0149_0000_1",
  "page_name": "FMSH_PB188a_00015_153",
  "questions": [
    {
      "id_qa": "FMSH_PB188a_00015_153_qa7_v3",
      "id_block": "block_1",
      "question": "Qu'est-ce qui permet de dissimuler le caractère arbitraire de la culture ?",
      "answer": "le travail pédagogique",
      "answer_stringIds": [
        "string_49",
        "string_50",
        "string_51"
      ]
    },
    {
      "id_qa": "FMSH_PB188a_00015_153_qa8_v3",
      "id_block": "block_1",
      "question": "Qu'est-ce qui permet de dissimuler le caractère arbitraire de la culture qu'il inculque ?",
      "answer": "le travail pédagogique",
      "answer_stringIds": [
        "string_49",
        "string_50",
        "string_51"
      ]
    },
    {
      "id_qa": "FMSH_PB188a_00015_153_qa0_v3",
      "id_block": "block_2",
      "question": "Qu'est ce qui délimite ses propres destinataires ?",
      "answer": "Le travail pédagogique",
      "answer_stringIds": [
        "string_12",
        "string_13",
        "string_14"
      ]
    },
    {
      "id_qa": "FMSH_PB188a_00015_153_qa1_v3",
      "id_block": "block_2",
      "question": "Qu'est ce qui présuppose pour s'exercer que ceux-ci soient dotés de l'habitus adéquat ?",
      "answer": "Le travail pédagogique",
      "answer_stringIds": [
        "string_12",
        "string_13",
        "string_14"
      ]
    },
    {
      "id_qa": "FMSH_PB188a_00015_153_qa11_v3",
      "id_block": "block_2",
      "question": "Qui s'interroge sur l'efficacité différentielle des différentes instances pédagogiques ?",
      "answer": "ceux qui",
      "answer_stringIds": [
        "string_123",
        "string_124"
      ]
    },
    {
      "id_qa": "FMSH_PB188a_00015_153_qa6_v3",
      "id_block": "block_3",
      "question": "Qu'organise le système d'enseignement ?",
      "answer": "sa propre reproduction",
      "answer_stringIds": [
        "string_202",
        "string_203",
        "string_204"
      ]
    },
    {
      "id_qa": "FMSH_PB188a_00015_153_qa16_v3",
      "id_block": "block_4",
      "question": "Qui étudie le système d'enseignement français ?",
      "answer": "Bourdieu et Passeron",
      "answer_stringIds": [
        "string_112",
        "string_113",
        "string_114"
      ]
    }
  ]
}