{
  "num": "autog_0338-7259_1974_num_26_1",
  "article": "autog_0338-7259_1974_num_26_1_1105",
  "page_name": "FMSH_PB188a_26-27_013",
  "questions": [
    {
      "id_qa": "FMSH_PB188a_26-27_013_qa1_v3",
      "id_block": "block_1",
      "question": "Qui a écrit des conseils de Turin ?",
      "answer": "Gramsci",
      "answer_stringIds": [
        "string_67"
      ]
    },
    {
      "id_qa": "FMSH_PB188a_26-27_013_qa6_v3",
      "id_block": "block_1",
      "question": "Qui est proche de Machiavel ?",
      "answer": "le Gramsci",
      "answer_stringIds": [
        "string_216",
        "string_217"
      ]
    },
    {
      "id_qa": "FMSH_PB188a_26-27_013_qa13_v3",
      "id_block": "block_1",
      "question": "Qui est présenté comme la première figure de la philosophie de la praxis ?",
      "answer": "Machiavel",
      "answer_stringIds": [
        "string_176"
      ]
    },
    {
      "id_qa": "FMSH_PB188a_26-27_013_qa22_v3",
      "id_block": "block_1",
      "question": "Quel est le titre de l'oeuvre de Claude Lefort ?",
      "answer": "du Prince de Fiachiavel",
      "answer_stringIds": [
        "string_69",
        "string_70",
        "string_71",
        "string_72"
      ]
    },
    {
      "id_qa": "FMSH_PB188a_26-27_013_qa26_v3",
      "id_block": "block_1",
      "question": "Sur quoi Lefort s'appuie-t-il ?",
      "answer": "sur un ensemble de textes",
      "answer_stringIds": [
        "string_121",
        "string_122",
        "string_123",
        "string_124",
        "string_125"
      ]
    },
    {
      "id_qa": "FMSH_PB188a_26-27_013_qa27_v3",
      "id_block": "block_1",
      "question": "Quand Lefort s'appuie-t-il sur un ensemble de textes ?",
      "answer": "en 1949",
      "answer_stringIds": [
        "string_127",
        "string_128"
      ]
    }
  ]
}