{
  "num": "autog_0249-2563_1982_num_16_12",
  "article": "autog_0249-2563_1982_num_16_12_1528",
  "page_name": "autog_0249-2563_1982_num_16_12_T1_0049_0000",
  "questions": [
    "Quand a commencé la création du lycée autogéré de Marly pour Jean Lévy ?",
    "Quels lycées a-t-il connu avant Marly ?",
    "Quels lycées a-t-il trouvés intéressants avant Marly ?",
    "Quand et pourquoi les élèves de Marly ont-ils décidé de faire quelque chose ?",
    "Quel était le contexte dans lequel le groupe a décidé de faire quelque chose ?",
    "Quels sujets ont été abordés lors des réunions hebdomadaires ?",
    "Qu'est-ce qu'ils n'aimaient pas à l'école ?",
    "Qu'est-ce qu'ils ont voulu faire autrement ?",
    "Quels pays ont été cités comme modèles pour l'expérience de Marly ?",
    "Quels lycées parallèles à Paris a-t-il connu ?",
    "Quels sentiments avait-il envers son travail avant Marly ?",
    "Qu'est-ce qu'il trouvait malsain dans son travail avant Marly ?",
    "Qu'est-ce qu'il attendait d'une réforme ou d'une révolution ministérielle ?",
    "Quels événements ont pu avoir influencé la décision de faire quelque chose ?"
  ]
}