{
  "num": "autog_0249-2563_1982_num_16_12",
  "article": "autog_0249-2563_1982_num_16_12_1527",
  "page_name": "autog_0249-2563_1982_num_16_12_T1_0047_0000",
  "questions": [
    "Quel sens exact de \"une telle pédagogie\" est-il entendu dans ce contexte ?",
    "Qu'est-ce que l'autogestion au sens strict ?",
    "Qu'est-ce que l'autogestion au sens large ?",
    "Quels effets pourraient-on attendre de l'autogestion stricte ?",
    "Comment l'autogestion stricte peut-elle dévier du principe initial ?",
    "Quels effets pourraient-on attendre de l'autogestion au sens large ?",
    "Comment les participants à une expérience d'autogestion peuvent-ils se décourager ?"
  ]
}