{
  "num": "autog_0249-2563_1984_num_17_17",
  "article": "autog_0249-2563_1984_num_17_17_1614",
  "page_name": "autog_0249-2563_1984_num_17_17_T1_0092_0000",
  "questions": [
    {
      "id_qa": "autog_0249-2563_1984_num_17_17_T1_0092_0000_qa3_v3",
      "id_block": "block_0",
      "question": "Qu'est ce qui défend le pluralisme des expressions artistiques culturelles ?",
      "answer": "plusieurs propositions",
      "answer_stringIds": [
        "string_10",
        "string_11"
      ]
    },
    {
      "id_qa": "autog_0249-2563_1984_num_17_17_T1_0092_0000_qa4_v3",
      "id_block": "block_0",
      "question": "Quel est le nom du mouvement qui défend le pluralisme des expressions artistiques culturelles ?",
      "answer": "au « socialisme rénové",
      "answer_stringIds": [
        "string_3",
        "string_4",
        "string_5",
        "string_6"
      ]
    }
  ]
}