{
  "num": "autog_0249-2563_1984_num_17_17",
  "article": "autog_0249-2563_1984_num_17_17_1614",
  "page_name": "autog_0249-2563_1984_num_17_17_T1_0081_0000",
  "questions": [
    {
      "id_qa": "autog_0249-2563_1984_num_17_17_T1_0081_0000_qa27_v3",
      "id_block": "block_0",
      "question": "Qu'est ce qui permet de ne rien faire ?",
      "answer": "grâce à la liberté de la chute",
      "answer_stringIds": [
        "string_38",
        "string_39",
        "string_40",
        "string_41",
        "string_42",
        "string_43",
        "string_44"
      ]
    },
    {
      "id_qa": "autog_0249-2563_1984_num_17_17_T1_0081_0000_qa12_v3",
      "id_block": "block_1",
      "question": "Qui est mort à la veille de Nol 1981 ?",
      "answer": "son auteur",
      "answer_stringIds": [
        "string_74",
        "string_75"
      ]
    },
    {
      "id_qa": "autog_0249-2563_1984_num_17_17_T1_0081_0000_qa13_v3",
      "id_block": "block_1",
      "question": "Où se trouvait le corps de l'auteur ?",
      "answer": "son petit appartement",
      "answer_stringIds": [
        "string_79",
        "string_80",
        "string_81"
      ]
    },
    {
      "id_qa": "autog_0249-2563_1984_num_17_17_T1_0081_0000_qa15_v3",
      "id_block": "block_1",
      "question": "Quand son auteur se suicida-t-il ?",
      "answer": "À la veille de Noël 1981",
      "answer_stringIds": [
        "string_68",
        "string_69",
        "string_70",
        "string_71",
        "string_72",
        "string_73"
      ]
    },
    {
      "id_qa": "autog_0249-2563_1984_num_17_17_T1_0081_0000_qa21_v3",
      "id_block": "block_1",
      "question": "Qui a primé ce texte de Rodrigo Lira ?",
      "answer": "la revue Bicicleta",
      "answer_stringIds": [
        "string_63",
        "string_64",
        "string_65"
      ]
    },
    {
      "id_qa": "autog_0249-2563_1984_num_17_17_T1_0081_0000_qa22_v3",
      "id_block": "block_1",
      "question": "Quand a été primé le texte de Rodrigo Lira ?",
      "answer": "en 1979",
      "answer_stringIds": [
        "string_66",
        "string_67"
      ]
    },
    {
      "id_qa": "autog_0249-2563_1984_num_17_17_T1_0081_0000_qa23_v3",
      "id_block": "block_2",
      "question": "Quelle oeuvre a été publiée au Chili ?",
      "answer": "Son œuvre posthume Ciudadano",
      "answer_stringIds": [
        "string_101",
        "string_102",
        "string_103",
        "string_104"
      ]
    },
    {
      "id_qa": "autog_0249-2563_1984_num_17_17_T1_0081_0000_qa0_v3",
      "id_block": "block_3",
      "question": "Qu'est ce que les gitanes m'ont dit ?",
      "answer": "une vie riche",
      "answer_stringIds": [
        "string_134",
        "string_135",
        "string_136"
      ]
    },
    {
      "id_qa": "autog_0249-2563_1984_num_17_17_T1_0081_0000_qa2_v3",
      "id_block": "block_3",
      "question": "Qui a dit que j'aurai une vie riche avec une fin de chien ?",
      "answer": "les gitanes",
      "answer_stringIds": [
        "string_127",
        "string_128"
      ]
    },
    {
      "id_qa": "autog_0249-2563_1984_num_17_17_T1_0081_0000_qa4_v3",
      "id_block": "block_3",
      "question": "Quand les gitanes m'ont-ils dit que j'aurai une vie riche avec une fin de chien ?",
      "answer": "longtemps",
      "answer_stringIds": [
        "string_126"
      ]
    },
    {
      "id_qa": "autog_0249-2563_1984_num_17_17_T1_0081_0000_qa16_v3",
      "id_block": "block_6",
      "question": "Qui a été marqué par plusieurs faits ?",
      "answer": "Ces jeunes",
      "answer_stringIds": [
        "string_258",
        "string_259"
      ]
    },
    {
      "id_qa": "autog_0249-2563_1984_num_17_17_T1_0081_0000_qa17_v3",
      "id_block": "block_6",
      "question": "Qu'est-ce qui est à l'origine de l'absence du pays ?",
      "answer": "le fonctionnement fragmenté des circuits de communication culturelle",
      "answer_stringIds": [
        "string_301",
        "string_302",
        "string_303",
        "string_304",
        "string_305",
        "string_306",
        "string_307",
        "string_308"
      ]
    },
    {
      "id_qa": "autog_0249-2563_1984_num_17_17_T1_0081_0000_qa5_v3",
      "id_block": "block_7",
      "question": "Qu'est ce qui commença à émerger en 1976 ?",
      "answer": "Leur mouvement",
      "answer_stringIds": [
        "string_309",
        "string_310"
      ]
    },
    {
      "id_qa": "autog_0249-2563_1984_num_17_17_T1_0081_0000_qa10_v3",
      "id_block": "block_7",
      "question": "Quand commença le mouvement des ateliers de poésie ?",
      "answer": "en 1976",
      "answer_stringIds": [
        "string_314",
        "string_315"
      ]
    },
    {
      "id_qa": "autog_0249-2563_1984_num_17_17_T1_0081_0000_qa11_v3",
      "id_block": "block_7",
      "question": "Quand a commencé le mouvement ?",
      "answer": "en 1976",
      "answer_stringIds": [
        "string_314",
        "string_315"
      ]
    },
    {
      "id_qa": "autog_0249-2563_1984_num_17_17_T1_0081_0000_qa18_v3",
      "id_block": "block_8",
      "question": "Où ont été publiées des centaines de publications de poésie ?",
      "answer": "dans tout le pays",
      "answer_stringIds": [
        "string_372",
        "string_373",
        "string_374",
        "string_375"
      ]
    }
  ]
}