{
  "num": "autog_0249-2563_1984_num_17_17",
  "article": "autog_0249-2563_1984_num_17_17_1614",
  "page_name": "autog_0249-2563_1984_num_17_17_T1_0086_0000",
  "questions": [
    {
      "id_qa": "autog_0249-2563_1984_num_17_17_T1_0086_0000_qa4_v3",
      "id_block": "block_0",
      "question": "Dans quel média peut-on entendre des labels significatifs ?",
      "answer": "À la radio",
      "answer_stringIds": [
        "string_57",
        "string_58",
        "string_59"
      ]
    },
    {
      "id_qa": "autog_0249-2563_1984_num_17_17_T1_0086_0000_qa6_v3",
      "id_block": "block_1",
      "question": "Qui interdit l'entrée au Chili du groupe exilé Illapu ?",
      "answer": "le gouvernement",
      "answer_stringIds": [
        "string_122",
        "string_123"
      ]
    },
    {
      "id_qa": "autog_0249-2563_1984_num_17_17_T1_0086_0000_qa37_v3",
      "id_block": "block_1",
      "question": "Quel type de valeurs ne fut pas pris en considération à la télévision ?",
      "answer": "toutes les jeunes valeurs nouvelles",
      "answer_stringIds": [
        "string_108",
        "string_109",
        "string_110",
        "string_111",
        "string_112"
      ]
    },
    {
      "id_qa": "autog_0249-2563_1984_num_17_17_T1_0086_0000_qa11_v3",
      "id_block": "block_4",
      "question": "Qu'est ce qui me dérange dans un coin ?",
      "answer": "personne",
      "answer_stringIds": [
        "string_229"
      ]
    },
    {
      "id_qa": "autog_0249-2563_1984_num_17_17_T1_0086_0000_qa21_v3",
      "id_block": "block_4",
      "question": "Qui veut voir le dernier hit de Londres ou New York ?",
      "answer": "les gens",
      "answer_stringIds": [
        "string_282",
        "string_283"
      ]
    },
    {
      "id_qa": "autog_0249-2563_1984_num_17_17_T1_0086_0000_qa24_v3",
      "id_block": "block_4",
      "question": "Qui a écrit le dernier hit de Londres ?",
      "answer": "monsieur le producteur",
      "answer_stringIds": [
        "string_247",
        "string_248",
        "string_249",
        "string_250"
      ]
    },
    {
      "id_qa": "autog_0249-2563_1984_num_17_17_T1_0086_0000_qa1_v3",
      "id_block": "block_5",
      "question": "Qui parlaient d'une transformation intégrale de l'être humain ?",
      "answer": "Ces groupes",
      "answer_stringIds": [
        "string_324",
        "string_325"
      ]
    },
    {
      "id_qa": "autog_0249-2563_1984_num_17_17_T1_0086_0000_qa13_v3",
      "id_block": "block_5",
      "question": "De quand date la tradition du rock international ?",
      "answer": "de la décennie 1970",
      "answer_stringIds": [
        "string_311",
        "string_312",
        "string_313",
        "string_314"
      ]
    },
    {
      "id_qa": "autog_0249-2563_1984_num_17_17_T1_0086_0000_qa16_v3",
      "id_block": "block_7",
      "question": "De quelle musique s'inspire Ral Alarcôn ?",
      "answer": "la musique académique et populaire",
      "answer_stringIds": [
        "string_378",
        "string_379",
        "string_380",
        "string_381",
        "string_382"
      ]
    }
  ]
}