{
  "num": "autog_0338-7259_1976_num_35_1",
  "article": "autog_0338-7259_1976_num_35_1_1186_t1_0227_0000_1",
  "page_name": "FMSH_PB188a_35-36_229",
  "questions": [
    {
      "id_qa": "FMSH_PB188a_35-36_229_qa15_v3",
      "id_block": "block_1",
      "question": "A quoi Marx a-t-il contribué ?",
      "answer": "la transformation du marxisme en une idéologie",
      "answer_stringIds": [
        "string_X"
      ]
    },
    {
      "id_qa": "FMSH_PB188a_35-36_229_qa21_v3",
      "id_block": "block_2",
      "question": "Qu'est-ce que le marxisme ?",
      "answer": "scientifique",
      "answer_stringIds": [
        "string_X"
      ]
    },
    {
      "id_qa": "FMSH_PB188a_35-36_229_qa26_v3",
      "id_block": "block_2",
      "question": "Qui a écrit \"Marxisme et dialectique\" ?",
      "answer": "L. Colletti",
      "answer_stringIds": [
        "string_X"
      ]
    },
    {
      "id_qa": "FMSH_PB188a_35-36_229_qa2_v3",
      "id_block": "block_3",
      "question": "Qu'est-ce que J.M. Vincent ?",
      "answer": "Le marxisme",
      "answer_stringIds": [
        "string_X"
      ]
    },
    {
      "id_qa": "FMSH_PB188a_35-36_229_qa4_v3",
      "id_block": "block_3",
      "question": "Quel est le surnom de J.M. Vincent ?",
      "answer": "des « révolutionnaires",
      "answer_stringIds": [
        "string_X"
      ]
    }
  ]
}