{
  "num": "autog_0338-7259_1977_num_37_1",
  "article": "autog_0338-7259_1977_num_37_1_1212",
  "page_name": "FMSH_PB188a_37-38_018",
  "questions": [
    "Quels sont les différentes voies par lesquelles l'autogestion a pu s'élargir ?",
    "Quel rôle effective aurait-il pu jouer Henri Desroche dans l'autogestion ?",
    "Quels travaux sont particulièrement notables dans le domaine du fédéralisme auto-administratif ?",
    "Quels sont les rapports étroits établis entre le syndicalisme français et l'autogestion ?",
    "Quels sont les travaux importants sur la pédagogie autogestionnaire ?",
    "Quel livre récent de J. Langlois défend-il les apports proudhoniens à la matière ?",
    "Quels sont les apports pratiques de J. Langlois à sa formation marxiste ?",
    "Comment l'élargissement de la revue peut-il garantir son pluralisme, son développement scientifique et son élargissement de diffusion ?"
  ]
}