{
  "num": "autog_0338-7259_1973_num_22_1",
  "article": "autog_0338-7259_1973_num_22_1_1092",
  "page_name": "FMSH_PB188a_22-23_208",
  "questions": [
    "Quels sont les procédures proposées par les différents auteurs pour atteindre cette fin ?",
    "Quel régime de démocratie est préférable selon l'auteur : la démocratie directe ou la démocratie représentative ?",
    "Dans quels domaines la démocratie directe pourrait-elle être appliquée selon l'auteur ?",
    "Quel est le rôle des représentants dans la démocratie représentative selon l'auteur ?",
    "Quels sont les compétences requises pour les représentants selon l'auteur ?",
    "Comment la division du travail sera-t-elle remise en question dans le cadre de l'autogestion ?",
    "Comment les représentants assureront-ils la liaison entre les unités de travail et l'extérieur selon l'auteur ?"
  ]
}