{
  "num": "autog_0338-7259_1973_num_22_1",
  "article": "autog_0338-7259_1973_num_22_1_1092",
  "page_name": "FMSH_PB188a_22-23_207",
  "questions": [
    "Quels principes doivent guider l'agencement des différents domaines de l'entreprise autogérée (organisation du travail, questions de personnel, gestion commerciale)?",
    "Comment fonctionnera-t-on la prise de décisions dans l'entreprise autogérée ?",
    "Quels sont les rôles des différentes catégories de représentants dans le Conseil d'Administration de l'entreprise autogérée ?",
    "Comment sera gérée la résolution des éventuels différends entre ces représentants ?",
    "Quels sont les objectifs de l'autogestion selon Chauvey ?",
    "Comment l'autogestion peut-elle tenir compte des conditions locales en matière de rémunération ?",
    "Comment l'autogestion peut-elle agencer les moyens technologiques et commerciaux ?",
    "Comment l'autogestion peut-elle agencer les conditions de travail ?",
    "Quels sont les impératifs à respecter dans les deux domaines de l'organisation du travail et des questions de personnel ?",
    "Comment l'autogestion peut-elle réduire l'hiérarchie salariale ?",
    "Quels sont les objectifs de la gestion démocratique des entreprises nationalisées selon Chauvey ?",
    "Comment les travailleurs sont-ils associés à la gestion démocratique des entreprises nationalisées ?",
    "Quels sont les domaines de décision de l'entreprise nationalisée dans le cadre du plan ?"
  ]
}