{
  "num": "autog_0338-7259_1973_num_22_1",
  "article": "autog_0338-7259_1973_num_22_1_1092",
  "page_name": "FMSH_PB188a_22-23_216",
  "questions": [
    "Quels sont les objectifs des auteurs dans cette note critique ?",
    "Quel est le point de départ de l'analyse dans la seconde partie de la note ?",
    "Le capitalisme engendrera-t-il nécessairement le socialisme ?",
    "Comment les auteurs caractérisent le socialisme dans ce contexte ?",
    "Quelles sont les deux positions théoriques possibles sur l'origine du socialisme ?",
    "Comment les auteurs insistent-ils sur la nécessité des deux facteurs du changement ?",
    "Comment les auteurs se différencient-ils en matière de transformation volontariste ?",
    "Quels sont les facteurs principaux de l'évolution du système capitaliste selon les auteurs ?",
    "Quel rôle jouent les techniques dans l'évolution du système capitaliste selon certains auteurs ?",
    "Quel est le facteur démographique dans l'évolution du système capitaliste selon certains auteurs ?",
    "Quels sont les groupes concernés par la transformation fondamentale vers le socialisme ?"
  ]
}