{
  "num": "autog_0338-7259_1973_num_22_1",
  "article": "autog_0338-7259_1973_num_22_1_1092",
  "page_name": "FMSH_PB188a_22-23_201",
  "questions": [
    "Quels éléments du projet socialiste sont-ils en train de discuter ici ?",
    "Quel est la position de Mitterrand et Savary sur la vitesse de la transformation vers l'économie socialiste ?",
    "Quels secteurs du capitalisme devraient devenir la propriété sociale selon Mitterrand ?",
    "Comment Meister décrit-il l'impact du secteur privé sur la planification économique ?",
    "Quel est le rôle du secteur privé dans l'économie selon Mitterrand et Savary ?",
    "Quel est le contenu du plan économique socialiste selon les différents auteurs ?",
    "Comment est-il élaboré le plan selon les différents auteurs ?",
    "Quels moyens seront utilisés pour mettre en œuvre le plan ?",
    "Les entreprises disposeront-elles d'une certaine autonomie ?",
    "Le marché jouera-t-il encore un rôle dans l'économie socialiste ?",
    "Quel est l'opinion de Chauvey sur la planification ?",
    "Quels textes des différents auteurs sont cités dans le document ?"
  ]
}