{
  "num": "autog_0338-7259_1973_num_22_1",
  "article": "autog_0338-7259_1973_num_22_1_1092",
  "page_name": "FMSH_PB188a_22-23_214",
  "questions": [
    "Quel est le modèle de consommation mis en avant dans le paragraphe ?",
    "Comment le nouveau modèle de consommation diffère-t-il du précédent ?",
    "Quels sont les deux manières possibles pour changer le modèle de consommation ?",
    "Comment les auteurs proposent-ils de changer la hiérarchie des revenus ?",
    "Quels sont les objectifs du programme du P.C. en matière de consommation ?",
    "Le programme du P.C. prévoit-il la suppression du salariat à long terme ?",
    "Comment le programme du P.C. propose de ramener l'égalité réelle à des proportions liées aux critères de qualification et de responsabilité ?"
  ]
}