{
  "num": "autog_0338-7259_1975_num_32_1",
  "article": "autog_0338-7259_1975_num_32_1_1141",
  "page_name": "FMSH_PB188a_00032_058",
  "questions": [
    "Quel type de sanction peut être appliquée à un sociétaire qui commet quatre fautes au cours d'un an ou plus ?",
    "Quel est le sort d'un sociétaire pris en ébriété ou surpris en train de fumer pendant son travail ?",
    "Comment peut-on décharger un sociétaire de ses fonctions dans une coopérative ?",
    "Quel est le rôle des assemblées générales des sociétaires dans une coopérative ?",
    "Quels documents sont affichés dans l'usine et peuvent être envoyés aux sociétaires à domicile ?",
    "Quels sont les avantages de la coopérative ouvrière de production selon l'expérience des coopératives de contreplaqué ?",
    "Comment les relations de communication entre les responsables de la gestion et les sociétaires influencent-elles le succès de la coopérative ?"
  ]
}