{
  "num": "autog_0338-7259_1975_num_32_1",
  "article": "autog_0338-7259_1975_num_32_1_1141",
  "page_name": "FMSH_PB188a_00032_061",
  "questions": [
    "Quels problèmes particuliers ont été rencontrés au début des cooperatives ouvrières en matière de gestion des employés salariés ?",
    "Comment les difficultés liées à l'obtention de capitaux suffisants par les cooperatives ont-elles été résolvées ?",
    "En quelles manières les cooperatives de contreplaqué ont-elles conservé leur caractère de cooperative malgré l'augmentation du nombre de salariés ?",
    "Quel rôle jouent les sociétaires dans la gestion des cooperatives et comment cela diffère des sociétés capitalistes traditionnelles ?",
    "Comment les sociétaires se sont-ils comportés dans ces cooperatives et comment cela a-t-il influencé leur planification à long terme ?",
    "Quel intérêt pour la taxe fédérale peut venir du taux élevé de productivité dans ces cooperatives ?"
  ]
}