{
  "num": "autog_0338-7259_1975_num_32_1",
  "article": "autog_0338-7259_1975_num_32_1_1141",
  "page_name": "FMSH_PB188a_00032_066",
  "questions": [
    "Quel est le rôle des coopératives de contreplaqué dans la région ?",
    "Comment les entreprises de la même région s'aident-elles mutuellement ?",
    "Quels sont les rôles actifs des sociétaires dans la création de nouvelles coopératives ?",
    "Quels sont les résultats remarquables des travailleurs des coopératives de contreplaqué aux États-Unis ?",
    "Comment ces entreprises ont-elles démontré leur viabilité dans une économie moderne ?",
    "Comment les producteurs ont-ils instauré l'autonomie et la démocratie dans le travail ?",
    "Comment ces coopératives ont-elles élevé la participation et humanisé les tâches ?",
    "Comment ces coopératives ont-elles assuré une égalité de revenus ?",
    "Comment ces coopératives ont-elles libéré les énergies productives et développé l'habileté manuelle ?",
    "Quel est le rôle du syndicat professionnel dans la transformation d'une usine en propriété ouvrière ?",
    "Pourquoi les leaders syndicaux ont-ils adopté une neutralité vis-à-vis des coopératives ?",
    "Comment les succès des coopératives peuvent-ils faire envie aux syndiqués et menacer les acquis syndicaux ?"
  ]
}