{
  "num": "autog_0005-0970_1968_num_7_1",
  "article": "autog_0005-0970_1968_num_7_1_932",
  "page_name": "FMSH_PB188a_00007_039",
  "questions": [
    "Quel est le statut du personnel enseignant du département de sociologie de Nanterre ?",
    "Quels sont les demandes des professeurs et maîtres de conférences ?",
    "Quel est le comportement des maîtres-assistants ?",
    "Comment se divisent les assistants ?",
    "Comment est l'enseignement de sociologie à Nanterre devenu ?",
    "Qu'est-il arrivé à la maîtrise de conférences en méthodologie sociologique ?",
    "Qui décide de transférer la maîtrise de conférences et pourquoi ?",
    "Quels sont les sujets étudiés dans les séminaires actuels ?",
    "Qu'est l'autogestion du département de sociologie et comment fonctionne-t-elle ?",
    "Qu'est la loi d'orientation et comment est-elle abordée dans les séminaires ?"
  ]
}