{
  "num": "autog_0005-0970_1969_num_9_1",
  "article": "autog_0005-0970_1969_num_9_1_953",
  "page_name": "FMSH_PB188a_09-10_058",
  "questions": [
    {
      "id_qa": "FMSH_PB188a_09-10_058_qa8_v3",
      "id_block": "block_1",
      "question": "Qu'est-ce qui était donné aux travailleurs ?",
      "answer": "de participer à la gestion de leur entreprise",
      "answer_stringIds": [
        "string_174",
        "string_175",
        "string_176",
        "string_177",
        "string_178",
        "string_179",
        "string_180",
        "string_181"
      ]
    },
    {
      "id_qa": "FMSH_PB188a_09-10_058_qa9_v3",
      "id_block": "block_1",
      "question": "Qu'est ce qui n'était pas donné aux travailleurs ?",
      "answer": "Poccasion qui leur était donnée de participer à la gestion de leur entreprise",
      "answer_stringIds": [
        "string_169",
        "string_170",
        "string_171",
        "string_172",
        "string_173",
        "string_174",
        "string_175",
        "string_176",
        "string_177",
        "string_178",
        "string_179",
        "string_180",
        "string_181"
      ]
    },
    {
      "id_qa": "FMSH_PB188a_09-10_058_qa10_v3",
      "id_block": "block_1",
      "question": "Comment les travailleurs se sont-ils comportés dans la gestion de leur entreprise?",
      "answer": "défaillants",
      "answer_stringIds": [
        "string_164"
      ]
    },
    {
      "id_qa": "FMSH_PB188a_09-10_058_qa14_v3",
      "id_block": "block_1",
      "question": "Quelle est la conséquence de l'autogestion industrielle ?",
      "answer": "une tentative",
      "answer_stringIds": [
        "string_8",
        "string_9"
      ]
    },
    {
      "id_qa": "FMSH_PB188a_09-10_058_qa17_v3",
      "id_block": "block_1",
      "question": "A qui sont confiées les entreprises nationalisées ?",
      "answer": "sociétés nationales",
      "answer_stringIds": [
        "string_70",
        "string_71"
      ]
    },
    {
      "id_qa": "FMSH_PB188a_09-10_058_qa21_v3",
      "id_block": "block_1",
      "question": "Quel est le nom générique du secteur socialiste ?",
      "answer": "les entreprises autogérées et les sociétés nationales",
      "answer_stringIds": [
        "string_119",
        "string_120",
        "string_121",
        "string_122",
        "string_123",
        "string_124",
        "string_125"
      ]
    },
    {
      "id_qa": "FMSH_PB188a_09-10_058_qa24_v3",
      "id_block": "block_1",
      "question": "Qu'est-ce qui est mis en place par le gouvernement ?",
      "answer": "un terme",
      "answer_stringIds": [
        "string_97",
        "string_98"
      ]
    },
    {
      "id_qa": "FMSH_PB188a_09-10_058_qa25_v3",
      "id_block": "block_1",
      "question": "Qui décide de mettre un terme à l'expérience ?",
      "answer": "Le gouvernement",
      "answer_stringIds": [
        "string_89",
        "string_90"
      ]
    },
    {
      "id_qa": "FMSH_PB188a_09-10_058_qa4_v3",
      "id_block": "block_2",
      "question": "Qu'est-ce que le socialisme ?",
      "answer": "socialisme scientifique",
      "answer_stringIds": [
        "string_266",
        "string_267",
        "string_268"
      ]
    },
    {
      "id_qa": "FMSH_PB188a_09-10_058_qa13_v3",
      "id_block": "block_2",
      "question": "Qui est incapable de prendre en main son propre avenir ?",
      "answer": "travailleurs",
      "answer_stringIds": [
        "string_153"
      ]
    },
    {
      "id_qa": "FMSH_PB188a_09-10_058_qa29_v3",
      "id_block": "block_3",
      "question": "Qui est la seule à avoir intérêt à une transformation économique rapide ?",
      "answer": "La classe ouvrière",
      "answer_stringIds": [
        "string_285",
        "string_286",
        "string_287"
      ]
    },
    {
      "id_qa": "FMSH_PB188a_09-10_058_qa30_v3",
      "id_block": "block_3",
      "question": "Qu'est ce qui est capable d'élaborer la classe ouvrière ?",
      "answer": "une idéologie",
      "answer_stringIds": [
        "string_309",
        "string_310"
      ]
    }
  ]
}