{
  "num": "autog_0005-0970_1969_num_9_1",
  "article": "autog_0005-0970_1969_num_9_1_953",
  "page_name": "FMSH_PB188a_09-10_056",
  "questions": [
    {
      "id_qa": "FMSH_PB188a_09-10_056_qa7_v3",
      "id_block": "block_1",
      "question": "Qu'est-ce qui rend les gens capables de l'analyser ?",
      "answer": "compte des difficultés objectives auxquelles ils sont confrontés",
      "answer_stringIds": [
        "string_21",
        "string_22",
        "string_23",
        "string_24",
        "string_25",
        "string_26",
        "string_27",
        "string_28"
      ]
    },
    {
      "id_qa": "FMSH_PB188a_09-10_056_qa8_v3",
      "id_block": "block_1",
      "question": "Qu'est-ce qui permet aux gens de se rendre compte de la situation ?",
      "answer": "difficultés",
      "answer_stringIds": [
        "string_23"
      ]
    },
    {
      "id_qa": "FMSH_PB188a_09-10_056_qa6_v3",
      "id_block": "block_2",
      "question": "Dans quelle entreprise travaille l'ouvrier ?",
      "answer": "dans laquelle",
      "answer_stringIds": [
        "string_96",
        "string_97"
      ]
    },
    {
      "id_qa": "FMSH_PB188a_09-10_056_qa18_v3",
      "id_block": "block_2",
      "question": "Qu'est ce qui est pour la majorité des travailleurs favorable à lautogestion ?",
      "answer": "le système",
      "answer_stringIds": [
        "string_62",
        "string_63"
      ]
    },
    {
      "id_qa": "FMSH_PB188a_09-10_056_qa0_v3",
      "id_block": "block_3",
      "question": "Qui souhaite que leur entreprise passe sous le contrôle de l'Etat ?",
      "answer": "la majorité des ouvriers",
      "answer_stringIds": [
        "string_172",
        "string_173",
        "string_174",
        "string_175"
      ]
    },
    {
      "id_qa": "FMSH_PB188a_09-10_056_qa1_v3",
      "id_block": "block_3",
      "question": "Qu'est-ce qui passe sous contrôle de l'Etat ?",
      "answer": "leur entreprise",
      "answer_stringIds": [
        "string_178",
        "string_179",
        "string_180"
      ]
    },
    {
      "id_qa": "FMSH_PB188a_09-10_056_qa2_v3",
      "id_block": "block_3",
      "question": "Quelle est la conséquence de l'autogestion ?",
      "answer": "la suppression pure et simple des organes de représentation ouvrière",
      "answer_stringIds": [
        "string_190",
        "string_191",
        "string_192",
        "string_193",
        "string_194",
        "string_195",
        "string_196",
        "string_197",
        "string_198",
        "string_199",
        "string_200"
      ]
    },
    {
      "id_qa": "FMSH_PB188a_09-10_056_qa3_v3",
      "id_block": "block_3",
      "question": "Qui pense que l'anarchie serait supprimée ?",
      "answer": "les responsables",
      "answer_stringIds": [
        "string_256",
        "string_257"
      ]
    },
    {
      "id_qa": "FMSH_PB188a_09-10_056_qa5_v3",
      "id_block": "block_3",
      "question": "Qu'est-ce que l'Etat contrôlerait ?",
      "answer": "la direction",
      "answer_stringIds": [
        "string_253",
        "string_254"
      ]
    },
    {
      "id_qa": "FMSH_PB188a_09-10_056_qa11_v3",
      "id_block": "block_3",
      "question": "Qui ne sont pas du tout troublés par cette perspective ?",
      "answer": "Les travailleurs",
      "answer_stringIds": [
        "string_201",
        "string_202"
      ]
    },
    {
      "id_qa": "FMSH_PB188a_09-10_056_qa14_v3",
      "id_block": "block_3",
      "question": "Pour quelle raison les travailleurs sont-ils impuissants devant les problèmes qu'ils ont à résoudre ?",
      "answer": "leur entreprise",
      "answer_stringIds": [
        "string_178",
        "string_179",
        "string_180"
      ]
    },
    {
      "id_qa": "FMSH_PB188a_09-10_056_qa15_v3",
      "id_block": "block_3",
      "question": "Par quoi les travailleurs sont-ils préoccupés par cette perspective ?",
      "answer": "les différentes assemblées",
      "answer_stringIds": [
        "string_225",
        "string_226",
        "string_227"
      ]
    },
    {
      "id_qa": "FMSH_PB188a_09-10_056_qa20_v3",
      "id_block": "block_3",
      "question": "Qui attend de l'Etat la solution de ses propres problèmes ?",
      "answer": "Chaque catégorie",
      "answer_stringIds": [
        "string_263",
        "string_264"
      ]
    }
  ]
}