{
  "num": "autog_0338-7259_1971_num_15_1",
  "article": "autog_0338-7259_1971_num_15_1_1000",
  "page_name": "FMSH_PB188a_00015_079",
  "questions": [
    "Quels éléments ont Delescluze et Proudhon en commun, selon le texte ?",
    "Quels événements ont opposé ces deux hommes ?",
    "Quel est le rôle de Delescluze dans La Révolution Democratique et Sociale ?",
    "Quel est le sujet de la lettre-libelle que Proudhon a envoyée à Delescluze et ses collègues ?",
    "Quel est le contenu de la lettre-libelle ?",
    "Pourquoi Delescluze et Proudhon se sont-ils réconciliés ?",
    "Quel est le rôle de Delescluze dans la conversion de Proudhon aux idées sociales et au fédéralisme ?",
    "Quel est le caractère politique et économique de Proudhon selon le texte ?",
    "Quel est le rôle de Delescluze dans l'évolution politique de Proudhon ?",
    "Quel est le rôle de la presse dans la relation entre Delescluze et Proudhon ?",
    "Quel est le rôle de la prison dans la vie de Proudhon ?",
    "Quel est le rôle de l'autoritarisme dans la pensée de Proudhon ?",
    "Quel est le rôle de la république dans la pensée de Proudhon ?",
    "Quel est le rôle de la violence dans la relation entre Delescluze et Proudhon ?",
    "Quel est le rôle de la probité et de la loyauté dans la relation entre Delescluze et Proudhon ?",
    "Quel est le rôle de la pensée dans la relation entre Delescluze et Proudhon ?",
    "Quel est le rôle de la réconciliation entre Delescluze et Proudhon dans l'histoire de la Commune ?",
    "Quel est le rôle de la déclaration du Proudhonisme dans l'histoire de la Commune ?",
    "Quel est le rôle des idées sociales et du fédéralisme dans la pensée de Proudhon ?",
    "Quel est le rôle des idées socialistes dans la pensée de Del?"
  ]
}