{
  "num": "autog_0338-7259_1971_num_15_1",
  "article": "autog_0338-7259_1971_num_15_1_1000",
  "page_name": "FMSH_PB188a_00015_060",
  "questions": [
    "Quels auteurs ont traité de la Commune et des Communards ?",
    "Quel est le problème avec les répartitions habituelles de « partis » ou « tendances » de l'Assemblée de la Commune ?",
    "Quels groupes sont souvent omis dans ces répartitions ?",
    "Quand Engels a-t-il écrit son introduction à la Commune de Paris ?",
    "Quel schéma simpliste de répartition des factions ou tendances de Communards a-t-il proposé Engels ?",
    "Quels groupes sont inclus dans la majorité et la minorité selon Engels ?",
    "Quel point de vue a Longuet sur le rôle des Blanquistes dans le Comité central avant la Commune ?",
    "Quel rôle avaient les Proudhoniens dans le Comité central avant la Commune ?",
    "Quand les influences des Blanquistes ont-elles grandi dans l'Assemblée de la Commune ?"
  ]
}