{
  "num": "autog_0338-7259_1971_num_15_1",
  "article": "autog_0338-7259_1971_num_15_1_1000",
  "page_name": "FMSH_PB188a_00015_073",
  "questions": [
    "Quels principes proudhoniens présentait-il lors des élections à l'Assemblée Nationale ?",
    "Quand se produisit-il cette demande de députés pour Proudhon et les Internationaux ?",
    "Quel était le rôle de Proudhon dans la formation du socialisme de ce personnage ?",
    "Comment décrit-il sa relation avec les idées de Proudhon ?",
    "Quel est le lien entre Proudhon et Courbet ?",
    "En quels cercles artistiques et littéraires défendit-il la doctrine proudhonienne ?",
    "Quels philosophes sociaux était-il en relation parallèle avec Proudhon ?",
    "Quel était l'âge de Beslay et comment l'avait-il connu ?",
    "Dans quel contexte défendit-il la doctrine proudhonienne lors des élections à la Commune ?"
  ]
}