{
  "num": "autog_0338-7259_1971_num_15_1",
  "article": "autog_0338-7259_1971_num_15_1_1000",
  "page_name": "FMSH_PB188a_00015_074",
  "questions": [
    "Quand et comment Jean Bancal a-t-il rencontré Proudhon ?",
    "Quels étaient les points de divergence entre Bancal et Proudhon sur la Banque du Peuple ?",
    "Comment Bancal a-t-il perçu le fédéralisme politique de Proudhon ?",
    "Quels autres personnages sont mentionnés dans le texte en relation avec Bancal et Proudhon ?",
    "Quels sont les positions politiques et économiques de Pindy et Jourde ?",
    "Comment Pindy s'est positionné par rapport à l'étiquette de collectiviste ?",
    "Quel était le programme économico-politique de l'Internationale selon Bancal ?",
    "Quel rôle a-t-il joué Jourde dans l'administration de la Commune ?"
  ]
}