{
  "num": "autog_0338-7259_1971_num_15_1",
  "article": "autog_0338-7259_1971_num_15_1_1000",
  "page_name": "FMSH_PB188a_00015_045",
  "questions": [
    "Quel rôle a-t-il joué Proudhon dans le mouvement communaliste avant la Commune ?",
    "Comment décrit Lepelletier la Commune en relation avec les idées de Proudhon ?",
    "Quels témoignages et analyses précises apporte le livre d'Arthur Arnould pour confirmer le lien proudhonien de la Commune ?",
    "Quand a-t-il écrit ces mots Hubert Bourgin et dans quelle publication ?",
    "Quel est le caractère de la doctrine du principe fédératif selon Hubert Bourgin ?",
    "Quels aspects incomplets et précipités des mesures de la Commune ne permettent pas de traduire pleinement le Proudhonisme ?"
  ]
}