{
  "num": "autog_0338-7259_1971_num_15_1",
  "article": "autog_0338-7259_1971_num_15_1_1000",
  "page_name": "FMSH_PB188a_00015_041",
  "questions": [
    "Quels documents et livres seront utilisés pour étudier la relation entre Proudhon et la Commune ?",
    "Quel est le fait Proudhonien de la Commune selon le texte ?",
    "Quels témoignages déterminants sur l'importance de l'idéologie proudhonienne et des Proudhoniens sont cités ?",
    "Quel écrivain a souligné le fait Proudhonien de la Commune et comment ?",
    "Quels concepts (idéologies) sont associés à Proudhon dans le texte ?",
    "Quels écrivains marxistes sont cités et quels sont leurs observations sur la diffusion de l'idéologie proudhonienne ?"
  ]
}