{
  "num": "autog_0005-0970_1968_num_5_1",
  "article": "autog_0005-0970_1968_num_5_1_919",
  "page_name": "FMSH_PB188a_05-06_055",
  "questions": [
    "Quels délégués ont causé des troubles dans cette réunion ?",
    "Est-il important de considérer la collaboration des syndicats au-delà de leurs revendications ?",
    "Pourquoi le patronat défend les syndicats contre des « provocateurs » de l'autogestion ?",
    "Quel rôle pourraient les syndicats jouer dans une société autogérée ?",
    "Comment les revendications des travailleurs s'intègrent-elles dans le système capitaliste ?",
    "Qu'est-ce que l'autogestion pour les auteurs ?",
    "Quel est le but de l'autogestion ?",
    "Qu'est-ce qui est nécessaire pour atteindre l'autogestion ?",
    "Comment les individus sont-ils conditionnés par le modèle hiérarchique ?",
    "Quel type de formation est nécessaire pour l'autogestion ?"
  ]
}