{
  "num": "autog_0338-7259_1976_num_33_1",
  "article": "autog_0338-7259_1976_num_33_1_1157",
  "page_name": "FMSH_PB188a_33-34_078",
  "questions": [
    {
      "id_qa": "FMSH_PB188a_33-34_078_qa21_v3",
      "id_block": "block_1",
      "question": "Comment s'appelle la motion de soutien au jugement populaire ?",
      "answer": "une motion de soutien au jugement populaire émanant des travailleurs du Palais de Justice réunis en assemblée plénière",
      "answer_stringIds": [
        "string_18",
        "string_19",
        "string_20",
        "string_21",
        "string_22",
        "string_23",
        "string_24",
        "string_25",
        "string_26",
        "string_27",
        "string_28",
        "string_29",
        "string_30",
        "string_31",
        "string_32",
        "string_33",
        "string_34",
        "string_35"
      ]
    },
    {
      "id_qa": "FMSH_PB188a_33-34_078_qa22_v3",
      "id_block": "block_1",
      "question": "Qui est l'objet du jugement populaire ?",
      "answer": "le locataire",
      "answer_stringIds": [
        "string_13",
        "string_14"
      ]
    },
    {
      "id_qa": "FMSH_PB188a_33-34_078_qa23_v3",
      "id_block": "block_1",
      "question": "Qu'est ce qui a lieu dans l'escalier ?",
      "answer": "jugement populaire",
      "answer_stringIds": [
        "string_8",
        "string_9"
      ]
    },
    {
      "id_qa": "FMSH_PB188a_33-34_078_qa25_v3",
      "id_block": "block_1",
      "question": "A qui est adressée la motion de soutien au jugement populaire ?",
      "answer": "des travailleurs du Palais de Justice réunis en assemblée plénière",
      "answer_stringIds": [
        "string_26",
        "string_27",
        "string_28",
        "string_29",
        "string_30",
        "string_31",
        "string_32",
        "string_33",
        "string_34",
        "string_35"
      ]
    },
    {
      "id_qa": "FMSH_PB188a_33-34_078_qa0_v3",
      "id_block": "block_2",
      "question": "Que se passe-t-il à Cascais le jour suivant ?",
      "answer": "un nouveau jugement populaire",
      "answer_stringIds": [
        "string_49",
        "string_50",
        "string_51",
        "string_52"
      ]
    },
    {
      "id_qa": "FMSH_PB188a_33-34_078_qa1_v3",
      "id_block": "block_2",
      "question": "Où se tient le nouveau jugement populaire ?",
      "answer": "à Cascais",
      "answer_stringIds": [
        "string_39",
        "string_40"
      ]
    },
    {
      "id_qa": "FMSH_PB188a_33-34_078_qa2_v3",
      "id_block": "block_2",
      "question": "Où se tient le procès populaire ?",
      "answer": "à Cascais",
      "answer_stringIds": [
        "string_39",
        "string_40"
      ]
    },
    {
      "id_qa": "FMSH_PB188a_33-34_078_qa3_v3",
      "id_block": "block_2",
      "question": "Quand se tient le jugement populaire à Cascais ?",
      "answer": "le jour suivant",
      "answer_stringIds": [
        "string_44",
        "string_45",
        "string_46"
      ]
    },
    {
      "id_qa": "FMSH_PB188a_33-34_078_qa4_v3",
      "id_block": "block_2",
      "question": "Quand se tient le Jugement populaire à Cascais ?",
      "answer": "le jour suivant",
      "answer_stringIds": [
        "string_44",
        "string_45",
        "string_46"
      ]
    },
    {
      "id_qa": "FMSH_PB188a_33-34_078_qa37_v3",
      "id_block": "block_2",
      "question": "A quoi les travailleurs ne croient plus ?",
      "answer": "aux jolis mots de la bourgeoisie",
      "answer_stringIds": [
        "string_117",
        "string_118",
        "string_119",
        "string_120",
        "string_121",
        "string_122"
      ]
    },
    {
      "id_qa": "FMSH_PB188a_33-34_078_qa38_v3",
      "id_block": "block_2",
      "question": "Qui ne croit plus aux jolis mots de la bourgeoisie ?",
      "answer": "les travailleurs",
      "answer_stringIds": [
        "string_105",
        "string_106"
      ]
    },
    {
      "id_qa": "FMSH_PB188a_33-34_078_qa39_v3",
      "id_block": "block_2",
      "question": "Qui ne croient plus aux jolis mots de la bourgeoisie ?",
      "answer": "les travailleurs",
      "answer_stringIds": [
        "string_105",
        "string_106"
      ]
    },
    {
      "id_qa": "FMSH_PB188a_33-34_078_qa12_v3",
      "id_block": "block_6",
      "question": "Avec quoi les travailleurs parviennent-ils à payer leurs salaires ?",
      "answer": "leurs salaires avec la valeur de leur production",
      "answer_stringIds": [
        "string_233",
        "string_234",
        "string_235",
        "string_236",
        "string_237",
        "string_238",
        "string_239",
        "string_240"
      ]
    },
    {
      "id_qa": "FMSH_PB188a_33-34_078_qa14_v3",
      "id_block": "block_6",
      "question": "Qui paye les salaires avec la valeur de leur production ?",
      "answer": "les travailleurs",
      "answer_stringIds": [
        "string_105",
        "string_106"
      ]
    },
    {
      "id_qa": "FMSH_PB188a_33-34_078_qa16_v3",
      "id_block": "block_6",
      "question": "Qui parvient à payer leurs salaires avec la valeur de leur production ?",
      "answer": "les travailleurs",
      "answer_stringIds": [
        "string_105",
        "string_106"
      ]
    },
    {
      "id_qa": "FMSH_PB188a_33-34_078_qa10_v3",
      "id_block": "block_7",
      "question": "Qui se préoccupe de la politisation de tous ?",
      "answer": "des travailleurs",
      "answer_stringIds": [
        "string_26",
        "string_27"
      ]
    },
    {
      "id_qa": "FMSH_PB188a_33-34_078_qa18_v3",
      "id_block": "block_7",
      "question": "Qu'apprend aujourd'hui environ cent-cinquante travailleurs ?",
      "answer": "à lire et à écrire",
      "answer_stringIds": [
        "string_316",
        "string_317",
        "string_318",
        "string_319",
        "string_320"
      ]
    },
    {
      "id_qa": "FMSH_PB188a_33-34_078_qa19_v3",
      "id_block": "block_7",
      "question": "Pendant combien de temps les travailleurs sont-ils inscrits ?",
      "answer": "Dès la première semaine",
      "answer_stringIds": [
        "string_304",
        "string_305",
        "string_306",
        "string_307"
      ]
    },
    {
      "id_qa": "FMSH_PB188a_33-34_078_qa45_v3",
      "id_block": "block_7",
      "question": "Qui est à l'origine du nombre élevé d'analphabètes dans l'entreprise?",
      "answer": "les travailleurs",
      "answer_stringIds": [
        "string_105",
        "string_106"
      ]
    },
    {
      "id_qa": "FMSH_PB188a_33-34_078_qa27_v3",
      "id_block": "block_8",
      "question": "Où la culture est elle le privilège de minorités petite-bourgeoises et intellectuelles ?",
      "answer": "dans les usines",
      "answer_stringIds": [
        "string_346",
        "string_347",
        "string_348"
      ]
    },
    {
      "id_qa": "FMSH_PB188a_33-34_078_qa33_v3",
      "id_block": "block_9",
      "question": "Qu'est ce qui aurait pu arriver à tout moment ?",
      "answer": "la famine",
      "answer_stringIds": [
        "string_368",
        "string_369"
      ]
    }
  ]
}