{
  "num": "autog_0338-7259_1976_num_33_1",
  "article": "autog_0338-7259_1976_num_33_1_1157",
  "page_name": "FMSH_PB188a_33-34_088",
  "questions": [
    {
      "id_qa": "FMSH_PB188a_33-34_088_qa23_v3",
      "id_block": "block_4",
      "question": "Qu'est-ce que l'auto-organisation des chômeurs ou de ceux qui sont en voie de l'être ?",
      "answer": "à la participation de ces travailleurs au développement du processus révolutionnaire",
      "answer_stringIds": [
        "string_81",
        "string_82",
        "string_83",
        "string_84",
        "string_85",
        "string_86",
        "string_87",
        "string_88",
        "string_89",
        "string_90",
        "string_91"
      ]
    },
    {
      "id_qa": "FMSH_PB188a_33-34_088_qa24_v3",
      "id_block": "block_4",
      "question": "Qui est en voie de l'être ?",
      "answer": "des chômeurs ou de ceux",
      "answer_stringIds": [
        "string_69",
        "string_70",
        "string_71",
        "string_72",
        "string_73"
      ]
    },
    {
      "id_qa": "FMSH_PB188a_33-34_088_qa29_v3",
      "id_block": "block_4",
      "question": "Dans quelle lutte s'inscrit la lutte anti-capitaliste pour la construction du socialisme ?",
      "answer": "la lutte des uns et des autres",
      "answer_stringIds": [
        "string_124",
        "string_125",
        "string_126",
        "string_127",
        "string_128",
        "string_129",
        "string_130"
      ]
    },
    {
      "id_qa": "FMSH_PB188a_33-34_088_qa33_v3",
      "id_block": "block_4",
      "question": "Dans quelle lutte s'inscrit la lutte des travailleurs sans emploi ?",
      "answer": "dans la lutte anti-capitaliste",
      "answer_stringIds": [
        "string_132",
        "string_133",
        "string_134",
        "string_135"
      ]
    },
    {
      "id_qa": "FMSH_PB188a_33-34_088_qa34_v3",
      "id_block": "block_4",
      "question": "Avec qui les intérêts des travailleurs sont-ils contradictoires ?",
      "answer": "ceux des travailleurs",
      "answer_stringIds": [
        "string_113",
        "string_114",
        "string_115"
      ]
    },
    {
      "id_qa": "FMSH_PB188a_33-34_088_qa2_v3",
      "id_block": "block_5",
      "question": "Qu'est-ce qui permet aux travailleurs sans emploi de vaincre l'isolement usine/ logement ?",
      "answer": "la commune",
      "answer_stringIds": [
        "string_143",
        "string_144"
      ]
    },
    {
      "id_qa": "FMSH_PB188a_33-34_088_qa3_v3",
      "id_block": "block_5",
      "question": "A qui revient la revendication de simple demande d'emploi ?",
      "answer": "un capitaliste",
      "answer_stringIds": [
        "string_181",
        "string_182"
      ]
    },
    {
      "id_qa": "FMSH_PB188a_33-34_088_qa5_v3",
      "id_block": "block_5",
      "question": "Qui est à l'origine de ce projet ?",
      "answer": "les travailleurs sans emploi",
      "answer_stringIds": [
        "string_151",
        "string_152",
        "string_153",
        "string_154"
      ]
    },
    {
      "id_qa": "FMSH_PB188a_33-34_088_qa6_v3",
      "id_block": "block_5",
      "question": "A quoi revient la revendication de simple demande d'emploi dans un système capitaliste ?",
      "answer": "demander",
      "answer_stringIds": [
        "string_179"
      ]
    },
    {
      "id_qa": "FMSH_PB188a_33-34_088_qa12_v3",
      "id_block": "block_5",
      "question": "Quelle est la forme de gestion de la commune ?",
      "answer": "la forme de gestion de la commune à laquelle participent non seulement les travailleurs en tant que producteurs, mais aussi les Commissions d'habitants en tant qu'acheteur",
      "answer_stringIds": [
        "string_414"
      ]
    },
    {
      "id_qa": "FMSH_PB188a_33-34_088_qa35_v3",
      "id_block": "block_6",
      "question": "Qu'encourage l'unification de la lutte des travailleurs dans les lieux d'habitation ?",
      "answer": "la solidarité révolutionnaire des travailleurs",
      "answer_stringIds": [
        "string_311",
        "string_312",
        "string_313",
        "string_314",
        "string_315"
      ]
    },
    {
      "id_qa": "FMSH_PB188a_33-34_088_qa22_v3",
      "id_block": "block_7",
      "question": "Qui est responsable de la création de nouveaux postes de travail ?",
      "answer": "les capitalistes en fuite",
      "answer_stringIds": [
        "string_388",
        "string_389",
        "string_390",
        "string_391"
      ]
    }
  ]
}