{
  "num": "autog_0249-2563_1984_num_17_16",
  "article": "autog_0249-2563_1984_num_17_16_1597",
  "page_name": "autog_0249-2563_1984_num_17_16_T1_0079_0000",
  "questions": [
    "Quels événements marquent maintenant le passé du Larzac ?",
    "Quels paysans du Causse ont pris en main le réaménagement de leur espace ?",
    "Quand l'arrivée de la gauche au pouvoir a-t-elle entraîné l'annulation du projet d'extension du camp militaire ?",
    "Quel était le retour du Causse à sa vocation agricole ?",
    "Quel rôle a joué la Direction départementale de l'Agriculture (DDA) dans le réaménagement du plateau et de ses abords ?",
    "Quelles ont été les procédures foncières les plus complexes et conflictuelles ?",
    "Quels agriculteurs se sont manifestés pour exploiter les terres abandonnées par les militaires ?",
    "Dans quels organismes agricoles à Rodez se sont présentées les candidatures d'agriculteurs ?",
    "Quels sont les agriculteurs Mathey et quelle est leur localisation ?"
  ]
}