{
  "num": "autog_0249-2563_1984_num_17_16",
  "article": "autog_0249-2563_1984_num_17_16_1597",
  "page_name": "autog_0249-2563_1984_num_17_16_T1_0084_0000",
  "questions": [
    "Quels sont les principaux éléments de la révolution industrielle en Angleterre au XIXe siècle ?",
    "Comment la révolution industrielle a-t-elle affecté la structure de la population en Angleterre ?",
    "Quels furent les principaux facteurs qui ont contribué à la révolution industrielle en Angleterre ?",
    "Comment la révolution industrielle a-t-elle transformé l'économie anglaise ?",
    "Quels étaient les principaux secteurs d'activité économique qui ont connu une croissance importante durant la révolution industrielle en Angleterre ?",
    "Comment la révolution industrielle a-t-elle influencé la société anglaise et ses structures sociales ?",
    "Quels ont été les principaux défis sociaux et politiques que la révolution industrielle a posés en Angleterre ?",
    "Comment les gouvernements et les autorités ont-elles réagi aux défis posés par la révolution industrielle en Angleterre ?",
    "Quels ont été les principaux mouvements sociaux et politiques qui ont émergé en réponse à la révolution industrielle en Angleterre ?",
    "Comment la révolution industrielle a-t-elle influencé le monde entier ?",
    "Quels ont été les principaux pays qui ont suivi le modèle anglais durant la révolution industrielle ?",
    "Comment les pays ont-ils adapté le modèle anglais à leur propre contexte ?",
    "Quels ont été les principaux défis et opportunités que la révolution industrielle a posées aux pays suivant le modèle anglais ?",
    "Comment les pays ont-ils réagi aux défis et aux opportunités posées par la révolution industrielle ?",
    "Quels ont été les principaux facteurs qui ont contribué à la diffusion de la révolution industrielle dans le monde entier ?",
    "Comment la révolution industrielle a-t-elle transformé le monde entier ?",
    "Quels ont été les principaux impacts sociaux, politiques et économ?"
  ]
}