{
  "num": "autog_0249-2563_1980_num_13_2",
  "article": "autog_0249-2563_1980_num_13_2_1367",
  "page_name": "autog_0249-2563_1980_num_13_2_T1_0266_0000",
  "questions": [
    "Quels phénomènes sont inclus dans les B.I. ?",
    "Quels groupes sont considérés comme des B.I. ?",
    "Quels sont les objectifs des B.I. ?",
    "Quels sont les objectifs des B.I. vis-à-vis du système ?",
    "Quelles sont les causes économiques de l'émergence des B.I. ?",
    "Quels conflits économiques peuvent être une motivation pour les B.I. ?",
    "Quels dangers sont constatés dans d'autres centrales nucléaires ?"
  ]
}