{
  "num": "autog_0249-2563_1980_num_13_2",
  "article": "autog_0249-2563_1980_num_13_2_1367",
  "page_name": "autog_0249-2563_1980_num_13_2_T1_0262_0000",
  "questions": [
    "Quels événements ont conduit les organisations, les partis et les médias traditionnels à adopter une attitude plus sceptique ou même hostile envers les B.I. ?",
    "En quoi les B.I. ressemblent aux mouvements historiques antérieurs en Allemagne ?",
    "Quels sont les facteurs historiques qui ont contribué au développement des B.I. ?",
    "Comment les B.I. se distinguent des mouvements étudiants et de l'A.P.O. ?",
    "Quels sont les objectifs et les moyens d'action des B.I. ?",
    "Comment les libéraux interprètent les B.I. ?",
    "Quel est le rôle des citoyens selon l'interprétation libérale des B.I. ?",
    "Comment les B.I. dépassent la conception traditionnelle du citoyen ?"
  ]
}