{
  "num": "autog_0249-2563_1984_num_17_17",
  "article": "autog_0249-2563_1984_num_17_17_1908",
  "page_name": "autog_0249-2563_1984_num_17_17_T1_0146_0000",
  "questions": [
    {
      "id_qa": "autog_0249-2563_1984_num_17_17_T1_0146_0000_qa1_v3",
      "id_block": "block_10",
      "question": "Qui a présenté les matériaux sur l'expérience autogestionnaire ?",
      "answer": "par À. Meister et D. Retour",
      "answer_stringIds": [
        "string_48",
        "string_49",
        "string_50",
        "string_51",
        "string_52",
        "string_53"
      ]
    },
    {
      "id_qa": "autog_0249-2563_1984_num_17_17_T1_0146_0000_qa0_v3",
      "id_block": "block_17",
      "question": "Qui a préparé le Dossier ?",
      "answer": "Y. Person",
      "answer_stringIds": [
        "string_133",
        "string_134"
      ]
    },
    {
      "id_qa": "autog_0249-2563_1984_num_17_17_T1_0146_0000_qa5_v3",
      "id_block": "block_20",
      "question": "Qu'est ce qui passe par la gauche ?",
      "answer": "passer la gauche",
      "answer_stringIds": [
        "string_189",
        "string_190",
        "string_191"
      ]
    },
    {
      "id_qa": "autog_0249-2563_1984_num_17_17_T1_0146_0000_qa6_v3",
      "id_block": "block_20",
      "question": "Qui a vu passer la gauche ?",
      "answer": "-vous",
      "answer_stringIds": [
        "string_187"
      ]
    },
    {
      "id_qa": "autog_0249-2563_1984_num_17_17_T1_0146_0000_qa2_v3",
      "id_block": "block_24",
      "question": "Qu'est ce qui a été préparé par Ph.",
      "answer": "Mouvements",
      "answer_stringIds": [
        "string_222"
      ]
    }
  ]
}