{
  "num": "autog_0005-0970_1969_num_9_1",
  "article": "autog_0005-0970_1969_num_9_1_952",
  "page_name": "FMSH_PB188a_09-10_035",
  "questions": [
    "Quels sont les symptômes graves de décomposition des rapports sociaux dans l'industrie, particulièrement en matière de participation des travailleurs à la gestion ?",
    "Quels processus se sont développés dans l'industrie aux dernières années, en plus de la crise du système social de l'entreprise ?",
    "Comment les organisations sociales, les groupes et les catégories de travailleurs réagissent-elles aux conséquences négatives de la bureaucratisation de l'économie ?",
    "Quels sont les phénomènes les plus prononcés de cette faculté de régénération du système social de l'entreprise et de l'industrie ?",
    "Comment les matériaux recueillis sur l'origine et la structure des conseils ouvriers nous incitent-ils à les considérer ?",
    "Qu'est-ce que les conseils ouvriers représentent-ils dans le système de gestion d'après les matériaux recueillis ?",
    "Comment les matériaux recueillis nous amènent-ils à concevoir les conseils ouvriers ?",
    "Quel est l'aspect du problème que l'auteur veut mettre en évidence ?",
    "Quels sont les organes dirigeants du Parti et les théoriciens de l'économie mentionnés dans le texte ?",
    "Quels changements ont eu lieu dans la direction du Parti communiste avant l'écriture de cet article ?"
  ]
}