{
  "num": "autog_0005-0970_1969_num_9_1",
  "article": "autog_0005-0970_1969_num_9_1_952",
  "page_name": "FMSH_PB188a_09-10_023",
  "questions": [
    "Quel est le premier groupe inexpérimenté mentionné dans le texte ?",
    "Quel est le second groupe moins souple et moins actif ?",
    "Quel est l'âge considéré comme optimal pour l'activité dans les organes de gestion ?",
    "Combien de membres des conseils ouvriers sont-ils âgés entre 35 et 49 ans ?",
    "Quel est le pourcentage de membres des conseils ouvriers ayant moins de 4 ans d'expérience dans l'entreprise ?",
    "Quel est le pourcentage de membres des conseils ouvriers ayant entre 5 et 9 ans d'expérience dans l'entreprise ?",
    "Quel est le pourcentage de membres des conseils ouvriers ayant entre 10 et 14 ans d'expérience dans l'entreprise ?",
    "Quel est le pourcentage de membres des conseils ouvriers ayant entre 15 et 19 ans d'expérience dans l'entreprise ?",
    "Quel est le pourcentage de membres des conseils ouvriers ayant plus de 20 ans d'expérience dans l'entreprise ?",
    "Comment les données du tableau 5 s'accordent-elles avec les données sur l'âge des membres des conseils ouvriers ?"
  ]
}