{
  "num": "autog_0005-0970_1969_num_9_1",
  "article": "autog_0005-0970_1969_num_9_1_952",
  "page_name": "FMSH_PB188a_09-10_024",
  "questions": [
    "Quels sont les conditions d'admissibilité pour devenir membre d'un conseil ouvrier selon le texte ?",
    "Comment les membres des conseils sont-ils liés à l'entreprise ?",
    "Quel sentiment est-il détecté chez les électeurs lorsqu'ils participent aux élections ?",
    "Quel tableau est présenté dans le texte et quels sont ses principaux éléments ?",
    "Quel est le pourcentage d'ouvriers parmi les électeurs des organes de gestion de l'entreprise ?",
    "Quel est le pourcentage de techniciens parmi les membres élus dans ces organes ?",
    "Quel est le rapport entre les ouvriers et les techniciens dans les organes de gestion de l'entreprise ?",
    "Quel est le système de gestion économique mentionné dans le texte et comment il affecte les relations entre ouvriers et techniciens ?"
  ]
}