{
  "num": "autog_0338-7259_1977_num_37_1",
  "article": "autog_0338-7259_1977_num_37_1_1245_t1_0193_0000_2",
  "page_name": "FMSH_PB188a_37-38_196",
  "questions": [
    "Quel est le rôle général de la CFDT dans l'action autogestionnaire et comment cela la conduit-elle à une forme de combat permanent contre elle-même ?",
    "La CFDT peut-elle être considérée comme un «idéal-type» de syndicat autogestionnaire ?",
    "Le discours de la CFDT recouvre-t-il entièrement ses pratiques revendicatives et son fonctionnement interne ?",
    "Comment la CFDT parvient-elle à concilier sa volonté d'unité d'action avec la CGT et sa quête d'autonomie ou de projet qui s'opposent radicalement aux habitudes de la CGT ?",
    "CFDT parvient-elle à ces conciliations ?",
    "Quel est l'importance de la CFDT dans le mouvement autogestionnaire actuel ?",
    "Comment le soutien de la CFDT à l'autogestion des luttes a-t-il contribué à la réflexion continue de la CFDT sur sa lutte pour l'autogestion ?"
  ]
}