{
  "num": "autog_0338-7259_1977_num_37_1",
  "article": "autog_0338-7259_1977_num_37_1_1245_t1_0193_0000_2",
  "page_name": "FMSH_PB188a_37-38_195",
  "questions": [
    "Quand apparaît officiellement le terme d'autogestion dans le contexte de la CFDT ?",
    "Quels sont les objectifs principaux de la CFDT depuis 1970 ?",
    "Comment la CFDT tente-t-elle de concilier la pratique de la démocratie dans son organisation et son action collective contre le capitalisme ?",
    "Quel est le rôle du capitalisme selon la CFDT ?",
    "Comment la lutte contre le salariat s'inscrit dans la lutte de classe selon la CFDT ?",
    "Quels sont les thèmes clés du projet d'autogestion selon la CFDT ?",
    "Comment la CFDT abordent-elles les thèmes de la propriété sociale des moyens de production, de la planification démocratique et autogérée, et de l'autogestion ?",
    "Dans quels chapitres ce livre aborde-t-il ces thèmes ?"
  ]
}