{
  "num": "autog_0005-0970_1967_num_2_1",
  "article": "autog_0005-0970_1967_num_2_1_896",
  "page_name": "FMSH_PB188a_00002_042",
  "questions": [
    "Quel est le coût élevé des Tours Spray ?",
    "Quel est le seuil minimum de volume traité pour que les Tours Spray soient rentables ?",
    "Combien de litres par jour peuvent chacune des coopératives traiter actuellement ?",
    "Quels sont les avantages du procédé de fabrication des Tours Spray ?",
    "Pourquoi une seule Tour Spray peut-elle être construite ?",
    "Pourquoi chaque coopérative veut avoir la Tour Spray ?",
    "Quand a-t-on vécu un cas similaire à Angers en 1960 ?",
    "Quel est le but de l'étude complète de la gestion dans la situation algérienne ?",
    "Quand commence le mouvement des comités de gestion dans l'Algérie indépendante ?",
    "Comment le mouvement des comités de gestion contribue-t-il à la transformation générale de la vision économique et sociale en Algérie ?",
    "Quels sont les premiers domaines où apparaît la formation démocratique de comités de gestion ?",
    "Quel est le rôle des comités de gestion dans la construction d'une nouvelle nation en Algérie ?"
  ]
}