{
  "num": "autog_0005-0970_1967_num_2_1",
  "article": "autog_0005-0970_1967_num_2_1_896",
  "page_name": "FMSH_PB188a_00002_010",
  "questions": [
    "Quel est le rôle du gouvernement dans cette structure socioconomique ?",
    "Comment le gouvernement s'est substitué au rôle du colon ?",
    "Quels sont les intermédiaires créés entre le patron-gouvernement et les ouvriers ?",
    "Quel est le rôle des intermédiaires dans cette structure ?",
    "Comment est décrit le rôle du comité de gestion dans cette structure ?",
    "Comment est décrit le rôle du président du comité de gestion ?",
    "Comment est décrit le rôle du directeur dans cette structure ?",
    "Comment est décrit la position de l'assemblée générale dans cette structure ?",
    "Comment est décrit le schéma de cette structure ?",
    "Quel est le sens de la ligne de pente vers le bas dans ce schéma ?",
    "Comment est décrit le souci de l'homme dans l'assemblée ?",
    "Quel est le but de sa proposition de solution ?",
    "Comment est décrit le schéma ambigu ?",
    "Quel est le sens du mouvement dans le schéma ?",
    "Comment est décrit la position de l'assemblée générale par rapport au directeur dans le schéma ?",
    "Comment est décrit la taille des étages dans le schéma ?",
    "Quel est le but de l'auteur en présentant ce schéma ?"
  ]
}