{
  "num": "autog_0005-0970_1967_num_2_1",
  "article": "autog_0005-0970_1967_num_2_1_896",
  "page_name": "FMSH_PB188a_00002_031",
  "questions": [
    "Quel est le rôle développé par la guerre révolutionnaire sur le sens de l'organisation, le courage, le dynamisme et le pouvoir d'espérance et de sacrifices du fellah ?",
    "Pourquoi les paysans sont-ils bien au fait des travaux à réaliser sur les mêmes exploitations depuis de nombreuses années ?",
    "Quels sont les types d'exploitations agricoles concernées par l'autogestion ?",
    "Quels sont les problèmes techniques et d'organisation à résoudre dans ces exploitations agricoles ?",
    "Quels sont les objectifs des usines auxquels il n'y a pas de rapport avec ces fermes ?",
    "Pourquoi les conclusions seraient différentes si nous avions à faire à la grosse industrie ?",
    "Quel est la fonction de direction des exploitations agricoles vacantes actuellement ?",
    "Pourquoi y a-t-il une tendance à sous-estimer le travail de gestion et de direction des grandes exploitations agricoles ?",
    "Pourquoi les travailleurs se méfient-ils du Directeur nommé par l État ?",
    "Quelles mesures sont envisagées pour gérer les fonds liquides du Directeur ?"
  ]
}