{
  "num": "autog_0005-0970_1969_num_8_1",
  "article": "autog_0005-0970_1969_num_8_1_947",
  "page_name": "FMSH_PB188a_00008_083",
  "questions": [
    "Qu'est-ce que l'organisme ET SYSTEME ELECTORAL selon Jovan Djordjevic ?",
    "Comment l'auteur caractérise ce parti politique dans le contexte de l'autogestion ?",
    "Comment l'auteur décrit l'évolution des organisations politiques dans le contexte de l'autogestion ?",
    "Quels sont les rapports de forces typiques des microstructures de l'autogestion ?",
    "Quels sont les processus qui ont lieu dans les organisations de travail selon l'auteur ?",
    "Comment l'auteur décrit le risque de domination des forces et groupes restreints dans le système des associations primaires du travail associé et de l'autogestion ?",
    "Quel rôle jouent les forces politiques démocratiques dans ce processus selon l'auteur ?",
    "Comment l'auteur décrit l'existence d'une large courant de l'opinion publique dans la promotion de la pratique autogestionnaire ?"
  ]
}