{
  "num": "autog_0005-0970_1969_num_8_1",
  "article": "autog_0005-0970_1969_num_8_1_947",
  "page_name": "FMSH_PB188a_00008_086",
  "questions": [
    "Quels sont les différences observées dans le domaine de la représentation et de la structure représentative dans le contexte de l'autogestion sociale ?",
    "Quel est le caractère essentiel du nouveau système et mécanisme de représentation en matière d'autogestion sociale ?",
    "Quand est instituée la gestion ouvrière dans les entreprises et comment s'affirme la représentation socio-économique à tous les niveaux ?",
    "Comment le développement ultérieur de la gestion ouvrière et des rapports d'autogestion dans d'autres services publics et administratifs permet-il une représentation plus stricte des travailleurs et des citoyens ?",
    "Quel est le rôle des conseils politiques généraux et des conseils d'autogestion dans la nouvelle structure parlementaire d'autogestion ?",
    "Comment la nouvelle structure parlementaire d'autogestion diffère-t-elle des modèles existants ou anticipe-t-elle certains aspects de la démocratie économique ?",
    "Quel est le lien organique entre les conseils des communautés de travail et la base d'autogestion du système socio-politique en Yougoslavie ?",
    "Comment est organisée actuellement la forme nouvelle de représentation des communautés de travail en Yougoslavie ?"
  ]
}