{
  "num": "autog_0005-0970_1969_num_8_1",
  "article": "autog_0005-0970_1969_num_8_1_947",
  "page_name": "FMSH_PB188a_00008_100",
  "questions": [
    "Quels travailleurs sont-ils exclus d'un contexte social plus large selon le texte ?",
    "Pourquoi les organisations de travail des travailleurs directs ne sont-elles pas suffisamment représentées dans certaines assemblées ?",
    "Quel est le rôle de l'information des électeurs dans l'intégration des processus d'autogestion ?",
    "Quels sont les conditions nécessaires à la réalisation d'une telle intégration ?",
    "Quels sont les aspects politiques du processus public et de l'activité parlementaire selon le texte ?",
    "Quels sont les \"questions techniques\" mentionnées dans le texte et comment peuvent-elles contribuer à l'enrichissement de la démocratie électorale ?"
  ]
}