{
  "num": "autog_0005-0970_1969_num_8_1",
  "article": "autog_0005-0970_1969_num_8_1_947",
  "page_name": "FMSH_PB188a_00008_090",
  "questions": [
    "Quels sont les fonctions publiques intégralement contrôlées par l'autogestion sociale ?",
    "Comment sont proposés les candidats pour être élus dans les corps représentatifs et d'autogestion ?",
    "Quels sont les rôles des associations de base des électeurs dans la sélection des candidats ?",
    "Quels sont les organisations socio-politiques et autres sujets du processus électoral qui peuvent influencer la sélection des candidats ?",
    "Comment les organisations de travail et les réunions d'électeurs contribuent-elles à la démocratie directe ?",
    "Quels sont les domaines des questions économiques, politiques et sociales sur lesquels les organisations de travail et les réunions d'électeurs prennent des décisions ?",
    "Qu'est-ce que la fonction électorale dans le contexte de l'activité autogestionnaire de prise de décision par les travailleurs et les citoyens ?"
  ]
}