{
  "num": "autog_0005-0970_1969_num_8_1",
  "article": "autog_0005-0970_1969_num_8_1_947",
  "page_name": "FMSH_PB188a_00008_089",
  "questions": [
    "Quel rôle joue la commune dans le système socio-politique yougoslave ?",
    "Comment la commune permet-elle la libération économique du travail selon Marx ?",
    "Comment l'expérience yougoslave a-t-elle montré que la commune permet la réalisation de l'intégration des intérêts et besoins des travailleurs ?",
    "Quelles deux dimensions capitales de l'existence sociale sont intégrées dans la forme communale de l'Association des producteurs ?",
    "Quel serait le sort des modes de production matérielle et des rapports de production sans une forme déterminée d'action directe dans un contexte politique plus large ?",
    "En quoi la commune représente-t-elle une base pour l'exercice de l'action des différentes communautés de producteurs, communautés territoriales autogestionnaires, associations et citoyens individuellement ?",
    "Quels sont les différents niveaux de décision dans le système socio-politique yougoslave et comment les communautés exercent-elles leur action sur ces niveaux ?",
    "Quel est le rôle des élections dans le système socio-politique yougoslave ?",
    "Comment les élections doivent-elles décider de la structure du personnel du réseau ?"
  ]
}