{
  "num": "autog_0338-7259_1972_num_20_1",
  "article": "autog_0338-7259_1972_num_20_1_1065",
  "page_name": "FMSH_PB188a_20-21_102",
  "questions": [
    "Quel est le nom de la société par actions qui rassemble les futurs colons au Mexique ?",
    "Dans quelle province se trouve Topolobampo ?",
    "Combien de personnes s'inscrivent pour aller coloniser les rivages de Topolobampo ?",
    "Quand arrivent les premiers colons ?",
    "Quels sont les premiers problèmes rencontrés par les colons ?",
    "Comment sont organisés le travail et les repas des colons ?",
    "Quels sont les sujets abordés lors des assemblées des colons ?",
    "Quel est le résultat final de l'expérience coloniale ?",
    "Quel est l'entreprise capitaliste qui rachète les terrains et les fait fructifier ?",
    "Comment peut-on caractériser l'impact de l'utopie sociétaire sur le cycle du capital dans ce contexte mexicain ?"
  ]
}