{
  "num": "autog_0338-7259_1972_num_20_1",
  "article": "autog_0338-7259_1972_num_20_1_1065",
  "page_name": "FMSH_PB188a_20-21_101",
  "questions": [
    "Quand date le projet d'Owen en Amérique latine ?",
    "Dans quel pays découvre-t-il la baie de Topolobampo ?",
    "Quel type de ville projetterait-il à Topolobampo ?",
    "Qui l'appuie initialement dans son projet ?",
    "Comment s'insère-t-il dans le cycle du capital mexicain et américain ?",
    "Quand fait-il publique son projet de colonie « socialiste » ?",
    "Quels sont les principes de cette colonie ?",
    "Quel rôle jouent Edward et Marie Howland dans la conversion du projet en entreprise « socialiste » ?",
    "Quels sont les enseignements de Fourier repris dans les principes de la colonie ?"
  ]
}