{
  "num": "autog_0338-7259_1972_num_20_1",
  "article": "autog_0338-7259_1972_num_20_1_1065",
  "page_name": "FMSH_PB188a_20-21_099",
  "questions": [
    "Quel est le lien entre la fortune de Fourier en Amérique latine et le développement capitaliste qui semble entraîner une apparente extinction de l'utopie fouriériste ?",
    "Quels sont les articles de Francisco Banuelos qui révèlent une influence fouriériste ?",
    "En quels termes est décrit la doctrine phalanstérienne dans ces articles ?",
    "Quel est le rôle de Saint-Simon et de Fourier dans l'histoire du socialisme selon Angel Pola ?",
    "Comment cette présence de Fourier est-elle perçue par les différentes tendances politiques ?",
    "Comment est-il possible de comprendre que les marxistes et les libertaires se réfèrent à Fourier ?",
    "Quel est le rôle de Francisco Salacosta et de Rhodokanaty dans la diffusion de l'idée fouriériste au Mexique ?",
    "Quel est l'importance d'Alberto Santa Fé dans la nouvelle situation du fouriérisme ?",
    "Quel est le contexte historique de la création du Partido Communista Mexicano par Alberto Santa Fé ?",
    "Pourquoi Alberto Santa Fé a-t-il été emprisonné ?",
    "Quel est l'inspiration politique du Partido Communista Mexicano ?"
  ]
}