{
  "num": "autog_0338-7259_1972_num_20_1",
  "article": "autog_0338-7259_1972_num_20_1_1065",
  "page_name": "FMSH_PB188a_20-21_098",
  "questions": [
    "Quand a-t-on pour la première fois entendu parler du fouriérisme en termes d'action armée et de violence révolutionnaire au Mexique ?",
    "Qui était Lopez Chavez et quels événements marquent son leadership dans la guerrilla contre le gouvernement de Juarez ?",
    "Quand et pour quels raisons le fouriérisme est-il mentionné dans la presse mexicaine après la Commune de Paris ?",
    "Quels groupes dominants sont inquiets des idées de Fourier et de ses contemporains ?",
    "Quand et sous quelle forme est créée une chaire d'économie politique au Mexique et quel est son premier titulaire ?",
    "Comment les idées communistes, y compris celle de Fourier, sont-elles critiquées et opposées durant cette période ?",
    "Comment la période de modernisation au Mexique est-elle caractérisée et qui en sont les principaux acteurs ?"
  ]
}