{
  "num": "autog_0338-7259_1972_num_20_1",
  "article": "autog_0338-7259_1972_num_20_1_1065",
  "page_name": "FMSH_PB188a_20-21_090",
  "questions": [
    "Quel est l'auteur anonyme de ce livre intitulé \"Analisis del socialismo\" publié à Bogota en 1852 ?",
    "Quels socialistes anciens et modernes sont abordés dans ce livre ?",
    "Quels auteurs sont cités comme sources pour l'analyse des pensées des socialistes mentionnés ?",
    "Quel est le premier panorama complet de la pensée socialiste présenté dans ce livre, allant de Babœuf à Proudhon ?",
    "Quel est le point de vue de l'auteur sur la nature du socialisme ?",
    "Quel est l'avis de l'auteur sur la profonde originalité de Fourier ?",
    "Quel est l'accent mis par l'auteur sur l'inéluctabilité et l'universalité du socialisme ?",
    "Dans quels pays rencontre-t-on un certain écho pour ce livre ?",
    "Quel est le lien entre la Commune de Paris et la zone où l'on trouve cet écho ?",
    "Quel est le rôle de Simon Rodriguez dans la tradition libérale éclairée du Venezuela ?",
    "Quel est l'idéal révolutionnaire hérité des idées de la révolution française dans le Venezuela ?"
  ]
}