{
  "num": "autog_0338-7259_1970_num_11_1",
  "article": "autog_0338-7259_1970_num_11_1_964",
  "page_name": "FMSH_PB188a_11-12_120",
  "questions": [
    "Quel était le pourcentage total d'interrogés dans l'échantillon ?",
    "Quel était le pourcentage de femmes dans l'échantillon ?",
    "Quels étaient les principaux groupes professionnels représentés dans l'échantillon ?",
    "Quels étaient les principaux groupes d'affiliation syndicale dans l'échantillon ?",
    "Quels étaient les principaux niveaux d'éducation des intervieweurs ?",
    "Dans quelles républiques socialistes les questionnaires ont-ils été remplis ?",
    "Quel était le pourcentage de fonctionnaires et de travailleurs de l'appareil syndical dans l'échantillon ?",
    "Quel était le pourcentage de personnes interrogées qui avaient des fonctions syndicales depuis plus de 10 ans ?",
    "Quel était le pourcentage de personnes interrogées qui avaient un diplôme de l'enseignement supérieur ?",
    "Quel était le pourcentage de personnes interrogées qui avaient un enseignement secondaire complet avec baccalauréat ?",
    "Quel était le pourcentage de personnes interrogées qui avaient suivi des études par correspondance à l'Institut du Mouvement Syndical Révolutionnaire ?",
    "Quel était le pourcentage de personnes interrogées qui étaient des présidents de comités d'usine ou d'entreprise du «Mouvement Syndical Révolutionnaire» ?",
    "Quel était le pourcentage de personnes interrogées qui étaient des fonctionnaires ?",
    "Quel était l'âge moyen des personnes interrogées ?",
    "Quel était le pourcentage de personnes interrogées qui avaient des fonctions syndicales depuis moins de 10 ans ?"
  ]
}