{
  "num": "autog_0005-0970_1969_num_9_1",
  "article": "autog_0005-0970_1969_num_9_1_954",
  "page_name": "FMSH_PB188a_09-10_085",
  "questions": [
    {
      "id_qa": "FMSH_PB188a_09-10_085_qa21_v3",
      "id_block": "block_1",
      "question": "Qui a un accès privilégié aux arcanes divins ou mathématiques ?",
      "answer": "envers les quelques prêtres",
      "answer_stringIds": [
        "string_14",
        "string_15",
        "string_16",
        "string_17"
      ]
    },
    {
      "id_qa": "FMSH_PB188a_09-10_085_qa23_v3",
      "id_block": "block_1",
      "question": "Qui ont réellement accès aux arcanes divins ou mathématiques ?",
      "answer": "des ingénieurs électroniques",
      "answer_stringIds": [
        "string_26",
        "string_27",
        "string_28"
      ]
    },
    {
      "id_qa": "FMSH_PB188a_09-10_085_qa31_v3",
      "id_block": "block_1",
      "question": "Qu'est-ce que les simulations de l'usine du plan ?",
      "answer": "à des « dissimulations",
      "answer_stringIds": [
        "string_118",
        "string_119",
        "string_120",
        "string_121"
      ]
    },
    {
      "id_qa": "FMSH_PB188a_09-10_085_qa14_v3",
      "id_block": "block_2",
      "question": "Comment peut-on qualifier le silence ?",
      "answer": "comme un abandon",
      "answer_stringIds": [
        "string_186",
        "string_187",
        "string_188"
      ]
    },
    {
      "id_qa": "FMSH_PB188a_09-10_085_qa16_v3",
      "id_block": "block_2",
      "question": "Que peut-on interpréter comme un abandon ?",
      "answer": "ce silence",
      "answer_stringIds": [
        "string_184",
        "string_185"
      ]
    },
    {
      "id_qa": "FMSH_PB188a_09-10_085_qa30_v3",
      "id_block": "block_2",
      "question": "De quoi Pierre Chaulieu était-il ignorant ?",
      "answer": "de ces difficultés",
      "answer_stringIds": [
        "string_133",
        "string_134",
        "string_135"
      ]
    },
    {
      "id_qa": "FMSH_PB188a_09-10_085_qa11_v3",
      "id_block": "block_3",
      "question": "Qu'est-ce qui empêche les gens de contrôler efficacement ?",
      "answer": "leur automobile ou leur rasoir électrique",
      "answer_stringIds": [
        "string_303",
        "string_304",
        "string_305",
        "string_306",
        "string_307",
        "string_308"
      ]
    }
  ]
}