{
  "num": "autog_0005-0970_1969_num_9_1",
  "article": "autog_0005-0970_1969_num_9_1_954",
  "page_name": "FMSH_PB188a_09-10_087",
  "questions": [
    {
      "id_qa": "FMSH_PB188a_09-10_087_qa4_v3",
      "id_block": "block_1",
      "question": "Où sont concentrés les moyens de calculs décisifs ?",
      "answer": "en un endroit",
      "answer_stringIds": [
        "string_19",
        "string_20",
        "string_21"
      ]
    },
    {
      "id_qa": "FMSH_PB188a_09-10_087_qa8_v3",
      "id_block": "block_1",
      "question": "Que rendraient les progrès de la technologie ?",
      "answer": "caduque",
      "answer_stringIds": [
        "string_224"
      ]
    },
    {
      "id_qa": "FMSH_PB188a_09-10_087_qa9_v3",
      "id_block": "block_1",
      "question": "Qu'est ce qui rend la description théorique caduque ?",
      "answer": "Îles progrès de la technologie",
      "answer_stringIds": [
        "string_217",
        "string_218",
        "string_219",
        "string_220",
        "string_221"
      ]
    },
    {
      "id_qa": "FMSH_PB188a_09-10_087_qa11_v3",
      "id_block": "block_2",
      "question": "Qui a conçu la dimension idéale de la Cité ?",
      "answer": "par les philosophes",
      "answer_stringIds": [
        "string_257",
        "string_258",
        "string_259"
      ]
    },
    {
      "id_qa": "FMSH_PB188a_09-10_087_qa21_v3",
      "id_block": "block_3",
      "question": "Qui imagine que nous puissions tous disposer d'un cerveau électronique auxiliaire ?",
      "answer": "Edgar Morin",
      "answer_stringIds": [
        "string_298",
        "string_299"
      ]
    }
  ]
}