{
  "num": "autog_0005-0970_1969_num_9_1",
  "article": "autog_0005-0970_1969_num_9_1_954",
  "page_name": "FMSH_PB188a_09-10_063",
  "questions": [
    {
      "id_qa": "FMSH_PB188a_09-10_063_qa7_v3",
      "id_block": "block_1",
      "question": "Qu'est ce que l'utopie continue à nourrir ?",
      "answer": "des rêves",
      "answer_stringIds": [
        "string_62",
        "string_63"
      ]
    },
    {
      "id_qa": "FMSH_PB188a_09-10_063_qa12_v3",
      "id_block": "block_1",
      "question": "Qu'est-ce qui renforce la crédibilité de l'autogestion ?",
      "answer": "cette démonstration théorique",
      "answer_stringIds": [
        "string_155",
        "string_156",
        "string_157"
      ]
    },
    {
      "id_qa": "FMSH_PB188a_09-10_063_qa15_v3",
      "id_block": "block_1",
      "question": "Que décourage la critique intellectuelle ?",
      "answer": "toute pratique contestataire",
      "answer_stringIds": [
        "string_124",
        "string_125",
        "string_126"
      ]
    },
    {
      "id_qa": "FMSH_PB188a_09-10_063_qa30_v3",
      "id_block": "block_5",
      "question": "Qu'est-ce que Voline ?",
      "answer": "La révolution inconnue",
      "answer_stringIds": [
        "string_346",
        "string_347",
        "string_348"
      ]
    },
    {
      "id_qa": "FMSH_PB188a_09-10_063_qa31_v3",
      "id_block": "block_5",
      "question": "Quel ouvrage de Voline est peu connu ?",
      "answer": "La révolution inconnue",
      "answer_stringIds": [
        "string_346",
        "string_347",
        "string_348"
      ]
    },
    {
      "id_qa": "FMSH_PB188a_09-10_063_qa35_v3",
      "id_block": "block_5",
      "question": "Quel est le nom du régime actuel ?",
      "answer": "le régime « soviétique",
      "answer_stringIds": [
        "string_295",
        "string_296",
        "string_297",
        "string_298"
      ]
    }
  ]
}