{
  "num": "autog_0338-7259_1975_num_30_1",
  "article": "autog_0338-7259_1975_num_30_1_1121",
  "page_name": "FMSH_PB188a_30-31_017",
  "questions": [
    {
      "id_qa": "FMSH_PB188a_30-31_017_qa27_v3",
      "id_block": "block_1",
      "question": "Quand les entreprises déguisées d'exploitation survivent-elles ?",
      "answer": "dans les dernières années",
      "answer_stringIds": [
        "string_9",
        "string_10",
        "string_11",
        "string_12"
      ]
    },
    {
      "id_qa": "FMSH_PB188a_30-31_017_qa28_v3",
      "id_block": "block_1",
      "question": "Qu'est-ce qui a gagné du terrain dans les dernières années ?",
      "answer": "exploitation",
      "answer_stringIds": [
        "string_5"
      ]
    },
    {
      "id_qa": "FMSH_PB188a_30-31_017_qa0_v3",
      "id_block": "block_2",
      "question": "Que couvent sous la surface les éléments divers ?",
      "answer": "beaucoup de conflits aigus latents et de contradictions",
      "answer_stringIds": [
        "string_54",
        "string_55",
        "string_56",
        "string_57",
        "string_58",
        "string_59",
        "string_60",
        "string_61"
      ]
    },
    {
      "id_qa": "FMSH_PB188a_30-31_017_qa2_v3",
      "id_block": "block_2",
      "question": "Où se trouvent les conflits aigus latents et de contradictions ?",
      "answer": "sous la surface",
      "answer_stringIds": [
        "string_51",
        "string_52",
        "string_53"
      ]
    },
    {
      "id_qa": "FMSH_PB188a_30-31_017_qa10_v3",
      "id_block": "block_3",
      "question": "Quelles sont les faiblesses fondamentales des systèmes ?",
      "answer": "des stratégies démocratiques et non violentes",
      "answer_stringIds": [
        "string_78",
        "string_79",
        "string_80",
        "string_81",
        "string_82",
        "string_83"
      ]
    },
    {
      "id_qa": "FMSH_PB188a_30-31_017_qa12_v3",
      "id_block": "block_5",
      "question": "A quoi était confronté le régime ?",
      "answer": "à la puissance énorme du régime au pouvoir",
      "answer_stringIds": [
        "string_134",
        "string_135",
        "string_136",
        "string_137",
        "string_138",
        "string_139",
        "string_140",
        "string_141"
      ]
    },
    {
      "id_qa": "FMSH_PB188a_30-31_017_qa17_v3",
      "id_block": "block_5",
      "question": "Qui a cherché partout l'ennemi méme quand il ne se montrait pas ?",
      "answer": "les membres de ces mouvements",
      "answer_stringIds": [
        "string_177",
        "string_178",
        "string_179",
        "string_180",
        "string_181"
      ]
    },
    {
      "id_qa": "FMSH_PB188a_30-31_017_qa19_v3",
      "id_block": "block_5",
      "question": "Qui est à l'origine de ces mouvements ?",
      "answer": "les membres de ces mouvements",
      "answer_stringIds": [
        "string_177",
        "string_178",
        "string_179",
        "string_180",
        "string_181"
      ]
    }
  ]
}