{
  "num": "autog_0249-2563_1981_num_14_6",
  "article": "autog_0249-2563_1981_num_14_6_1425",
  "page_name": "autog_0249-2563_1981_num_14_6_T1_0163_0000",
  "questions": [
    {
      "id_qa": "autog_0249-2563_1981_num_14_6_T1_0163_0000_qa6_v3",
      "id_block": "block_1",
      "question": "Quelles sont les valeurs qui sont censées guider les jeunes ?",
      "answer": "la société",
      "answer_stringIds": [
        "string_77",
        "string_78"
      ]
    },
    {
      "id_qa": "autog_0249-2563_1981_num_14_6_T1_0163_0000_qa8_v3",
      "id_block": "block_1",
      "question": "Qu'est-ce qui s'éloigne de l'autogestion ?",
      "answer": "le pouvoir",
      "answer_stringIds": [
        "string_19",
        "string_20"
      ]
    },
    {
      "id_qa": "autog_0249-2563_1981_num_14_6_T1_0163_0000_qa12_v3",
      "id_block": "block_2",
      "question": "Qu'est-ce qui ne trouve pas de solution ?",
      "answer": "les problèmes",
      "answer_stringIds": [
        "string_148",
        "string_149"
      ]
    },
    {
      "id_qa": "autog_0249-2563_1981_num_14_6_T1_0163_0000_qa13_v3",
      "id_block": "block_2",
      "question": "Où se situe le logement des jeunes ?",
      "answer": "au domicile familial",
      "answer_stringIds": [
        "string_174",
        "string_175",
        "string_176"
      ]
    },
    {
      "id_qa": "autog_0249-2563_1981_num_14_6_T1_0163_0000_qa15_v3",
      "id_block": "block_2",
      "question": "Qu'est-ce qui touche les jeunes ?",
      "answer": "le chômage",
      "answer_stringIds": [
        "string_158",
        "string_159"
      ]
    },
    {
      "id_qa": "autog_0249-2563_1981_num_14_6_T1_0163_0000_qa17_v3",
      "id_block": "block_2",
      "question": "Qui est touché par le chômage ?",
      "answer": "les jeunes",
      "answer_stringIds": [
        "string_164",
        "string_165"
      ]
    },
    {
      "id_qa": "autog_0249-2563_1981_num_14_6_T1_0163_0000_qa34_v3",
      "id_block": "block_2",
      "question": "Qu'est ce qui se complète d'une ironie, d'un scepticisme cinglant ?",
      "answer": "cette attitude",
      "answer_stringIds": [
        "string_131",
        "string_132"
      ]
    },
    {
      "id_qa": "autog_0249-2563_1981_num_14_6_T1_0163_0000_qa11_v3",
      "id_block": "block_3",
      "question": "Qu'a occupé les partisans de l'action directe ?",
      "answer": "une maison",
      "answer_stringIds": [
        "string_221",
        "string_222"
      ]
    },
    {
      "id_qa": "autog_0249-2563_1981_num_14_6_T1_0163_0000_qa21_v3",
      "id_block": "block_5",
      "question": "Quelle est la propriété des ouvriers d'usine ?",
      "answer": "leur propre lopin de terre",
      "answer_stringIds": [
        "string_273",
        "string_274",
        "string_275",
        "string_276",
        "string_277"
      ]
    },
    {
      "id_qa": "autog_0249-2563_1981_num_14_6_T1_0163_0000_qa22_v3",
      "id_block": "block_5",
      "question": "Par quoi s'est constituée la classe ouvrière après 1945 ?",
      "answer": "par un exode rural très rapide",
      "answer_stringIds": [
        "string_258",
        "string_259",
        "string_260",
        "string_261",
        "string_262",
        "string_263"
      ]
    },
    {
      "id_qa": "autog_0249-2563_1981_num_14_6_T1_0163_0000_qa23_v3",
      "id_block": "block_5",
      "question": "Quand la classe ouvrière s'est-elle constituée ?",
      "answer": "après 1945",
      "answer_stringIds": [
        "string_256",
        "string_257"
      ]
    },
    {
      "id_qa": "autog_0249-2563_1981_num_14_6_T1_0163_0000_qa31_v3",
      "id_block": "block_5",
      "question": "Qu'est-ce qu'un travail salarié ?",
      "answer": "une meilleure sécurité sociale",
      "answer_stringIds": [
        "string_285",
        "string_286",
        "string_287",
        "string_288"
      ]
    },
    {
      "id_qa": "autog_0249-2563_1981_num_14_6_T1_0163_0000_qa37_v3",
      "id_block": "block_7",
      "question": "Qui a publié Rasa Todosijevic Umetnost i Revolucija ?",
      "answer": "par le centre culturel étudiant",
      "answer_stringIds": [
        "string_341",
        "string_342",
        "string_343",
        "string_344",
        "string_345"
      ]
    },
    {
      "id_qa": "autog_0249-2563_1981_num_14_6_T1_0163_0000_qa30_v3",
      "id_block": "block_8",
      "question": "Quel est l'âge des chômeurs à Belgrade ?",
      "answer": "moins de 30 ans",
      "answer_stringIds": [
        "string_356",
        "string_357",
        "string_358",
        "string_359"
      ]
    }
  ]
}