{
  "num": "autog_0338-7259_1974_num_28_1",
  "article": "autog_0338-7259_1974_num_28_1_1196",
  "page_name": "FMSH_PB188a_28-29_122",
  "questions": [
    "Quand a-t-il écrit cet article sur l'autogestion, René Lourau ?",
    "Quel institut de formation est mentionné dans l'article de René Lourau ?",
    "Quels types de libertés pédagogiques était-il question de dans l'institut ?",
    "Quel était le rôle des stagiaires dans la gestion du programme des conférences ?",
    "Quel était le droit réservé à l'institut à la fin du cycle d'enseignement ?",
    "Qu'est-ce que la co-gestion participative ?",
    "Qu'est-ce que l'autogestion de l'éducation ?",
    "Qu'est-ce que le recteur d'académie de Poitiers s'inquiète de ?",
    "Pourquoi le recteur parle-t-il de la pédagogie comme étant « dite » moderne ?",
    "Quels examens traditionnels est-il question de dans le texte ?",
    "Qu'est-ce qui permettrait à la pédagogie moderne d'être compatible avec des diplômes individuels décernés en violation de toute réglementation ?",
    "Quel est l'attitude du recteur envers les étudiants reçus ?",
    "Qu'est-ce qui caractérise l'esprit bureaucratique du représentant de l'État ?"
  ]
}