{
  "num": "autog_0005-0970_1968_num_7_1",
  "article": "autog_0005-0970_1968_num_7_1_935",
  "page_name": "FMSH_PB188a_00007_055",
  "questions": [
    "Quels membres de la commission technique sont rémunérés par les fonds du conseil des travailleurs ?",
    "Comment est nommé le directeur de l'usine ?",
    "Quels sont les responsabilités du directeur de l'usine en matière de politique économique ?",
    "Quels sont les pouvoirs du directeur en matière de direction opérationnelle ?",
    "Comment le directeur est-il tenu de réagir aux décisions des organes d'autogestion qui sont en contradiction avec les règlements ou les statuts ?",
    "Comment est organisé le concours public pour la nomination du directeur ?",
    "Pourquoi et comment le conseil des travailleurs peut-il révoquer un directeur ?",
    "Quel est le contrat de travail du directeur et quels sont ses objectifs économiques généraux ?",
    "Quels sont les raisons pour lesquelles le conseil des travailleurs peut révoquer un directeur ?"
  ]
}