{
  "num": "autog_0005-0970_1968_num_7_1",
  "article": "autog_0005-0970_1968_num_7_1_935",
  "page_name": "FMSH_PB188a_00007_054",
  "questions": [
    "Quels fonds sont alloués à l'entreprise pour qu'elle puisse gérer ses dépenses ?",
    "Comment est établi le budget annuel du conseil des travailleurs ?",
    "Comment est effectué le contrôle de la gestion financière du conseil ?",
    "Quel est le rôle de la commission du contrôle dans le conseil des travailleurs ?",
    "Comment est élue la commission du contrôle ?",
    "Quel est le rôle de la commission technique dans le conseil d'autogestion ?",
    "Comment est élue la commission technique ?",
    "Quels sont les membres de la commission technique ?",
    "Quel est le rôle du président de la commission technique dans les réunions du conseil des travailleurs ?",
    "Y a-t-il une limite au nombre de mandats consécutifs autorisés pour les membres de la commission technique ?"
  ]
}