{
  "num": "autog_0338-7259_1970_num_13_1",
  "article": "autog_0338-7259_1970_num_13_1_983",
  "page_name": "FMSH_PB188a_13-14_166",
  "questions": [
    {
      "id_qa": "FMSH_PB188a_13-14_166_qa15_v3",
      "id_block": "block_1",
      "question": "Qu'est-ce qui n'est pas compromise dans les pays capitalistes avancés ?",
      "answer": "La socialisation par et dans la production",
      "answer_stringIds": [
        "string_36",
        "string_37",
        "string_38",
        "string_39",
        "string_40",
        "string_41",
        "string_42",
        "string_43"
      ]
    },
    {
      "id_qa": "FMSH_PB188a_13-14_166_qa17_v3",
      "id_block": "block_2",
      "question": "Qu'est-ce qui contrôle l'obligation de travailler ?",
      "answer": "les normes",
      "answer_stringIds": [
        "string_94",
        "string_95"
      ]
    },
    {
      "id_qa": "FMSH_PB188a_13-14_166_qa7_v3",
      "id_block": "block_3",
      "question": "Qu'est-ce qui permet de résoudre un problème collectif ?",
      "answer": "établir",
      "answer_stringIds": [
        "string_144"
      ]
    },
    {
      "id_qa": "FMSH_PB188a_13-14_166_qa8_v3",
      "id_block": "block_3",
      "question": "Qu'est-ce qui peut être donné à un problème collectif ?",
      "answer": "une solution collective",
      "answer_stringIds": [
        "string_169",
        "string_170",
        "string_171"
      ]
    },
    {
      "id_qa": "FMSH_PB188a_13-14_166_qa11_v3",
      "id_block": "block_3",
      "question": "Qu'est ce qui est mis en place par les réponses ?",
      "answer": "le travail des autres",
      "answer_stringIds": [
        "string_116",
        "string_117",
        "string_118",
        "string_119"
      ]
    },
    {
      "id_qa": "FMSH_PB188a_13-14_166_qa12_v3",
      "id_block": "block_3",
      "question": "Quelle est la distinction entre les travailleurs et les producteurs ?",
      "answer": "la catégorie sociale",
      "answer_stringIds": [
        "string_110",
        "string_111",
        "string_112"
      ]
    },
    {
      "id_qa": "FMSH_PB188a_13-14_166_qa13_v3",
      "id_block": "block_3",
      "question": "Qu'est-ce qui est compromis par les réponses ?",
      "answer": "le socialisme",
      "answer_stringIds": [
        "string_126",
        "string_127"
      ]
    },
    {
      "id_qa": "FMSH_PB188a_13-14_166_qa22_v3",
      "id_block": "block_3",
      "question": "Qui peut assurer une telle tâche ?",
      "answer": "la collectivité organisée des travailleurs",
      "answer_stringIds": [
        "string_131",
        "string_132",
        "string_133",
        "string_134",
        "string_135"
      ]
    },
    {
      "id_qa": "FMSH_PB188a_13-14_166_qa23_v3",
      "id_block": "block_3",
      "question": "Qu'assure la collectivité organisée des travailleurs ?",
      "answer": "une telle tâche",
      "answer_stringIds": [
        "string_138",
        "string_139",
        "string_140"
      ]
    },
    {
      "id_qa": "FMSH_PB188a_13-14_166_qa1_v3",
      "id_block": "block_5",
      "question": "Qu'est ce qui permet de répondre aux deux questions que je posais au début de cette ébauche de diagnostic ?",
      "answer": "maintenant",
      "answer_stringIds": [
        "string_184"
      ]
    }
  ]
}