{
  "num": "autog_0338-7259_1970_num_11_1",
  "article": "autog_0338-7259_1970_num_11_1_963",
  "page_name": "FMSH_PB188a_11-12_101",
  "questions": [
    "Quels types d'entreprises ont vu la création de conseils ouvriers dans l'année précédente en Tchécoslovaquie ?",
    "Comment cette tendance s'inscrit-elle dans le programme d'action du Parti communiste tchécoslovaque ?",
    "Quels sont les attributions déterminées des conseils ouvriers en matière de direction des entreprises ?",
    "Quels sont les responsabilités des directeurs et des travailleurs supérieurs vis-à-vis des conseils ouvriers ?",
    "Comment les conseils ouvriers sont-ils constitués selon les « Principes provisoires » ?",
    "Quels sont les liens entre les conseils ouvriers et les syndicats ?",
    "Quel rôle les conseils ouvriers jouent-ils dans le mécanisme de direction des entreprises ?"
  ]
}