{
  "num": "autog_0338-7259_1970_num_11_1",
  "article": "autog_0338-7259_1970_num_11_1_963",
  "page_name": "FMSH_PB188a_11-12_104",
  "questions": [
    "Quels sont les aspects du rapport de travail où le citoyen acquiert l'indépendance juridique au moment de l'âge de quinze ans ?",
    "Quels sont les arguments contre l'octroi du droit de vote aux travailleurs de quinze à dix-huit ans ?",
    "Quel serait le résultat psychologique et politique de privilégier certains travailleurs de moins de dix-huit ans au droit de vote ?",
    "Quels sont les statuts qui ne lient pas le droit de vote à une condition minimale de travail dans l'entreprise ?",
    "Quels travailleurs sont privés du droit de vote dans les statuts en général ?",
    "Quels sont les doutes relatifs aux entreprises employant régulièrement des travailleurs irréguliers ?",
    "Quel est la justification de la durée de la relation permanente de travail comme condition d'éligibilité aux conseils ?",
    "Est-ce que la durée de la relation de travail indiquée par les statuts est adéquate ?",
    "Quel serait le résultat d'une période excessivement longue pour l'éligibilité aux conseils ?"
  ]
}