{
  "num": "autog_0249-2563_1982_num_15_11",
  "article": "autog_0249-2563_1982_num_15_11_1515",
  "page_name": "autog_0249-2563_1982_num_15_11_T1_0066_0000",
  "questions": [
    "Quels sont les trois niveaux de \"La Sole des Moines\" ?",
    "Quels éléments sont présents dans le jardin ?",
    "Quel est le type de salle commune au deuxième étage ?",
    "Quel est le contenu de la cuisine au troisième étage ?",
    "Quels sont les éléments présents dans la salle à bal au rez-de-chaussée ?",
    "Quels sont les noms des pièces mentionnés dans le texte ?",
    "Quel est la fonction de chaque pièce ?",
    "Quel est l'époque ou la période historique à laquelle appartient \"La Sole des Moines\" ?",
    "Quels sont les occupants originels de ce bâtiment ?",
    "Quel est l'architecture de \"La Sole des Moines\" ?",
    "Quels sont les matériaux utilisés dans la construction de ce bâtiment ?",
    "Quel est l'état actuel de \"La Sole des Moines\" ?",
    "Quels sont les facteurs qui ont contribué à la conservation de ce bâtiment ?",
    "Quels sont les éléments architecturaux notables de \"La Sole des Moines\" ?",
    "Quels sont les liens historiques ou culturels avec d'autres bâtiments ou sites ?",
    "Quels sont les défis actuels ou futurs pour la conservation de \"La Sole des Moines\" ?"
  ]
}