{
  "num": "autog_0249-2563_1982_num_15_11",
  "article": "autog_0249-2563_1982_num_15_11_1515",
  "page_name": "autog_0249-2563_1982_num_15_11_T1_0069_0000",
  "questions": [
    "Quels sont les rôles que les membres du groupe prennent à la place du promoteur ?",
    "Comment le groupe se structure initialement ?",
    "Quels sont les étapes du processus de recherche et sélection d'un terrain ?",
    "Comment le programme global et particulier à chaque famille sont-ils définis ?",
    "Comment le dossier financier est-il monté et quels types de demandes de prêt sont présentées ?",
    "Comment l'architecte est-il recruté ?",
    "Comment la société civile immobilière est-elle mise en place juridiquement ?",
    "Quels sont les tâches de gestion prises en charge par le groupe ?",
    "Comment le groupe réalise-t-il une économie ?",
    "Comment les frais financiers sont-ils supprimés ou réduits ?",
    "Comment les futurs habitants sont-ils impliqués dans le processus ?",
    "Quels types de dépenses sont supprimées ?",
    "Comment les frais sont-ils payés par les familles ?",
    "Quels sont les avantages financiers pour les familles ?",
    "Quel est le type de relations qui se développent entre les familles ?",
    "Comment le terme d'autogestion est-il utilisé dans ce contexte ?",
    "Quel est la signification de l'autogestion globale du fonctionnement du groupe ?"
  ]
}