{
  "num": "autog_0249-2563_1982_num_15_11",
  "article": "autog_0249-2563_1982_num_15_11_1515",
  "page_name": "autog_0249-2563_1982_num_15_11_T1_0072_0000",
  "questions": [
    "Quels groupes sont-ils plus récents et comment leur niveau social tend-il à s'élargir vers le bas ?",
    "Quelle conscience ont ces groupes de leur action dans le cadre d'un champ social plus vaste ?",
    "Quelles sont leurs volontés en conséquence ?",
    "Comment ces groupes agissent-ils pour transformer le processus de production de l'espace habité ?",
    "Comment les obstacles injustifiables sont-ils levés ?",
    "Peut-on qualifier ces groupes d'élitistes ou narcissiques ?",
    "Quel rôle jouent les membres les plus compétents ou personnalités dans la phase de construction ?",
    "Comment ces membres peuvent-ils jouer un rôle de leader au-delà de l'égalité des membres ?",
    "Comment sont-ils contrôlés par le groupe et soumis aux règles de décision ?",
    "Quelle animosité est révélée chez les professionnels du bâtiment à l'égard des opérations de participation ?",
    "Comment se traduit-elle ?",
    "Est-ce que la compétence de ces professionnels est réellement mise en question par ces pratiques ?",
    "Est-ce que leur profession est remise en cause ?",
    "Quelle différence établit-on entre les opérations de promotion et celles de participation ?",
    "Sont-il incompatibles urgence et production de masse, d'une part, et qualité du programme et de l'appropriation, d'autre part ?"
  ]
}