{
  "num": "autog_0249-2563_1982_num_15_11",
  "article": "autog_0249-2563_1982_num_15_11_1515",
  "page_name": "autog_0249-2563_1982_num_15_11_T1_0055_0000",
  "questions": [
    "Quels rapports sociaux et entre quelles entités sociales sont-ils une image et un indice dans l'espace bâti ?",
    "Comment le droit et l'espace sont-ils des catégories de la durée et quels décalages entre forme instituée et pratique effective peuvent-ils subir ?",
    "Comment le droit et l'espace diffèrent dans leur champ d'application, dans leur mode d'incitation ou de coercition ?",
    "Quels sont les nouveaux modes d'élaboration des structures spatiales avec la constitution de ces groupes ?",
    "Quels sont les tendances différentes recouvertes par les termes de groupe d'habitat ?",
    "Comment les groupes décrits mettent-ils en évidence ces tendances différentes ?"
  ]
}