{
  "num": "autog_0338-7259_1975_num_32_1",
  "article": "autog_0338-7259_1975_num_32_1_1143",
  "page_name": "FMSH_PB188a_00032_078",
  "questions": [
    "Quel est le rôle des membres d'une entreprise autogérée dans le contrôle, la direction et l'exploitation de leur entreprise commune ?",
    "Comment le contrôle et la direction d'une entreprise autogérée diffèrent-ils de celles d'une entreprise capitaliste ?",
    "Quels sont les droits associés à la possession dans une organisation économique basée sur l'autogestion ?",
    "Comment les droits associés à la possession doivent-ils être répartis entre la communauté de travail et des personnes, agences ou institutions extérieures ?",
    "Comment la rémunération des propriétaires du capital dans une entreprise autogérée est-elle différente de celle dans un système capitaliste ?",
    "Quel est le rôle des propriétaires du capital dans une entreprise autogérée ?",
    "Comment la nouvelle conception des droits de possession et de propriété est-elle importante pour le concept d'autogestion ?"
  ]
}