{
  "num": "autog_0338-7259_1975_num_32_1",
  "article": "autog_0338-7259_1975_num_32_1_1143",
  "page_name": "FMSH_PB188a_00032_091",
  "questions": [
    "Quels sont les conditions assurant le fonctionnement des entreprises autogérées conforme aux intérêts supérieurs de la communauté ?",
    "Quels travailleurs sont interdits d'embauche dans les entreprises autogérées ?",
    "Quel rôle doit jouer la « société de soutien» en matière d'information ?",
    "Quels sont les droits réservés à la « société de soutien» en cas de difficultés financières d'une entreprise autogérée ?",
    "Quel est le rôle de la «société de soutien» au-delà de celui d'intermédiaire financier ?",
    "Comment doit être organisée la répartition du contrôle dans les entreprises autogérées ?",
    "Comment les fonds doivent-ils être obtenus dans les entreprises autogérées ?",
    "Quels types de sociétés peuvent adopter le statut d'entreprises autogérées ?",
    "Existe-t-il des lois spécifiques pour les entreprises autogérées ?",
    "Pourquoi peuvent-elles adopter un statut courant de société commerciale ?"
  ]
}