{
  "num": "autog_0338-7259_1975_num_32_1",
  "article": "autog_0338-7259_1975_num_32_1_1143",
  "page_name": "FMSH_PB188a_00032_090",
  "questions": [
    "Quels types de contributions peuvent être reconnues par les services fiscaux pour une « société de soutien » considérée comme une œuvre de bienfaisance ?",
    "Quels autres moyens de levée de fonds peut utiliser une « société de soutien » ?",
    "Quel avantage fiscal peut obtenir un propriétaire en louant ses biens à une « société de soutien » ?",
    "Comment peuvent les économies personnelles des membres d'une communauté autogérée être utilisées par une « société de soutien » ?",
    "Comment peut une « société de soutien» gérer les réserves financières d'une caisse de retraite ?",
    "Quels procédures traditionnelles peuvent être utilisées par une « société de soutien» pour attribuer des capitaux aux entreprises autogérées ?",
    "Comment peut une « société de soutien» gérer les plus-values en capital des entreprises autogérées ?",
    "Quels facteurs de production doit-on exiger un revenu convenable et écartés lors de la réalisation des plus-values en capital des entreprises autogérées ?",
    "Comment impose-t-on des capitaux aux entreprises autogérées par une « société de soutien » ?"
  ]
}