{
  "num": "autog_0338-7259_1975_num_32_1",
  "article": "autog_0338-7259_1975_num_32_1_1143",
  "page_name": "FMSH_PB188a_00032_083",
  "questions": [
    "Quel est le lieu de naissance du principe d'autogestion industrielle décrit dans le texte ?",
    "Quel est le caractère spécifique de la participation dans une entreprise autogérée selon le texte ?",
    "Quel est le sort du contrat de travail traditionnel dans une entreprise autogérée ?",
    "Quel est le rôle de la collectivité de travail dans l'embauche d'un employé dans une entreprise autogérée ?",
    "Quel est le but de l'abolition de la propriété individuelle dans une entreprise autogérée ?",
    "Quel est le rôle de la motivation et de l'intérêt des membres de la collectivité de travail dans une entreprise autogérée ?",
    "Quel est le rôle de la direction et du contrôle du capital dans une entreprise autogérée ?",
    "Quel est le rôle de la propriété et du droit à un revenu dans une entreprise autogérée ?",
    "Quel est le financement idéal d'une entreprise autogérée selon le texte ?",
    "Quel est le sort de la dette dans une entreprise autogérée selon le texte ?",
    "Quel est le rôle des particuliers dans l'acquisition d'actions d'une entreprise autogérée selon le texte ?",
    "Pour en savoir plus sur les considérations économiques fondamentales de la financement et de la forme de la propriété dans une entreprise autogérée, où peut-on consulter ?"
  ]
}