{
  "num": "autog_0338-7259_1975_num_32_1",
  "article": "autog_0338-7259_1975_num_32_1_1143",
  "page_name": "FMSH_PB188a_00032_097",
  "questions": [
    "Quel est le taux maximal d'écart entre les revenus des différentes catégories de travailleurs à Mondragon ?",
    "Quel est le taux maximal d'écart entre les revenus des différentes catégories de travailleurs dans certaines sociétés américaines ?",
    "Comment les prévisions de bénéfices permettent-elles d'établir l'équité sociale ?",
    "Comment la répartition des revenus individuels entre sommes fixées et sommes résiduelles satisfait-elle les préférences de chacun ?",
    "Quel est le problème des plus-values en capital et comment il est lié au choix du mode de répartition des bénéfices ?",
    "Comment fonctionne le mécanisme régulant la représentation de la communauté et des entreprises autogérées au sein de la «société de soutien» ?",
    "Quels décisions peuvent être prises par l'organisme constitué et comment les membres de la communauté autogérée choisissent-ils la solution convenable ?",
    "Pourquoi une communauté autogérée est-elle organisée et gérée de façon démocratique ?",
    "Quel est le fondement démocratique de la communauté et de l'entreprise autogérées et comment il implique-t-il un profond engagement de chacun et la souplesse de décision ?"
  ]
}