{
  "num": "autog_0249-2563_1984_num_17_16",
  "article": "autog_0249-2563_1984_num_17_16_1896_t1_0121_0000_4",
  "page_name": "autog_0249-2563_1984_num_17_16_T1_0121_0000",
  "questions": [
    "Quel est le contexte historique qui a conduit à la prise de conscience de la nécessité de réfléchir sur les pratiques des SCOP ?",
    "Quels sont les auteurs de ce rapport de synthèse sur les interactions économiques et sociales dans les SCOP ?",
    "Quel est le but de cette recherche sur les SCOP ?",
    "Comment cette recherche s'est-elle distinguée des études précédentes sur les SCOP ?",
    "Quels sont les « moments » de la vie des SCOP analysés dans cette recherche ?",
    "Quels sont les principaux facteurs de différenciation et d'homogénéisation propres aux pratiques coopératives ?",
    "Comment les travailleurs expriment et interviennent dans l'organisation et la gestion des SCOP ?",
    "Comment cette étude s'organise-t-elle ?",
    "Quel est le contexte historique dans lequel la Chine commence à s'intéresser à l'autogestion yougoslave ?",
    "Comment la Chine a-t-elle cherché à introduire plus de souplesse dans son industrie coincée par une centralisation excessive ?",
    "Quel est le rôle officiel du PCC dans l'introduction de l'autogestion en Chine ?",
    "Dans quelle province de Chine a-t-on mis en place cette expérience d'autogestion ?"
  ]
}