{
  "num": "autog_0338-7259_1977_num_37_1",
  "article": "autog_0338-7259_1977_num_37_1_1247",
  "page_name": "FMSH_PB188a_37-38_224",
  "questions": [
    {
      "id_qa": "FMSH_PB188a_37-38_224_qa1_v3",
      "id_block": "block_11",
      "question": "Qu'est ce qui est écrit par les travailleurs ?",
      "answer": "Textes",
      "answer_stringIds": [
        "string_X"
      ]
    },
    {
      "id_qa": "FMSH_PB188a_37-38_224_qa2_v3",
      "id_block": "block_11",
      "question": "Qui écrit les textes ?",
      "answer": "les travailleurs",
      "answer_stringIds": [
        "string_X"
      ]
    },
    {
      "id_qa": "FMSH_PB188a_37-38_224_qa0_v3",
      "id_block": "block_2",
      "question": "Qui discutent d'euxmêmes ?",
      "answer": "Les Conseils ouvriers",
      "answer_stringIds": [
        "string_X"
      ]
    }
  ]
}