{
  "num": "autog_0338-7259_1972_num_20_1",
  "article": "autog_0338-7259_1972_num_20_1_1073_t1_0215_0000_2",
  "page_name": "FMSH_PB188a_20-21_218",
  "questions": [
    {
      "id_qa": "FMSH_PB188a_20-21_218_qa10_v3",
      "id_block": "block_1",
      "question": "Qui se réuniront ensuite dans chaque ville pour former le comité central de chaque branche d'industrie ?",
      "answer": "Ces comités",
      "answer_stringIds": [
        "string_33",
        "string_34"
      ]
    },
    {
      "id_qa": "FMSH_PB188a_20-21_218_qa36_v3",
      "id_block": "block_1",
      "question": "Qu'est-ce qui doit être l'affaire des comités d'usine ?",
      "answer": "le contrôle",
      "answer_stringIds": [
        "string_23",
        "string_24"
      ]
    },
    {
      "id_qa": "FMSH_PB188a_20-21_218_qa14_v3",
      "id_block": "block_2",
      "question": "Par qui est combattue cette opposition de gauche ?",
      "answer": "les syndicats",
      "answer_stringIds": [
        "string_68",
        "string_69"
      ]
    },
    {
      "id_qa": "FMSH_PB188a_20-21_218_qa29_v3",
      "id_block": "block_3",
      "question": "Qui mentionne le nom de Didier Limon dans ses sources ?",
      "answer": "Martinet",
      "answer_stringIds": [
        "string_109"
      ]
    },
    {
      "id_qa": "FMSH_PB188a_20-21_218_qa0_v3",
      "id_block": "block_4",
      "question": "Qu'est ce que Martinet étudie après la naissance du \"système\" ?",
      "answer": "le système lui-même",
      "answer_stringIds": [
        "string_216",
        "string_217",
        "string_218"
      ]
    },
    {
      "id_qa": "FMSH_PB188a_20-21_218_qa1_v3",
      "id_block": "block_4",
      "question": "Qui étudie la crise du système ?",
      "answer": "Martinet",
      "answer_stringIds": [
        "string_109"
      ]
    },
    {
      "id_qa": "FMSH_PB188a_20-21_218_qa2_v3",
      "id_block": "block_4",
      "question": "Quand Martinet étudie-t-il le système ?",
      "answer": "Après la naissance du « système",
      "answer_stringIds": [
        "string_206",
        "string_207",
        "string_208",
        "string_209",
        "string_210",
        "string_211"
      ]
    },
    {
      "id_qa": "FMSH_PB188a_20-21_218_qa3_v3",
      "id_block": "block_4",
      "question": "Qui est amené à renforcer le parti ?",
      "answer": "Lénine et Trotsky",
      "answer_stringIds": [
        "string_185",
        "string_186",
        "string_187"
      ]
    },
    {
      "id_qa": "FMSH_PB188a_20-21_218_qa5_v3",
      "id_block": "block_4",
      "question": "Qui critiquait la bureaucratie ?",
      "answer": "Lénine et Trotsky",
      "answer_stringIds": [
        "string_185",
        "string_186",
        "string_187"
      ]
    },
    {
      "id_qa": "FMSH_PB188a_20-21_218_qa6_v3",
      "id_block": "block_4",
      "question": "Qui est à l'origine du militariser ?",
      "answer": "Lénine et Trotsky",
      "answer_stringIds": [
        "string_185",
        "string_186",
        "string_187"
      ]
    },
    {
      "id_qa": "FMSH_PB188a_20-21_218_qa20_v3",
      "id_block": "block_4",
      "question": "De quand date la crise du système soviétique ?",
      "answer": "depuis 1960",
      "answer_stringIds": [
        "string_233",
        "string_234"
      ]
    },
    {
      "id_qa": "FMSH_PB188a_20-21_218_qa21_v3",
      "id_block": "block_4",
      "question": "Qui a ouvert le système soviétique à l'ouest ?",
      "answer": "par Khrouchtchev",
      "answer_stringIds": [
        "string_267",
        "string_268"
      ]
    },
    {
      "id_qa": "FMSH_PB188a_20-21_218_qa39_v3",
      "id_block": "block_4",
      "question": "Qu'est ce que Martinet étudie ?",
      "answer": "la naissance du système",
      "answer_stringIds": [
        "string_164",
        "string_165",
        "string_166",
        "string_167"
      ]
    },
    {
      "id_qa": "FMSH_PB188a_20-21_218_qa40_v3",
      "id_block": "block_4",
      "question": "Qui étudie la naissance du système ?",
      "answer": "Martinet",
      "answer_stringIds": [
        "string_109"
      ]
    },
    {
      "id_qa": "FMSH_PB188a_20-21_218_qa22_v3",
      "id_block": "block_6",
      "question": "Qui dépose le projet de loi fondamentale sur lautogestion des entreprises ?",
      "answer": "Tito",
      "answer_stringIds": [
        "string_332"
      ]
    },
    {
      "id_qa": "FMSH_PB188a_20-21_218_qa23_v3",
      "id_block": "block_6",
      "question": "Qui donne les puuvoirs de gestion aux entreprises ?",
      "answer": "collectifs ouvriers",
      "answer_stringIds": [
        "string_359",
        "string_360"
      ]
    },
    {
      "id_qa": "FMSH_PB188a_20-21_218_qa24_v3",
      "id_block": "block_6",
      "question": "Qu'est-ce que la loi fondamentale ?",
      "answer": "des entreprises",
      "answer_stringIds": [
        "string_278",
        "string_279"
      ]
    },
    {
      "id_qa": "FMSH_PB188a_20-21_218_qa25_v3",
      "id_block": "block_6",
      "question": "Que donne la loi fondamentale sur lautogestion des entreprises ?",
      "answer": "les puuvoirs de gestion",
      "answer_stringIds": [
        "string_353",
        "string_354",
        "string_355",
        "string_356"
      ]
    },
    {
      "id_qa": "FMSH_PB188a_20-21_218_qa34_v3",
      "id_block": "block_6",
      "question": "Quelle est la deuxième partie consacrée à la Yougoslavie ?",
      "answer": "Autogestion et marché",
      "answer_stringIds": [
        "string_308",
        "string_309",
        "string_310"
      ]
    },
    {
      "id_qa": "FMSH_PB188a_20-21_218_qa38_v3",
      "id_block": "block_6",
      "question": "Qu'est ce qui change à la base économique ?",
      "answer": "ce changement de superstructure juridique",
      "answer_stringIds": [
        "string_372",
        "string_373",
        "string_374",
        "string_375",
        "string_376"
      ]
    }
  ]
}