{
  "num": "autog_0338-7259_1978_num_40_1",
  "article": "autog_0338-7259_1978_num_40_1_1286_t1_0138_0000_2",
  "page_name": "FMSH_PB188a_00040_139",
  "questions": [
    {
      "id_qa": "FMSH_PB188a_00040_139_qa8_v3",
      "id_block": "block_1",
      "question": "A quelle société appartient notre expérience de travailleuses, de femmes ?",
      "answer": "à la société autogestionnaire",
      "answer_stringIds": [
        "string_46",
        "string_47",
        "string_48",
        "string_49"
      ]
    },
    {
      "id_qa": "FMSH_PB188a_00040_139_qa9_v3",
      "id_block": "block_1",
      "question": "Que permet notre expérience de travailleuses, de femmes ?",
      "answer": "donner un contenu plus riche à la société autogestionnaire",
      "answer_stringIds": [
        "string_41",
        "string_42",
        "string_43",
        "string_44",
        "string_45",
        "string_46",
        "string_47",
        "string_48",
        "string_49"
      ]
    },
    {
      "id_qa": "FMSH_PB188a_00040_139_qa10_v3",
      "id_block": "block_1",
      "question": "Qu'est-ce qui permet aux travailleurs de participer ?",
      "answer": "à la détermination des choix économiques et politiques",
      "answer_stringIds": [
        "string_8",
        "string_9",
        "string_10",
        "string_11",
        "string_12",
        "string_13",
        "string_14",
        "string_15"
      ]
    },
    {
      "id_qa": "FMSH_PB188a_00040_139_qa11_v3",
      "id_block": "block_1",
      "question": "Qu'est ce qui permet aux travailleurs de participer ?",
      "answer": "choix économiques et politiques",
      "answer_stringIds": [
        "string_12",
        "string_13",
        "string_14",
        "string_15"
      ]
    },
    {
      "id_qa": "FMSH_PB188a_00040_139_qa29_v3",
      "id_block": "block_6",
      "question": "Qui est l'auteur de l'autogestion ?",
      "answer": "Denis de Rougemont",
      "answer_stringIds": [
        "string_156",
        "string_157",
        "string_158"
      ]
    },
    {
      "id_qa": "FMSH_PB188a_00040_139_qa36_v3",
      "id_block": "block_6",
      "question": "Qui parle de l'autogestion ?",
      "answer": "Denis de Rougemont",
      "answer_stringIds": [
        "string_156",
        "string_157",
        "string_158"
      ]
    },
    {
      "id_qa": "FMSH_PB188a_00040_139_qa33_v3",
      "id_block": "block_6",
      "question": "Qui exerce les pouvoirs de décision politique et de contrôle ?",
      "answer": "qui les",
      "answer_stringIds": [
        "string_317",
        "string_318"
      ]
    },
    {
      "id_qa": "FMSH_PB188a_00040_139_qa34_v3",
      "id_block": "block_6",
      "question": "Par qui est géré l'autogestion ?",
      "answer": "les communautés",
      "answer_stringIds": [
        "string_428",
        "string_429"
      ]
    }
  ]
}