{
  "num": "autog_0338-7259_1970_num_11_1",
  "article": "autog_0338-7259_1970_num_11_1_968",
  "page_name": "FMSH_PB188a_11-12_185",
  "questions": [
    "Quels sont les deux parties impliquées dans le problème sociologique des agriculteurs dans les coopératives ?",
    "Quel espace a été réservé aux responsables des exploitations particulières pour mettre en œuvre leur initiative dans les décisions des organes autonomes de la coopérative ?",
    "Comment les règles juridiques garantissaient l'influence des membres des coopératives sur l'activité de ces dernières ?",
    "Quels types de coopératives agricoles ont développé sur une grande échelle grâce aux mesures prises en rapport avec le système coopératif avant la guerre ?",
    "Quel renforcement de l'influence des petits agriculteurs dans les coopératives a été observé durant la période de transformation socialiste de l'agriculture tchécoslovaque ?",
    "Quel plan coopératif de Lénine a été mis en œuvre pour transformer notre production agricole socialiste ?",
    "Pourquoi ont les coopératives agricoles uniques été choisies pour unifier et orienter graduellement les activités des coopératives agricoles les plus variées ?"
  ]
}