{
  "num": "autog_0005-0970_1967_num_4_1",
  "article": "autog_0005-0970_1967_num_4_1_915",
  "page_name": "FMSH_PB188a_00004_169",
  "questions": [
    "Quels facteurs ont facilité la substitution des bolcheviks à la volonté et à la pensée d'une classe ouvrière vigoureuse ?",
    "Quel rôle joue-t-on considère Isaac Deutscher la classe objective et la superstructure idéologique dans la formation de la bureaucratie ?",
    "Est-la incapable la classe ouvrière russe de contrôler et gérer l'économie et l'État après la Révolution ?",
    "Est-ce que la bureaucratie est inévitable et historiquement progressive ?",
    "Quand et comment s'est produite la substitution du Parti au pouvoir et de sa direction au Parti ?",
    "Comment les conditions de désorganisation de l'économie, du déclassement du prolétariat, et de l'absence de culture et de cadres dans la classe ont contribué à la substitution du Parti à la classe ?",
    "Quel danger la constate Isaac Deutscher dans l'évolution de la Révolution russe et de la réponse de celle-ci ?"
  ]
}