{
  "num": "autog_0005-0970_1967_num_4_1",
  "article": "autog_0005-0970_1967_num_4_1_915",
  "page_name": "FMSH_PB188a_00004_172",
  "questions": [
    "Quel rapport organique existe-t-il entre la gestion économique et l'État dans le socialisme démocratique ?",
    "Quels marxistes sont-ils influencés par l'expérience soviétique ?",
    "Quelle lacune est-elle propre à ces marxistes ?",
    "Comment ont-ils pu dégager une théorie cohérente concernant la construction du socialisme dans la période actuelle ?",
    "Pourquoi l'expérience soviétique a-t-elle influencé si fort ces marxistes ?",
    "Quel phénomène est-il question dans le paragraphe en relation avec la bureaucratie ?",
    "Comment la démocratie socialiste est-elle impliquée dans ce rapport organique ?"
  ]
}