{
  "num": "autog_0005-0970_1967_num_4_1",
  "article": "autog_0005-0970_1967_num_4_1_915",
  "page_name": "FMSH_PB188a_00004_167",
  "questions": [
    "Quels problèmes la prise du pouvoir par les socialistes posait-elle selon Isaac Deutscher ?",
    "Quels types d'identifications schématiques et non dialectiques avaient été faites dans la littérature pré-révolutionnaire ?",
    "Quel manque était-il dans l'examen de la question de savoir ce que ferait la classe socialiste au pouvoir ?",
    "Quelle conviction naïve était-elle répandue quant à l'idée socialiste et la volonté du prolétariat ?",
    "Qu'était-il arrivé aux marxistes avant 1917 en matière de considération de la volonté de la classe ouvrière ?",
    "Comment étaient perçus la dictature du prolétariat et la démocratie prolétarienne par les bolcheviks ?",
    "Quel était le point de vue des dissidents bolcheviks sur la défense formelle de la « démocratie prolétarienne » dans les Soviets ?",
    "Quels langages tenait le parti bolchevique en 1917 ?",
    "Quels étaient les vues des dissidents bolcheviks sur le Parti et la classe ouvrière ?",
    "Pourquoi étaient-elles considérées comme idéalistes et utopistes par Isaac Deutscher ?",
    "Qu'était-il arrivé au Parti bolchevique entre 1920 et 1921 ?",
    "Quel était le point de vue de Isaac Deutscher sur le sort du Parti et de la république à la suite des revendications des dissidents bolcheviks ?"
  ]
}