{
  "num": "autog_0338-7259_1972_num_18_1",
  "article": "autog_0338-7259_1972_num_18_1_1049",
  "page_name": "FMSH_PB188a_18-19_253",
  "questions": [
    {
      "id_qa": "FMSH_PB188a_18-19_253_qa22_v3",
      "id_block": "block_2",
      "question": "Qu'est-ce que la révolution ?",
      "answer": "une autogestion totale de la vie",
      "answer_stringIds": [
        "string_115",
        "string_116",
        "string_117",
        "string_118",
        "string_119",
        "string_120"
      ]
    },
    {
      "id_qa": "FMSH_PB188a_18-19_253_qa23_v3",
      "id_block": "block_2",
      "question": "Qui s'organisera dès les premiers jours de la révolution ?",
      "answer": "la population laborieuse",
      "answer_stringIds": [
        "string_102",
        "string_103",
        "string_104"
      ]
    },
    {
      "id_qa": "FMSH_PB188a_18-19_253_qa1_v3",
      "id_block": "block_3",
      "question": "Qui soutient la révolution ?",
      "answer": "la population laborieuse",
      "answer_stringIds": [
        "string_102",
        "string_103",
        "string_104"
      ]
    },
    {
      "id_qa": "FMSH_PB188a_18-19_253_qa2_v3",
      "id_block": "block_3",
      "question": "Pour qui les forces armées de la révolution sont-elles nécessaires ?",
      "answer": "les conditions nécessaires pour la population laborieuse soutenant la révolution",
      "answer_stringIds": [
        "string_178",
        "string_179",
        "string_180",
        "string_181",
        "string_182",
        "string_183",
        "string_184",
        "string_185",
        "string_186",
        "string_187"
      ]
    },
    {
      "id_qa": "FMSH_PB188a_18-19_253_qa3_v3",
      "id_block": "block_3",
      "question": "Que peuvent faire les forces armées de la révolution ?",
      "answer": "vaincre les tenants et les défenseurs de lEtatisme",
      "answer_stringIds": [
        "string_166",
        "string_167",
        "string_168",
        "string_169",
        "string_170",
        "string_171",
        "string_172",
        "string_173"
      ]
    },
    {
      "id_qa": "FMSH_PB188a_18-19_253_qa5_v3",
      "id_block": "block_3",
      "question": "En quoi sont organisées les forces armées de la révolution ?",
      "answer": "en armées importantes ou en de nombreux détachements armés locaux",
      "answer_stringIds": [
        "string_153",
        "string_154",
        "string_155",
        "string_156",
        "string_157",
        "string_158",
        "string_159",
        "string_160",
        "string_161",
        "string_162"
      ]
    },
    {
      "id_qa": "FMSH_PB188a_18-19_253_qa6_v3",
      "id_block": "block_3",
      "question": "Contre qui les forces armées de la révolution peuvent-elles vaincre ?",
      "answer": "les tenants et les défenseurs de lEtatisme",
      "answer_stringIds": [
        "string_167",
        "string_168",
        "string_169",
        "string_170",
        "string_171",
        "string_172",
        "string_173"
      ]
    },
    {
      "id_qa": "FMSH_PB188a_18-19_253_qa7_v3",
      "id_block": "block_3",
      "question": "Qu'est-ce qui peut vaincre les tenants et les défenseurs de l'Etatisme ?",
      "answer": "les forces armées de la révolution",
      "answer_stringIds": [
        "string_146",
        "string_147",
        "string_148",
        "string_149",
        "string_150",
        "string_151"
      ]
    },
    {
      "id_qa": "FMSH_PB188a_18-19_253_qa8_v3",
      "id_block": "block_3",
      "question": "Qu'est ce qui permet de vaincre les tenants et les défenseurs de l'Etatisme ?",
      "answer": "les forces armées de la révolution",
      "answer_stringIds": [
        "string_146",
        "string_147",
        "string_148",
        "string_149",
        "string_150",
        "string_151"
      ]
    },
    {
      "id_qa": "FMSH_PB188a_18-19_253_qa10_v3",
      "id_block": "block_3",
      "question": "Qu'est ce qui ne peut que vaincre les tenants et les défenseurs de l'Etatisme ?",
      "answer": "les forces armées de la révolution",
      "answer_stringIds": [
        "string_146",
        "string_147",
        "string_148",
        "string_149",
        "string_150",
        "string_151"
      ]
    },
    {
      "id_qa": "FMSH_PB188a_18-19_253_qa27_v3",
      "id_block": "block_3",
      "question": "Sur quoi les anarchistes doivent-ils concentrer dès maintenant ?",
      "answer": "leur attention sur cet aspect de la Révolution",
      "answer_stringIds": [
        "string_133",
        "string_134",
        "string_135",
        "string_136",
        "string_137",
        "string_138",
        "string_139",
        "string_140"
      ]
    },
    {
      "id_qa": "FMSH_PB188a_18-19_253_qa29_v3",
      "id_block": "block_3",
      "question": "Qui doit concentrer son attention sur cet aspect de la Révolution ?",
      "answer": "Les anarchistes",
      "answer_stringIds": [
        "string_127",
        "string_128"
      ]
    },
    {
      "id_qa": "FMSH_PB188a_18-19_253_qa17_v3",
      "id_block": "block_4",
      "question": "Qu'est ce qui va freiner la croissance et le développement des travailleurs ?",
      "answer": "des nouveaux rapports",
      "answer_stringIds": [
        "string_233",
        "string_234",
        "string_235"
      ]
    },
    {
      "id_qa": "FMSH_PB188a_18-19_253_qa18_v3",
      "id_block": "block_4",
      "question": "Qu'est-ce que l'état pourra empêcher de multiples façons ?",
      "answer": "la nouvelle vie des travailleurs",
      "answer_stringIds": [
        "string_221",
        "string_222",
        "string_223",
        "string_224",
        "string_225"
      ]
    },
    {
      "id_qa": "FMSH_PB188a_18-19_253_qa19_v3",
      "id_block": "block_4",
      "question": "Qu'est ce que l'état pourra conserver ?",
      "answer": "quelques survivances locales",
      "answer_stringIds": [
        "string_211",
        "string_212",
        "string_213",
        "string_214"
      ]
    },
    {
      "id_qa": "FMSH_PB188a_18-19_253_qa25_v3",
      "id_block": "block_6",
      "question": "Qu'est ce qui doit prendre la forme de soviets libres ?",
      "answer": "Ces structures",
      "answer_stringIds": [
        "string_279",
        "string_280"
      ]
    }
  ]
}