{
  "num": "autog_0005-0970_1967_num_4_1",
  "article": "autog_0005-0970_1967_num_4_1_916_t1_0179_0000_1",
  "page_name": "FMSH_PB188a_00004_184",
  "questions": [
    {
      "id_qa": "FMSH_PB188a_00004_184_qa0_v3",
      "id_block": "block_1",
      "question": "D'où venaient les affirmations ?",
      "answer": "de ce même appareil russe",
      "answer_stringIds": [
        "string_114",
        "string_115",
        "string_116",
        "string_117",
        "string_118"
      ]
    },
    {
      "id_qa": "FMSH_PB188a_00004_184_qa4_v3",
      "id_block": "block_1",
      "question": "Qu'est-ce qui a décidé en dernier ressort de l'avenir du bolchevisme ?",
      "answer": "la lutte des idées",
      "answer_stringIds": [
        "string_143",
        "string_144",
        "string_145",
        "string_146"
      ]
    },
    {
      "id_qa": "FMSH_PB188a_00004_184_qa6_v3",
      "id_block": "block_1",
      "question": "Comment s'est déroulée la lutte des idées à cette époque ?",
      "answer": "décisive",
      "answer_stringIds": [
        "string_153"
      ]
    },
    {
      "id_qa": "FMSH_PB188a_00004_184_qa11_v3",
      "id_block": "block_1",
      "question": "Qu'est-ce qui menace les bolcheviks ?",
      "answer": "la révolution",
      "answer_stringIds": [
        "string_77",
        "string_78"
      ]
    },
    {
      "id_qa": "FMSH_PB188a_00004_184_qa13_v3",
      "id_block": "block_1",
      "question": "Qui sont les adversaires de la révolution ?",
      "answer": "des bolcheviks",
      "answer_stringIds": [
        "string_215",
        "string_216"
      ]
    },
    {
      "id_qa": "FMSH_PB188a_00004_184_qa14_v3",
      "id_block": "block_1",
      "question": "Comment s'organise le regroupement des bolcheviks ?",
      "answer": "en Opposition de gauche",
      "answer_stringIds": [
        "string_240",
        "string_241",
        "string_242",
        "string_243"
      ]
    },
    {
      "id_qa": "FMSH_PB188a_00004_184_qa17_v3",
      "id_block": "block_1",
      "question": "Qui dirige l'administration économique de la république ouvrière ?",
      "answer": "par les producteurs",
      "answer_stringIds": [
        "string_22",
        "string_23",
        "string_24"
      ]
    },
    {
      "id_qa": "FMSH_PB188a_00004_184_qa18_v3",
      "id_block": "block_1",
      "question": "Qu'est-ce que les comités d'usines et d'ateliers ?",
      "answer": "la production",
      "answer_stringIds": [
        "string_35",
        "string_36"
      ]
    },
    {
      "id_qa": "FMSH_PB188a_00004_184_qa20_v3",
      "id_block": "block_1",
      "question": "Qui a demandé à l'Opposition ouvrière l'impossible ?",
      "answer": "Lénine",
      "answer_stringIds": [
        "string_40"
      ]
    },
    {
      "id_qa": "FMSH_PB188a_00004_184_qa34_v3",
      "id_block": "block_1",
      "question": "Qu'est-ce qui risque de s'enliser ?",
      "answer": "la révolution",
      "answer_stringIds": [
        "string_77",
        "string_78"
      ]
    },
    {
      "id_qa": "FMSH_PB188a_00004_184_qa35_v3",
      "id_block": "block_1",
      "question": "Qui a mis en garde le parti contre le danger de la bureaucratie ?",
      "answer": "Lénine",
      "answer_stringIds": [
        "string_40"
      ]
    },
    {
      "id_qa": "FMSH_PB188a_00004_184_qa45_v3",
      "id_block": "block_1",
      "question": "Qui a écrit sur le Cours nouveau ?",
      "answer": "la lettre de Trotsky",
      "answer_stringIds": [
        "string_190",
        "string_191",
        "string_192",
        "string_193"
      ]
    },
    {
      "id_qa": "FMSH_PB188a_00004_184_qa28_v3",
      "id_block": "block_2",
      "question": "Qui critique l'opposition ?",
      "answer": "Boukharine",
      "answer_stringIds": [
        "string_303"
      ]
    },
    {
      "id_qa": "FMSH_PB188a_00004_184_qa31_v3",
      "id_block": "block_2",
      "question": "Quand Boukharine critique-t-il l'opposition ?",
      "answer": "fin 1923",
      "answer_stringIds": [
        "string_326",
        "string_327"
      ]
    },
    {
      "id_qa": "FMSH_PB188a_00004_184_qa36_v3",
      "id_block": "block_2",
      "question": "Qu'est-ce qui est plus facile de dénigrer que de défendre les excellentes qualités de notre appareil administratif ?",
      "answer": "le travail de ces",
      "answer_stringIds": [
        "string_370",
        "string_371",
        "string_372",
        "string_373"
      ]
    },
    {
      "id_qa": "FMSH_PB188a_00004_184_qa37_v3",
      "id_block": "block_2",
      "question": "Qui tire la conclusion ?",
      "answer": "Staline qui",
      "answer_stringIds": [
        "string_353",
        "string_354"
      ]
    },
    {
      "id_qa": "FMSH_PB188a_00004_184_qa24_v3",
      "id_block": "block_3",
      "question": "Quelle est la conséquence de la mort de Lénine ?",
      "answer": "encore plus âpre",
      "answer_stringIds": [
        "string_405",
        "string_406",
        "string_407"
      ]
    },
    {
      "id_qa": "FMSH_PB188a_00004_184_qa25_v3",
      "id_block": "block_3",
      "question": "Qui est mort en 1924 ?",
      "answer": "de Lénine",
      "answer_stringIds": [
        "string_176",
        "string_177"
      ]
    },
    {
      "id_qa": "FMSH_PB188a_00004_184_qa26_v3",
      "id_block": "block_3",
      "question": "Qu'est ce qui va devenir plus âpre avec la mort de Lénine ?",
      "answer": "la lutte",
      "answer_stringIds": [
        "string_143",
        "string_144"
      ]
    },
    {
      "id_qa": "FMSH_PB188a_00004_184_qa40_v3",
      "id_block": "block_3",
      "question": "Quelle est la tendance du stalinisme ?",
      "answer": "une tendance du bolchevisme",
      "answer_stringIds": [
        "string_466",
        "string_467",
        "string_468",
        "string_469",
        "string_470"
      ]
    },
    {
      "id_qa": "FMSH_PB188a_00004_184_qa54_v3",
      "id_block": "block_3",
      "question": "Qu'a entraîné le prolétariat du pays victorieux ?",
      "answer": "la paysannerie",
      "answer_stringIds": [
        "string_613",
        "string_614"
      ]
    },
    {
      "id_qa": "FMSH_PB188a_00004_184_qa55_v3",
      "id_block": "block_3",
      "question": "Qu'est ce que le prolétariat du pays victorieux peut et doit édifier ?",
      "answer": "la société socialiste",
      "answer_stringIds": [
        "string_628",
        "string_629",
        "string_630"
      ]
    },
    {
      "id_qa": "FMSH_PB188a_00004_184_qa56_v3",
      "id_block": "block_3",
      "question": "Qu'est-ce que le prolétariat du pays victorieux peut et doit construire ?",
      "answer": "édifier la société socialiste",
      "answer_stringIds": [
        "string_627",
        "string_628",
        "string_629",
        "string_630"
      ]
    },
    {
      "id_qa": "FMSH_PB188a_00004_184_qa57_v3",
      "id_block": "block_3",
      "question": "Qu'est-ce qui doit édifier la société socialiste ?",
      "answer": "le prolétariat du pays victorieux",
      "answer_stringIds": [
        "string_618",
        "string_619",
        "string_620",
        "string_621",
        "string_622",
        "string_623"
      ]
    },
    {
      "id_qa": "FMSH_PB188a_00004_184_qa60_v3",
      "id_block": "block_3",
      "question": "Qu'est-ce qui a entraîné la paysannerie à sa suite ?",
      "answer": "son pouvoir",
      "answer_stringIds": [
        "string_609",
        "string_610"
      ]
    },
    {
      "id_qa": "FMSH_PB188a_00004_184_qa65_v3",
      "id_block": "block_3",
      "question": "Qui écrivit les textes contradictoires entre 1924 et 1926 ?",
      "answer": "Staline",
      "answer_stringIds": [
        "string_353"
      ]
    },
    {
      "id_qa": "FMSH_PB188a_00004_184_qa68_v3",
      "id_block": "block_3",
      "question": "Entre quelles années Staline écrivit-il des textes contradictoires ?",
      "answer": "entre 1924 et 1926",
      "answer_stringIds": [
        "string_521",
        "string_522",
        "string_523",
        "string_524"
      ]
    },
    {
      "id_qa": "FMSH_PB188a_00004_184_qa72_v3",
      "id_block": "block_3",
      "question": "Quel est le programme du parti bolchevique derrière Staline ?",
      "answer": "avec le programme de la révolution mondiale",
      "answer_stringIds": [
        "string_444",
        "string_445",
        "string_446",
        "string_447",
        "string_448",
        "string_449",
        "string_450"
      ]
    },
    {
      "id_qa": "FMSH_PB188a_00004_184_qa76_v3",
      "id_block": "block_3",
      "question": "Où Staline écrit-il le 30 avril 1924 ?",
      "answer": "dans la Pravda",
      "answer_stringIds": [
        "string_254",
        "string_255",
        "string_256"
      ]
    },
    {
      "id_qa": "FMSH_PB188a_00004_184_qa77_v3",
      "id_block": "block_3",
      "question": "Qui écrit-il dans la Pravda ?",
      "answer": "Staline",
      "answer_stringIds": [
        "string_353"
      ]
    },
    {
      "id_qa": "FMSH_PB188a_00004_184_qa78_v3",
      "id_block": "block_3",
      "question": "Quand Staline écrit-il dans la Pravda ?",
      "answer": "le 30 avril 1924",
      "answer_stringIds": [
        "string_536",
        "string_537",
        "string_538",
        "string_539"
      ]
    }
  ]
}