{
  "num": "autog_0249-2563_1980_num_13_4",
  "article": "autog_0249-2563_1980_num_13_4_1399",
  "page_name": "autog_0249-2563_1980_num_13_4_T1_0485_0000",
  "questions": [
    "Quel événement est-il question ici qui a montré une certaine paradoxe ou ironie concernant la présidence à vie d'un pays autogestionnaire?",
    "Pourquoi cette présidence à vie pourrait-elle être considérée comme une antinomie magique permettant la fonctionnement de la fédération autogestionnaire yougoslave?",
    "Quel rôle pouvait-on attribuer à l'« acharnement thérapeutique » dans cette situation?",
    "Comment les institutions fonctionnaient-elles sans Tito, avec sa seule présence symbolique à l'orée des limbes?",
    "Qu'attendaient tous les gens, redoutaient-ils des débuts de l'après-titisme?",
    "Quel était le statut de l'autogestion yougoslave dans la revue Autogestion et socialisme entre 1966 et 1978?",
    "Quels mécanismes autogestionnaires constitutionnels assuraient-ils que tout irait pour le mieux dans le meilleur des mondes autogestionnaires?",
    "Pourquoi serait-il imprudent et insuffisamment fondé d'affirmer que tout irait pour le mieux dans le meilleur des mondes autogestionnaires?"
  ]
}