{
  "num": "autog_0249-2563_1981_num_14_5",
  "article": "autog_0249-2563_1981_num_14_5_1415",
  "page_name": "autog_0249-2563_1981_num_14_5_T1_0088_0000",
  "questions": [
    "Quel est le but de la direction du syndicat par ses membres ?",
    "Pourquoi les réunions récentes n'ont-elles pas abouti à des résultats ?",
    "Quel pourcentage des membres d'une section d'électriciens a été représenté récemment ?",
    "Qu'implique la possibilité d'élire des gens accidentels au conseil ?",
    "Quel est le rôle important des élections dans les tâches du syndicat ?",
    "Comment a été conçue la procédure électorale pour empêcher l'accès au pouvoir de gens indésirables ?",
    "Y a-t-il des candidats imposés par en haut dans les élections ?",
    "Est-ce que le scrutin est secret et le même pour tous ?",
    "Comment peut-on vraiment élire conformément à la volonté de la majorité ?",
    "Quand ont lieu les élections et quels sont les conséquences pour ceux qui ne peuvent y être présents ?",
    "Comment ont-elles été annoncées à l'avance et quels sont les conséquences pour ceux qui ne peuvent y être présents ?",
    "Quels sont les conséquences pour les femmes et les gens qui ont des enfants qui ne peuvent pas être présents à la réunion ?",
    "Qu'appelle le document \"l'ancien style de travail\" et pourquoi est-il à retourner ?",
    "Qu'est le rôle du conseil ouvrier provisoire dans l'organisation du travail ?"
  ]
}