{
  "num": "autog_0249-2563_1981_num_14_5",
  "article": "autog_0249-2563_1981_num_14_5_1415",
  "page_name": "autog_0249-2563_1981_num_14_5_T1_0086_0000",
  "questions": [
    "Quels événements ont donné naissance à des prémices d'une Pologne authentique engagée des ouvriers ?",
    "Quand se sont produits ces événements ?",
    "Quels travailleurs ont été impliqués dans ces événements ?",
    "Quelles entreprises et écoles supérieures étaient impliquées à Varsovie ?",
    "Quel rôle avaient ces travailleurs dans le but de rétablir une vie normale dans le pays ?",
    "Quel type de nouvelle manière les ouvriers souhaitaient voir naître en Pologne ?"
  ]
}