{
  "num": "autog_0005-0970_1969_num_9_1",
  "article": "autog_0005-0970_1969_num_9_1_955",
  "page_name": "FMSH_PB188a_09-10_116",
  "questions": [
    {
      "id_qa": "FMSH_PB188a_09-10_116_qa26_v3",
      "id_block": "block_1",
      "question": "Qu'est ce que la direction de la R.I.V. demandait à la direction ?",
      "answer": "ce conseil de gestion",
      "answer_stringIds": [
        "string_121",
        "string_122",
        "string_123",
        "string_124"
      ]
    },
    {
      "id_qa": "FMSH_PB188a_09-10_116_qa36_v3",
      "id_block": "block_1",
      "question": "Sur quoi furent faites les élections le 6 mai 1947 ?",
      "answer": "sur des listes",
      "answer_stringIds": [
        "string_156",
        "string_157",
        "string_158"
      ]
    },
    {
      "id_qa": "FMSH_PB188a_09-10_116_qa37_v3",
      "id_block": "block_1",
      "question": "Quand les élections ont-elles eu lieu ?",
      "answer": "le 6 mai 1947",
      "answer_stringIds": [
        "string_145",
        "string_146",
        "string_147",
        "string_148"
      ]
    },
    {
      "id_qa": "FMSH_PB188a_09-10_116_qa39_v3",
      "id_block": "block_1",
      "question": "Qu'est ce qui arriva le 6 mai 1947 ?",
      "answer": "aux élections",
      "answer_stringIds": [
        "string_151",
        "string_152"
      ]
    },
    {
      "id_qa": "FMSH_PB188a_09-10_116_qa42_v3",
      "id_block": "block_1",
      "question": "Qui n'acceptait pas la nouvelle institution ?",
      "answer": "la plupart des industriels",
      "answer_stringIds": [
        "string_74",
        "string_75",
        "string_76",
        "string_77"
      ]
    },
    {
      "id_qa": "FMSH_PB188a_09-10_116_qa45_v3",
      "id_block": "block_1",
      "question": "Quand fut votée la loi MorandiD'Aragona ?",
      "answer": "en février 1947",
      "answer_stringIds": [
        "string_48",
        "string_49",
        "string_50"
      ]
    },
    {
      "id_qa": "FMSH_PB188a_09-10_116_qa50_v3",
      "id_block": "block_1",
      "question": "Qui manifesta son hostilité envers les conseils ?",
      "answer": "A. De Gasperi",
      "answer_stringIds": [
        "string_85",
        "string_86",
        "string_87"
      ]
    },
    {
      "id_qa": "FMSH_PB188a_09-10_116_qa1_v3",
      "id_block": "block_2",
      "question": "Qu'est ce qui était accordé à la direction ?",
      "answer": "la collaboration",
      "answer_stringIds": [
        "string_294",
        "string_295"
      ]
    },
    {
      "id_qa": "FMSH_PB188a_09-10_116_qa2_v3",
      "id_block": "block_2",
      "question": "A qui était accordée la collaboration ?",
      "answer": "la direction",
      "answer_stringIds": [
        "string_112",
        "string_113"
      ]
    },
    {
      "id_qa": "FMSH_PB188a_09-10_116_qa5_v3",
      "id_block": "block_2",
      "question": "Qu'est ce que les conseils ne maintenaient pas ?",
      "answer": "leurs « promesses",
      "answer_stringIds": [
        "string_236",
        "string_237",
        "string_238"
      ]
    },
    {
      "id_qa": "FMSH_PB188a_09-10_116_qa6_v3",
      "id_block": "block_2",
      "question": "Qu'est ce qui ne maintenait pas leurs promesses ?",
      "answer": "Les conseils",
      "answer_stringIds": [
        "string_230",
        "string_231"
      ]
    },
    {
      "id_qa": "FMSH_PB188a_09-10_116_qa8_v3",
      "id_block": "block_2",
      "question": "Qu'est-ce qui était donné aux industriels dans un opuscule ?",
      "answer": "bon espoir",
      "answer_stringIds": [
        "string_251",
        "string_252"
      ]
    },
    {
      "id_qa": "FMSH_PB188a_09-10_116_qa9_v3",
      "id_block": "block_2",
      "question": "Qu'est-ce qui faisait monter un ouvrier robuste ?",
      "answer": "un diagramme de production",
      "answer_stringIds": [
        "string_268",
        "string_269",
        "string_270",
        "string_271",
        "string_272"
      ]
    },
    {
      "id_qa": "FMSH_PB188a_09-10_116_qa11_v3",
      "id_block": "block_2",
      "question": "A qui était destiné cet opuscule ?",
      "answer": "aux industriels",
      "answer_stringIds": [
        "string_253",
        "string_254"
      ]
    },
    {
      "id_qa": "FMSH_PB188a_09-10_116_qa13_v3",
      "id_block": "block_2",
      "question": "Qu'est-ce qui était représenté sur la page de garde ?",
      "answer": "un ouvrier robuste",
      "answer_stringIds": [
        "string_262",
        "string_263",
        "string_264"
      ]
    },
    {
      "id_qa": "FMSH_PB188a_09-10_116_qa14_v3",
      "id_block": "block_2",
      "question": "Qu'est-ce qui faisait monter un diagramme de production ?",
      "answer": "un ouvrier robuste",
      "answer_stringIds": [
        "string_262",
        "string_263",
        "string_264"
      ]
    },
    {
      "id_qa": "FMSH_PB188a_09-10_116_qa15_v3",
      "id_block": "block_2",
      "question": "Qu'est-ce que le diagramme de production ?",
      "answer": "cette ligne",
      "answer_stringIds": [
        "string_286",
        "string_287"
      ]
    },
    {
      "id_qa": "FMSH_PB188a_09-10_116_qa17_v3",
      "id_block": "block_2",
      "question": "Où était représenté le diagramme de production ?",
      "answer": "sur la page de garde",
      "answer_stringIds": [
        "string_257",
        "string_258",
        "string_259",
        "string_260",
        "string_261"
      ]
    },
    {
      "id_qa": "FMSH_PB188a_09-10_116_qa46_v3",
      "id_block": "block_2",
      "question": "Qu'est ce qui n'a pas été facile en pratique ?",
      "answer": "le conseil",
      "answer_stringIds": [
        "string_210",
        "string_211"
      ]
    },
    {
      "id_qa": "FMSH_PB188a_09-10_116_qa48_v3",
      "id_block": "block_2",
      "question": "Qu'est ce qui n'a pas eu la vie facile en pratique ?",
      "answer": "le conseil",
      "answer_stringIds": [
        "string_210",
        "string_211"
      ]
    },
    {
      "id_qa": "FMSH_PB188a_09-10_116_qa49_v3",
      "id_block": "block_2",
      "question": "Que n'aurait pas eu le conseil en pratique ?",
      "answer": "la vie facile",
      "answer_stringIds": [
        "string_215",
        "string_216",
        "string_217"
      ]
    }
  ]
}