{
  "num": "autog_0005-0970_1969_num_9_1",
  "article": "autog_0005-0970_1969_num_9_1_955",
  "page_name": "FMSH_PB188a_09-10_101",
  "questions": [
    {
      "id_qa": "FMSH_PB188a_09-10_101_qa12_v3",
      "id_block": "block_1",
      "question": "Que décide le conseil ouvrier en l'absence des dirigeants ?",
      "answer": "le travail même",
      "answer_stringIds": [
        "string_190",
        "string_191",
        "string_192"
      ]
    },
    {
      "id_qa": "FMSH_PB188a_09-10_101_qa13_v3",
      "id_block": "block_1",
      "question": "Qui décide de continuer le travail en l'absence des dirigeants ?",
      "answer": "le conseil ouvrier",
      "answer_stringIds": [
        "string_184",
        "string_185",
        "string_186"
      ]
    },
    {
      "id_qa": "FMSH_PB188a_09-10_101_qa14_v3",
      "id_block": "block_1",
      "question": "Qui décide de continuer le travail même en l'absence des dirigeants ?",
      "answer": "le conseil ouvrier",
      "answer_stringIds": [
        "string_184",
        "string_185",
        "string_186"
      ]
    },
    {
      "id_qa": "FMSH_PB188a_09-10_101_qa16_v3",
      "id_block": "block_1",
      "question": "Qui croit avoir trouvé la voie royale de la Révolution ?",
      "answer": "de PO.N.",
      "answer_stringIds": [
        "string_40",
        "string_41"
      ]
    },
    {
      "id_qa": "FMSH_PB188a_09-10_101_qa24_v3",
      "id_block": "block_1",
      "question": "Quand a eu lieu le dernier mouvement de grèves ouvrières ?",
      "answer": "Les 2 et 3 décembre",
      "answer_stringIds": [
        "string_110",
        "string_111",
        "string_112",
        "string_113",
        "string_114"
      ]
    },
    {
      "id_qa": "FMSH_PB188a_09-10_101_qa26_v3",
      "id_block": "block_1",
      "question": "Que se passe-t-il à la fin de février et dans les premiers jours de mars de l'année suivante ?",
      "answer": "quelques grèves ouvrières",
      "answer_stringIds": [
        "string_151",
        "string_152",
        "string_153"
      ]
    },
    {
      "id_qa": "FMSH_PB188a_09-10_101_qa27_v3",
      "id_block": "block_1",
      "question": "Que revêtent les grèves ouvrières à Ponte Canavese ?",
      "answer": "des aspects violents",
      "answer_stringIds": [
        "string_167",
        "string_168",
        "string_169"
      ]
    },
    {
      "id_qa": "FMSH_PB188a_09-10_101_qa30_v3",
      "id_block": "block_1",
      "question": "Quelle est la conséquence de l'émeute populaire à Sestri ?",
      "answer": "la ville aux mains de la population insurgée",
      "answer_stringIds": [
        "string_217",
        "string_218",
        "string_219",
        "string_220",
        "string_221",
        "string_222",
        "string_223",
        "string_224"
      ]
    },
    {
      "id_qa": "FMSH_PB188a_09-10_101_qa1_v3",
      "id_block": "block_2",
      "question": "Qui a pour effet d'inciter l'O.N. à s'organiser de manière efficace ?",
      "answer": "les industriels",
      "answer_stringIds": [
        "string_231",
        "string_232",
        "string_233"
      ]
    },
    {
      "id_qa": "FMSH_PB188a_09-10_101_qa3_v3",
      "id_block": "block_2",
      "question": "Qui encourage l'O.N. à s'organiser ?",
      "answer": "les industriels",
      "answer_stringIds": [
        "string_231",
        "string_232",
        "string_233"
      ]
    },
    {
      "id_qa": "FMSH_PB188a_09-10_101_qa7_v3",
      "id_block": "block_2",
      "question": "Qui encourage l'O.N. à s'organiser de manière efficace ?",
      "answer": "les industriels",
      "answer_stringIds": [
        "string_231",
        "string_232",
        "string_233"
      ]
    }
  ]
}