{
  "num": "autog_0005-0970_1969_num_9_1",
  "article": "autog_0005-0970_1969_num_9_1_955",
  "page_name": "FMSH_PB188a_09-10_099",
  "questions": [
    {
      "id_qa": "FMSH_PB188a_09-10_099_qa24_v3",
      "id_block": "block_1",
      "question": "Par quoi différerait l'entreprise capitaliste ?",
      "answer": "par la seule absence du patron",
      "answer_stringIds": [
        "string_38",
        "string_39",
        "string_40",
        "string_41",
        "string_42",
        "string_43"
      ]
    },
    {
      "id_qa": "FMSH_PB188a_09-10_099_qa3_v3",
      "id_block": "block_2",
      "question": "Qui est à l'origine de la \"liberté\" communiste ?",
      "answer": "des ouvriers",
      "answer_stringIds": [
        "string_70",
        "string_71",
        "string_72"
      ]
    },
    {
      "id_qa": "FMSH_PB188a_09-10_099_qa5_v3",
      "id_block": "block_2",
      "question": "Quelle est la définition de la \"liberté\" ?",
      "answer": "communiste des ouvriers",
      "answer_stringIds": [
        "string_69",
        "string_70",
        "string_71",
        "string_72"
      ]
    },
    {
      "id_qa": "FMSH_PB188a_09-10_099_qa20_v3",
      "id_block": "block_3",
      "question": "Qu'est ce qui rend périmés les vieux organismes ?",
      "answer": "le développement du capitalisme",
      "answer_stringIds": [
        "string_235",
        "string_236",
        "string_237",
        "string_238"
      ]
    },
    {
      "id_qa": "FMSH_PB188a_09-10_099_qa18_v3",
      "id_block": "block_3",
      "question": "Qu'est ce qui est à l'origine du mouvement ?",
      "answer": "les fondements",
      "answer_stringIds": [
        "string_217",
        "string_218"
      ]
    },
    {
      "id_qa": "FMSH_PB188a_09-10_099_qa21_v3",
      "id_block": "block_3",
      "question": "Qu'accorde le conseil ouvrier à la Fiat Centre ?",
      "answer": "le droit de vote",
      "answer_stringIds": [
        "string_169",
        "string_170",
        "string_171",
        "string_172"
      ]
    }
  ]
}