{
  "num": "autog_0005-0970_1969_num_9_1",
  "article": "autog_0005-0970_1969_num_9_1_955",
  "page_name": "FMSH_PB188a_09-10_119",
  "questions": [
    {
      "id_qa": "FMSH_PB188a_09-10_119_qa23_v3",
      "id_block": "block_1",
      "question": "Qui a imposé son point de vue ?",
      "answer": "les ouvriers du C.D.G.",
      "answer_stringIds": [
        "string_59",
        "string_60",
        "string_61",
        "string_62"
      ]
    },
    {
      "id_qa": "FMSH_PB188a_09-10_119_qa31_v3",
      "id_block": "block_1",
      "question": "Qu'est ce que la direction se rendra toujours de plus en plus compte dans l'avenir ?",
      "answer": "les conseils sont irremplaçables",
      "answer_stringIds": [
        "string_85",
        "string_86",
        "string_87",
        "string_88"
      ]
    },
    {
      "id_qa": "FMSH_PB188a_09-10_119_qa4_v3",
      "id_block": "block_2",
      "question": "Qui est responsable de remettre en marche léconomie italienne ?",
      "answer": "la classe ouvrière",
      "answer_stringIds": [
        "string_198",
        "string_199",
        "string_200"
      ]
    },
    {
      "id_qa": "FMSH_PB188a_09-10_119_qa7_v3",
      "id_block": "block_2",
      "question": "Qui a offert leur collaboration ?",
      "answer": "des communistes",
      "answer_stringIds": [
        "string_116",
        "string_117"
      ]
    },
    {
      "id_qa": "FMSH_PB188a_09-10_119_qa35_v3",
      "id_block": "block_2",
      "question": "Qu'est-ce que la collaboration ?",
      "answer": "la collaboration constitue une nécessité impérieuse",
      "answer_stringIds": [
        "string_176",
        "string_177",
        "string_178",
        "string_179",
        "string_180",
        "string_181"
      ]
    },
    {
      "id_qa": "FMSH_PB188a_09-10_119_qa0_v3",
      "id_block": "block_3",
      "question": "Qu'est-ce que le contrôle ouvrier ?",
      "answer": "une vaste entente de forces « démocratiques",
      "answer_stringIds": [
        "string_241",
        "string_242",
        "string_243",
        "string_244",
        "string_245",
        "string_246",
        "string_247"
      ]
    },
    {
      "id_qa": "FMSH_PB188a_09-10_119_qa1_v3",
      "id_block": "block_3",
      "question": "Qu'est-ce qui n'apparaît pas dans la stratégie du P.C.I ?",
      "answer": "le contrôle ouvrier",
      "answer_stringIds": [
        "string_209",
        "string_210",
        "string_211"
      ]
    },
    {
      "id_qa": "FMSH_PB188a_09-10_119_qa13_v3",
      "id_block": "block_3",
      "question": "Qui pense que la reconstruction ne se fasse pas sous la direction des entrepeneurs ?",
      "answer": "Les forces de gauche",
      "answer_stringIds": [
        "string_255",
        "string_256",
        "string_257",
        "string_258"
      ]
    },
    {
      "id_qa": "FMSH_PB188a_09-10_119_qa14_v3",
      "id_block": "block_3",
      "question": "Qui pense pouvoir empêcher que la reconstruction ne se fasse sous la direction des entrepeneurs ?",
      "answer": "Les forces de gauche",
      "answer_stringIds": [
        "string_255",
        "string_256",
        "string_257",
        "string_258"
      ]
    },
    {
      "id_qa": "FMSH_PB188a_09-10_119_qa17_v3",
      "id_block": "block_3",
      "question": "Qu'est ce qui est dans les mains des industriels ?",
      "answer": "tous les avantages de la reconstruction",
      "answer_stringIds": [
        "string_284",
        "string_285",
        "string_286",
        "string_287",
        "string_288",
        "string_289"
      ]
    },
    {
      "id_qa": "FMSH_PB188a_09-10_119_qa18_v3",
      "id_block": "block_3",
      "question": "Que veut empêcher les forces de gauche ?",
      "answer": "la reconstruction",
      "answer_stringIds": [
        "string_263",
        "string_264"
      ]
    }
  ]
}