{
  "num": "autog_0338-7259_1976_num_33_1",
  "article": "autog_0338-7259_1976_num_33_1_1160",
  "page_name": "FMSH_PB188a_33-34_112",
  "questions": [
    {
      "id_qa": "FMSH_PB188a_33-34_112_qa13_v3",
      "id_block": "block_3",
      "question": "Quel groupe n'a pas connu meilleur sort ?",
      "answer": "Les groupuscules « ultra-gauche",
      "answer_stringIds": [
        "string_104",
        "string_105",
        "string_106",
        "string_107"
      ]
    },
    {
      "id_qa": "FMSH_PB188a_33-34_112_qa14_v3",
      "id_block": "block_4",
      "question": "Qui regrette le peu de cas de la lutte anti-fasciste ?",
      "answer": "la classe ouvrière",
      "answer_stringIds": [
        "string_189",
        "string_190",
        "string_191"
      ]
    },
    {
      "id_qa": "FMSH_PB188a_33-34_112_qa15_v3",
      "id_block": "block_4",
      "question": "Que regrette la classe ouvrière en Grèce ?",
      "answer": "le peu de cas que la classe ouvrière fait de la lutte « anti-fasciste »",
      "answer_stringIds": [
        "string_184",
        "string_185",
        "string_186",
        "string_187",
        "string_188",
        "string_189",
        "string_190",
        "string_191",
        "string_192",
        "string_193",
        "string_194",
        "string_195",
        "string_196",
        "string_197",
        "string_198"
      ]
    },
    {
      "id_qa": "FMSH_PB188a_33-34_112_qa20_v3",
      "id_block": "block_4",
      "question": "Que n'a pas été suffisamment profonde pour généraliser l'orgie prolétarienne ?",
      "answer": "Cette rupture",
      "answer_stringIds": [
        "string_147",
        "string_148"
      ]
    },
    {
      "id_qa": "FMSH_PB188a_33-34_112_qa4_v3",
      "id_block": "block_5",
      "question": "Qui a mené la lutte de classes ?",
      "answer": "aux prolétaires portugais",
      "answer_stringIds": [
        "string_252",
        "string_253",
        "string_254"
      ]
    },
    {
      "id_qa": "FMSH_PB188a_33-34_112_qa6_v3",
      "id_block": "block_5",
      "question": "Qui a essayé de diversion pour empêcher l'irrémédiable décomposition du capitalisme portugais ?",
      "answer": "nos penseurs",
      "answer_stringIds": [
        "string_311",
        "string_312"
      ]
    },
    {
      "id_qa": "FMSH_PB188a_33-34_112_qa10_v3",
      "id_block": "block_5",
      "question": "Qu'est-ce qui est vendu par les travailleurs portugais ?",
      "answer": "des marchandises",
      "answer_stringIds": [
        "string_273",
        "string_274",
        "string_275"
      ]
    }
  ]
}