{
  "num": "autog_0338-7259_1976_num_33_1",
  "article": "autog_0338-7259_1976_num_33_1_1160",
  "page_name": "FMSH_PB188a_33-34_114",
  "questions": [
    {
      "id_qa": "FMSH_PB188a_33-34_114_qa6_v3",
      "id_block": "block_1",
      "question": "Qui a fait autant pour l'anti-pouvoir ?",
      "answer": "celui de Semprum",
      "answer_stringIds": [
        "string_31",
        "string_32",
        "string_33"
      ]
    }
  ]
}