{
  "num": "autog_0338-7259_1978_num_40_1",
  "article": "autog_0338-7259_1978_num_40_1_1287",
  "page_name": "FMSH_PB188a_00040_148",
  "questions": [
    {
      "id_qa": "FMSH_PB188a_00040_148_qa2_v3",
      "id_block": "block_1",
      "question": "Combien de temps dure le travail d'ADRET ?",
      "answer": "deux heures par jour",
      "answer_stringIds": [
        "string_4",
        "string_5",
        "string_6",
        "string_7"
      ]
    },
    {
      "id_qa": "FMSH_PB188a_00040_148_qa0_v3",
      "id_block": "block_2",
      "question": "Qu'est ce qui est présenté par Ch.",
      "answer": "Textes",
      "answer_stringIds": [
        "string_30"
      ]
    },
    {
      "id_qa": "FMSH_PB188a_00040_148_qa1_v3",
      "id_block": "block_2",
      "question": "Qu'est ce qui a été traduit par Ch.",
      "answer": "Textes",
      "answer_stringIds": [
        "string_30"
      ]
    }
  ]
}