{
  "num": "autog_0249-2563_1982_num_15_8",
  "article": "autog_0249-2563_1982_num_15_8_1464",
  "page_name": "autog_0249-2563_1982_num_15_8_T1_0003_0000",
  "questions": [
    "Quels sont les objectifs déclarés des dirigeants industriels face au chômage ?",
    "Est-il possible de considérer l'emploi et le travail comme la même chose ?",
    "Quel travail est-il question ici ?",
    "Est-il suffisant de retrouver les taux de croissance perdus ?",
    "Comment créer des emplois sans renforcer la domination et la hiérarchie ?",
    "Comment réduire le temps de travail ?",
    "Quel rôle prend l'État dans la création d'emplois ?",
    "Est-il vrai que « plus» c'est toujours « mieux » ?",
    "Quels sont les idées et critiques des mouvements alternatifs et autogestionnaires qui se retrouvent dans les projets des gouvernements ?",
    "Quels sont les mots d'ordre des mouvements alternatifs et autogestionnaires qui sont passés dans les discours gestionnaires ?",
    "Les expérimentations sociales, technologies douces, convivialité, économie informelle, fonctionnements collectifs, autonomie, etc., ont-elles réellement changé les pratiques ?",
    "La machine à « récupérer » fonctionne-t-elle efficacement ?",
    "Les mouvements alternatifs et autogestionnaires ont-ils rencontré des obstacles à l'extérieur et à l'intérieur de la mouvance alternative ?",
    "Quels sont les résultats des mouvements alternatifs et autogestionnaires ?",
    "Quels sont les défis rencontrés par ces mouvements ?"
  ]
}