{
  "num": "autog_0005-0970_1967_num_2_1",
  "article": "autog_0005-0970_1967_num_2_1_905",
  "page_name": "FMSH_PB188a_00002_130",
  "questions": [
    {
      "id_qa": "FMSH_PB188a_00002_130_qa17_v3",
      "id_block": "block_2",
      "question": "Qu'est ce qui est représenté par le même Etat ?",
      "answer": "Ces deux notions « lointaines » et abstraites",
      "answer_stringIds": [
        "string_103",
        "string_104",
        "string_105",
        "string_106",
        "string_107",
        "string_108",
        "string_109",
        "string_110"
      ]
    },
    {
      "id_qa": "FMSH_PB188a_00002_130_qa32_v3",
      "id_block": "block_3",
      "question": "Qu'est-ce qui est géré par les travailleurs ?",
      "answer": "les entreprises",
      "answer_stringIds": [
        "string_166",
        "string_167"
      ]
    },
    {
      "id_qa": "FMSH_PB188a_00002_130_qa33_v3",
      "id_block": "block_3",
      "question": "Qui gère les entreprises par eux-mêmes ?",
      "answer": "les travailleurs",
      "answer_stringIds": [
        "string_160",
        "string_161"
      ]
    },
    {
      "id_qa": "FMSH_PB188a_00002_130_qa4_v3",
      "id_block": "block_4",
      "question": "A qui les discours et la propagande politique s'adressaient-ils après la guerre ?",
      "answer": "les masses de travailleurs",
      "answer_stringIds": [
        "string_180",
        "string_181",
        "string_182",
        "string_183"
      ]
    },
    {
      "id_qa": "FMSH_PB188a_00002_130_qa6_v3",
      "id_block": "block_4",
      "question": "Qu'est ce qui a permis l'avènement des conseils ouvriers ?",
      "answer": "cette mobilisation verbale",
      "answer_stringIds": [
        "string_236",
        "string_237",
        "string_238"
      ]
    },
    {
      "id_qa": "FMSH_PB188a_00002_130_qa7_v3",
      "id_block": "block_4",
      "question": "Qu'est ce qui était utilisé pour gagner les masses de travailleurs après la guerre ?",
      "answer": "les discours et la propagande politique",
      "answer_stringIds": [
        "string_192",
        "string_193",
        "string_194",
        "string_195",
        "string_196",
        "string_197"
      ]
    },
    {
      "id_qa": "FMSH_PB188a_00002_130_qa3_v3",
      "id_block": "block_5",
      "question": "Qu'est ce qui a été démythifié par les travailleurs ?",
      "answer": "Ces procédés idéologiques",
      "answer_stringIds": [
        "string_248",
        "string_249",
        "string_250"
      ]
    },
    {
      "id_qa": "FMSH_PB188a_00002_130_qa36_v3",
      "id_block": "block_6",
      "question": "A quoi nous nous servirons pour être plus précis ?",
      "answer": "de citations des textes mêmes",
      "answer_stringIds": [
        "string_313",
        "string_314",
        "string_315",
        "string_316",
        "string_317"
      ]
    },
    {
      "id_qa": "FMSH_PB188a_00002_130_qa13_v3",
      "id_block": "block_7",
      "question": "Qui est responsable de la production ?",
      "answer": "la population",
      "answer_stringIds": [
        "string_393",
        "string_394"
      ]
    }
  ]
}