{
  "num": "autog_0005-0970_1967_num_2_1",
  "article": "autog_0005-0970_1967_num_2_1_905",
  "page_name": "FMSH_PB188a_00002_135",
  "questions": [
    {
      "id_qa": "FMSH_PB188a_00002_135_qa18_v3",
      "id_block": "block_2",
      "question": "Quel est l'âge moyen des travailleurs des campagnes ?",
      "answer": "49 ans",
      "answer_stringIds": [
        "string_75",
        "string_76"
      ]
    },
    {
      "id_qa": "FMSH_PB188a_00002_135_qa2_v3",
      "id_block": "block_3",
      "question": "Qu'est ce qui favorise les ruraux ?",
      "answer": "un nouveau système de primes",
      "answer_stringIds": [
        "string_111",
        "string_112",
        "string_113",
        "string_114",
        "string_115"
      ]
    },
    {
      "id_qa": "FMSH_PB188a_00002_135_qa3_v3",
      "id_block": "block_3",
      "question": "A qui profite le nouveau système de primes ?",
      "answer": "les ruraux",
      "answer_stringIds": [
        "string_120",
        "string_121"
      ]
    },
    {
      "id_qa": "FMSH_PB188a_00002_135_qa29_v3",
      "id_block": "block_4",
      "question": "Qu'exige la loi sur les syndicats de producteurs directs ?",
      "answer": "le retour à la collaboration des organisations syndicales de producteurs directs à tous les étages de la vie économique",
      "answer_stringIds": [
        "string_184",
        "string_185",
        "string_186",
        "string_187",
        "string_188",
        "string_189",
        "string_190",
        "string_191",
        "string_192",
        "string_193",
        "string_194",
        "string_195",
        "string_196",
        "string_197",
        "string_198",
        "string_199",
        "string_200",
        "string_201",
        "string_202",
        "string_203",
        "string_204"
      ]
    },
    {
      "id_qa": "FMSH_PB188a_00002_135_qa25_v3",
      "id_block": "block_5",
      "question": "Quelle est la proportion de coopératives de type élevé ?",
      "answer": "à 80,25 %",
      "answer_stringIds": [
        "string_282",
        "string_283",
        "string_284"
      ]
    }
  ]
}