{
  "num": "autog_0249-2563_1980_num_13_2",
  "article": "autog_0249-2563_1980_num_13_2_1383_t1_0365_0000_1",
  "page_name": "autog_0249-2563_1980_num_13_2_T1_0365_0000",
  "questions": [
    "Quand a-t-il commencé le processus d'autonomisation dans l'entreprise X ?",
    "Quand le chef du personnel a-t-il convaincu le directeur de l'entreprise de l'idée d'autonomisation ?",
    "Comment les techniciens ont-ils réagé à l'idée d'autonomisation ?",
    "Quel était le projet d'autonomisation initialement proposé ?",
    "Comment les ouvrières ont-elles réagi à l'idée d'autonomisation ?",
    "Qu'est-ce que l'autonomisation signifie pour les ouvrières ?",
    "Quels avantages ont les ouvrières retrouvés avec l'autonomisation ?",
    "Quels en étaient les défis initiaux pour mettre en place le nouveau système ?",
    "Comment les ouvrières ont-elles appris à s'organiser elles-mêmes ?",
    "Quels problèmes ont surgi lorsque tout l'atelier a adopté le nouveau système ?"
  ]
}