{
  "num": "autog_0338-7259_1971_num_16_1",
  "article": "autog_0338-7259_1971_num_16_1_1019",
  "page_name": "FMSH_PB188a_16-17_145",
  "questions": [
    {
      "id_qa": "FMSH_PB188a_16-17_145_qa3_v3",
      "id_block": "block_2",
      "question": "Combien de délégués ont été élus avant le congrès ?",
      "answer": "1 971 délégués",
      "answer_stringIds": [
        "string_70",
        "string_71",
        "string_72"
      ]
    },
    {
      "id_qa": "FMSH_PB188a_16-17_145_qa0_v3",
      "id_block": "block_3",
      "question": "Quand a eu lieu le premier congrès des conseils ouvriers ?",
      "answer": "en 1957",
      "answer_stringIds": [
        "string_226",
        "string_227"
      ]
    },
    {
      "id_qa": "FMSH_PB188a_16-17_145_qa1_v3",
      "id_block": "block_3",
      "question": "Quel congrès a eu lieu en 1957 à Belgrade ?",
      "answer": "Le premier congrès des conseils ouvriers",
      "answer_stringIds": [
        "string_217",
        "string_218",
        "string_219",
        "string_220",
        "string_221",
        "string_222"
      ]
    },
    {
      "id_qa": "FMSH_PB188a_16-17_145_qa2_v3",
      "id_block": "block_3",
      "question": "Où a eu lieu le premier congrès des conseils ouvriers ?",
      "answer": "à Belgrade",
      "answer_stringIds": [
        "string_228",
        "string_229"
      ]
    },
    {
      "id_qa": "FMSH_PB188a_16-17_145_qa9_v3",
      "id_block": "block_4",
      "question": "Combien de Yougoslaves travaillaient à l'étranger ?",
      "answer": "les 700 000 Yougoslaves",
      "answer_stringIds": [
        "string_263",
        "string_264",
        "string_265",
        "string_266"
      ]
    }
  ]
}