{
  "num": "autog_0005-0970_1969_num_9_1",
  "article": "autog_0005-0970_1969_num_9_1_957",
  "page_name": "FMSH_PB188a_09-10_177",
  "questions": [
    {
      "id_qa": "FMSH_PB188a_09-10_177_qa1_v3",
      "id_block": "block_2",
      "question": "Qu'est-ce que la pratique exigeait dans les moyennes et grandes entreprises ?",
      "answer": "une organisation des unités de travail",
      "answer_stringIds": [
        "string_60",
        "string_61",
        "string_62",
        "string_63",
        "string_64",
        "string_65"
      ]
    },
    {
      "id_qa": "FMSH_PB188a_09-10_177_qa3_v3",
      "id_block": "block_2",
      "question": "Quelle est la conséquence de l'organisation des unités de travail ?",
      "answer": "le plus grand nombre de travailleurs",
      "answer_stringIds": [
        "string_90",
        "string_91",
        "string_92",
        "string_93",
        "string_94",
        "string_95"
      ]
    },
    {
      "id_qa": "FMSH_PB188a_09-10_177_qa5_v3",
      "id_block": "block_2",
      "question": "Comment s'approche l'organisation des unités de travail ?",
      "answer": "des principes de Pautogestion directe",
      "answer_stringIds": [
        "string_105",
        "string_106",
        "string_107",
        "string_108",
        "string_109"
      ]
    },
    {
      "id_qa": "FMSH_PB188a_09-10_177_qa12_v3",
      "id_block": "block_3",
      "question": "Qu'exigeait les entreprises pour améliorer les conditions de travail ?",
      "answer": "une véritable restructuration et une nouvelle organisation",
      "answer_stringIds": [
        "string_183",
        "string_184",
        "string_185",
        "string_186",
        "string_187",
        "string_188",
        "string_189"
      ]
    },
    {
      "id_qa": "FMSH_PB188a_09-10_177_qa14_v3",
      "id_block": "block_3",
      "question": "Sur quoi chaque travailleur, chaque unité de travail et chaque collectivité de travail peut-il influer ?",
      "answer": "les conditions de leur travail",
      "answer_stringIds": [
        "string_156",
        "string_157",
        "string_158",
        "string_159",
        "string_160"
      ]
    },
    {
      "id_qa": "FMSH_PB188a_09-10_177_qa15_v3",
      "id_block": "block_3",
      "question": "Qu'est-ce qui influe sur les conditions de travail ?",
      "answer": "amélioration",
      "answer_stringIds": [
        "string_161"
      ]
    },
    {
      "id_qa": "FMSH_PB188a_09-10_177_qa21_v3",
      "id_block": "block_3",
      "question": "Qu'est ce qui ne peut être créé que par l'autogestion ?",
      "answer": "les conditions nécessaires à cette lutte",
      "answer_stringIds": [
        "string_125",
        "string_126",
        "string_127",
        "string_128",
        "string_129",
        "string_130"
      ]
    },
    {
      "id_qa": "FMSH_PB188a_09-10_177_qa24_v3",
      "id_block": "block_3",
      "question": "Qu'est ce qui a ouvert la réforme économique de 1965 ?",
      "answer": "une nouvelle politique de productivité du travail",
      "answer_stringIds": [
        "string_117",
        "string_118",
        "string_119",
        "string_120",
        "string_121",
        "string_122",
        "string_123"
      ]
    },
    {
      "id_qa": "FMSH_PB188a_09-10_177_qa27_v3",
      "id_block": "block_3",
      "question": "Dans quelles institutions l'organisation de l'entreprise trouve-t-elle sa justification ?",
      "answer": "les institutions des unités de travail",
      "answer_stringIds": [
        "string_215",
        "string_216",
        "string_217",
        "string_218",
        "string_219",
        "string_220"
      ]
    },
    {
      "id_qa": "FMSH_PB188a_09-10_177_qa28_v3",
      "id_block": "block_3",
      "question": "Qu'est-ce que les unités de travail ?",
      "answer": "un des meilleurs cadres de la réalisation des principes économiques exigés",
      "answer_stringIds": [
        "string_223",
        "string_224",
        "string_225",
        "string_226",
        "string_227",
        "string_228",
        "string_229",
        "string_230",
        "string_231",
        "string_232",
        "string_233",
        "string_234"
      ]
    },
    {
      "id_qa": "FMSH_PB188a_09-10_177_qa22_v3",
      "id_block": "block_4",
      "question": "Par qui sont répartis les revenus individuels ?",
      "answer": "les unités de travail",
      "answer_stringIds": [
        "string_279",
        "string_280",
        "string_281",
        "string_282"
      ]
    },
    {
      "id_qa": "FMSH_PB188a_09-10_177_qa23_v3",
      "id_block": "block_4",
      "question": "Qu'est-ce qui détermine la répartition des revenus individuels ?",
      "answer": "les résultats du travail",
      "answer_stringIds": [
        "string_44",
        "string_45",
        "string_46",
        "string_47"
      ]
    },
    {
      "id_qa": "FMSH_PB188a_09-10_177_qa16_v3",
      "id_block": "block_5",
      "question": "Que trouve-t-on dans l'organisation des unités de travail ?",
      "answer": "sa justification",
      "answer_stringIds": [
        "string_212",
        "string_213"
      ]
    },
    {
      "id_qa": "FMSH_PB188a_09-10_177_qa17_v3",
      "id_block": "block_5",
      "question": "Que subit le principe de la répartition selon le travail fourni ?",
      "answer": "des transformations",
      "answer_stringIds": [
        "string_294",
        "string_295"
      ]
    },
    {
      "id_qa": "FMSH_PB188a_09-10_177_qa18_v3",
      "id_block": "block_5",
      "question": "De quoi s'approche la répartition selon le travail fourni ?",
      "answer": "de son essence",
      "answer_stringIds": [
        "string_298",
        "string_299",
        "string_300"
      ]
    }
  ]
}