{
  "num": "autog_0005-0970_1969_num_9_1",
  "article": "autog_0005-0970_1969_num_9_1_957",
  "page_name": "FMSH_PB188a_09-10_166",
  "questions": [
    {
      "id_qa": "FMSH_PB188a_09-10_166_qa11_v3",
      "id_block": "block_2",
      "question": "Qu'est-ce que l'autogestion au sein de l'organisation de travail ?",
      "answer": "le droit et le devoir",
      "answer_stringIds": [
        "string_28",
        "string_29",
        "string_30",
        "string_31",
        "string_32"
      ]
    },
    {
      "id_qa": "FMSH_PB188a_09-10_166_qa0_v3",
      "id_block": "block_4",
      "question": "Qu'est-ce que l'organisation de travail ?",
      "answer": "la production ou toute autre activité",
      "answer_stringIds": [
        "string_53",
        "string_54",
        "string_55",
        "string_56",
        "string_57",
        "string_58"
      ]
    },
    {
      "id_qa": "FMSH_PB188a_09-10_166_qa9_v3",
      "id_block": "block_7",
      "question": "Qui partage le revenu de l'organisation de travail ?",
      "answer": "les revenus entre les travailleurs",
      "answer_stringIds": [
        "string_159",
        "string_160",
        "string_161",
        "string_162",
        "string_163",
        "string_164"
      ]
    },
    {
      "id_qa": "FMSH_PB188a_09-10_166_qa10_v3",
      "id_block": "block_7",
      "question": "Qu'est-ce que le revenu de l'organisation de travail ?",
      "answer": "le développement de la base matérielle de leur travail",
      "answer_stringIds": [
        "string_147",
        "string_148",
        "string_149",
        "string_150",
        "string_151",
        "string_152",
        "string_153",
        "string_154",
        "string_155"
      ]
    },
    {
      "id_qa": "FMSH_PB188a_09-10_166_qa4_v3",
      "id_block": "block_8",
      "question": "Qu'est-ce qui est fixé au sein de l'organisation de travail ?",
      "answer": "la durée du travail",
      "answer_stringIds": [
        "string_205",
        "string_206",
        "string_207",
        "string_208"
      ]
    },
    {
      "id_qa": "FMSH_PB188a_09-10_166_qa5_v3",
      "id_block": "block_8",
      "question": "Qu'assure le contrôle interne de l'organisation du travail ?",
      "answer": "le contrôle interne et la publicité des travaux",
      "answer_stringIds": [
        "string_234",
        "string_235",
        "string_236",
        "string_237",
        "string_238",
        "string_239",
        "string_240",
        "string_241"
      ]
    }
  ]
}