{
  "num": "autog_0005-0970_1967_num_2_1",
  "article": "autog_0005-0970_1967_num_2_1_896",
  "page_name": "FMSH_PB188a_00002_038",
  "questions": [
    {
      "id_qa": "FMSH_PB188a_00002_038_qa21_v3",
      "id_block": "block_1",
      "question": "Qu'est-ce qui caractérise la grande culture maraîchère associée à l'élevage ?",
      "answer": "de telles oppositions",
      "answer_stringIds": [
        "string_14",
        "string_15",
        "string_16"
      ]
    },
    {
      "id_qa": "FMSH_PB188a_00002_038_qa4_v3",
      "id_block": "block_2",
      "question": "A qui est confié la responsabilité utile en matière de production ?",
      "answer": "un Président de comité de gestion",
      "answer_stringIds": [
        "string_40",
        "string_41",
        "string_42",
        "string_43",
        "string_44",
        "string_45",
        "string_46"
      ]
    },
    {
      "id_qa": "FMSH_PB188a_00002_038_qa10_v3",
      "id_block": "block_3",
      "question": "Qu'est ce qui pourrait être responsable et contrôler à un point tel que les Présidents de comité de gestion se trouvent très largement déchargés de la besogne de commercialisation ?",
      "answer": "Ces coopératives",
      "answer_stringIds": [
        "string_124",
        "string_125"
      ]
    },
    {
      "id_qa": "FMSH_PB188a_00002_038_qa13_v3",
      "id_block": "block_3",
      "question": "Par qui est soutenu le Président de comité de gestion analphabète ?",
      "answer": "des organisations coopératives",
      "answer_stringIds": [
        "string_267",
        "string_268",
        "string_269"
      ]
    },
    {
      "id_qa": "FMSH_PB188a_00002_038_qa1_v3",
      "id_block": "block_4",
      "question": "Qu'est ce qui fut une de nos surprises ?",
      "answer": "de voir avec quelle précision et quelle certitude le fellah était au courant de la",
      "answer_stringIds": [
        "string_341",
        "string_342",
        "string_343",
        "string_344",
        "string_345",
        "string_346",
        "string_347",
        "string_348",
        "string_349",
        "string_350",
        "string_351",
        "string_352",
        "string_353",
        "string_354",
        "string_355",
        "string_356"
      ]
    },
    {
      "id_qa": "FMSH_PB188a_00002_038_qa3_v3",
      "id_block": "block_4",
      "question": "De quoi était au courant le fellah ?",
      "answer": "de la surface",
      "answer_stringIds": [
        "string_355",
        "string_356",
        "string_357"
      ]
    },
    {
      "id_qa": "FMSH_PB188a_00002_038_qa20_v3",
      "id_block": "block_6",
      "question": "Qu'est ce qui est envisagé ?",
      "answer": "Les orientations",
      "answer_stringIds": [
        "string_378",
        "string_379"
      ]
    },
    {
      "id_qa": "FMSH_PB188a_00002_038_qa23_v3",
      "id_block": "block_7",
      "question": "Qu'est ce qui formera les animateurs populaires ?",
      "answer": "de nouvelles structures économiques populaires",
      "answer_stringIds": [
        "string_406",
        "string_407",
        "string_408",
        "string_409",
        "string_410"
      ]
    }
  ]
}