{
  "num": "autog_0005-0970_1967_num_2_1",
  "article": "autog_0005-0970_1967_num_2_1_896",
  "page_name": "FMSH_PB188a_00002_042",
  "questions": [
    {
      "id_qa": "FMSH_PB188a_00002_042_qa33_v3",
      "id_block": "block_10",
      "question": "Qu'est ce qui se joue à l'issue de l'indépendance ?",
      "answer": "une économie normale",
      "answer_stringIds": [
        "string_356",
        "string_357",
        "string_358"
      ]
    },
    {
      "id_qa": "FMSH_PB188a_00002_042_qa10_v3",
      "id_block": "block_2",
      "question": "Qui dispose de 100.000 litres par jour ?",
      "answer": "chacune des coopératives",
      "answer_stringIds": [
        "string_36",
        "string_37",
        "string_38"
      ]
    },
    {
      "id_qa": "FMSH_PB188a_00002_042_qa11_v3",
      "id_block": "block_2",
      "question": "Qui réussit à créer une usine ?",
      "answer": "une des coopératives",
      "answer_stringIds": [
        "string_56",
        "string_57",
        "string_58"
      ]
    },
    {
      "id_qa": "FMSH_PB188a_00002_042_qa13_v3",
      "id_block": "block_2",
      "question": "Quelle coopérative réussit à créer une usine ?",
      "answer": "une des coopératives",
      "answer_stringIds": [
        "string_56",
        "string_57",
        "string_58"
      ]
    },
    {
      "id_qa": "FMSH_PB188a_00002_042_qa20_v3",
      "id_block": "block_3",
      "question": "Quelle autre coopérative veut avoir la tour ?",
      "answer": "celle",
      "answer_stringIds": [
        "string_97"
      ]
    },
    {
      "id_qa": "FMSH_PB188a_00002_042_qa25_v3",
      "id_block": "block_3",
      "question": "Quelle est la place de la coopérative ?",
      "answer": "que pour une seule Tour Spray",
      "answer_stringIds": [
        "string_81",
        "string_82",
        "string_83",
        "string_84",
        "string_85",
        "string_86"
      ]
    },
    {
      "id_qa": "FMSH_PB188a_00002_042_qa0_v3",
      "id_block": "block_4",
      "question": "Quel est le problème des deux coopératives ?",
      "answer": "aucune",
      "answer_stringIds": [
        "string_116"
      ]
    },
    {
      "id_qa": "FMSH_PB188a_00002_042_qa4_v3",
      "id_block": "block_4",
      "question": "Dans quel service se trouvent les deux coopératives ?",
      "answer": "Les services administratifs",
      "answer_stringIds": [
        "string_137",
        "string_138",
        "string_139"
      ]
    },
    {
      "id_qa": "FMSH_PB188a_00002_042_qa29_v3",
      "id_block": "block_5",
      "question": "Qu'est ce qui a été vécu à Angers en 1960 ?",
      "answer": "un cas identique dans son principe mais plus complexe",
      "answer_stringIds": [
        "string_160",
        "string_161",
        "string_162",
        "string_163",
        "string_164",
        "string_165",
        "string_166",
        "string_167",
        "string_168"
      ]
    },
    {
      "id_qa": "FMSH_PB188a_00002_042_qa30_v3",
      "id_block": "block_5",
      "question": "Quand a eu lieu le cas similaire à Angers ?",
      "answer": "en 1960",
      "answer_stringIds": [
        "string_174",
        "string_175"
      ]
    },
    {
      "id_qa": "FMSH_PB188a_00002_042_qa31_v3",
      "id_block": "block_5",
      "question": "Où a eu lieu le cas similaire ?",
      "answer": "à Angers",
      "answer_stringIds": [
        "string_172",
        "string_173"
      ]
    }
  ]
}