{
  "num": "autog_0005-0970_1967_num_2_1",
  "article": "autog_0005-0970_1967_num_2_1_896",
  "page_name": "FMSH_PB188a_00002_028",
  "questions": [
    {
      "id_qa": "FMSH_PB188a_00002_028_qa12_v3",
      "id_block": "block_2",
      "question": "Qu'est ce qui ne peut assurer la marche des exploitations que s'ils sont jugés par les ouvriers ?",
      "answer": "des comités de gestion",
      "answer_stringIds": [
        "string_67",
        "string_68",
        "string_69",
        "string_70"
      ]
    },
    {
      "id_qa": "FMSH_PB188a_00002_028_qa13_v3",
      "id_block": "block_2",
      "question": "Qu'est ce qui a été supprimé par Ben Bella ?",
      "answer": "les comités de gestion",
      "answer_stringIds": [
        "string_16",
        "string_17",
        "string_18",
        "string_19"
      ]
    },
    {
      "id_qa": "FMSH_PB188a_00002_028_qa14_v3",
      "id_block": "block_2",
      "question": "Par qui sont jugés les comités de gestion ?",
      "answer": "les ouvriers",
      "answer_stringIds": [
        "string_88",
        "string_89"
      ]
    },
    {
      "id_qa": "FMSH_PB188a_00002_028_qa18_v3",
      "id_block": "block_2",
      "question": "Qui a souhaité que soient réorganisés les comités de gestion ?",
      "answer": "Le Président Ben Bella",
      "answer_stringIds": [
        "string_6",
        "string_7",
        "string_8",
        "string_9"
      ]
    },
    {
      "id_qa": "FMSH_PB188a_00002_028_qa23_v3",
      "id_block": "block_2",
      "question": "Qu'assure les comités de gestion ?",
      "answer": "la marche des exploitations",
      "answer_stringIds": [
        "string_79",
        "string_80",
        "string_81",
        "string_82"
      ]
    },
    {
      "id_qa": "FMSH_PB188a_00002_028_qa28_v3",
      "id_block": "block_2",
      "question": "Sur quoi le pouvoir se trouverait-il obligé de revenir ?",
      "answer": "revenir sur certains de ses actes passés",
      "answer_stringIds": [
        "string_130",
        "string_131",
        "string_132",
        "string_133",
        "string_134",
        "string_135",
        "string_136"
      ]
    },
    {
      "id_qa": "FMSH_PB188a_00002_028_qa33_v3",
      "id_block": "block_2",
      "question": "Sur quoi le pouvoir pourrait-il revenir ?",
      "answer": "certains de ses actes passés",
      "answer_stringIds": [
        "string_132",
        "string_133",
        "string_134",
        "string_135",
        "string_136"
      ]
    },
    {
      "id_qa": "FMSH_PB188a_00002_028_qa2_v3",
      "id_block": "block_3",
      "question": "Qui juge de la valeur des actes politiques en Algérie ?",
      "answer": "le fellah",
      "answer_stringIds": [
        "string_212",
        "string_213"
      ]
    },
    {
      "id_qa": "FMSH_PB188a_00002_028_qa6_v3",
      "id_block": "block_3",
      "question": "Qui juge la Direction d'un point de vue politique ?",
      "answer": "les ouvriers",
      "answer_stringIds": [
        "string_88",
        "string_89"
      ]
    },
    {
      "id_qa": "FMSH_PB188a_00002_028_qa26_v3",
      "id_block": "block_4",
      "question": "Qui sont les premiers à jouer un rôle politique ?",
      "answer": "Présidents de comité de gestion",
      "answer_stringIds": [
        "string_399",
        "string_400",
        "string_401",
        "string_402",
        "string_403"
      ]
    }
  ]
}