{
  "num": "autog_0005-0970_1967_num_2_1",
  "article": "autog_0005-0970_1967_num_2_1_896",
  "page_name": "FMSH_PB188a_00002_014",
  "questions": [
    {
      "id_qa": "FMSH_PB188a_00002_014_qa26_v3",
      "id_block": "block_1",
      "question": "Qui se salit plus que l'ouvrier ordinaire ?",
      "answer": "le mécanicien",
      "answer_stringIds": [
        "string_5",
        "string_6"
      ]
    },
    {
      "id_qa": "FMSH_PB188a_00002_014_qa0_v3",
      "id_block": "block_2",
      "question": "Qui décide des salaires à verser aux diverses catégories de travailleurs ?",
      "answer": "le conseil communal ou un comité inter-exploitation",
      "answer_stringIds": [
        "string_55",
        "string_56",
        "string_57",
        "string_58",
        "string_59",
        "string_60",
        "string_61"
      ]
    },
    {
      "id_qa": "FMSH_PB188a_00002_014_qa2_v3",
      "id_block": "block_2",
      "question": "Que devrait décider le conseil communal ou un comité inter-exploitation ?",
      "answer": "donc décider des émoluments à verser aux diverses catégories de travailleurs",
      "answer_stringIds": [
        "string_63",
        "string_64",
        "string_65",
        "string_66",
        "string_67",
        "string_68",
        "string_69",
        "string_70",
        "string_71",
        "string_72",
        "string_73"
      ]
    },
    {
      "id_qa": "FMSH_PB188a_00002_014_qa7_v3",
      "id_block": "block_2",
      "question": "Qu'est ce que le conseil communal ou un comité inter-exploitation devrait décider ?",
      "answer": "émoluments à verser aux diverses catégories de travailleurs",
      "answer_stringIds": [
        "string_66",
        "string_67",
        "string_68",
        "string_69",
        "string_70",
        "string_71",
        "string_72",
        "string_73"
      ]
    },
    {
      "id_qa": "FMSH_PB188a_00002_014_qa10_v3",
      "id_block": "block_2",
      "question": "Qui décide des émoluments à verser aux travailleurs ?",
      "answer": "le conseil communal ou un comité inter-exploitation",
      "answer_stringIds": [
        "string_55",
        "string_56",
        "string_57",
        "string_58",
        "string_59",
        "string_60",
        "string_61"
      ]
    },
    {
      "id_qa": "FMSH_PB188a_00002_014_qa21_v3",
      "id_block": "block_3",
      "question": "Qu'est-ce qui est supprimé par le gouvernement ?",
      "answer": "le travail",
      "answer_stringIds": [
        "string_102",
        "string_103"
      ]
    },
    {
      "id_qa": "FMSH_PB188a_00002_014_qa22_v3",
      "id_block": "block_3",
      "question": "Quel est le nombre minimum d'heures de travail ?",
      "answer": "aussitôt",
      "answer_stringIds": [
        "string_118"
      ]
    },
    {
      "id_qa": "FMSH_PB188a_00002_014_qa23_v3",
      "id_block": "block_3",
      "question": "Qui est conduit à supprimer le travail au rendement ?",
      "answer": "le gouvernement",
      "answer_stringIds": [
        "string_77",
        "string_78"
      ]
    },
    {
      "id_qa": "FMSH_PB188a_00002_014_qa24_v3",
      "id_block": "block_3",
      "question": "Qui décide de fixer un nombre minimum d'heures de travail ?",
      "answer": "le gouvernement",
      "answer_stringIds": [
        "string_77",
        "string_78"
      ]
    },
    {
      "id_qa": "FMSH_PB188a_00002_014_qa25_v3",
      "id_block": "block_3",
      "question": "Qui est responsable de la politique d'unification des salaires ?",
      "answer": "le gouvernement",
      "answer_stringIds": [
        "string_77",
        "string_78"
      ]
    },
    {
      "id_qa": "FMSH_PB188a_00002_014_qa27_v3",
      "id_block": "block_3",
      "question": "Quel est le but de l'ouvrage réalisé ?",
      "answer": "travailler plus et gagner plus",
      "answer_stringIds": [
        "string_138",
        "string_139",
        "string_140",
        "string_141",
        "string_142"
      ]
    },
    {
      "id_qa": "FMSH_PB188a_00002_014_qa28_v3",
      "id_block": "block_3",
      "question": "Qui est mis au courant des décisions prises ?",
      "answer": "le gouvernement",
      "answer_stringIds": [
        "string_77",
        "string_78"
      ]
    },
    {
      "id_qa": "FMSH_PB188a_00002_014_qa30_v3",
      "id_block": "block_3",
      "question": "Qu'est ce que le gouvernement serait mis au courant ?",
      "answer": "les décisions prises",
      "answer_stringIds": [
        "string_86",
        "string_87",
        "string_88"
      ]
    },
    {
      "id_qa": "FMSH_PB188a_00002_014_qa12_v3",
      "id_block": "block_4",
      "question": "Qu'est-ce qui est devenu impopulaire ?",
      "answer": "La mesure de réduction des rémunérations",
      "answer_stringIds": [
        "string_235",
        "string_236",
        "string_237",
        "string_238",
        "string_239",
        "string_240"
      ]
    },
    {
      "id_qa": "FMSH_PB188a_00002_014_qa14_v3",
      "id_block": "block_4",
      "question": "Comment a été jugée la mesure de réduction des rémunérations ?",
      "answer": "incompréhensible",
      "answer_stringIds": [
        "string_302"
      ]
    },
    {
      "id_qa": "FMSH_PB188a_00002_014_qa16_v3",
      "id_block": "block_4",
      "question": "Qui sont écartés du circuit de la commercialisation ?",
      "answer": "les ouvriers",
      "answer_stringIds": [
        "string_286",
        "string_287"
      ]
    },
    {
      "id_qa": "FMSH_PB188a_00002_014_qa17_v3",
      "id_block": "block_4",
      "question": "Qui a été écarté du circuit de la commercialisation ?",
      "answer": "les ouvriers",
      "answer_stringIds": [
        "string_286",
        "string_287"
      ]
    },
    {
      "id_qa": "FMSH_PB188a_00002_014_qa44_v3",
      "id_block": "block_4",
      "question": "Qui estime avoir droit à un salaire minimum identique ?",
      "answer": "Les paysans",
      "answer_stringIds": [
        "string_167",
        "string_168"
      ]
    },
    {
      "id_qa": "FMSH_PB188a_00002_014_qa51_v3",
      "id_block": "block_4",
      "question": "Qui décide de la répartition des bénéfices jadis patronaux ?",
      "answer": "Les paysans",
      "answer_stringIds": [
        "string_167",
        "string_168"
      ]
    },
    {
      "id_qa": "FMSH_PB188a_00002_014_qa67_v3",
      "id_block": "block_5",
      "question": "Qui ne faisait pas de gros bénéfices ?",
      "answer": "le colon",
      "answer_stringIds": [
        "string_314",
        "string_315"
      ]
    },
    {
      "id_qa": "FMSH_PB188a_00002_014_qa59_v3",
      "id_block": "block_8",
      "question": "Qu'est ce que le gouvernement était incapable d'assumer ?",
      "answer": "son pouvoir de tutelle",
      "answer_stringIds": [
        "string_353",
        "string_354",
        "string_355",
        "string_356"
      ]
    },
    {
      "id_qa": "FMSH_PB188a_00002_014_qa63_v3",
      "id_block": "block_8",
      "question": "Qui était incapable d'assumer son pouvoir de tutelle ?",
      "answer": "ce même gouvernement",
      "answer_stringIds": [
        "string_346",
        "string_347",
        "string_348"
      ]
    },
    {
      "id_qa": "FMSH_PB188a_00002_014_qa38_v3",
      "id_block": "block_9",
      "question": "Qui gagne 10 F par jour en taillant 20 pieds de vigne ?",
      "answer": "tel ouvrier",
      "answer_stringIds": [
        "string_392",
        "string_393"
      ]
    },
    {
      "id_qa": "FMSH_PB188a_00002_014_qa39_v3",
      "id_block": "block_9",
      "question": "Quelle est la rémunération d'un ouvrier en taillant 20 pieds de vigne ?",
      "answer": "10 F par jour",
      "answer_stringIds": [
        "string_395",
        "string_396",
        "string_397",
        "string_398"
      ]
    }
  ]
}