{
  "num": "autog_0005-0970_1967_num_2_1",
  "article": "autog_0005-0970_1967_num_2_1_896",
  "page_name": "FMSH_PB188a_00002_021",
  "questions": [
    {
      "id_qa": "FMSH_PB188a_00002_021_qa2_v3",
      "id_block": "block_1",
      "question": "Qu'est-ce qui permet de diminuer les rendements ?",
      "answer": "les cultures maraïîchères",
      "answer_stringIds": [
        "string_40",
        "string_41",
        "string_42"
      ]
    },
    {
      "id_qa": "FMSH_PB188a_00002_021_qa24_v3",
      "id_block": "block_11",
      "question": "Qu'est ce qui est qualifié ?",
      "answer": "Le personnel",
      "answer_stringIds": [
        "string_292",
        "string_293"
      ]
    },
    {
      "id_qa": "FMSH_PB188a_00002_021_qa10_v3",
      "id_block": "block_12",
      "question": "Qu'est ce qui fait défaut à la situation actuelle ?",
      "answer": "I",
      "answer_stringIds": [
        "string_371"
      ]
    },
    {
      "id_qa": "FMSH_PB188a_00002_021_qa8_v3",
      "id_block": "block_12",
      "question": "Qu'est ce qui est nécessaire à une situation \"normalisée\" ?",
      "answer": "un plus grand nombre",
      "answer_stringIds": [
        "string_388",
        "string_389",
        "string_390",
        "string_391"
      ]
    },
    {
      "id_qa": "FMSH_PB188a_00002_021_qa13_v3",
      "id_block": "block_3",
      "question": "Qu'est-ce qui est de plus en plus intégré à une zone ?",
      "answer": "sociale de celle-ci",
      "answer_stringIds": [
        "string_75",
        "string_76",
        "string_77"
      ]
    },
    {
      "id_qa": "FMSH_PB188a_00002_021_qa14_v3",
      "id_block": "block_4",
      "question": "Qui effectue le service civil ?",
      "answer": "des ouvriers",
      "answer_stringIds": [
        "string_145",
        "string_146"
      ]
    },
    {
      "id_qa": "FMSH_PB188a_00002_021_qa15_v3",
      "id_block": "block_4",
      "question": "Que risque les ouvriers effectuant leur service civil ?",
      "answer": "ne pas être ren tables",
      "answer_stringIds": [
        "string_155",
        "string_156",
        "string_157",
        "string_158",
        "string_159"
      ]
    },
    {
      "id_qa": "FMSH_PB188a_00002_021_qa20_v3",
      "id_block": "block_4",
      "question": "Qu'est-ce que l'impôt en travail ?",
      "answer": "cette résorption du chômage réponde un impôt",
      "answer_stringIds": [
        "string_91",
        "string_92",
        "string_93",
        "string_94",
        "string_95",
        "string_96",
        "string_97"
      ]
    },
    {
      "id_qa": "FMSH_PB188a_00002_021_qa21_v3",
      "id_block": "block_6",
      "question": "En quoi se divise le champ d'application de la qualification ouvrière ?",
      "answer": "en plusieurs parties",
      "answer_stringIds": [
        "string_287",
        "string_288",
        "string_289"
      ]
    }
  ]
}