{
  "num": "autog_0005-0970_1967_num_2_1",
  "article": "autog_0005-0970_1967_num_2_1_896",
  "page_name": "FMSH_PB188a_00002_010",
  "questions": [
    {
      "id_qa": "FMSH_PB188a_00002_010_qa0_v3",
      "id_block": "block_1",
      "question": "Qui a pouvoir sur le Directeur ?",
      "answer": "le gouvernement",
      "answer_stringIds": [
        "string_12",
        "string_13"
      ]
    },
    {
      "id_qa": "FMSH_PB188a_00002_010_qa26_v3",
      "id_block": "block_18",
      "question": "Qui nomme le Comité de gestion ?",
      "answer": "le Président",
      "answer_stringIds": [
        "string_23",
        "string_24"
      ]
    },
    {
      "id_qa": "FMSH_PB188a_00002_010_qa20_v3",
      "id_block": "block_19",
      "question": "Qu'est ce qui va de l'assemblée générale vers le directeur ?",
      "answer": "le mouvement",
      "answer_stringIds": [
        "string_267",
        "string_268"
      ]
    },
    {
      "id_qa": "FMSH_PB188a_00002_010_qa21_v3",
      "id_block": "block_19",
      "question": "Qu'est ce qui augmente le volume de l'assemblée générale ?",
      "answer": "les dessins figuratifs de chaque étage",
      "answer_stringIds": [
        "string_311",
        "string_312",
        "string_313",
        "string_314",
        "string_315",
        "string_316"
      ]
    },
    {
      "id_qa": "FMSH_PB188a_00002_010_qa8_v3",
      "id_block": "block_2",
      "question": "A qui le gouvernement se substitua-t-il ?",
      "answer": "au colon",
      "answer_stringIds": [
        "string_53",
        "string_54"
      ]
    },
    {
      "id_qa": "FMSH_PB188a_00002_010_qa14_v3",
      "id_block": "block_2",
      "question": "Quel est le nom du conseil municipal ?",
      "answer": "Ce comité de gestion",
      "answer_stringIds": [
        "string_100",
        "string_101",
        "string_102",
        "string_103"
      ]
    },
    {
      "id_qa": "FMSH_PB188a_00002_010_qa16_v3",
      "id_block": "block_2",
      "question": "Qui est le président du comité de gestion ?",
      "answer": "par notre auteur",
      "answer_stringIds": [
        "string_119",
        "string_120",
        "string_121"
      ]
    },
    {
      "id_qa": "FMSH_PB188a_00002_010_qa10_v3",
      "id_block": "block_3",
      "question": "Qui a une idée très proche de celles qui prévalaient durant le temps du colonialisme ?",
      "answer": "cet ouvrier agricole",
      "answer_stringIds": [
        "string_127",
        "string_128",
        "string_129"
      ]
    },
    {
      "id_qa": "FMSH_PB188a_00002_010_qa12_v3",
      "id_block": "block_3",
      "question": "A quand remonte l'idée des structures socioconomiques de l'Algérie nouvelle ?",
      "answer": "durant le temps du colonialisme",
      "answer_stringIds": [
        "string_145",
        "string_146",
        "string_147",
        "string_148",
        "string_149"
      ]
    },
    {
      "id_qa": "FMSH_PB188a_00002_010_qa22_v3",
      "id_block": "block_4",
      "question": "Qu'est-ce qui témoigne de l'infériorité de la position de cette dernière ?",
      "answer": "la ligne de pente vers le bas",
      "answer_stringIds": [
        "string_158",
        "string_159",
        "string_160",
        "string_161",
        "string_162",
        "string_163",
        "string_164"
      ]
    },
    {
      "id_qa": "FMSH_PB188a_00002_010_qa24_v3",
      "id_block": "block_6",
      "question": "Qu'a voulu Gc p:eposer après que les points de vue précédents aient été exnrimss ?",
      "answer": "une solution de conciliation",
      "answer_stringIds": [
        "string_219",
        "string_220",
        "string_221",
        "string_222"
      ]
    }
  ]
}