{
  "num": "autog_0005-0970_1967_num_2_1",
  "article": "autog_0005-0970_1967_num_2_1_896",
  "page_name": "FMSH_PB188a_00002_016",
  "questions": [
    {
      "id_qa": "FMSH_PB188a_00002_016_qa1_v3",
      "id_block": "block_10",
      "question": "Qui a en charge ses propres affaires ?",
      "answer": "les ouvriers",
      "answer_stringIds": [
        "string_366",
        "string_367"
      ]
    },
    {
      "id_qa": "FMSH_PB188a_00002_016_qa26_v3",
      "id_block": "block_2",
      "question": "Qu'est-ce qui témoigne de cet état d'esprit ?",
      "answer": "une conversation",
      "answer_stringIds": [
        "string_24",
        "string_25",
        "string_26"
      ]
    },
    {
      "id_qa": "FMSH_PB188a_00002_016_qa34_v3",
      "id_block": "block_3",
      "question": "Qu'est ce que l'Etat devrait fournir aux cultivateurs ?",
      "answer": "des tracteurs",
      "answer_stringIds": [
        "string_35",
        "string_36"
      ]
    },
    {
      "id_qa": "FMSH_PB188a_00002_016_qa12_v3",
      "id_block": "block_6",
      "question": "Qu'est-ce que l'Etat doit faire sans y mettre de conditions ?",
      "answer": "crédit",
      "answer_stringIds": [
        "string_16"
      ]
    },
    {
      "id_qa": "FMSH_PB188a_00002_016_qa24_v3",
      "id_block": "block_8",
      "question": "Qu'est-ce qui sera jugé par l'ouvrier algérien ?",
      "answer": "qui lui",
      "answer_stringIds": [
        "string_240",
        "string_241"
      ]
    },
    {
      "id_qa": "FMSH_PB188a_00002_016_qa25_v3",
      "id_block": "block_8",
      "question": "Qui pense que l'ouvrier algérien consentira de grands sacrifices ?",
      "answer": "L'",
      "answer_stringIds": [
        "string_31"
      ]
    },
    {
      "id_qa": "FMSH_PB188a_00002_016_qa29_v3",
      "id_block": "block_8",
      "question": "Qu'est-ce qui doit conduire à la constitution de comités ?",
      "answer": "leur dynamisme et leur sens des responsabilités doivent conduire à la constitution de comités où leurs intérêts se regroupent",
      "answer_stringIds": [
        "string_157",
        "string_158",
        "string_159",
        "string_160",
        "string_161",
        "string_162",
        "string_163",
        "string_164",
        "string_165",
        "string_166",
        "string_167",
        "string_168",
        "string_169",
        "string_170",
        "string_171",
        "string_172",
        "string_173",
        "string_174",
        "string_175",
        "string_176"
      ]
    },
    {
      "id_qa": "FMSH_PB188a_00002_016_qa21_v3",
      "id_block": "block_9",
      "question": "Quel était le but du socialisme en Algérie ?",
      "answer": "être imposé à la base",
      "answer_stringIds": [
        "string_250",
        "string_251",
        "string_252",
        "string_253",
        "string_254"
      ]
    },
    {
      "id_qa": "FMSH_PB188a_00002_016_qa22_v3",
      "id_block": "block_9",
      "question": "Dans quel pays le socialisme est-il imposé à la base ?",
      "answer": "en Algérie",
      "answer_stringIds": [
        "string_248",
        "string_249"
      ]
    }
  ]
}