{
  "num": "autog_0005-0970_1967_num_2_1",
  "article": "autog_0005-0970_1967_num_2_1_896",
  "page_name": "FMSH_PB188a_00002_040",
  "questions": [
    {
      "id_qa": "FMSH_PB188a_00002_040_qa33_v3",
      "id_block": "block_1",
      "question": "Qu'est ce qui permet de donner des conseils en toute certitude ?",
      "answer": "une longue expérience locale",
      "answer_stringIds": [
        "string_42",
        "string_43",
        "string_44",
        "string_45",
        "string_46"
      ]
    },
    {
      "id_qa": "FMSH_PB188a_00002_040_qa46_v3",
      "id_block": "block_1",
      "question": "Qu'est ce qui comporte une marge d'incertitude ?",
      "answer": "Tous autres conseils",
      "answer_stringIds": [
        "string_58",
        "string_59",
        "string_60"
      ]
    },
    {
      "id_qa": "FMSH_PB188a_00002_040_qa45_v3",
      "id_block": "block_2",
      "question": "Qu'est ce qui est ressenti par l'Animation rurale ?",
      "answer": "Ces échecs",
      "answer_stringIds": [
        "string_70",
        "string_71"
      ]
    },
    {
      "id_qa": "FMSH_PB188a_00002_040_qa30_v3",
      "id_block": "block_3",
      "question": "Qu'est ce qui pose des problèmes d'investissements collectifs ?",
      "answer": "les nouvelles usines de transformation des produits agricoles",
      "answer_stringIds": [
        "string_154",
        "string_155",
        "string_156",
        "string_157",
        "string_158",
        "string_159",
        "string_160",
        "string_161"
      ]
    },
    {
      "id_qa": "FMSH_PB188a_00002_040_qa0_v3",
      "id_block": "block_4",
      "question": "Quelle entreprise souhaite créer une usine ?",
      "answer": "Une coopérative",
      "answer_stringIds": [
        "string_166",
        "string_167"
      ]
    },
    {
      "id_qa": "FMSH_PB188a_00002_040_qa1_v3",
      "id_block": "block_4",
      "question": "Quelle est la situation géographique des coopératives ?",
      "answer": "géographiquement",
      "answer_stringIds": [
        "string_188"
      ]
    },
    {
      "id_qa": "FMSH_PB188a_00002_040_qa2_v3",
      "id_block": "block_4",
      "question": "Qu'est-ce qu'une coopérative ?",
      "answer": "créer une usine",
      "answer_stringIds": [
        "string_169",
        "string_170",
        "string_171"
      ]
    },
    {
      "id_qa": "FMSH_PB188a_00002_040_qa4_v3",
      "id_block": "block_4",
      "question": "Qui a le dynamisme voulu pour entreprendre cette action ?",
      "answer": "les coopératives",
      "answer_stringIds": [
        "string_184",
        "string_185"
      ]
    },
    {
      "id_qa": "FMSH_PB188a_00002_040_qa7_v3",
      "id_block": "block_4",
      "question": "Qu'est ce qu'une coopérative désire créer ?",
      "answer": "une usine",
      "answer_stringIds": [
        "string_170",
        "string_171"
      ]
    },
    {
      "id_qa": "FMSH_PB188a_00002_040_qa47_v3",
      "id_block": "block_5",
      "question": "Quelle entreprise souhaite créer un silo de 20.000 qx ?",
      "answer": "Une coopérative",
      "answer_stringIds": [
        "string_166",
        "string_167"
      ]
    },
    {
      "id_qa": "FMSH_PB188a_00002_040_qa49_v3",
      "id_block": "block_5",
      "question": "Qui souhaite créer un silo de 20.000 qx ?",
      "answer": "Une coopérative",
      "answer_stringIds": [
        "string_166",
        "string_167"
      ]
    },
    {
      "id_qa": "FMSH_PB188a_00002_040_qa31_v3",
      "id_block": "block_6",
      "question": "Qu'est-ce qui est impossible en raison de l'hostilité des Présidents ?",
      "answer": "ces deux opérations",
      "answer_stringIds": [
        "string_257",
        "string_258",
        "string_259"
      ]
    },
    {
      "id_qa": "FMSH_PB188a_00002_040_qa35_v3",
      "id_block": "block_6",
      "question": "Que nécessite la mise en œuvre d'un nouveau procédé ?",
      "answer": "la concentration de plusieurs usines",
      "answer_stringIds": [
        "string_240",
        "string_241",
        "string_242",
        "string_243",
        "string_244",
        "string_245"
      ]
    },
    {
      "id_qa": "FMSH_PB188a_00002_040_qa15_v3",
      "id_block": "block_7",
      "question": "Qu'est ce qui ne peut que faire acte d'autorité ?",
      "answer": "La persuasion",
      "answer_stringIds": [
        "string_314",
        "string_315"
      ]
    },
    {
      "id_qa": "FMSH_PB188a_00002_040_qa21_v3",
      "id_block": "block_8",
      "question": "Qu'est ce qui a conduit à des désastres en France ?",
      "answer": "les plantations fruitières",
      "answer_stringIds": [
        "string_367",
        "string_368",
        "string_369"
      ]
    },
    {
      "id_qa": "FMSH_PB188a_00002_040_qa36_v3",
      "id_block": "block_8",
      "question": "Qu'est ce qui a été arraché en 1957 dans le Bordelais ?",
      "answer": "des vignes",
      "answer_stringIds": [
        "string_396",
        "string_397"
      ]
    },
    {
      "id_qa": "FMSH_PB188a_00002_040_qa37_v3",
      "id_block": "block_8",
      "question": "Qui a arraché des vignes en 1957 dans le Bordelais ?",
      "answer": "des agriculteurs",
      "answer_stringIds": [
        "string_390",
        "string_391"
      ]
    },
    {
      "id_qa": "FMSH_PB188a_00002_040_qa38_v3",
      "id_block": "block_8",
      "question": "Quelles plantes ont été plantées dans le Bordelais en 1957 ?",
      "answer": "des pruniers et abricoticrs",
      "answer_stringIds": [
        "string_400",
        "string_401",
        "string_402",
        "string_403"
      ]
    },
    {
      "id_qa": "FMSH_PB188a_00002_040_qa39_v3",
      "id_block": "block_8",
      "question": "Pour quoi les agriculteurs ont-ils arraché des vignes en 1957 ?",
      "answer": "pour planter des pruniers et abricoticrs",
      "answer_stringIds": [
        "string_398",
        "string_399",
        "string_400",
        "string_401",
        "string_402",
        "string_403"
      ]
    },
    {
      "id_qa": "FMSH_PB188a_00002_040_qa40_v3",
      "id_block": "block_8",
      "question": "Qui a arraché des vignes en 1957 ?",
      "answer": "des agriculteurs",
      "answer_stringIds": [
        "string_390",
        "string_391"
      ]
    },
    {
      "id_qa": "FMSH_PB188a_00002_040_qa41_v3",
      "id_block": "block_8",
      "question": "Dans quelle région les agriculteurs ont-ils arraché des vignes ?",
      "answer": "dans le Bordelais",
      "answer_stringIds": [
        "string_387",
        "string_388",
        "string_389"
      ]
    },
    {
      "id_qa": "FMSH_PB188a_00002_040_qa51_v3",
      "id_block": "block_8",
      "question": "Combien d'arbres ont péri en f ?",
      "answer": "Beaucoup de ces arbres",
      "answer_stringIds": [
        "string_404",
        "string_405",
        "string_406",
        "string_407"
      ]
    },
    {
      "id_qa": "FMSH_PB188a_00002_040_qa44_v3",
      "id_block": "block_9",
      "question": "En quelle année a-t-on donné une seule récolte ?",
      "answer": "960",
      "answer_stringIds": [
        "string_413"
      ]
    }
  ]
}