{
  "num": "autog_0249-2563_1980_num_13_2",
  "article": "autog_0249-2563_1980_num_13_2_1382",
  "page_name": "autog_0249-2563_1980_num_13_2_T1_0362_0000",
  "questions": [
    "Quels mouvements sociaux sont mentionnés comme ayant des échos silencieux envers les revendications féminines, comme la prévention des naissances ?",
    "Dans quelle période du XIXe siècle se développe la propagande néo-malthusianniste principalement ?",
    "Quels milieux accueillent favorablement les appels à la limitation des naissances ?",
    "Quels sont les féministes qui appréhendent l'enjeu réel de la contraception ?",
    "Quels sont les arguments principaux des féministes pour la contrôle des naissances ?",
    "Quels sont les arguments principaux des opposants des féministes à l'amour libre ?",
    "Quels sont les mouvements et personnes qui se prononcent pour le contrôle des naissances et l'interruption volontaire de grossesse ?",
    "Quels sont les arguments principaux de ces mouvements et personnes en faveur de la contrôle des naissances ?",
    "Pourquoi les militantes socialistes refusent de collaborer avec les féministes bourgeoises ?",
    "Quels événements historiques sont mentionnés comme ayant eu un impact sur les luttes des femmes ?"
  ]
}