{
  "num": "autog_0249-2563_1980_num_13_2",
  "article": "autog_0249-2563_1980_num_13_2_1382",
  "page_name": "autog_0249-2563_1980_num_13_2_T1_0360_0000",
  "questions": [
    "Quel rôle a joué le concept de sororité dans le mouvement féministe des années soixante ?",
    "Quel est le successeur du grand enivrement dans le mouvement féministe actuel ?",
    "Quel est le sens de la \"révolte moléculaire\" selon M.A. Macciocchi ?",
    "Les femmes ont-elles la mémoire de leur histoire ?",
    "Quels sont les seuls moyens d'échapper aux salaires de misère et au chômage pour les femmes ouvrières et employées au XIXe siècle en France ?",
    "Quels sont les lieux où les femmes travaillaient relativement protégées au XIXe siècle en France ?",
    "Quel livre a écrit Marie-Hélène Zylberberg-Hocquart sur le féminisme et le syndicalisme en France ?"
  ]
}