{
  "num": "autog_0005-0970_1969_num_9_1",
  "article": "autog_0005-0970_1969_num_9_1_955",
  "page_name": "FMSH_PB188a_09-10_120",
  "questions": [
    "Quel est le contexte historique dans lequel ont émergé les Comités de libération du travail (CDG) ?",
    "Quel était l'attitude des ouvriers envers les CDG après leur départ du gouvernement ?",
    "Pourquoi les ouvriers n'avaient-ils pas pu participer à l'élaboration de la stratégie après la Seconde Guerre mondiale ?",
    "Quel était le rôle des CDG dans les plans du Parti communiste italien (PCI) ?",
    "Quel était l'opinion de Togliatti sur l'hypothèse d'une insurrection ?",
    "En quelle manière les CDG étaient-elles perçues par les ouvriers, étaient-elles considérées comme une institution proche du syndicat ou de l'employeur ?",
    "Quels instruments avaient été retirés aux ouvriers pour empêcher leur participation à l'élaboration de la stratégie ?",
    "Comment les CDG représentaient-elles une différence par rapport aux conseils ouvriers de 1919 ?",
    "Quel était le rôle des CDG dans la société italienne après la Seconde Guerre mondiale, selon l'expression de Togliatti ?",
    "Pourquoi les CDG avaient-elles un caractère éphémère ?",
    "Quel était le sentiment des ouvriers envers les CDG avant leur participation au gouvernement ?",
    "Quel était le changement radical dans la position des communistes envers la collaboration après leur départ du gouvernement ?"
  ]
}