{
  "num": "autog_0005-0970_1969_num_9_1",
  "article": "autog_0005-0970_1969_num_9_1_955",
  "page_name": "FMSH_PB188a_09-10_106",
  "questions": [
    "Quel est le rôle de Tasca dans la polémique sur l'Ordine Nuovo ?",
    "Pourquoi Tasca a-t-elle une vision opposée à celle de Gramsci sur le rôle des conseils dans la phase révolutionnaire ?",
    "Quels sont les arguments de Tasca contre les conseils ?",
    "Quels sont les arguments de Gramsci en faveur des conseils ?",
    "Quels sont les changements d'orientation constatés en U.R.S.S. en matière de pouvoir des conseils dans les usines ?",
    "Comment Gramsci perçoit-il les limites de l'instrument de lutte des conseils ?",
    "Comment Gramsci explique la corruption des associations prolétaires ?",
    "Quels sont les articles de Gramsci qui traitent de la question des conseils et de la corruption des associations prolétaires ?",
    "Quels sont les collaborateurs de Gramsci qui se rapprochent de la position de Tasca ?",
    "Quel est le titre de l'article de Gramsci sur les « Groupes communistes » ?",
    "Dans quel journal est publié cet article ?",
    "Quel est le but de l'article de Gramsci sur les « Groupes communistes » ?"
  ]
}