{
  "num": "autog_0005-0970_1969_num_9_1",
  "article": "autog_0005-0970_1969_num_9_1_955",
  "page_name": "FMSH_PB188a_09-10_111",
  "questions": [
    "Quels avertissements avait l'O.N. émis contre l'idée des occupations et la tactique syndicale ?",
    "Quels groupes contrôlaient la Chambre du Travail de Turin et la section socialiste ?",
    "Qu'impliquait la mystification implicite dans le concept de contrôle ouvrier ?",
    "Dans quelle mesure les idéologies de la C.G.L. et de l'O.N. étaient-elles proches ?",
    "Pourquoi les ouvriers n'avaient-ils pas interrompu le travail pendant les occupations ?",
    "Quel était le rôle de la propagande de la PO.N. dans la préparation de la classe ouvrière à la gestion ?",
    "Quels exemples de l'aptitude ouvrière à améliorer la production avaient été mis en évidence dans la revue ?",
    "Comment les patrons se souciaient-ils des questions d'efficacité ?",
    "Quel était le rôle du C. dans l'entreprise et comment il expliquait les problèmes à la direction ?"
  ]
}