{
  "num": "autog_0005-0970_1969_num_9_1",
  "article": "autog_0005-0970_1969_num_9_1_955",
  "page_name": "FMSH_PB188a_09-10_107",
  "questions": [
    "Quels sont les éléments caractéristiques de la démocratie souveraine selon le texte ?",
    "Comment les partis ouvriers sont-ils décrits dans le texte ?",
    "Quel est le rôle de l'État dans le processus de développement de la société humaine selon Gramsci ?",
    "Pourquoi l'État Ouvrier ne devrait-il pas être fondé sur des divisions territoriales ?",
    "Quels sont les instruments de conquête du pouvoir selon Gramsci ?",
    "Quels sont les défauts des conseils selon Gramsci ?",
    "Quels sont les « triomphes éphémères et bruyants des divers Masaniello » que Gramsci critique ?",
    "Quel type de contrôle est nécessaire selon Gramsci ?"
  ]
}