{
  "num": "autog_0338-7259_1971_num_15_1",
  "article": "autog_0338-7259_1971_num_15_1_999",
  "page_name": "FMSH_PB188a_00015_037",
  "questions": [
    {
      "id_qa": "FMSH_PB188a_00015_037_qa29_v3",
      "id_block": "block_1",
      "question": "Qu'est ce que la grace révolutionnaire ?",
      "answer": "des nomenclatures",
      "answer_stringIds": [
        "string_21",
        "string_22"
      ]
    },
    {
      "id_qa": "FMSH_PB188a_00015_037_qa14_v3",
      "id_block": "block_11",
      "question": "Qu'est-ce que pressentir que l'existence est un jeu ?",
      "answer": "le racisme",
      "answer_stringIds": [
        "string_306",
        "string_307"
      ]
    },
    {
      "id_qa": "FMSH_PB188a_00015_037_qa35_v3",
      "id_block": "block_2",
      "question": "Quelle était la conséquence de son éclosion ?",
      "answer": "davantage",
      "answer_stringIds": [
        "string_45"
      ]
    },
    {
      "id_qa": "FMSH_PB188a_00015_037_qa22_v3",
      "id_block": "block_3",
      "question": "Qu'est-ce qui ne s'avère pas possible si l'on n'a pas laissé la légende s'emparer de soi ?",
      "answer": "poser de telles questions",
      "answer_stringIds": [
        "string_53",
        "string_54",
        "string_55",
        "string_56",
        "string_57"
      ]
    },
    {
      "id_qa": "FMSH_PB188a_00015_037_qa23_v3",
      "id_block": "block_3",
      "question": "De quoi la légende s'empare-t-elle ?",
      "answer": "de soi",
      "answer_stringIds": [
        "string_67",
        "string_68"
      ]
    },
    {
      "id_qa": "FMSH_PB188a_00015_037_qa24_v3",
      "id_block": "block_3",
      "question": "Qu'est-ce qui s'empare de soi ?",
      "answer": "la légende",
      "answer_stringIds": [
        "string_64",
        "string_65"
      ]
    },
    {
      "id_qa": "FMSH_PB188a_00015_037_qa25_v3",
      "id_block": "block_3",
      "question": "Qu'est-ce qui n'est pas possible de poser si l'on n'a pas laissé la légende s'emparer de soi ?",
      "answer": "de telles questions",
      "answer_stringIds": [
        "string_54",
        "string_55",
        "string_56",
        "string_57"
      ]
    },
    {
      "id_qa": "FMSH_PB188a_00015_037_qa7_v3",
      "id_block": "block_6",
      "question": "Que scintille la vie quotidienne ?",
      "answer": "alors de mille feux",
      "answer_stringIds": [
        "string_186",
        "string_187",
        "string_188",
        "string_189"
      ]
    },
    {
      "id_qa": "FMSH_PB188a_00015_037_qa9_v3",
      "id_block": "block_6",
      "question": "Que devient inutile de préciser ici ?",
      "answer": "la vie quotidienne scintille alors de mille feux",
      "answer_stringIds": [
        "string_182",
        "string_183",
        "string_184",
        "string_185",
        "string_186",
        "string_187",
        "string_188",
        "string_189"
      ]
    },
    {
      "id_qa": "FMSH_PB188a_00015_037_qa10_v3",
      "id_block": "block_6",
      "question": "Qu'est ce qui scintille alors de mille feux ?",
      "answer": "la vie quotidienne",
      "answer_stringIds": [
        "string_182",
        "string_183",
        "string_184"
      ]
    },
    {
      "id_qa": "FMSH_PB188a_00015_037_qa31_v3",
      "id_block": "block_6",
      "question": "Qu'est-ce que la lumière ?",
      "answer": "la philosophie",
      "answer_stringIds": [
        "string_173",
        "string_174"
      ]
    },
    {
      "id_qa": "FMSH_PB188a_00015_037_qa32_v3",
      "id_block": "block_6",
      "question": "Qu'est-ce que la philosophie ?",
      "answer": "de permanence",
      "answer_stringIds": [
        "string_204",
        "string_205",
        "string_206"
      ]
    },
    {
      "id_qa": "FMSH_PB188a_00015_037_qa16_v3",
      "id_block": "block_8",
      "question": "Qu'est-ce que Lucifer ?",
      "answer": "le monde",
      "answer_stringIds": [
        "string_227",
        "string_228"
      ]
    },
    {
      "id_qa": "FMSH_PB188a_00015_037_qa19_v3",
      "id_block": "block_8",
      "question": "Par quoi est vivifié le monde ?",
      "answer": "par une existence",
      "answer_stringIds": [
        "string_234",
        "string_235",
        "string_236"
      ]
    },
    {
      "id_qa": "FMSH_PB188a_00015_037_qa13_v3",
      "id_block": "block_9",
      "question": "Qu'est-ce que l'aliénation ?",
      "answer": "un impondérable",
      "answer_stringIds": [
        "string_256",
        "string_257"
      ]
    }
  ]
}