{
  "num": "autog_0338-7259_1971_num_15_1",
  "article": "autog_0338-7259_1971_num_15_1_999",
  "page_name": "FMSH_PB188a_00015_038",
  "questions": [
    {
      "id_qa": "FMSH_PB188a_00015_038_qa1_v3",
      "id_block": "block_1",
      "question": "Qu'est ce qui passera du statut de totem à celui d'hypothèse existentielle ?",
      "answer": "la Commune",
      "answer_stringIds": [
        "string_11",
        "string_12"
      ]
    }
  ]
}