{
  "num": "autog_0338-7259_1978_num_41_1",
  "article": "autog_0338-7259_1978_num_41_1_1330",
  "page_name": "FMSH_PB188a_41-42_253",
  "questions": [
    "Quels auteurs sont cités dans ce paragraphe en relation avec le mouvement ouvrier et l'autogestion ?",
    "Quels pays sont concernés par les études sur l'autogestion dans le monde ouvrier ?",
    "Quels thèmes sont abordés dans les études sur la participation et le contrôle des travailleurs dans les entreprises ?",
    "Quels sont les auteurs qui étudient l'impact des syndicats sur l'autogestion ?",
    "Quels sont les auteurs qui abordent la transition vers l'autogestion dans les pays industrialisés ?",
    "Quels sont les auteurs qui examinent la démocratisation des entreprises ?",
    "Quels sont les pays dont les relations industrielles sont comparées à l'Allemagne dans le contexte de l'autogestion ?"
  ]
}