{
  "num": "autog_0249-2563_1980_num_13_1",
  "article": "autog_0249-2563_1980_num_13_1_1347",
  "page_name": "autog_0249-2563_1980_num_13_1_T1_0079_0000",
  "questions": [
    {
      "id_qa": "autog_0249-2563_1980_num_13_1_T1_0079_0000_qa6_v3",
      "id_block": "block_2",
      "question": "Quand l'autogestion a-t-elle commencé à se développer au Japon ?",
      "answer": "vers la fin des années 60",
      "answer_stringIds": [
        "string_22",
        "string_23",
        "string_24",
        "string_25",
        "string_26",
        "string_27"
      ]
    },
    {
      "id_qa": "autog_0249-2563_1980_num_13_1_T1_0079_0000_qa1_v3",
      "id_block": "block_3",
      "question": "Qui a assuré la paix sociale pendant la décennie suivante ?",
      "answer": "les équipes dirigeantes",
      "answer_stringIds": [
        "string_108",
        "string_109",
        "string_110"
      ]
    }
  ]
}