{
  "num": "autog_0249-2563_1982_num_15_8",
  "article": "autog_0249-2563_1982_num_15_8_1477",
  "page_name": "autog_0249-2563_1982_num_15_8_T1_0118_0000",
  "questions": [
    {
      "id_qa": "autog_0249-2563_1982_num_15_8_T1_0118_0000_qa5_v3",
      "id_block": "block_1",
      "question": "Combien de postes de travail pourraient être créés ?",
      "answer": "20",
      "answer_stringIds": [
        "string_197"
      ]
    },
    {
      "id_qa": "autog_0249-2563_1982_num_15_8_T1_0118_0000_qa6_v3",
      "id_block": "block_1",
      "question": "Qui affirme qu'il faudrait une production décentralisée ?",
      "answer": "K.W.Kieffer",
      "answer_stringIds": [
        "string_163",
        "string_164"
      ]
    },
    {
      "id_qa": "autog_0249-2563_1982_num_15_8_T1_0118_0000_qa7_v3",
      "id_block": "block_1",
      "question": "Quelle est l'ambition de K.W.Kieffer ?",
      "answer": "une production décentralisée",
      "answer_stringIds": [
        "string_169",
        "string_170",
        "string_171"
      ]
    },
    {
      "id_qa": "autog_0249-2563_1982_num_15_8_T1_0118_0000_qa13_v3",
      "id_block": "block_1",
      "question": "Qu'est ce que l'« Alternative » ?",
      "answer": "les revendications syndicales",
      "answer_stringIds": [
        "string_94",
        "string_95",
        "string_96"
      ]
    },
    {
      "id_qa": "autog_0249-2563_1982_num_15_8_T1_0118_0000_qa9_v3",
      "id_block": "block_2",
      "question": "Quel est le danger de se laisser très vite réintégrer dans une société dont il était jadis sorti ?",
      "answer": "le mouvement",
      "answer_stringIds": [
        "string_219",
        "string_220"
      ]
    },
    {
      "id_qa": "autog_0249-2563_1982_num_15_8_T1_0118_0000_qa12_v3",
      "id_block": "block_2",
      "question": "Quel danger court le mouvement avec de telles conceptions ?",
      "answer": "le danger de se laisser très vite réintégrer dans une société dont il était jadis sorti",
      "answer_stringIds": [
        "string_222",
        "string_223",
        "string_224",
        "string_225",
        "string_226",
        "string_227",
        "string_228",
        "string_229",
        "string_230",
        "string_231",
        "string_232",
        "string_233",
        "string_234",
        "string_235",
        "string_236",
        "string_237"
      ]
    },
    {
      "id_qa": "autog_0249-2563_1982_num_15_8_T1_0118_0000_qa22_v3",
      "id_block": "block_2",
      "question": "Qu'est-ce qui menace les modèles économiques de l'Allemagne fédérale ?",
      "answer": "la concurrence",
      "answer_stringIds": [
        "string_271",
        "string_272"
      ]
    },
    {
      "id_qa": "autog_0249-2563_1982_num_15_8_T1_0118_0000_qa18_v3",
      "id_block": "block_4",
      "question": "Où est publié le livre Z/s vivent autrement ?",
      "answer": "éditions Stock 2",
      "answer_stringIds": [
        "string_341",
        "string_342",
        "string_343"
      ]
    },
    {
      "id_qa": "autog_0249-2563_1982_num_15_8_T1_0118_0000_qa19_v3",
      "id_block": "block_4",
      "question": "Quel livre a été publié en mars 1982 aux éditions Stock 2 ?",
      "answer": "s vivent autrement",
      "answer_stringIds": [
        "string_331",
        "string_332",
        "string_333",
        "string_334"
      ]
    }
  ]
}