{
  "num": "autog_0338-7259_1971_num_16_1",
  "article": "autog_0338-7259_1971_num_16_1_1015",
  "page_name": "FMSH_PB188a_16-17_118",
  "questions": [
    {
      "id_qa": "FMSH_PB188a_16-17_118_qa0_v3",
      "id_block": "block_3",
      "question": "Dans quel document est présenté l'opinion de certains courants minoritaires ?",
      "answer": "dans ces annexes",
      "answer_stringIds": [
        "string_29",
        "string_30",
        "string_31"
      ]
    },
    {
      "id_qa": "FMSH_PB188a_16-17_118_qa13_v3",
      "id_block": "block_4",
      "question": "Quand a eu lieu la \" Résolution d'orientation\" dite \"des Pays de Loire\"?",
      "answer": "au dernier Congrès",
      "answer_stringIds": [
        "string_82",
        "string_83",
        "string_84"
      ]
    },
    {
      "id_qa": "FMSH_PB188a_16-17_118_qa14_v3",
      "id_block": "block_4",
      "question": "Quel est le score de la \" Résolution d'orientation\"?",
      "answer": "32,5 % des suffrages",
      "answer_stringIds": [
        "string_78",
        "string_79",
        "string_80",
        "string_81"
      ]
    },
    {
      "id_qa": "FMSH_PB188a_16-17_118_qa11_v3",
      "id_block": "block_6",
      "question": "Qui a défendu la cause du Congrès ?",
      "answer": "par Fredo Krumnow",
      "answer_stringIds": [
        "string_166",
        "string_167",
        "string_168"
      ]
    },
    {
      "id_qa": "FMSH_PB188a_16-17_118_qa2_v3",
      "id_block": "block_7",
      "question": "A quel syndicat appartient le document de travail préparatoire ?",
      "answer": "au 35ème Congrès qui émane du syndicat parisien du Commerce et des",
      "answer_stringIds": [
        "string_197",
        "string_198",
        "string_199",
        "string_200",
        "string_201",
        "string_202",
        "string_203",
        "string_204",
        "string_205",
        "string_206",
        "string_207",
        "string_208"
      ]
    },
    {
      "id_qa": "FMSH_PB188a_16-17_118_qa5_v3",
      "id_block": "block_7",
      "question": "Qu'est-ce que le parlementarisme ?",
      "answer": "nouvelles structures de démocratie directe",
      "answer_stringIds": [
        "string_233",
        "string_234",
        "string_235",
        "string_236",
        "string_237"
      ]
    },
    {
      "id_qa": "FMSH_PB188a_16-17_118_qa9_v3",
      "id_block": "block_7",
      "question": "Qui a appuyé la résolution HA-CUI-TEX ?",
      "answer": "Ce syndicat",
      "answer_stringIds": [
        "string_210",
        "string_211"
      ]
    }
  ]
}