{
  "num": "autog_0338-7259_1971_num_16_1",
  "article": "autog_0338-7259_1971_num_16_1_1015",
  "page_name": "FMSH_PB188a_16-17_092",
  "questions": [
    {
      "id_qa": "FMSH_PB188a_16-17_092_qa5_v3",
      "id_block": "block_1",
      "question": "Qu'est ce qui pénalisent les individus issus des milieux populaires ?",
      "answer": "les procédures complexes et coûteuses",
      "answer_stringIds": [
        "string_24",
        "string_25",
        "string_26",
        "string_27",
        "string_28",
        "string_29"
      ]
    },
    {
      "id_qa": "FMSH_PB188a_16-17_092_qa6_v3",
      "id_block": "block_1",
      "question": "A qui appartient la justice ?",
      "answer": "à la bourgeoisie",
      "answer_stringIds": [
        "string_19",
        "string_20",
        "string_21"
      ]
    },
    {
      "id_qa": "FMSH_PB188a_16-17_092_qa3_v3",
      "id_block": "block_3",
      "question": "Quand sont élus les députés ?",
      "answer": "en juin 1968",
      "answer_stringIds": [
        "string_73",
        "string_74",
        "string_75"
      ]
    },
    {
      "id_qa": "FMSH_PB188a_16-17_092_qa9_v3",
      "id_block": "block_5",
      "question": "Qui ne s'arrêtent pas à la dénonciation des inégalités matérielles ?",
      "answer": "les Cédétistes",
      "answer_stringIds": [
        "string_128",
        "string_129"
      ]
    },
    {
      "id_qa": "FMSH_PB188a_16-17_092_qa10_v3",
      "id_block": "block_5",
      "question": "A quoi s'arrêtent les Cédétistes dans leur critique de la société capitaliste ?",
      "answer": "la dénonciation des inégalités matérielles",
      "answer_stringIds": [
        "string_134",
        "string_135",
        "string_136",
        "string_137",
        "string_138",
        "string_139"
      ]
    },
    {
      "id_qa": "FMSH_PB188a_16-17_092_qa12_v3",
      "id_block": "block_5",
      "question": "Qu'est-ce qui met en cause les aliénations ?",
      "answer": "au fonctionnement même de notre société",
      "answer_stringIds": [
        "string_147",
        "string_148",
        "string_149",
        "string_150",
        "string_151",
        "string_152"
      ]
    }
  ]
}