{
  "num": "autog_0338-7259_1971_num_16_1",
  "article": "autog_0338-7259_1971_num_16_1_1015",
  "page_name": "FMSH_PB188a_16-17_104",
  "questions": [
    {
      "id_qa": "FMSH_PB188a_16-17_104_qa5_v3",
      "id_block": "block_1",
      "question": "A quoi se réfèrent les syndicalistes \"autogestionnaires\" ?",
      "answer": "au modèle soviétique",
      "answer_stringIds": [
        "string_41",
        "string_42",
        "string_43"
      ]
    },
    {
      "id_qa": "FMSH_PB188a_16-17_104_qa21_v3",
      "id_block": "block_3",
      "question": "Qui parle de propriété sociale ?",
      "answer": "les Cédétistes",
      "answer_stringIds": [
        "string_130",
        "string_131",
        "string_132"
      ]
    },
    {
      "id_qa": "FMSH_PB188a_16-17_104_qa19_v3",
      "id_block": "block_4",
      "question": "Quel est le statut des entreprises ou secteurs dont l'activité pèse d'un poids déterminant sur l'orientation de l'économie ?",
      "answer": "propriété de la Nation",
      "answer_stringIds": [
        "string_220",
        "string_221",
        "string_222",
        "string_223"
      ]
    },
    {
      "id_qa": "FMSH_PB188a_16-17_104_qa20_v3",
      "id_block": "block_4",
      "question": "Qu'est-ce que l'Etat exerce sur les entreprises ?",
      "answer": "la gestion directe",
      "answer_stringIds": [
        "string_232",
        "string_233",
        "string_234"
      ]
    },
    {
      "id_qa": "FMSH_PB188a_16-17_104_qa22_v3",
      "id_block": "block_5",
      "question": "Qu'est ce qui serait transféré aux autres moyens de production et d'échange ?",
      "answer": "la propriété",
      "answer_stringIds": [
        "string_11",
        "string_12"
      ]
    }
  ]
}