{
  "num": "autog_0338-7259_1971_num_16_1",
  "article": "autog_0338-7259_1971_num_16_1_1015",
  "page_name": "FMSH_PB188a_16-17_099",
  "questions": [
    {
      "id_qa": "FMSH_PB188a_16-17_099_qa15_v3",
      "id_block": "block_1",
      "question": "Qu'est-ce qui est mis en scène par la jeunesse ?",
      "answer": "une mode et des idoles",
      "answer_stringIds": [
        "string_16",
        "string_17",
        "string_18",
        "string_19",
        "string_20"
      ]
    },
    {
      "id_qa": "FMSH_PB188a_16-17_099_qa22_v3",
      "id_block": "block_2",
      "question": "Qu'explique la recherche exclusive du profit par les capitalistes ?",
      "answer": "le sacrifice des équipements collectifs",
      "answer_stringIds": [
        "string_44",
        "string_45",
        "string_46",
        "string_47",
        "string_48",
        "string_49"
      ]
    },
    {
      "id_qa": "FMSH_PB188a_16-17_099_qa23_v3",
      "id_block": "block_2",
      "question": "Qu'est ce qui explique le sacrifice des équipements collectifs ?",
      "answer": "la recherche exclusive du profit par les capitalistes",
      "answer_stringIds": [
        "string_33",
        "string_34",
        "string_35",
        "string_36",
        "string_37",
        "string_38",
        "string_39",
        "string_40"
      ]
    },
    {
      "id_qa": "FMSH_PB188a_16-17_099_qa0_v3",
      "id_block": "block_3",
      "question": "Qui ne peut accepter de voir une partie grandissante de la production qui serait détournée de l'économie de marché ?",
      "answer": "Les entreprises",
      "answer_stringIds": [
        "string_51",
        "string_52"
      ]
    },
    {
      "id_qa": "FMSH_PB188a_16-17_099_qa3_v3",
      "id_block": "block_3",
      "question": "Qu'est ce qui est aujourd'hui le signe de la débudgétisation et de la dénationalisation ?",
      "answer": "investissements collectifs",
      "answer_stringIds": [
        "string_92",
        "string_93",
        "string_94"
      ]
    },
    {
      "id_qa": "FMSH_PB188a_16-17_099_qa4_v3",
      "id_block": "block_3",
      "question": "Qui ne peut pas accepter de voir une partie grandissante de la production détournée de l'économie de marché ?",
      "answer": "Les entreprises",
      "answer_stringIds": [
        "string_51",
        "string_52"
      ]
    },
    {
      "id_qa": "FMSH_PB188a_16-17_099_qa10_v3",
      "id_block": "block_4",
      "question": "Qui fait remarquer qu'elles représentent plus de dix fois le budget des affaires culturelles ?",
      "answer": "les militants de la C.F.D.T.",
      "answer_stringIds": [
        "string_175",
        "string_176",
        "string_177",
        "string_178",
        "string_179"
      ]
    },
    {
      "id_qa": "FMSH_PB188a_16-17_099_qa19_v3",
      "id_block": "block_5",
      "question": "Par quoi passe la suppression des inégalités et des aljénations pour les Cédétistes ?",
      "answer": "par la destruction du système économique capitaliste",
      "answer_stringIds": [
        "string_219",
        "string_220",
        "string_221",
        "string_222",
        "string_223",
        "string_224",
        "string_225"
      ]
    },
    {
      "id_qa": "FMSH_PB188a_16-17_099_qa20_v3",
      "id_block": "block_5",
      "question": "Qu'est-ce qui passe par la destruction du système économique capitaliste ?",
      "answer": "la suppression des inégalités et des aljénations",
      "answer_stringIds": [
        "string_210",
        "string_211",
        "string_212",
        "string_213",
        "string_214",
        "string_215",
        "string_216"
      ]
    },
    {
      "id_qa": "FMSH_PB188a_16-17_099_qa14_v3",
      "id_block": "block_6",
      "question": "Sur quoi s'appuie le système ?",
      "answer": "les forces",
      "answer_stringIds": [
        "string_230",
        "string_231"
      ]
    }
  ]
}