{
  "num": "autog_0338-7259_1971_num_16_1",
  "article": "autog_0338-7259_1971_num_16_1_1015",
  "page_name": "FMSH_PB188a_16-17_103",
  "questions": [
    {
      "id_qa": "FMSH_PB188a_16-17_103_qa3_v3",
      "id_block": "block_1",
      "question": "Qui est frustré dans sa responsabilité ?",
      "answer": "Le travailleur",
      "answer_stringIds": [
        "string_8",
        "string_9"
      ]
    },
    {
      "id_qa": "FMSH_PB188a_16-17_103_qa5_v3",
      "id_block": "block_1",
      "question": "Comment le travailleur est-il frustré dans sa responsabilité ?",
      "answer": "aliéné",
      "answer_stringIds": [
        "string_17"
      ]
    },
    {
      "id_qa": "FMSH_PB188a_16-17_103_qa6_v3",
      "id_block": "block_6",
      "question": "Qu'est ce qui ne peut faire l'objet d'une appropriation privée ?",
      "answer": "les moyens de production",
      "answer_stringIds": [
        "string_118",
        "string_119",
        "string_120",
        "string_121"
      ]
    },
    {
      "id_qa": "FMSH_PB188a_16-17_103_qa8_v3",
      "id_block": "block_6",
      "question": "Quel est le rapport de base de la société capitaliste ?",
      "answer": "briser nettement ce rapport de base de la société capitaliste : propriété des moyens de production",
      "answer_stringIds": [
        "string_233",
        "string_234",
        "string_235",
        "string_236",
        "string_237",
        "string_238",
        "string_239",
        "string_240",
        "string_241",
        "string_242",
        "string_243",
        "string_244",
        "string_245",
        "string_246",
        "string_247",
        "string_248"
      ]
    }
  ]
}