{
  "num": "autog_0338-7259_1974_num_28_1",
  "article": "autog_0338-7259_1974_num_28_1_1193",
  "page_name": "FMSH_PB188a_28-29_088",
  "questions": [
    {
      "id_qa": "FMSH_PB188a_28-29_088_qa23_v3",
      "id_block": "block_1",
      "question": "Quelle est la voie la plus féconde pour le partage effectif du pouvoir ?",
      "answer": "un système de cogestion",
      "answer_stringIds": [
        "string_43",
        "string_44",
        "string_45",
        "string_46"
      ]
    },
    {
      "id_qa": "FMSH_PB188a_28-29_088_qa1_v3",
      "id_block": "block_2",
      "question": "Par qui le choix des directeurs et leur révocabilité doit-il être mis en place ?",
      "answer": "des conseils",
      "answer_stringIds": [
        "string_99",
        "string_100"
      ]
    },
    {
      "id_qa": "FMSH_PB188a_28-29_088_qa3_v3",
      "id_block": "block_2",
      "question": "Qu'est ce qui permet l'autogestion ?",
      "answer": "les techniques de production ou le niveau élevé des travailleurs",
      "answer_stringIds": [
        "string_71",
        "string_72",
        "string_73",
        "string_74",
        "string_75",
        "string_76",
        "string_77",
        "string_78",
        "string_79",
        "string_80"
      ]
    },
    {
      "id_qa": "FMSH_PB188a_28-29_088_qa8_v3",
      "id_block": "block_3",
      "question": "Quelle est l'idée de la motion majoritaire ?",
      "answer": "un gouvernement de gauche durable",
      "answer_stringIds": [
        "string_150",
        "string_151",
        "string_152",
        "string_153",
        "string_154",
        "string_155"
      ]
    },
    {
      "id_qa": "FMSH_PB188a_28-29_088_qa16_v3",
      "id_block": "block_4",
      "question": "Où s'est tenue la Convention Nationale du P.S ?",
      "answer": "à Suresnes",
      "answer_stringIds": [
        "string_221",
        "string_222"
      ]
    },
    {
      "id_qa": "FMSH_PB188a_28-29_088_qa17_v3",
      "id_block": "block_4",
      "question": "Quel est le programme du Parti ?",
      "answer": "Programme Commun de Gouvernement",
      "answer_stringIds": [
        "string_236",
        "string_237",
        "string_238",
        "string_239"
      ]
    },
    {
      "id_qa": "FMSH_PB188a_28-29_088_qa18_v3",
      "id_block": "block_4",
      "question": "Quand a eu lieu la Convention Nationale du P.S ?",
      "answer": "en mars 1972",
      "answer_stringIds": [
        "string_223",
        "string_224",
        "string_225"
      ]
    }
  ]
}