{
  "num": "autog_0338-7259_1977_num_37_1",
  "article": "autog_0338-7259_1977_num_37_1_1245_t1_0187_0000_1",
  "page_name": "FMSH_PB188a_37-38_189",
  "questions": [
    "Quels sont, selon P. Jalée, les deux piliers du socialisme ?",
    "Quel rôle joue l'État dans le socialisme selon P. Jalée ?",
    "Comment l'État doit-il évoluer selon P. Jalée ?",
    "Comment P. Jalée voit les rapports entre dictature du prolétariat et autogestion ?",
    "Quels sont les références négatives que P. Jalée fait à l'autogestion ?",
    "Pourquoi P. Jalée accepte malgré tout le terme d'autogestion ?",
    "Quel est, selon P. Jalée, l'opposition fondamentale entre autogestion et dictature du prolétariat ?",
    "Quel manque-t-il, selon P. Jalée, à l'idée d'autogestion pour qu'elle soit compatible avec la dictature du prolétariat ?"
  ]
}