{
  "num": "autog_0338-7259_1979_num_43_1",
  "article": "autog_0338-7259_1979_num_43_1_1300",
  "page_name": "FMSH_PB188a_00043_090",
  "questions": [
    {
      "id_qa": "FMSH_PB188a_00043_090_qa5_v3",
      "id_block": "block_2",
      "question": "Qu'est ce qui nous permet de suivre instant après instant ?",
      "answer": "le martyre des nouveaux philosophes",
      "answer_stringIds": [
        "string_46",
        "string_47",
        "string_48",
        "string_49",
        "string_50"
      ]
    },
    {
      "id_qa": "FMSH_PB188a_00043_090_qa17_v3",
      "id_block": "block_2",
      "question": "Quel est le titre du volumineux dossier ?",
      "answer": "-il bniler les nouveaux philosophes",
      "answer_stringIds": [
        "string_8",
        "string_9",
        "string_10",
        "string_11",
        "string_12",
        "string_13"
      ]
    },
    {
      "id_qa": "FMSH_PB188a_00043_090_qa18_v3",
      "id_block": "block_2",
      "question": "Qui a écrit Faut-il bniler les nouveaux philosophes ?",
      "answer": "deux chroniqueurs",
      "answer_stringIds": [
        "string_19",
        "string_20"
      ]
    },
    {
      "id_qa": "FMSH_PB188a_00043_090_qa37_v3",
      "id_block": "block_3",
      "question": "Quel était le point de vue de Marx ?",
      "answer": "son léninisme mitigé",
      "answer_stringIds": [
        "string_165",
        "string_166",
        "string_167",
        "string_168"
      ]
    },
    {
      "id_qa": "FMSH_PB188a_00043_090_qa27_v3",
      "id_block": "block_4",
      "question": "Qu'est ce qui a été signé par le maître-parleur ?",
      "answer": "sa propre condamnation",
      "answer_stringIds": [
        "string_413",
        "string_414",
        "string_415",
        "string_416"
      ]
    },
    {
      "id_qa": "FMSH_PB188a_00043_090_qa33_v3",
      "id_block": "block_4",
      "question": "De quoi parle B.-H. Lévy ?",
      "answer": "de l'«antimarxisme",
      "answer_stringIds": [
        "string_313",
        "string_314",
        "string_315"
      ]
    },
    {
      "id_qa": "FMSH_PB188a_00043_090_qa61_v3",
      "id_block": "block_4",
      "question": "A qui sont adressées les critiques ?",
      "answer": "aux nouveaux philosophes",
      "answer_stringIds": [
        "string_236",
        "string_237",
        "string_238"
      ]
    },
    {
      "id_qa": "FMSH_PB188a_00043_090_qa62_v3",
      "id_block": "block_4",
      "question": "Qu'est-ce qui est plus révélateur d'une opposition véritable ?",
      "answer": "les critiques",
      "answer_stringIds": [
        "string_146",
        "string_147"
      ]
    },
    {
      "id_qa": "FMSH_PB188a_00043_090_qa53_v3",
      "id_block": "block_5",
      "question": "Qu'est-ce qui est considéré comme «sérieuses» par Clavel ?",
      "answer": "les insanités et les contre-vérités de tout ordre",
      "answer_stringIds": [
        "string_504",
        "string_505",
        "string_506",
        "string_507",
        "string_508",
        "string_509",
        "string_510",
        "string_511",
        "string_512"
      ]
    },
    {
      "id_qa": "FMSH_PB188a_00043_090_qa55_v3",
      "id_block": "block_5",
      "question": "Comment Clavel a-t-il pu accumuler les insanités ?",
      "answer": "avec une louable persévérance",
      "answer_stringIds": [
        "string_527",
        "string_528",
        "string_529",
        "string_530"
      ]
    },
    {
      "id_qa": "FMSH_PB188a_00043_090_qa57_v3",
      "id_block": "block_5",
      "question": "Qui a accumulé les insanités et les contre-vérités ?",
      "answer": "un Clavel et ses complices",
      "answer_stringIds": [
        "string_513",
        "string_514",
        "string_515",
        "string_516",
        "string_517"
      ]
    },
    {
      "id_qa": "FMSH_PB188a_00043_090_qa20_v3",
      "id_block": "block_6",
      "question": "Qui pense que le communisme est une doctrine ?",
      "answer": "M. Heinzen",
      "answer_stringIds": [
        "string_584",
        "string_585"
      ]
    },
    {
      "id_qa": "FMSH_PB188a_00043_090_qa21_v3",
      "id_block": "block_6",
      "question": "Quel est le point de départ du communisme ?",
      "answer": "pour point de départ un principe théorique déterminé comme son noyau",
      "answer_stringIds": [
        "string_596",
        "string_597",
        "string_598",
        "string_599",
        "string_600",
        "string_601",
        "string_602",
        "string_603",
        "string_604",
        "string_605",
        "string_606"
      ]
    },
    {
      "id_qa": "FMSH_PB188a_00043_090_qa23_v3",
      "id_block": "block_6",
      "question": "Qui pense que le communisme est une certaine doctrine ?",
      "answer": "M. Heinzen",
      "answer_stringIds": [
        "string_584",
        "string_585"
      ]
    },
    {
      "id_qa": "FMSH_PB188a_00043_090_qa58_v3",
      "id_block": "block_6",
      "question": "Qui a accepté l'emploi du terme «marxisme» ?",
      "answer": "Engels",
      "answer_stringIds": [
        "string_542"
      ]
    },
    {
      "id_qa": "FMSH_PB188a_00043_090_qa59_v3",
      "id_block": "block_6",
      "question": "Qui a accepté l'emploi du terme \"marxisme\"?",
      "answer": "Engels",
      "answer_stringIds": [
        "string_542"
      ]
    },
    {
      "id_qa": "FMSH_PB188a_00043_090_qa60_v3",
      "id_block": "block_6",
      "question": "Qui a fini par accepter l'emploi du terme «marxisme» pour désigner la conception matérialiste de l'histoire ?",
      "answer": "Engels",
      "answer_stringIds": [
        "string_542"
      ]
    }
  ]
}