{
  "num": "autog_0338-7259_1979_num_43_1",
  "article": "autog_0338-7259_1979_num_43_1_1300",
  "page_name": "FMSH_PB188a_00043_088",
  "questions": [
    {
      "id_qa": "FMSH_PB188a_00043_088_qa1_v3",
      "id_block": "block_1",
      "question": "Qu'aimer Louise Michel ?",
      "answer": "un révolutionnaire de sa famille politique",
      "answer_stringIds": [
        "string_174",
        "string_175",
        "string_176",
        "string_177",
        "string_178",
        "string_179"
      ]
    },
    {
      "id_qa": "FMSH_PB188a_00043_088_qa15_v3",
      "id_block": "block_1",
      "question": "Qui analyse la société ?",
      "answer": "Marx",
      "answer_stringIds": [
        "string_25"
      ]
    },
    {
      "id_qa": "FMSH_PB188a_00043_088_qa17_v3",
      "id_block": "block_1",
      "question": "A partir de quoi Marx analysera-t-il la société ?",
      "answer": "le schéma",
      "answer_stringIds": [
        "string_20",
        "string_21"
      ]
    },
    {
      "id_qa": "FMSH_PB188a_00043_088_qa20_v3",
      "id_block": "block_1",
      "question": "Par quoi Louise Michel est-elle épargnée ?",
      "answer": "par la culture universelle de notre auteur",
      "answer_stringIds": [
        "string_115",
        "string_116",
        "string_117",
        "string_118",
        "string_119",
        "string_120",
        "string_121"
      ]
    },
    {
      "id_qa": "FMSH_PB188a_00043_088_qa21_v3",
      "id_block": "block_1",
      "question": "Qui est victime de la culture universelle de notre auteur ?",
      "answer": "Louise Michel",
      "answer_stringIds": [
        "string_110",
        "string_111"
      ]
    },
    {
      "id_qa": "FMSH_PB188a_00043_088_qa8_v3",
      "id_block": "block_2",
      "question": "Qui a envoyé l'Internationale à travers toute l'Asie ?",
      "answer": "Ce Kominternien",
      "answer_stringIds": [
        "string_269",
        "string_270"
      ]
    },
    {
      "id_qa": "FMSH_PB188a_00043_088_qa11_v3",
      "id_block": "block_2",
      "question": "Qu'est ce que le Kominternien a su éviter au bain d'acier du post-léninisme ?",
      "answer": "son humanisme révolutionnaire",
      "answer_stringIds": [
        "string_284",
        "string_285",
        "string_286"
      ]
    },
    {
      "id_qa": "FMSH_PB188a_00043_088_qa13_v3",
      "id_block": "block_2",
      "question": "De quoi H restait-il un marxiste ?",
      "answer": "un marxiste tel que Marx les révait",
      "answer_stringIds": [
        "string_295",
        "string_296",
        "string_297",
        "string_298",
        "string_299",
        "string_300",
        "string_301",
        "string_302"
      ]
    },
    {
      "id_qa": "FMSH_PB188a_00043_088_qa14_v3",
      "id_block": "block_2",
      "question": "Qui a envoyé l'Internationale à travers l'Asie ?",
      "answer": "Ce Kominternien",
      "answer_stringIds": [
        "string_269",
        "string_270"
      ]
    },
    {
      "id_qa": "FMSH_PB188a_00043_088_qa25_v3",
      "id_block": "block_2",
      "question": "Comment s'appelle les socialistes français ?",
      "answer": "utopistes",
      "answer_stringIds": [
        "string_268"
      ]
    },
    {
      "id_qa": "FMSH_PB188a_00043_088_qa6_v3",
      "id_block": "block_3",
      "question": "Qui a inspiré Marx ?",
      "answer": "ces utopistes",
      "answer_stringIds": [
        "string_349",
        "string_350"
      ]
    },
    {
      "id_qa": "FMSH_PB188a_00043_088_qa26_v3",
      "id_block": "block_4",
      "question": "Qui ne sont pas tous socialis ?",
      "answer": "Desanti et ses camarades de parti",
      "answer_stringIds": [
        "string_364",
        "string_365",
        "string_366",
        "string_367",
        "string_368",
        "string_369"
      ]
    }
  ]
}