{
  "num": "autog_0338-7259_1979_num_43_1",
  "article": "autog_0338-7259_1979_num_43_1_1300",
  "page_name": "FMSH_PB188a_00043_091",
  "questions": [
    {
      "id_qa": "FMSH_PB188a_00043_091_qa55_v3",
      "id_block": "block_1",
      "question": "Qui est la source de leurs thèses ?",
      "answer": "Les communistes",
      "answer_stringIds": [
        "string_3",
        "string_4"
      ]
    },
    {
      "id_qa": "FMSH_PB188a_00043_091_qa4_v3",
      "id_block": "block_2",
      "question": "Qui ne sait plus comment manifester son vertueuse indignation ?",
      "answer": "Lacouture",
      "answer_stringIds": [
        "string_83",
        "string_84"
      ]
    },
    {
      "id_qa": "FMSH_PB188a_00043_091_qa7_v3",
      "id_block": "block_2",
      "question": "Qu'est-ce que Lacouture ne sait plus faire ?",
      "answer": "manifester sa vertueuse indignation",
      "answer_stringIds": [
        "string_175",
        "string_176",
        "string_177",
        "string_178"
      ]
    },
    {
      "id_qa": "FMSH_PB188a_00043_091_qa17_v3",
      "id_block": "block_2",
      "question": "Quelle est la vertu de Lacouture ?",
      "answer": "sa vertueuse indignation",
      "answer_stringIds": [
        "string_176",
        "string_177",
        "string_178"
      ]
    },
    {
      "id_qa": "FMSH_PB188a_00043_091_qa18_v3",
      "id_block": "block_2",
      "question": "Qui ne sait plus comment manifester sa vertueuse indignation ?",
      "answer": "Lacouture",
      "answer_stringIds": [
        "string_83",
        "string_84"
      ]
    },
    {
      "id_qa": "FMSH_PB188a_00043_091_qa35_v3",
      "id_block": "block_2",
      "question": "Qui passe son temps à résister ?",
      "answer": "Tous ces intellectuels résistants",
      "answer_stringIds": [
        "string_70",
        "string_71",
        "string_72",
        "string_73"
      ]
    },
    {
      "id_qa": "FMSH_PB188a_00043_091_qa39_v3",
      "id_block": "block_2",
      "question": "Qu'a été la tâche des intellectuels pendant longtemps ?",
      "answer": "les consciences",
      "answer_stringIds": [
        "string_44",
        "string_45"
      ]
    },
    {
      "id_qa": "FMSH_PB188a_00043_091_qa46_v3",
      "id_block": "block_2",
      "question": "Sur quoi repose l'attitude de l'intelligentsia de gauche ?",
      "answer": "sur la défense de cœux",
      "answer_stringIds": [
        "string_294",
        "string_295",
        "string_296",
        "string_297",
        "string_298"
      ]
    },
    {
      "id_qa": "FMSH_PB188a_00043_091_qa19_v3",
      "id_block": "block_4",
      "question": "Qui peut consulter l'ouvrage de Bertrand Russel ?",
      "answer": "Le lecteur",
      "answer_stringIds": [
        "string_460",
        "string_461"
      ]
    },
    {
      "id_qa": "FMSH_PB188a_00043_091_qa20_v3",
      "id_block": "block_4",
      "question": "Quand a été publié l'ouvrage de Bertrand Russel ?",
      "answer": "en 1920",
      "answer_stringIds": [
        "string_482",
        "string_483"
      ]
    },
    {
      "id_qa": "FMSH_PB188a_00043_091_qa25_v3",
      "id_block": "block_5",
      "question": "Qu'a apporté Flora Tristan à Marx ?",
      "answer": "apporter",
      "answer_stringIds": [
        "string_524"
      ]
    },
    {
      "id_qa": "FMSH_PB188a_00043_091_qa26_v3",
      "id_block": "block_5",
      "question": "Qui a écrit OEuvres et Vies mélées ?",
      "answer": "Flora Tristan",
      "answer_stringIds": [
        "string_485",
        "string_486"
      ]
    },
    {
      "id_qa": "FMSH_PB188a_00043_091_qa27_v3",
      "id_block": "block_5",
      "question": "Qu'apporte Flora Tristan à Marx ?",
      "answer": "ce que",
      "answer_stringIds": [
        "string_518",
        "string_519"
      ]
    },
    {
      "id_qa": "FMSH_PB188a_00043_091_qa28_v3",
      "id_block": "block_5",
      "question": "A qui Flora Tristan a-t-elle apporté beaucoup ?",
      "answer": "à Marx",
      "answer_stringIds": [
        "string_525",
        "string_526"
      ]
    }
  ]
}