{
  "num": "autog_0005-0970_1969_num_9_1",
  "article": "autog_0005-0970_1969_num_9_1_953",
  "page_name": "FMSH_PB188a_09-10_041",
  "questions": [
    "Quel rôle joue l'Islam dans le mouvement de l'autogestion industrielle en Algérie ?",
    "Qu'est ce que signifie le « socialisme spécifique » dans ce contexte ?",
    "Comment l'autogestion est-elle liée aux valeurs traditionnelles en Algérie ?",
    "En quelles industries et secteurs l'autogestion a-t-elle été instaurée initialement ?",
    "Quand et pourquoi le gouvernement a-t-il décidé de compléter l'opération « biens vacants » par la liquidation totale de la propriété foncière coloniale et des nationalisations dans l'industrie ?",
    "Quel est le lien entre l'autogestion réelle et l'autogestion en tant qu'idéologie ?",
    "Quels sont les forces politiques qui soutiennent l'autogestion ?",
    "Comment le gouvernement a-t-il traité les entreprises autogérées elles-mêmes ?"
  ]
}