{
  "num": "autog_0338-7259_1970_num_13_1",
  "article": "autog_0338-7259_1970_num_13_1_977",
  "page_name": "FMSH_PB188a_13-14_096",
  "questions": [
    "Quel est le nom du professeur qui a organisé cette session ?",
    "Quel est le phénomène observé par Dominique Schalchi lors de cette session ?",
    "Quels types de phénomènes se sont produits dans ce petit groupe réuni pendant une période courte ?",
    "Quels sont les objectifs de Dominique Schalchi pour cette session ?",
    "Quels types de documents ont été mis à la disposition des participants ?",
    "Quels sont les absences notables dans ce groupe ?",
    "Quel serait l'intérêt de tenir une telle session sur les lieux de travail des industriels en marche vers l'autogestion ?",
    "Comment peut-on interpréter la tentative infructueuse du groupe auprès du comité d'entreprise des usines Renault ?"
  ]
}