{
  "num": "autog_0338-7259_1970_num_13_1",
  "article": "autog_0338-7259_1970_num_13_1_977",
  "page_name": "FMSH_PB188a_13-14_101",
  "questions": [
    "Quel est l'objectif principal de l'analyse permanente dans le cadre de l'Université d'Été ?",
    "Comment mener cette analyse ?",
    "Dois-je insister auprès des participants pour organiser ce type d'analyse ?",
    "Ou simplement, devons-nous proposer cette analyse et la considérer comme essentielle, mais laisser chacun décider s'il adhère ou non à cette opinion ?",
    "Quel est le problème méthodologique rencontré dans la conduite de cette analyse ?",
    "Est-ce que dix jours sont assez longs pour former ensemble une méthode d'analyse ?",
    "Les séances d'analyse quotidienne ont-elles permis une analyse approfondie ?",
    "Ont-ils été confondus plusieurs niveaux d'analyse ?",
    "Quel est le niveau d'analyse principalement abordé par certains participants ?",
    "Psycho-sociologique, institutionnel, politique, quels sont les différents niveaux d'analyse abordés ?",
    "Faut-il mettre en cause la périodicité de ces séances ?",
    "Aurait-il fallu les espacer ?",
    "Est-ce nécessaire d'avoir une personne chargée explicitement de ce travail (un analyste) ?",
    "La formation par l'analyse ne passe-t-elle pas par l'intermédiaire d'un technicien extérieur ?",
    "Faut-il mettre en cause la méthode elle-même et trouver des formules d'utilisation plus rationnelles ?"
  ]
}