{
  "num": "autog_0249-2563_1982_num_15_10",
  "article": "autog_0249-2563_1982_num_15_10_1507_t1_0125_0000_1",
  "page_name": "autog_0249-2563_1982_num_15_10_T1_0125_0000",
  "questions": [
    "Quelle ville est décrite comme étant une ville franche à l'image hétérogène dans le texte ?",
    "Quel événement a entraîné la découverte de l'affiche « 1982... moi j'exploite ! » ?",
    "Quel était le slogan de l'année au début de l'année mentionnée dans le texte ?",
    "Quels groupes sociaux ont été visés par la majorité socialiste-communiste dans les années précédentes ?",
    "Quels sont les lieux où les occupations d'immeubles par des squatters sont mentionnées dans le texte ?",
    "Quels sont les conseils donnés sur l'affiche de Marianne pour les futures autogestions ?",
    "Quels sont les villes évoquées comme situations repoussoires dans le texte ?",
    "Quels sont les électeurs que les socialistes se trompent en visant pour leurs prises de position ?",
    "Quels sont les postes que Chirac et Sarre occupent respectivement dans les institutions mentionnées dans le texte ?",
    "Quel est le sort attendu de Chirac et Sarre dans l'avenir selon le texte ?"
  ]
}