{
  "num": "autog_0338-7259_1976_num_33_1",
  "article": "autog_0338-7259_1976_num_33_1_1159",
  "page_name": "FMSH_PB188a_33-34_103",
  "questions": [
    "Quels facteurs ont permis la consolidation du capitalisme portugais durant les quinze dernières années avant 1974 ?",
    "Quels secteurs de l'économie portugaise étaient les plus performants ?",
    "Quels étaient les conditions de travail des entreprises sans moyens techniques et économiques ?",
    "Comment l'exploitation des colonies a-t-elle contribué au capitalisme portugais ?",
    "Quels étaient les revendications des ouvriers au début du nouveau régime ?",
    "Quels courants politiques ont opposé la transformation de l'économie portugaise après la chute de l'appareil répressif ?",
    "Comment les travailleurs se sont mis en situation de prendre le contrôle total des usines ?",
    "Comment les travailleurs ont-ils géré les entreprises pendant leur occupation ?",
    "Quels ont été les principaux défis rencontrés par les travailleurs dans la distribution des produits ?"
  ]
}