{
  "num": "autog_0338-7259_1973_num_22_1",
  "article": "autog_0338-7259_1973_num_22_1_1084",
  "page_name": "FMSH_PB188a_22-23_124",
  "questions": [
    {
      "id_qa": "FMSH_PB188a_22-23_124_qa2_v3",
      "id_block": "block_1",
      "question": "Qu'est-ce qui associe les diversités d'organisation des entreprises autogérées ?",
      "answer": "un fédéralisme",
      "answer_stringIds": [
        "string_12",
        "string_13"
      ]
    },
    {
      "id_qa": "FMSH_PB188a_22-23_124_qa6_v3",
      "id_block": "block_2",
      "question": "Qu'est ce qui a été mis en place jusqu'à ce jour ?",
      "answer": "le socialisme",
      "answer_stringIds": [
        "string_97",
        "string_98"
      ]
    },
    {
      "id_qa": "FMSH_PB188a_22-23_124_qa7_v3",
      "id_block": "block_2",
      "question": "Qu'est ce qui a permis d'instaurer le socialisme ?",
      "answer": "tous les moyens",
      "answer_stringIds": [
        "string_91",
        "string_92",
        "string_93"
      ]
    },
    {
      "id_qa": "FMSH_PB188a_22-23_124_qa8_v3",
      "id_block": "block_2",
      "question": "A quoi sont dues les échecs du socialisme ?",
      "answer": "leur contenu",
      "answer_stringIds": [
        "string_107",
        "string_108"
      ]
    },
    {
      "id_qa": "FMSH_PB188a_22-23_124_qa10_v3",
      "id_block": "block_4",
      "question": "Qu'est ce qui avait altéré la pureté du socialisme ?",
      "answer": "des moyens",
      "answer_stringIds": [
        "string_167",
        "string_168"
      ]
    },
    {
      "id_qa": "FMSH_PB188a_22-23_124_qa13_v3",
      "id_block": "block_4",
      "question": "Où le socialisme a-t-il été institué ?",
      "answer": "dans les pays",
      "answer_stringIds": [
        "string_157",
        "string_158",
        "string_159"
      ]
    },
    {
      "id_qa": "FMSH_PB188a_22-23_124_qa24_v3",
      "id_block": "block_4",
      "question": "Qu'est-ce que les régimes dits socialistes ?",
      "answer": "une économie",
      "answer_stringIds": [
        "string_243",
        "string_244"
      ]
    },
    {
      "id_qa": "FMSH_PB188a_22-23_124_qa26_v3",
      "id_block": "block_5",
      "question": "A quoi sert la période intermédiaire ?",
      "answer": "à la révolution",
      "answer_stringIds": [
        "string_271",
        "string_272",
        "string_273",
        "string_274"
      ]
    },
    {
      "id_qa": "FMSH_PB188a_22-23_124_qa30_v3",
      "id_block": "block_5",
      "question": "Qu'est-ce que la période intermédiaire ?",
      "answer": "à la révolution",
      "answer_stringIds": [
        "string_271",
        "string_272",
        "string_273",
        "string_274"
      ]
    },
    {
      "id_qa": "FMSH_PB188a_22-23_124_qa28_v3",
      "id_block": "block_5",
      "question": "Comment est conçue la période intermédiaire ?",
      "answer": "comme une pause",
      "answer_stringIds": [
        "string_266",
        "string_267",
        "string_268"
      ]
    },
    {
      "id_qa": "FMSH_PB188a_22-23_124_qa29_v3",
      "id_block": "block_5",
      "question": "A quoi s'adapte la période intermédiaire ?",
      "answer": "au système nouveau",
      "answer_stringIds": [
        "string_283",
        "string_284",
        "string_285"
      ]
    },
    {
      "id_qa": "FMSH_PB188a_22-23_124_qa33_v3",
      "id_block": "block_5",
      "question": "Qu'est ce qui permet à la révolution de s'organiser ?",
      "answer": "la période intermédiaire",
      "answer_stringIds": [
        "string_262",
        "string_263",
        "string_264"
      ]
    }
  ]
}