{
  "num": "autog_0249-2563_1984_num_17_15",
  "article": "autog_0249-2563_1984_num_17_15_1870",
  "page_name": "autog_0249-2563_1984_num_17_15_T1_0134_0000",
  "questions": [
    "Quels auteurs ont publié des ouvrages sur le thème de la participation et de l'autogestion en 1983 ?",
    "Dans quels collectifs d'édition ces ouvrages ont-ils été publiés ?",
    "Quels pays sont représentés par les auteurs de ces ouvrages ?",
    "Quels titres ont été donnés à ces ouvrages ?",
    "Quels thèmes sont abordés dans ces ouvrages ?",
    "Quels auteurs ont publié des articles sur le même thème en 1983 ?",
    "Dans quels journaux ont été publiés ces articles ?",
    "Quels thèmes sont abordés dans ces articles ?",
    "Quels sont les références bibliographiques mentionnées dans ces articles ?",
    "Quels sont les lieux de publication des éditions mentionnées dans le texte ?",
    "Quels sont les noms et adresses des éditeurs mentionnés dans le texte ?"
  ]
}