{
  "num": "autog_0338-7259_1971_num_16_1",
  "article": "autog_0338-7259_1971_num_16_1_1023_t1_0198_0000_1",
  "page_name": "FMSH_PB188a_16-17_202",
  "questions": [
    "Quel type de régime social est visé par l'auteur pour atteindre une \"démocratie\" la plus \"directe\"?",
    "Quels sont les conditions préalables à l'atteinte de cette démocratie directe?",
    "Quel rôle jouent l'information et la formation permanente des travailleurs dans cette démocratie directe?",
    "Quels sont les étapes clés du processus de transformation vers le socialisme d'autogestion?",
    "Qu'entend par \"grève nationale\" l'auteur et comment elle marque un saut qualitatif dans le processus de transformation?",
    "Quels groupes sociaux sont impliqués dans cette grève nationale?",
    "Comment l'auteur différencie la démocratie socialiste directe de la démocratie bourgeoise et des socialismes bureaucratiques?"
  ]
}