{
  "num": "autog_0338-7259_1972_num_18_1",
  "article": "autog_0338-7259_1972_num_18_1_1049",
  "page_name": "FMSH_PB188a_18-19_253",
  "questions": [
    "Quels individus sont impliqués dans la lutte contre l'État selon le texte ?",
    "Quelles conclusions devraient être atteintes par ces individus selon le texte ?",
    "Quel est le rôle le plus difficile dans cette lutte selon le texte ?",
    "Comment les forces armées révolutionnaires doivent être liées aux unités sociales et économiques ?",
    "Quel est le but de l'attention des anarchistes selon le texte ?",
    "Comment les forces armées de la révolution peuvent-elles vaincre les tenants et les défenseurs de l'étatisme selon le texte ?",
    "Quels survivances locales pourrait conserver l'État selon le texte ?",
    "Quand peut-on espérer une liquidation décisive et totale de l'État selon le texte ?",
    "Quelles formes d'action sociale doivent être élaborées par les travailleurs révolutionnaires selon le texte ?",
    "Quels sont les types de structures que doivent prendre ces formes d'action sociale selon le texte ?"
  ]
}