{
  "num": "autog_0338-7259_1973_num_22_1",
  "article": "autog_0338-7259_1973_num_22_1_1078",
  "page_name": "FMSH_PB188a_22-23_023",
  "questions": [
    "Quel est le cadre international dans lequel le socialisme démocratique veut évoluer ?",
    "Est-ce que le socialisme démocratique se définit isolé ou tourné vers l'extérieur ?",
    "Quel serait le sort du Tiers Monde dans le cas d'un socialisme isolé ?",
    "Qu'implique pour le Tiers Monde un socialisme qui ne se définit pas par rapport à l'exploitation actuelle ?",
    "Quelle est la caractéristique essentielle de la France en tant que nation industrielle ?",
    "Quels pays sont considérés comme sous-développés dans ce contexte ?",
    "Quelle est la caractéristique essentielle de ces pays ?",
    "Quel critère est considéré comme le seul pour le développement et la richesse ?",
    "Qu'implique cela pour les pays actuellement considérés comme sous-développés ?"
  ]
}