{
  "num": "autog_0338-7259_1974_num_28_1",
  "article": "autog_0338-7259_1974_num_28_1_1192",
  "page_name": "FMSH_PB188a_28-29_079",
  "questions": [
    "Quel processus est décrit dans le texte ?",
    "Quel rôle joue la conquête de l'information dans ce processus ?",
    "Quel est le résultat initial du contre-pouvoir naissant de la conquête de l'information ?",
    "Quel est le rôle des médias dans le processus décrit ?",
    "Comment les Lip sont-ils dépossédés de leur mouvement ?",
    "Quel est le résultat final du processus décrit ?",
    "Comment l'information instituée organise le spectacle du conflit LIP ?",
    "Quel est le statut de LIP à la fin du processus ?",
    "Quel est le lien entre la mobilisation extérieure et la démobilisation intérieure ?"
  ]
}