{
  "num": "autog_0249-2563_1984_num_17_16",
  "article": "autog_0249-2563_1984_num_17_16_1599",
  "page_name": "autog_0249-2563_1984_num_17_16_T1_0097_0000",
  "questions": [
    {
      "id_qa": "autog_0249-2563_1984_num_17_16_T1_0097_0000_qa6_v3",
      "id_block": "block_1",
      "question": "Qu'apporte-t-on aux agriculteurs pour améliorer leur production ?",
      "answer": "tel matériel",
      "answer_stringIds": [
        "string_74",
        "string_75"
      ]
    },
    {
      "id_qa": "autog_0249-2563_1984_num_17_16_T1_0097_0000_qa9_v3",
      "id_block": "block_1",
      "question": "Qu'est-ce qui est perdu pour les agriculteurs ?",
      "answer": "la maîtrise de leur production",
      "answer_stringIds": [
        "string_56",
        "string_57",
        "string_58",
        "string_59",
        "string_60"
      ]
    },
    {
      "id_qa": "autog_0249-2563_1984_num_17_16_T1_0097_0000_qa35_v3",
      "id_block": "block_1",
      "question": "Qu'est-ce que la politique alimentaire internationale ?",
      "answer": "grand-chose",
      "answer_stringIds": [
        "string_105"
      ]
    },
    {
      "id_qa": "autog_0249-2563_1984_num_17_16_T1_0097_0000_qa36_v3",
      "id_block": "block_1",
      "question": "Qui ne comprend rien à la politique alimentaire internationale ?",
      "answer": "personne",
      "answer_stringIds": [
        "string_102"
      ]
    },
    {
      "id_qa": "autog_0249-2563_1984_num_17_16_T1_0097_0000_qa31_v3",
      "id_block": "block_2",
      "question": "A quand remonte la demande de solution(s) alternatives ?",
      "answer": "aujourd'hui",
      "answer_stringIds": [
        "string_122"
      ]
    },
    {
      "id_qa": "autog_0249-2563_1984_num_17_16_T1_0097_0000_qa32_v3",
      "id_block": "block_3",
      "question": "Qu'est ce qui est peu connu en dehors des lieux où elles ont été conçues ?",
      "answer": "certes des réalisations individuelles",
      "answer_stringIds": [
        "string_133",
        "string_134",
        "string_135",
        "string_136"
      ]
    },
    {
      "id_qa": "autog_0249-2563_1984_num_17_16_T1_0097_0000_qa1_v3",
      "id_block": "block_4",
      "question": "Qu'est ce que les développeurs locaux auraient tendance à considérer comme une ruralité un peu rétro ?",
      "answer": "la faillite du développement urbain",
      "answer_stringIds": [
        "string_291",
        "string_292",
        "string_293",
        "string_294",
        "string_295"
      ]
    },
    {
      "id_qa": "autog_0249-2563_1984_num_17_16_T1_0097_0000_qa2_v3",
      "id_block": "block_4",
      "question": "Qui parle au nom du développement local ?",
      "answer": "les développeurs locaux",
      "answer_stringIds": [
        "string_268",
        "string_269",
        "string_270"
      ]
    },
    {
      "id_qa": "autog_0249-2563_1984_num_17_16_T1_0097_0000_qa19_v3",
      "id_block": "block_4",
      "question": "Qu'est ce qu'ils voudraient faire avec les femmes ?",
      "answer": "une large consommation",
      "answer_stringIds": [
        "string_351",
        "string_352",
        "string_353",
        "string_354"
      ]
    },
    {
      "id_qa": "autog_0249-2563_1984_num_17_16_T1_0097_0000_qa20_v3",
      "id_block": "block_4",
      "question": "Qu'est ce qui a changé en termes de désir ?",
      "answer": "un renouveau du local",
      "answer_stringIds": [
        "string_255",
        "string_256",
        "string_257",
        "string_258"
      ]
    }
  ]
}