{
  "num": "autog_0249-2563_1982_num_15_11",
  "article": "autog_0249-2563_1982_num_15_11_1517",
  "page_name": "autog_0249-2563_1982_num_15_11_T1_0109_0000",
  "questions": [
    {
      "id_qa": "autog_0249-2563_1982_num_15_11_T1_0109_0000_qa19_v3",
      "id_block": "block_2",
      "question": "Qu'est ce que perçoivent la majorité des gens ?",
      "answer": "le travail",
      "answer_stringIds": [
        "string_146",
        "string_147"
      ]
    },
    {
      "id_qa": "autog_0249-2563_1982_num_15_11_T1_0109_0000_qa16_v3",
      "id_block": "block_3",
      "question": "Qui considère son habitat comme un lieu de transformation sociale ?",
      "answer": "Monsieur Gandois",
      "answer_stringIds": [
        "string_205",
        "string_206"
      ]
    }
  ]
}