{
  "num": "autog_0249-2563_1982_num_15_11",
  "article": "autog_0249-2563_1982_num_15_11_1517",
  "page_name": "autog_0249-2563_1982_num_15_11_T1_0098_0000",
  "questions": [
    {
      "id_qa": "autog_0249-2563_1982_num_15_11_T1_0098_0000_qa15_v3",
      "id_block": "block_1",
      "question": "Qu'est-ce qui s'opère dans les groupes autogérés ?",
      "answer": "rapports de sociabilité",
      "answer_stringIds": [
        "string_31",
        "string_32",
        "string_33"
      ]
    },
    {
      "id_qa": "autog_0249-2563_1982_num_15_11_T1_0098_0000_qa7_v3",
      "id_block": "block_3",
      "question": "De quoi les parents se sentent-ils plus proches ?",
      "answer": "liens trop étroits",
      "answer_stringIds": [
        "string_194",
        "string_195",
        "string_196"
      ]
    },
    {
      "id_qa": "autog_0249-2563_1982_num_15_11_T1_0098_0000_qa8_v3",
      "id_block": "block_3",
      "question": "Où sont partis les enfants ?",
      "answer": "en Bretagne",
      "answer_stringIds": [
        "string_203",
        "string_204"
      ]
    },
    {
      "id_qa": "autog_0249-2563_1982_num_15_11_T1_0098_0000_qa9_v3",
      "id_block": "block_3",
      "question": "Qu'est ce qui est négatif pour les parents ?",
      "answer": "davantage dégagés de liens trop étroits",
      "answer_stringIds": [
        "string_191",
        "string_192",
        "string_193",
        "string_194",
        "string_195",
        "string_196"
      ]
    },
    {
      "id_qa": "autog_0249-2563_1982_num_15_11_T1_0098_0000_qa10_v3",
      "id_block": "block_3",
      "question": "Qui est parti en Bretagne avec des amis beaucoup plus décontractés que nous ?",
      "answer": "Nos enfants",
      "answer_stringIds": [
        "string_199",
        "string_200"
      ]
    },
    {
      "id_qa": "autog_0249-2563_1982_num_15_11_T1_0098_0000_qa12_v3",
      "id_block": "block_3",
      "question": "Avec qui les enfants sont-ils allés en Bretagne ?",
      "answer": "avec des amis beaucoup plus décontractés que nous",
      "answer_stringIds": [
        "string_205",
        "string_206",
        "string_207",
        "string_208",
        "string_209",
        "string_210",
        "string_211",
        "string_212"
      ]
    },
    {
      "id_qa": "autog_0249-2563_1982_num_15_11_T1_0098_0000_qa16_v3",
      "id_block": "block_3",
      "question": "Qui adopte des comportements plus détendus, plus « décontractés » ?",
      "answer": "les enfants",
      "answer_stringIds": [
        "string_136",
        "string_137"
      ]
    },
    {
      "id_qa": "autog_0249-2563_1982_num_15_11_T1_0098_0000_qa1_v3",
      "id_block": "block_4",
      "question": "Quelle était la chance des jeunes filles de La Sole des Moines ?",
      "answer": "la chance de pouvoir échanger avec des parents légèrement plus âgés",
      "answer_stringIds": [
        "string_251",
        "string_252",
        "string_253",
        "string_254",
        "string_255",
        "string_256",
        "string_257",
        "string_258",
        "string_259",
        "string_260",
        "string_261",
        "string_262"
      ]
    },
    {
      "id_qa": "autog_0249-2563_1982_num_15_11_T1_0098_0000_qa2_v3",
      "id_block": "block_4",
      "question": "Avec qui les jeunes filles ont-elles pu échanger ?",
      "answer": "avec des parents légèrement plus âgés",
      "answer_stringIds": [
        "string_256",
        "string_257",
        "string_258",
        "string_259",
        "string_260",
        "string_261",
        "string_262"
      ]
    },
    {
      "id_qa": "autog_0249-2563_1982_num_15_11_T1_0098_0000_qa19_v3",
      "id_block": "block_7",
      "question": "A quoi est consacrée la Bibliographie générale ?",
      "answer": "à la fin de ce dossier",
      "answer_stringIds": [
        "string_382",
        "string_383",
        "string_384",
        "string_385",
        "string_386",
        "string_387"
      ]
    },
    {
      "id_qa": "autog_0249-2563_1982_num_15_11_T1_0098_0000_qa20_v3",
      "id_block": "block_7",
      "question": "Qu'est ce qui est présenté à la fin de ce dossier ?",
      "answer": "Bibliographie générale",
      "answer_stringIds": [
        "string_379",
        "string_380"
      ]
    }
  ]
}