{
  "num": "autog_0338-7259_1971_num_16_1",
  "article": "autog_0338-7259_1971_num_16_1_1023_t1_0187_0000_1",
  "page_name": "FMSH_PB188a_16-17_192",
  "questions": [
    "Quel rôle jouait Léon Trotsky dans la critique de l'Internationale communiste et de sa faillite face au nazisme ?",
    "Quel était le but de la création d'une autre Internationale par Trotsky ?",
    "Quels principes fondaient cette nouvelle Internationale ?",
    "Pourquoi la IVème Internationale n'a-t-elle pas réussi mieux que sa devancière ?",
    "Quel contenu devrait être donné à la lutte révolutionnaire selon Vos Tâches politiques de Marx ?",
    "En quoi consistait la « crise de l'humanité » selon Trotsky ?",
    "Quel était le rôle du parti dans la confiscation du pouvoir selon Trotsky ?",
    "Pourquoi Trotsky ne put-il pas mettre en question l'essence de son pouvoir dans le parti ?",
    "Qu'impliquait la phrase de Marx : l'émancipation des travailleurs doit être l'œuvre des travailleurs eux-mêmes ?"
  ]
}