{
  "num": "autog_0249-2563_1982_num_16_12",
  "article": "autog_0249-2563_1982_num_16_12_1539",
  "page_name": "autog_0249-2563_1982_num_16_12_T1_0141_0000",
  "questions": [
    {
      "id_qa": "autog_0249-2563_1982_num_16_12_T1_0141_0000_qa0_v3",
      "id_block": "block_0",
      "question": "Qu'est ce que le contrôle continu de 80% était collectif ?",
      "answer": "une angoisse des normaliens",
      "answer_stringIds": [
        "string_29",
        "string_30",
        "string_31",
        "string_32"
      ]
    },
    {
      "id_qa": "autog_0249-2563_1982_num_16_12_T1_0141_0000_qa1_v3",
      "id_block": "block_0",
      "question": "Qu'opposait le contrôle continu de 80% ?",
      "answer": "la vérité",
      "answer_stringIds": [
        "string_17",
        "string_18"
      ]
    },
    {
      "id_qa": "autog_0249-2563_1982_num_16_12_T1_0141_0000_qa4_v3",
      "id_block": "block_0",
      "question": "Quel était le métier de Lapassade ?",
      "answer": "pédagogues réactionnaires",
      "answer_stringIds": [
        "string_101",
        "string_102",
        "string_103"
      ]
    },
    {
      "id_qa": "autog_0249-2563_1982_num_16_12_T1_0141_0000_qa5_v3",
      "id_block": "block_0",
      "question": "Comment sont qualifiés les philosophes ?",
      "answer": "une bande de coquins",
      "answer_stringIds": [
        "string_60",
        "string_61",
        "string_62",
        "string_63"
      ]
    },
    {
      "id_qa": "autog_0249-2563_1982_num_16_12_T1_0141_0000_qa6_v3",
      "id_block": "block_0",
      "question": "Qui a dit que nous ayions mal honoré la matière de leur préoccupation ?",
      "answer": "les philosophes",
      "answer_stringIds": [
        "string_71",
        "string_72"
      ]
    },
    {
      "id_qa": "autog_0249-2563_1982_num_16_12_T1_0141_0000_qa12_v3",
      "id_block": "block_1",
      "question": "De qui on nous reprochaïit implicitement de ne pas valider ?",
      "answer": "tous les candidats",
      "answer_stringIds": [
        "string_300",
        "string_301",
        "string_302"
      ]
    },
    {
      "id_qa": "autog_0249-2563_1982_num_16_12_T1_0141_0000_qa15_v3",
      "id_block": "block_1",
      "question": "Qu'est ce qui a été enterré à la fin de cette réunion ?",
      "answer": "leurs conflits",
      "answer_stringIds": [
        "string_235",
        "string_236"
      ]
    },
    {
      "id_qa": "autog_0249-2563_1982_num_16_12_T1_0141_0000_qa16_v3",
      "id_block": "block_1",
      "question": "A qui fut adressé le dernier affront ?",
      "answer": "aux normaliens qui demandaient la suppression des examens",
      "answer_stringIds": [
        "string_253",
        "string_254",
        "string_255",
        "string_256",
        "string_257",
        "string_258",
        "string_259",
        "string_260"
      ]
    },
    {
      "id_qa": "autog_0249-2563_1982_num_16_12_T1_0141_0000_qa17_v3",
      "id_block": "block_1",
      "question": "Qu'est-ce que nous donnons à Orléans-Tours ?",
      "answer": "la possibilité de vous en servir",
      "answer_stringIds": [
        "string_281",
        "string_282",
        "string_283",
        "string_284",
        "string_285",
        "string_286"
      ]
    },
    {
      "id_qa": "autog_0249-2563_1982_num_16_12_T1_0141_0000_qa18_v3",
      "id_block": "block_1",
      "question": "Qui a demandé la suppression des examens ?",
      "answer": "normaliens",
      "answer_stringIds": [
        "string_32"
      ]
    },
    {
      "id_qa": "autog_0249-2563_1982_num_16_12_T1_0141_0000_qa20_v3",
      "id_block": "block_1",
      "question": "Qu'est ce qui fut demandé aux normaliens ?",
      "answer": "la suppression des examens",
      "answer_stringIds": [
        "string_257",
        "string_258",
        "string_259",
        "string_260"
      ]
    },
    {
      "id_qa": "autog_0249-2563_1982_num_16_12_T1_0141_0000_qa25_v3",
      "id_block": "block_2",
      "question": "Qu'est ce qui a pu bénéficier à Chartres ?",
      "answer": "de la complicité active de lapsus et actes manqués multiples",
      "answer_stringIds": [
        "string_336",
        "string_337",
        "string_338",
        "string_339",
        "string_340",
        "string_341",
        "string_342",
        "string_343",
        "string_344",
        "string_345"
      ]
    }
  ]
}