{
  "num": "autog_0249-2563_1982_num_16_12",
  "article": "autog_0249-2563_1982_num_16_12_1539",
  "page_name": "autog_0249-2563_1982_num_16_12_T1_0137_0000",
  "questions": [
    {
      "id_qa": "autog_0249-2563_1982_num_16_12_T1_0137_0000_qa19_v3",
      "id_block": "block_0",
      "question": "Qu'est ce qui fut mis à l'épreuve par Cornélia Smodlaka ?",
      "answer": "les phantasmes de collectif",
      "answer_stringIds": [
        "string_74",
        "string_75",
        "string_76",
        "string_77"
      ]
    },
    {
      "id_qa": "autog_0249-2563_1982_num_16_12_T1_0137_0000_qa34_v3",
      "id_block": "block_1",
      "question": "Que réactivait la commande pour le collectif des enseignants ?",
      "answer": "la plus infantile peur du bâton",
      "answer_stringIds": [
        "string_129",
        "string_130",
        "string_131",
        "string_132",
        "string_133",
        "string_134"
      ]
    },
    {
      "id_qa": "autog_0249-2563_1982_num_16_12_T1_0137_0000_qa27_v3",
      "id_block": "block_3",
      "question": "Qu'est ce qui est en menace pour les élèves normaliens ?",
      "answer": "sélection",
      "answer_stringIds": [
        "string_281"
      ]
    },
    {
      "id_qa": "autog_0249-2563_1982_num_16_12_T1_0137_0000_qa2_v3",
      "id_block": "block_4",
      "question": "Avec qui un étudiant peut-il faire cours ?",
      "answer": "avec son directeur de thèse",
      "answer_stringIds": [
        "string_348",
        "string_349",
        "string_350",
        "string_351",
        "string_352"
      ]
    },
    {
      "id_qa": "autog_0249-2563_1982_num_16_12_T1_0137_0000_qa4_v3",
      "id_block": "block_4",
      "question": "Qu'est-ce qui permet à un étudiant d'enseigner ensemble ?",
      "answer": "cours",
      "answer_stringIds": [
        "string_347"
      ]
    },
    {
      "id_qa": "autog_0249-2563_1982_num_16_12_T1_0137_0000_qa6_v3",
      "id_block": "block_4",
      "question": "Avec qui la femme est-elle mise en scène ?",
      "answer": "un autre homme inconnu",
      "answer_stringIds": [
        "string_364",
        "string_365",
        "string_366",
        "string_367"
      ]
    }
  ]
}