{
  "num": "autog_0338-7259_1978_num_41_1",
  "article": "autog_0338-7259_1978_num_41_1_1323",
  "page_name": "FMSH_PB188a_41-42_190",
  "questions": [
    {
      "id_qa": "FMSH_PB188a_41-42_190_qa20_v3",
      "id_block": "block_2",
      "question": "Qu'est-ce qui fonde les rapports entre acteurs du système ?",
      "answer": "la promotion professionnelle",
      "answer_stringIds": [
        "string_X"
      ]
    },
    {
      "id_qa": "FMSH_PB188a_41-42_190_qa27_v3",
      "id_block": "block_3",
      "question": "Que réintroduisent les modèles connus en matière d'enseignement ?",
      "answer": "les inégalités",
      "answer_stringIds": [
        "string_X"
      ]
    },
    {
      "id_qa": "FMSH_PB188a_41-42_190_qa1_v3",
      "id_block": "block_4",
      "question": "A qui profitent les coopératives en France ?",
      "answer": "leurs membres",
      "answer_stringIds": [
        "string_X"
      ]
    },
    {
      "id_qa": "FMSH_PB188a_41-42_190_qa3_v3",
      "id_block": "block_4",
      "question": "Quelles sont les caractéristiques des coopératives en France ?",
      "answer": "le plus de possibilités comparables",
      "answer_stringIds": [
        "string_X"
      ]
    }
  ]
}