{
  "num": "autog_0249-2563_1984_num_17_17",
  "article": "autog_0249-2563_1984_num_17_17_1615",
  "page_name": "autog_0249-2563_1984_num_17_17_T1_0098_0000",
  "questions": [
    "Quels groupes politiques ont participé aux journées nationales de protestation pour différencier la droite républicaine de la droite fasciste ?",
    "Quels sont les fondateurs de l'Alliance Démocratique (AD) et quels groupes politiques sont représentés dans cette alliance ?",
    "Quel rôle a joué l'emprisonnement de Gabriel Valdes dans la légitimation de l'Alliance Démocratique ?",
    "Comment l'Alliance Démocratique a-t-elle pu faciliter le passage à des formes moins spontanées d'action politique ?",
    "Quel était le problème essentiel de l'Alliance Démocratique à ce moment-là ?",
    "Comment l'Alliance Démocratique a-t-elle pu coordonner ses actions avec ceux qui descendaient dans la rue sans accentuer les dimensions idéologiques qui pourraient nuire à l'ampleur des manifestations ?",
    "Quel était le rôle de Sergio Onofre Jarpa dans les négociations entre l'Alliance Démocratique et le gouvernement militaire ?",
    "Quels groupes sociaux se sont confrontés à un régime qui avait réussi à séparer leurs revendications ?",
    "Quels événements ont précédé la formation de l'Alliance Démocratique ?",
    "Quels groupes politiques se sont opposés au gouvernement militaire avant la formation de l'Alliance Démocratique ?",
    "Quels sont les raisons pour lesquelles la droite républicaine s'est distinguée de la droite fasciste ?",
    "Quels sont les raisons pour lesquelles les entrepreneurs et propriétaires terriens étaient mécontents des militaires ?",
    "Quels sont les raisons pour lesquelles le PRODEN 2 a été un succès ?",
    "Quels sont les raisons pour lesquelles Gustavo Leigh et Rodolfo Seguel ont pu siéger à la même table que le chef des cultivateurs de blé ?",
    "Quels sont les raisons pour lesquelles la démocratie chrétienne s'est impliqu?"
  ]
}