{
  "num": "autog_0249-2563_1984_num_17_17",
  "article": "autog_0249-2563_1984_num_17_17_1615",
  "page_name": "autog_0249-2563_1984_num_17_17_T1_0094_0000",
  "questions": [
    "Quels acteurs se sont transformés en véritables agents de mobilisation sociale au Chili ?",
    "En quoi les partis politiques ont-ils évolué dans ce contexte ?",
    "Quels sont les origines de ce phénomène de mobilisation populaire ?",
    "Comment la structure sociale et le marché du travail ont-ils évolué au Chili et quels sont leurs effets sur la structure des classes ?",
    "Quel rôle joue la culture centrée sur les stratégies de survie autour des paroisses dans les banlieues populaires dans la conjoncture actuelle au Chili ?",
    "En quelle mesure les manifestations populaires récentes au Chili peuvent-elles être situées dans le contexte de la récession économique ?",
    "Quels sont les effets du Programme d'Emploi Minimum sur la population active du Chili ?",
    "Comment le Chili s'est trouvé vulnérable face à la récession économique ?"
  ]
}