{
  "num": "autog_0338-7259_1978_num_41_1",
  "article": "autog_0338-7259_1978_num_41_1_1327",
  "page_name": "FMSH_PB188a_41-42_240",
  "questions": [
    "Quels événements ont marqué les premiers jours du soulèvement à Cronstadt ?",
    "Quelles mesures ont été prises par le Comité révolutionnaire de Cronstadt en matière d'éducation ?",
    "Comment le programme d'enseignement de la garnison de Cronstadt a-t-il été modifié ?",
    "Quel est le rapport entre l'autogestion et la formation selon Jacques Guigou ?",
    "Quel est l'acquis historique le plus refoulé des époques d'autonomisation massive du prolétariat selon Guigou ?",
    "Quel rôle ont joué les travailleurs de LIP dans la réflexion sur la fonction éducative des conseils ouvriers ?"
  ]
}