{
  "num": "autog_0249-2563_1981_num_14_6",
  "article": "autog_0249-2563_1981_num_14_6_1440",
  "page_name": "autog_0249-2563_1981_num_14_6_T1_0246_0000",
  "questions": [
    "Quelles grèves en Yougoslavie ont été étudiées dans cette recherche, et à partir de quelles dates ?",
    "N'avait-ce pas répondu aux besoins de la polémique entre la Présidence de la Licy et la Présidence des syndicats à l'époque ?",
    "Quel matériel a été publié de cette recherche et quelle part de tous les matériaux recueillis représente-t-il ?",
    "Quels en étaient les retards et les difficultés rencontrées après la fin de la recherche et la proposition de l'interprétation de N. J. ?",
    "Quelles réactions ont suivi la publication des résultats de la recherche ?",
    "Pourquoi était-il difficile d'expliquer les réactions à cette recherche uniquement par les réactions de certaines personnalités ?",
    "Quels étaient les problèmes liés à la publication du livre et pourquoi il était-il question de savoir si un tel livre pouvait être rendu public ?"
  ]
}