{
  "num": "autog_0249-2563_1981_num_14_6",
  "article": "autog_0249-2563_1981_num_14_6_1440",
  "page_name": "autog_0249-2563_1981_num_14_6_T1_0249_0000",
  "questions": [
    "Quels secteurs de l'économie ont été touchés par les grèves ?",
    "Pourquoi les grèves n'ont pas été générales ?",
    "Quels étaient les facteurs immédiats et réels de la grève ?",
    "Quel rôle ont joué les agissements hostiles à la Yougoslavie dans les grèves ?",
    "Quels étaient les conflits entre les travailleurs en grève et les différents acteurs ?",
    "Quel était le rôle des dirigeants de l'organisation de travail dans les conflits ?",
    "Quel était le rôle des organes d'autogestion dans les conflits ?",
    "Quel était le rôle des organes de l'État dans les conflits ?",
    "Quel était le conflit objective entre les travailleurs de la production et la bureaucratie technoéconomique étatique et politique ?",
    "Quel était le rôle du syndicat dans la défense des intérêts de la classe ouvrière ?",
    "Quels étaient les positions politiques du syndicat ?",
    "Quel était le rôle pratique du syndicat dans les grèves ?",
    "Quel était le rôle de la base matérielle de l'autogestion dans le déclenchement des grèves ?",
    "Quel était le rôle de la capacité reproductive de l'économie dans le déclenchement des grèves ?",
    "Quel était le rôle de l'État dans la production et dans la politique formelle ?",
    "Quel était le rôle du capital financier et commercial dans la production ?",
    "Quel était le rôle de la capacité reproductive précaire de la production dans le déclenchement des grèves ?",
    "Quel était le rôle de la faible valorisation matérielle et sociale du travail dans les causes des grèves ?"
  ]
}