{
  "num": "autog_0249-2563_1981_num_14_6",
  "article": "autog_0249-2563_1981_num_14_6_1440",
  "page_name": "FMSH_PB188a_NS_00006_111",
  "questions": [
    "Quel éditeur a publié le livre de N. Jovanov et comment a-t-il permis la recherche ?",
    "Pourquoi N. Jovanov a-t-il choisi la période allant de 1958 à 1969 pour sa recherche ?",
    "Quels facteurs ont empêché N. Jovanov d'étudier les périodes plus récentes ?",
    "Comment le Bureau Exécutif de la L.C.y. et la Présidence des syndicats ont-ils contribué à la recherche de N. Jovanov ?",
    "Quels résultats concrets a-t-il espéré tirer de son étude initiale sur trois grandes grèves ?",
    "Pourquoi N. Jovanov a-t-il proposé d'étudier d'autres grèves en plus de ces trois ?",
    "Quels documents ou sources d'informations peuvent être consultés pour en savoir plus sur la recherche de N. Jovanov ?"
  ]
}