{
  "num": "autog_0338-7259_1974_num_28_1",
  "article": "autog_0338-7259_1974_num_28_1_1196",
  "page_name": "FMSH_PB188a_28-29_122",
  "questions": [
    {
      "id_qa": "FMSH_PB188a_28-29_122_qa0_v3",
      "id_block": "block_1",
      "question": "Qu'est ce qui permettait aux stagiaires d'autogérer après 1968 ?",
      "answer": "le programme des conférences",
      "answer_stringIds": [
        "string_63",
        "string_64",
        "string_65",
        "string_66"
      ]
    },
    {
      "id_qa": "FMSH_PB188a_28-29_122_qa1_v3",
      "id_block": "block_1",
      "question": "Qui avait la permission d'autogérer le programme des conférences ?",
      "answer": "les stagiaires",
      "answer_stringIds": [
        "string_55",
        "string_56"
      ]
    },
    {
      "id_qa": "FMSH_PB188a_28-29_122_qa2_v3",
      "id_block": "block_1",
      "question": "Comment se qualifie l'institut de formation d'agents du développement ?",
      "answer": "politiquement",
      "answer_stringIds": [
        "string_43"
      ]
    },
    {
      "id_qa": "FMSH_PB188a_28-29_122_qa28_v3",
      "id_block": "block_1",
      "question": "Qu'est-ce que l'Institut se réservait le droit de choisir ?",
      "answer": "exhiber",
      "answer_stringIds": [
        "string_108"
      ]
    },
    {
      "id_qa": "FMSH_PB188a_28-29_122_qa31_v3",
      "id_block": "block_1",
      "question": "Qui est l'auteur de cet article ?",
      "answer": "René Lourau",
      "answer_stringIds": [
        "string_10",
        "string_11"
      ]
    },
    {
      "id_qa": "FMSH_PB188a_28-29_122_qa32_v3",
      "id_block": "block_1",
      "question": "Qui a écrit cet article ?",
      "answer": "René Lourau",
      "answer_stringIds": [
        "string_10",
        "string_11"
      ]
    },
    {
      "id_qa": "FMSH_PB188a_28-29_122_qa16_v3",
      "id_block": "block_2",
      "question": "Par quoi est régie la délivrance de diplômes nationaux individuels ?",
      "answer": "par des textes officiels",
      "answer_stringIds": [
        "string_185",
        "string_186",
        "string_187",
        "string_188"
      ]
    },
    {
      "id_qa": "FMSH_PB188a_28-29_122_qa19_v3",
      "id_block": "block_2",
      "question": "Qu'est ce qui est régi par des textes officiels ?",
      "answer": "La délivrance de diplômes nationaux individuels garantis",
      "answer_stringIds": [
        "string_162",
        "string_163",
        "string_164",
        "string_165",
        "string_166",
        "string_167",
        "string_168"
      ]
    },
    {
      "id_qa": "FMSH_PB188a_28-29_122_qa20_v3",
      "id_block": "block_2",
      "question": "Qu'est ce qui est garanti par l'Etat ?",
      "answer": "La délivrance de diplômes nationaux individuels",
      "answer_stringIds": [
        "string_162",
        "string_163",
        "string_164",
        "string_165",
        "string_166",
        "string_167"
      ]
    },
    {
      "id_qa": "FMSH_PB188a_28-29_122_qa21_v3",
      "id_block": "block_2",
      "question": "Quand l'Etat a-t-il annoncé la délivrance de diplômes nationaux individuels ?",
      "answer": "le 27 août 1974",
      "answer_stringIds": [
        "string_173",
        "string_174",
        "string_175",
        "string_176"
      ]
    }
  ]
}