{
  "num": "autog_0249-2563_1984_num_17_16",
  "article": "autog_0249-2563_1984_num_17_16_1589",
  "page_name": "autog_0249-2563_1984_num_17_16_T1_0021_0000",
  "questions": [
    {
      "id_qa": "autog_0249-2563_1984_num_17_16_T1_0021_0000_qa19_v3",
      "id_block": "block_1",
      "question": "A qui profitent les comités de liaison des délégués d'atelier ?",
      "answer": "soutien des organisations syndicales",
      "answer_stringIds": [
        "string_23",
        "string_24",
        "string_25",
        "string_26"
      ]
    },
    {
      "id_qa": "autog_0249-2563_1984_num_17_16_T1_0021_0000_qa20_v3",
      "id_block": "block_1",
      "question": "Quels sont les types d'organismes qui soutiennent les contre-propositions industrielles ?",
      "answer": "organismes informels",
      "answer_stringIds": [
        "string_19",
        "string_20"
      ]
    },
    {
      "id_qa": "autog_0249-2563_1984_num_17_16_T1_0021_0000_qa2_v3",
      "id_block": "block_12",
      "question": "Qu'est-ce qui veut diversifier la production militaire ?",
      "answer": "des trous entre deux programmes",
      "answer_stringIds": [
        "string_497",
        "string_498",
        "string_499",
        "string_500",
        "string_501"
      ]
    },
    {
      "id_qa": "autog_0249-2563_1984_num_17_16_T1_0021_0000_qa4_v3",
      "id_block": "block_12",
      "question": "Qui est l'exemple le plus connu du mouvement pacifiste ?",
      "answer": "Voss",
      "answer_stringIds": [
        "string_513"
      ]
    },
    {
      "id_qa": "autog_0249-2563_1984_num_17_16_T1_0021_0000_qa5_v3",
      "id_block": "block_12",
      "question": "Pour quelle raison la production militaire est elle antimilitariste ?",
      "answer": "pour combler des trous entre deux programmes",
      "answer_stringIds": [
        "string_495",
        "string_496",
        "string_497",
        "string_498",
        "string_499",
        "string_500",
        "string_501"
      ]
    },
    {
      "id_qa": "autog_0249-2563_1984_num_17_16_T1_0021_0000_qa22_v3",
      "id_block": "block_12",
      "question": "Qu'est-ce que MAK a accepté de produire ?",
      "answer": "une des propositions des ouvriers",
      "answer_stringIds": [
        "string_580",
        "string_581",
        "string_582",
        "string_583",
        "string_584",
        "string_585"
      ]
    },
    {
      "id_qa": "autog_0249-2563_1984_num_17_16_T1_0021_0000_qa23_v3",
      "id_block": "block_12",
      "question": "Qu'est ce qui a été accepté par l'entreprise MAK ?",
      "answer": "de produire une des propositions des ouvriers",
      "answer_stringIds": [
        "string_578",
        "string_579",
        "string_580",
        "string_581",
        "string_582",
        "string_583",
        "string_584",
        "string_585"
      ]
    },
    {
      "id_qa": "autog_0249-2563_1984_num_17_16_T1_0021_0000_qa31_v3",
      "id_block": "block_12",
      "question": "Qu'a permis la livraison de deux sous-marins au gouvernement chilien ?",
      "answer": "des emplois",
      "answer_stringIds": [
        "string_543",
        "string_544"
      ]
    },
    {
      "id_qa": "autog_0249-2563_1984_num_17_16_T1_0021_0000_qa34_v3",
      "id_block": "block_5",
      "question": "Quel est le rôle mobilisateur des entreprises et des branches ?",
      "answer": "Ces projets",
      "answer_stringIds": [
        "string_175",
        "string_176"
      ]
    },
    {
      "id_qa": "autog_0249-2563_1984_num_17_16_T1_0021_0000_qa25_v3",
      "id_block": "block_7",
      "question": "Qui a exclu la direction nationale de TASS ?",
      "answer": "certains animateurs du syndicat",
      "answer_stringIds": [
        "string_322",
        "string_323",
        "string_324",
        "string_325",
        "string_326"
      ]
    },
    {
      "id_qa": "autog_0249-2563_1984_num_17_16_T1_0021_0000_qa28_v3",
      "id_block": "block_7",
      "question": "Combien d'adhérents comptait le mouvement ?",
      "answer": "4 000 adhérents",
      "answer_stringIds": [
        "string_281",
        "string_282",
        "string_283"
      ]
    }
  ]
}