{
  "num": "autog_0338-7259_1978_num_40_1",
  "article": "autog_0338-7259_1978_num_40_1_1290",
  "page_name": "FMSH_PB188a_00040_156",
  "questions": [
    {
      "id_qa": "FMSH_PB188a_00040_156_qa4_v3",
      "id_block": "block_1",
      "question": "Que donne la liste des numéros de ces deux dernières années ?",
      "answer": "une idée du contenu de la revue",
      "answer_stringIds": [
        "string_3",
        "string_4",
        "string_5",
        "string_6",
        "string_7",
        "string_8",
        "string_9"
      ]
    },
    {
      "id_qa": "FMSH_PB188a_00040_156_qa1_v3",
      "id_block": "block_2",
      "question": "Qu'est ce qui a été réussi en Hollande ?",
      "answer": "un boycott",
      "answer_stringIds": [
        "string_79",
        "string_80"
      ]
    },
    {
      "id_qa": "FMSH_PB188a_00040_156_qa2_v3",
      "id_block": "block_2",
      "question": "Qui parle de non-violence ?",
      "answer": "CHAVEZ",
      "answer_stringIds": [
        "string_83"
      ]
    }
  ]
}