{
  "num": "autog_0005-0970_1968_num_5_1",
  "article": "autog_0005-0970_1968_num_5_1_926",
  "page_name": "FMSH_PB188a_05-06_175",
  "questions": [
    "Comment la loi d'équilibration est-elle perçue efficacement dans le contexte social ?",
    "Quel est le rôle de la détermination des rapports sociaux observés dans l'objectivité économique pour la compréhension de la loi d'équilibration ?",
    "Comment la loi d'équilibration se manifeste dans le monde physique ?",
    "Comment la loi d'équilibration est-elle saisie socialement ?",
    "Comment la loi d'équilibration se découvre à l'homme et à l'être collectif ?",
    "Comment la loi d'équilibration prend-elle différentes appellations selon les facultés où elle se manifeste ?",
    "Comment l'éducation réaliste peut-elle développer l'intelligence de la loi d'équilibration et contribuer à sa pleine manifestation dans la société ?",
    "Comment la liberté des êtres individuels ou collectifs et leur imagination peuvent-elles permettre de contrecarrer la loi d'équilibration ?",
    "Comment la loi d'équilibration est-elle objectivement perçue dans le travail social ?",
    "Comment l'établissement d'une comptabilité économique de la société permet-il d'éliminer toute non-valeur et toute prélibation capitaliste ?",
    "Comment l'instauration d'une organisation collective permet-elle de mettre en œuvre la loi d'équilibration ?"
  ]
}