{
  "num": "autog_0005-0970_1968_num_5_1",
  "article": "autog_0005-0970_1968_num_5_1_926",
  "page_name": "FMSH_PB188a_05-06_182",
  "questions": [
    "Quel rôle considère Proudhon pour l'organisation de l'enseignement dans la société ?",
    "Quels sont les deux pôles de l'organisme de l'enseignement selon Proudhon ?",
    "Quel pouvoir doit échapper à l'influence de l'enseignement selon Proudhon ?",
    "Quand demande-t-il la création d'un « pouvoir enseignant » autonome ?",
    "Quels attributions comprend le « pouvoir enseignant » selon Proudhon ?",
    "Comment sont mises en rapport les associations ouvrières et le système d'instruction publique selon Proudhon ?",
    "Quel rôle jouent les associations ouvrières dans l'enseignement selon Proudhon ?",
    "Comment réside l'émancipation des travailleurs selon Proudhon ?",
    "Qu'appelle-t-il « hors de là » et quels sont les conséquences de rester « hors de là » selon Proudhon ?"
  ]
}