{
  "num": "autog_0005-0970_1968_num_5_1",
  "article": "autog_0005-0970_1968_num_5_1_926",
  "page_name": "FMSH_PB188a_05-06_165",
  "questions": [
    "Quel est le concept de réalité collective selon Proudhon ?",
    "Comment la société est-elle décrite par Proudhon : une juxtaposition d'individus ou un être collectif réel ?",
    "Quels sont les différentes perspectives sur la société selon Proudhon ?",
    "Quels sont les attributs de l'être collectif selon Proudhon ?",
    "Comment la société échappe-t-elle à l'arbitraire gouvernemental selon Proudhon ?",
    "Quels sont les moyens pour détruire l'arbitraire capitaliste selon Proudhon ?",
    "Quel est le rôle de la psychologie des sociétés dans la compréhension de l'existence collective selon Proudhon ?",
    "Comment la société a-t-elle une unité selon Proudhon ?",
    "Quel est le rôle de la force collective et de la raison collective dans la société selon Proudhon ?",
    "Comment la foi collective est-elle décrite par Proudhon ?",
    "Comment la société nous entoure, nous pénètre et nous agite selon Proudhon ?",
    "Comment les rapports de coopération et de commutation permettent de constater l'existence réelle de la société selon Proudhon ?"
  ]
}