{
  "num": "autog_0005-0970_1968_num_5_1",
  "article": "autog_0005-0970_1968_num_5_1_926",
  "page_name": "FMSH_PB188a_05-06_154",
  "questions": [
    "Quels développements de Proudhon fait-on volontairement appeler dans ces prémisses ?",
    "Comment ces prémisses peuvent-elles être qualifiées de schématiques et incomplètes ?",
    "Quels enchaînements sociaux insister sur dans ces prémisses ?",
    "Quand apparaît l'idée d'autogestion dans l'œuvre de Proudhon ?",
    "Qu'est, selon Proudhon, la société autogestionnaire ?",
    "Comment la société produit-elle la raison et l'expérience sociales ?",
    "Comment la science sociale est-elle décrite par Proudhon ?",
    "Quel est le rôle de la société dans la constitution de la science sociale ?",
    "Comment la société produit-elle les lois et les matériaux de son expérience ?"
  ]
}