{
  "num": "autog_0005-0970_1968_num_5_1",
  "article": "autog_0005-0970_1968_num_5_1_926",
  "page_name": "FMSH_PB188a_05-06_156",
  "questions": [
    "Quel est l'être collectif que Proudhon désigne comme le législateur de la société ?",
    "Quel rôle joue la société travailleuse dans la prise de conscience des lois sociales ?",
    "Comment sont-elles différentes des lois conventionnelles ?",
    "Comment ces lois sociales sont-elles indépendantes de la volonté de l'homme ?",
    "Comment Proudhon propose de reconnaître et d'obéir à ces lois ?",
    "Comment Proudhon propose de traduire officiellement et d'appliquer efficacement ces lois ?",
    "Quel est le rôle de l'assemblée législative dans la traduction et l'application de ces lois ?",
    "Comment Proudhon propose de structurer le suffrage universel pour permettre une application effective de ces lois ?"
  ]
}