{
  "num": "autog_0338-7259_1974_num_26_1",
  "article": "autog_0338-7259_1974_num_26_1_1110",
  "page_name": "FMSH_PB188a_26-27_075",
  "questions": [
    "Quels groupes sociaux occupaient le pouvoir au moment décrit dans le texte ?",
    "Quel était le danger qui menaçait leur pouvoir ?",
    "Qui apparurent alors pour proposer une solution alternative ?",
    "Quel était le rôle des réactionnaires dans cette situation ?",
    "Comment les modérés proposaient de contrôler le pouvoir monarchique ?",
    "Quel était le résultat de la victoire des modérés ?",
    "Quel est le parallèle avec la situation actuelle du prolétariat ?",
    "Quels sont les objectifs des dirigeants actuels envers le prolétariat ?",
    "Comment proposent-ils de le \"tromper\" ou de le \"faire croire\" ?",
    "Quel est le but de créer une \"aristocratie ouvrière\" ou un \"quart état\" ?",
    "Quel serait l'intérêt de ces nouveaux dirigeants dans le maintien du régime bourgeois ?"
  ]
}