{
  "num": "autog_0338-7259_1974_num_26_1",
  "article": "autog_0338-7259_1974_num_26_1_1110",
  "page_name": "FMSH_PB188a_26-27_077",
  "questions": [
    "Quand s'est appliqué le principe de la participation aux bénéfices en France ?",
    "Dans quelle usine a été proposée cette idée en Angleterre ?",
    "Quand a-t-on refusé cette proposition dans cette usine ?",
    "Quels intérêts défendent ceux qui s'opposent à la participation aux bénéfices ?",
    "Pourquoi les capitalistes ont-ils refusé cette proposition ?",
    "Comment le capitaliste et l'ouvrier déterminent le taux réel payé à l'ouvrier ?",
    "Comment l'ouvrier est-il rétribué si la participation aux bénéfices n'est pas appliquée ?",
    "Comment l'ouvrier perçoit-il sa rémunération si la participation aux bénéfices est appliquée ?",
    "Quand l'ouvrier est-il conscient de son esclavage ?",
    "Quand il lutte-t-il contre son patron ?",
    "Quand il conçoit-il qu'il est juste et nécessaire d'abolir le patronat ?"
  ]
}