{
  "num": "autog_0249-2563_1980_num_13_2",
  "article": "autog_0249-2563_1980_num_13_2_1357",
  "page_name": "autog_0249-2563_1980_num_13_2_T1_0154_0000",
  "questions": [
    {
      "id_qa": "autog_0249-2563_1980_num_13_2_T1_0154_0000_qa10_v3",
      "id_block": "block_0",
      "question": "Qu'est ce qui a été marginalisé par rapport à la société instituée ?",
      "answer": "ces mouvements",
      "answer_stringIds": [
        "string_29",
        "string_30"
      ]
    },
    {
      "id_qa": "autog_0249-2563_1980_num_13_2_T1_0154_0000_qa28_v3",
      "id_block": "block_1",
      "question": "Qu'est ce qui ne suffit pas à invalider une problématique exploratoire centrée plus directement sur des pratiques ?",
      "answer": "cette indétermination sémantique",
      "answer_stringIds": [
        "string_192",
        "string_193",
        "string_194"
      ]
    },
    {
      "id_qa": "autog_0249-2563_1980_num_13_2_T1_0154_0000_qa32_v3",
      "id_block": "block_1",
      "question": "Qu'est ce qui ne suffit pas à invalider une problématique exploratoire centrée sur des pratiques ?",
      "answer": "cette indétermination sémantique",
      "answer_stringIds": [
        "string_192",
        "string_193",
        "string_194"
      ]
    },
    {
      "id_qa": "autog_0249-2563_1980_num_13_2_T1_0154_0000_qa3_v3",
      "id_block": "block_2",
      "question": "Qu'est ce qui mérite d'être rapproché du développement actuel des mouvements alternatifs qui tentent de la mettre en pratique ?",
      "answer": "la multiplication des références à lautogestion",
      "answer_stringIds": [
        "string_256",
        "string_257",
        "string_258",
        "string_259",
        "string_260",
        "string_261"
      ]
    },
    {
      "id_qa": "autog_0249-2563_1980_num_13_2_T1_0154_0000_qa4_v3",
      "id_block": "block_2",
      "question": "Quels mouvements tentent de mettre en pratique la lautogestion ?",
      "answer": "mouvements alternatifs",
      "answer_stringIds": [
        "string_269",
        "string_270"
      ]
    },
    {
      "id_qa": "autog_0249-2563_1980_num_13_2_T1_0154_0000_qa1_v3",
      "id_block": "block_4",
      "question": "Qu'est ce qui a conduit à distinguer deux niveaux possibles d'émergence de l'autogestion dans l'Allemagne ?",
      "answer": "Cette pluralité de sens",
      "answer_stringIds": [
        "string_342",
        "string_343",
        "string_344",
        "string_345"
      ]
    }
  ]
}