{
  "num": "autog_0249-2563_1984_num_17_15",
  "article": "autog_0249-2563_1984_num_17_15_1581",
  "page_name": "autog_0249-2563_1984_num_17_15_T1_0092_0000",
  "questions": [
    {
      "id_qa": "autog_0249-2563_1984_num_17_15_T1_0092_0000_qa1_v3",
      "id_block": "block_0",
      "question": "Qu'est-ce qui simule les ouvriers et employés ?",
      "answer": "des silhouettes",
      "answer_stringIds": [
        "string_38",
        "string_39"
      ]
    },
    {
      "id_qa": "autog_0249-2563_1984_num_17_15_T1_0092_0000_qa23_v3",
      "id_block": "block_1",
      "question": "Qu'est ce qui a joué un rôle déclencheur de la démarche ?",
      "answer": "la manipulation de ce matériel",
      "answer_stringIds": [
        "string_74",
        "string_75",
        "string_76",
        "string_77",
        "string_78",
        "string_79"
      ]
    },
    {
      "id_qa": "autog_0249-2563_1984_num_17_15_T1_0092_0000_qa26_v3",
      "id_block": "block_3",
      "question": "Qu'a effectué l'architecte pour le projet final ?",
      "answer": "une synthèse",
      "answer_stringIds": [
        "string_153",
        "string_154"
      ]
    },
    {
      "id_qa": "autog_0249-2563_1984_num_17_15_T1_0092_0000_qa13_v3",
      "id_block": "block_6",
      "question": "Qui a accès au fonctionnement global de l'usine ?",
      "answer": "travailleurs",
      "answer_stringIds": [
        "string_184",
        "string_185"
      ]
    },
    {
      "id_qa": "autog_0249-2563_1984_num_17_15_T1_0092_0000_qa20_v3",
      "id_block": "block_6",
      "question": "Qui a vécu l'expérience d'autonomie ?",
      "answer": "certains membres du groupe",
      "answer_stringIds": [
        "string_233",
        "string_234",
        "string_235",
        "string_236"
      ]
    },
    {
      "id_qa": "autog_0249-2563_1984_num_17_15_T1_0092_0000_qa22_v3",
      "id_block": "block_6",
      "question": "Sur quoi s'appuyaient les propositions ?",
      "answer": "autonomie",
      "answer_stringIds": [
        "string_229",
        "string_230"
      ]
    },
    {
      "id_qa": "autog_0249-2563_1984_num_17_15_T1_0092_0000_qa19_v3",
      "id_block": "block_7",
      "question": "Qui est responsable de l'amélioration de la productivité ?",
      "answer": "les travailleurs",
      "answer_stringIds": [
        "string_307",
        "string_308",
        "string_309"
      ]
    },
    {
      "id_qa": "autog_0249-2563_1984_num_17_15_T1_0092_0000_qa35_v3",
      "id_block": "block_7",
      "question": "Qu'est-ce qui permet de rompre les cloisonnements actuels ?",
      "answer": "la communication et la coordination",
      "answer_stringIds": [
        "string_332",
        "string_333",
        "string_334",
        "string_335",
        "string_336"
      ]
    },
    {
      "id_qa": "autog_0249-2563_1984_num_17_15_T1_0092_0000_qa12_v3",
      "id_block": "block_8",
      "question": "Qu'est-ce que les unités autonomes de production ?",
      "answer": "les services productifs et fonctionnels par famille de produits",
      "answer_stringIds": [
        "string_361",
        "string_362",
        "string_363",
        "string_364",
        "string_365",
        "string_366",
        "string_367",
        "string_368",
        "string_369",
        "string_370"
      ]
    },
    {
      "id_qa": "autog_0249-2563_1984_num_17_15_T1_0092_0000_qa36_v3",
      "id_block": "block_8",
      "question": "Que devait permettre l'espace de travail ?",
      "answer": "mieux",
      "answer_stringIds": [
        "string_379"
      ]
    }
  ]
}