{
  "num": "autog_0338-7259_1977_num_37_1",
  "article": "autog_0338-7259_1977_num_37_1_1226",
  "page_name": "FMSH_PB188a_37-38_072",
  "questions": [
    "Quel est l'argument de l'auteur pour justifier que l'autogestion n'a pas de qualité scientifique ?",
    "Quels types de personnes sont susceptibles d'être intéressées par la revue Autogestion et socialisme ?",
    "Quels sont les obstacles aux militants politiques et syndicaux pour lire la revue Autogestion et socialisme ?",
    "Quels types de publications sont prioritaires pour les partis politiques et syndicats ?",
    "Quel est l'attitude des partis politiques et syndicats envers des publications qu'ils ne contrôlent pas directement ?",
    "Quel est le rôle de la revue Autogestion et socialisme dans le contexte des partis politiques et syndicats ?"
  ]
}