{
  "num": "autog_0005-0970_1966_num_1_1",
  "article": "autog_0005-0970_1966_num_1_1_885",
  "page_name": "FMSH_PB188a_00001_049",
  "questions": [
    "Quel type de société est décrit dans ce paragraphe ?",
    "Quels pays sont cités comme exemples de pays où des tendances vers cette société ont été observées ?",
    "Quel rôle jouent les démocraties populaires dans la formation de cette société ?",
    "Quel type d'équilibre est-il recherché dans cette société globale ?",
    "Comment est-elle structurée économiquement ?",
    "Quels sont les différents niveaux de décision économique dans cette société ?",
    "Quel rôle jouent les conseils de contrôle et de gestion des entreprises dans cette société ?",
    "Quels sont les conseils mentionnés après les conseils des régions économiques ?",
    "Quel rôle joue le conseil économique central dans cette société ?",
    "Quel est le statut de la propriété des moyens de production dans cette société ?"
  ]
}