{
  "num": "autog_0005-0970_1966_num_1_1",
  "article": "autog_0005-0970_1966_num_1_1_885",
  "page_name": "FMSH_PB188a_00001_031",
  "questions": [
    "Quels sont les États-Unis d'Amérique mentionnés dans le texte et quels sont les événements qui ont influencé les magnats industriels américains?",
    "Quelles sont les trois manières d'établir la représentation ouvrière dans une usine selon le texte?",
    "Quels sont les deux types de conseils d'usine établis aux États-Unis selon le texte et quels sont leurs caractéristiques?",
    "Comment les conseils d'usine introduits par convention collective sont-ils décrits dans le texte?",
    "Quel est le rôle des conventions collectives dans l'établissement de conseils d'usine selon le texte?",
    "Comment les institutions de la démocratie industrielle sont-elles décrites dans le texte en relation avec l'étatisation de l'économie?",
    "Comment les conseils d'usine sont-ils décrits comme se montrant fragiles dans le texte?",
    "Comment les magnats industriels américains sont-ils décrits comme motivés pour établir des conseils d'usine dans leur entreprise?",
    "Comment les conseils d'usine sont-ils décrits comme collaborant à la gestion de l'entreprise dans le texte?",
    "Comment les conseils d'usine sont-ils décrits comme étant influencés par les rapports de force entre syndicats ouvriers et associations patronales dans le texte?",
    "Comment les conseils d'usine sont-ils décrits comme étant influencés par une dépression économique dans le texte?",
    "Comment les conseils d'usine sont-ils décrits comme étant influencés par le droit de propriété dans le texte?",
    "Comment les conseils d'usine sont-ils décrits comme étant influencés par la volonté unilatérale du patron dans le texte?",
    "Comment les conseils d'usine sont-ils décrits comme étant influencés par la constitution des États-Unis ou celle d'une monarchie constitutionn?"
  ]
}