{
  "num": "autog_0005-0970_1966_num_1_1",
  "article": "autog_0005-0970_1966_num_1_1_885",
  "page_name": "FMSH_PB188a_00001_020",
  "questions": [
    "Quels sont les relations entre différentes industries selon Georges Gurvitch ?",
    "Quels sont les premiers pas vers la fédération des producteurs selon Gurvitch ?",
    "Quels sont les nouveaux principes du droit qui sous-tendent les groupes de production selon Gurvitch ?",
    "Quels sont les avantages de la formation spontanée des groupes de production selon Gurvitch ?",
    "Quels sont les modèles de production qui devraient remplacer les sociétés anonymes selon Gurvitch ?",
    "Quel est le rôle des associations ouvrières dans la nouvelle démocratie selon Gurvitch ?",
    "Qu'est-ce que la constitution sociale selon Gurvitch ?",
    "Comment la solidarité des groupes économiques peut-elle être exprimée autrement que par une fédération ?",
    "Comment les forces et fonctions du pouvoir social peuvent-elles être en équilibre selon Gurvitch ?"
  ]
}