{
  "num": "autog_0005-0970_1966_num_1_1",
  "article": "autog_0005-0970_1966_num_1_1_885",
  "page_name": "FMSH_PB188a_00001_045",
  "questions": [
    "Quel titre porte le recueil des communications et des discussions de la Première Semaine Sociologique ?",
    "Quel est le rôle de G. Gurvitch dans la publication de ce recueil ?",
    "En réponse à quelle communication de M. Georges Friedmann se réfère G. Gurvitch dans sa conclusion ?",
    "Quelle est la question principale abordée dans la conclusion de G. Gurvitch ?",
    "Quel moyen propose-t-il pour combattre la tendance technocratique de la société industrielle contemporaine ?",
    "Qu'est ce que l'autogestion et comment est-elle abordée dans le texte ?",
    "Quels organismes propose-t-il pour gérer et contrôler les relations industrielles ?",
    "Quels groupes devraient participer au contrôle des relations industrielles selon G. Gurvitch ?",
    "Quels antinomies fait-il référence dans la dernière phrase de la conclusion ?"
  ]
}