{
  "num": "autog_0005-0970_1966_num_1_1",
  "article": "autog_0005-0970_1966_num_1_1_885",
  "page_name": "FMSH_PB188a_00001_043",
  "questions": [
    "Quels sont les trois raisons mentionnées pour expliquer le problème des relations entre les conseils d'usine et les organisations syndicales ?",
    "Quels craintes avaient les syndicats professionnels envers les conseils d'usine ?",
    "Comment était proposée de résoudre le problème des relations entre les deux modes d'organisation ouvrière ?",
    "Quel rôle avaient les conventions collectives dans la solution proposée ?",
    "Quel était le rôle de l'économie nationale dans le fonctionnement des conseils de contrôle et de gestion ?",
    "Comment devaient fonctionner les conseils de contrôle et de gestion pour que l'économie planifiée et la démocratie industrielle soient unifiées ?",
    "Quel était l'objection possible faite au sujet des conseils de gestion et comment elle pouvait être répondue ?"
  ]
}