{
  "num": "autog_0005-0970_1966_num_1_1",
  "article": "autog_0005-0970_1966_num_1_1_885",
  "page_name": "FMSH_PB188a_00001_047",
  "questions": [
    "Quels groupes technobureaucratiques distingue-t-on dans le texte ?",
    "Quels intérêts peuvent être opposés entre ces différents groupes ?",
    "Comment les auteurs voient les relations entre ces groupes ?",
    "Quels antagonismes sociaux sont-ils susceptibles de surgir entre les groupes technobureaucratiques ?",
    "Comment les adversaires de la technocratie peuvent-ils utiliser ces antagonismes ?",
    "Quel rôle peuvent les savants et les professeurs jouer dans le contexte technobureaucratique ?",
    "Comment les groupes technobureaucratiques peuvent-ils se comporter en fonction des conditions sociales ?",
    "Quels sont les dangers potentiels pour la liberté humaine si une classe technocratique se consolidait ?"
  ]
}