{
  "num": "autog_0005-0970_1966_num_1_1",
  "article": "autog_0005-0970_1966_num_1_1_885",
  "page_name": "FMSH_PB188a_00001_024",
  "questions": [
    "Quels principes démocratiques s'affirment-ils dans la société économique selon Georges Gurvitch ?",
    "Quel est le rôle de la constitution sociale dans l'extension de l'idée démocratique à un nouveau domaine ?",
    "Quel est le point de vue de Proudhon sur la relation entre la démocratie politique et la démocratie industrielle ?",
    "Quels sont les quatre formes d'organisation industrielle selon Proudhon et quels sont les étapes historiques qu'elles représentent ?",
    "Qu'est-ce que l'anarchie industrielle selon Georges Gurvitch ?",
    "Quels sont les conséquences de l'anarchie industrielle sur le pouvoir social ?",
    "Qu'est-ce que la féodalité industrielle selon Georges Gurvitch ?",
    "Quels sont les mains qui se saisissent du pouvoir social dans la féodalité industrielle ?",
    "Qu'est-ce que l'empire industriel selon Georges Gurvitch ?",
    "Qu'est-ce que la démocratie ou république industrielle selon Georges Gurvitch ?",
    "Quels sont les caractéristiques de la démocratie industrielle selon Georges Gurvitch ?"
  ]
}