{
  "num": "autog_0338-7259_1975_num_32_1",
  "article": "autog_0338-7259_1975_num_32_1_1142",
  "page_name": "FMSH_PB188a_00032_067",
  "questions": [
    {
      "id_qa": "FMSH_PB188a_00032_067_qa1_v3",
      "id_block": "block_5",
      "question": "Qu'est ce qui permet aux travailleurs de mieux contrôler les décisions ?",
      "answer": "un travail communautaire",
      "answer_stringIds": [
        "string_75",
        "string_76",
        "string_77"
      ]
    },
    {
      "id_qa": "FMSH_PB188a_00032_067_qa3_v3",
      "id_block": "block_5",
      "question": "A qui est destiné le travail communautaire ?",
      "answer": "aux travailleurs",
      "answer_stringIds": [
        "string_81",
        "string_82"
      ]
    },
    {
      "id_qa": "FMSH_PB188a_00032_067_qa4_v3",
      "id_block": "block_5",
      "question": "A qui permet de mieux contrôler les décisions ?",
      "answer": "aux travailleurs",
      "answer_stringIds": [
        "string_81",
        "string_82"
      ]
    },
    {
      "id_qa": "FMSH_PB188a_00032_067_qa5_v3",
      "id_block": "block_5",
      "question": "Que permet le travail communautaire ?",
      "answer": "de mieux contrôler les décisions",
      "answer_stringIds": [
        "string_83",
        "string_84",
        "string_85",
        "string_86",
        "string_87"
      ]
    },
    {
      "id_qa": "FMSH_PB188a_00032_067_qa6_v3",
      "id_block": "block_9",
      "question": "Quel métier exerçait-il à plein temps ?",
      "answer": "mécanicien",
      "answer_stringIds": [
        "string_200"
      ]
    }
  ]
}