{
  "num": "autog_0338-7259_1975_num_32_1",
  "article": "autog_0338-7259_1975_num_32_1_1142",
  "page_name": "FMSH_PB188a_00032_074",
  "questions": [
    {
      "id_qa": "FMSH_PB188a_00032_074_qa6_v3",
      "id_block": "block_1",
      "question": "Qu'est ce que nous voudrions mieux étudier ?",
      "answer": "questions",
      "answer_stringIds": [
        "string_9"
      ]
    },
    {
      "id_qa": "FMSH_PB188a_00032_074_qa1_v3",
      "id_block": "block_3",
      "question": "Qu'est ce que nous avons besoin d'améliorer ?",
      "answer": "notre financement",
      "answer_stringIds": [
        "string_43",
        "string_44"
      ]
    },
    {
      "id_qa": "FMSH_PB188a_00032_074_qa8_v3",
      "id_block": "block_4",
      "question": "Qu'est ce qui permet d'impliquer le plus de gens possible dans la prise de décision ?",
      "answer": "un degré élevé de démocratie",
      "answer_stringIds": [
        "string_89",
        "string_90",
        "string_91",
        "string_92",
        "string_93",
        "string_94"
      ]
    },
    {
      "id_qa": "FMSH_PB188a_00032_074_qa2_v3",
      "id_block": "block_5",
      "question": "Quels sont les moyens qui permettent d'équilibrer l'initiative individuelle ?",
      "answer": "avec la cohésion du groupe et la responsabilité de la croissance",
      "answer_stringIds": [
        "string_134",
        "string_135",
        "string_136",
        "string_137",
        "string_138",
        "string_139",
        "string_140",
        "string_141",
        "string_142",
        "string_143",
        "string_144"
      ]
    },
    {
      "id_qa": "FMSH_PB188a_00032_074_qa13_v3",
      "id_block": "block_8",
      "question": "Quand a eu lieu la première conférence sur l'autogestion ?",
      "answer": "en janvier 1974",
      "answer_stringIds": [
        "string_168",
        "string_169",
        "string_170"
      ]
    }
  ]
}