{
  "num": "autog_0338-7259_1975_num_32_1",
  "article": "autog_0338-7259_1975_num_32_1_1142",
  "page_name": "FMSH_PB188a_00032_071",
  "questions": [
    {
      "id_qa": "FMSH_PB188a_00032_071_qa8_v3",
      "id_block": "block_1",
      "question": "Qu'est ce qui nous a appris à faire des progrès ?",
      "answer": "nos décisions",
      "answer_stringIds": [
        "string_32",
        "string_33"
      ]
    },
    {
      "id_qa": "FMSH_PB188a_00032_071_qa30_v3",
      "id_block": "block_1",
      "question": "Qu'est-ce qui nous apprend à mieux contrôler ?",
      "answer": "notre propre vie",
      "answer_stringIds": [
        "string_21",
        "string_22",
        "string_23"
      ]
    },
    {
      "id_qa": "FMSH_PB188a_00032_071_qa45_v3",
      "id_block": "block_3",
      "question": "A quoi tendaient les exigences des consommateurs ?",
      "answer": "à devenir exhorbitantes",
      "answer_stringIds": [
        "string_205",
        "string_206",
        "string_207"
      ]
    },
    {
      "id_qa": "FMSH_PB188a_00032_071_qa48_v3",
      "id_block": "block_3",
      "question": "Comment s'appelait le garage de la communauté ?",
      "answer": "Le fait que nous nous intitulions le « garage de la communauté",
      "answer_stringIds": [
        "string_208",
        "string_209",
        "string_210",
        "string_211",
        "string_212",
        "string_213",
        "string_214",
        "string_215",
        "string_216",
        "string_217",
        "string_218",
        "string_219",
        "string_220"
      ]
    },
    {
      "id_qa": "FMSH_PB188a_00032_071_qa24_v3",
      "id_block": "block_5",
      "question": "Qu'est-ce que le garage ?",
      "answer": "un foyer",
      "answer_stringIds": [
        "string_332",
        "string_333"
      ]
    },
    {
      "id_qa": "FMSH_PB188a_00032_071_qa27_v3",
      "id_block": "block_5",
      "question": "Pour quelle raison le garage est-il un foyer ?",
      "answer": "pour développer",
      "answer_stringIds": [
        "string_334",
        "string_335"
      ]
    }
  ]
}