{
  "num": "autog_0338-7259_1973_num_22_1",
  "article": "autog_0338-7259_1973_num_22_1_1101",
  "page_name": "FMSH_PB188a_22-23_257",
  "questions": [
    "Quel est le lieu et la date de l'écriture de cette lettre ?",
    "Pourquoi Daniel Guérin a-t-il demandé à l'auteur de publier un chapitre de son livre dans la revue AUTOGESTION ET SOCIALISME ?",
    "Quel était la condition de l'auteur pour la publication de ce chapitre ?",
    "Pourquoi l'auteur s'oppose-t-il à l'autogestion ?",
    "Quand a été rédigé le chapitre sur les collectivités espagnoles du livre de l'auteur ?",
    "Pourquoi la publication du chapitre dans la revue AUTOGESTION ET SOCIALISME aurait été trompeuse pour les lecteurs ?",
    "Pourquoi l'auteur n'a-t-il pas été informé de la publication du chapitre dans la revue ?",
    "Pourquoi l'auteur demande la publication de cette lettre dans le prochain numéro de la revue ?",
    "Quel est l'opinion de l'auteur sur l'autogestion ?",
    "Quels sont les groupes et tendances qui soutiennent l'autogestion selon l'auteur ?",
    "Quels sont les groupes et tendances qui ne sont pas révolutionnaires mais soutiennent l'autogestion selon l'auteur ?",
    "Quels sont les groupes et tendances staliniennes et policiers qui soutiennent l'autogestion selon l'auteur ?"
  ]
}