{
  "num": "autog_0249-2563_1984_num_17_15",
  "article": "autog_0249-2563_1984_num_17_15_1577",
  "page_name": "autog_0249-2563_1984_num_17_15_T1_0063_0000",
  "questions": [
    {
      "id_qa": "autog_0249-2563_1984_num_17_15_T1_0063_0000_qa7_v3",
      "id_block": "block_0",
      "question": "Qui a proposé des idées de société ?",
      "answer": "par Gorz",
      "answer_stringIds": [
        "string_49",
        "string_50"
      ]
    },
    {
      "id_qa": "autog_0249-2563_1984_num_17_15_T1_0063_0000_qa8_v3",
      "id_block": "block_0",
      "question": "Quelle idéologie est issue d'une idéologie humanitaire ?",
      "answer": "des écologistes",
      "answer_stringIds": [
        "string_32",
        "string_33"
      ]
    },
    {
      "id_qa": "autog_0249-2563_1984_num_17_15_T1_0063_0000_qa10_v3",
      "id_block": "block_0",
      "question": "Qui propose des projets de société ?",
      "answer": "par ces courants",
      "answer_stringIds": [
        "string_7",
        "string_8",
        "string_9"
      ]
    },
    {
      "id_qa": "autog_0249-2563_1984_num_17_15_T1_0063_0000_qa12_v3",
      "id_block": "block_0",
      "question": "Qu'est ce qui est proposé par ces courants ?",
      "answer": "Les projets de société",
      "answer_stringIds": [
        "string_0",
        "string_1",
        "string_2",
        "string_3"
      ]
    },
    {
      "id_qa": "autog_0249-2563_1984_num_17_15_T1_0063_0000_qa2_v3",
      "id_block": "block_1",
      "question": "A qui appartient la famille des autogestionnaires ?",
      "answer": "les autogestionnaires du néolithique",
      "answer_stringIds": [
        "string_91",
        "string_92",
        "string_93",
        "string_94",
        "string_95"
      ]
    },
    {
      "id_qa": "autog_0249-2563_1984_num_17_15_T1_0063_0000_qa3_v3",
      "id_block": "block_1",
      "question": "Sur quoi se focalise les autogestionnaires du néolithique ?",
      "answer": "sur le fonctionnement des institutions de cette société industrielle",
      "answer_stringIds": [
        "string_131",
        "string_132",
        "string_133",
        "string_134",
        "string_135",
        "string_136",
        "string_137",
        "string_138",
        "string_139"
      ]
    },
    {
      "id_qa": "autog_0249-2563_1984_num_17_15_T1_0063_0000_qa32_v3",
      "id_block": "block_2",
      "question": "Quel était le métier des productivistes ?",
      "answer": "Les autogestionnaires du paléolithique",
      "answer_stringIds": [
        "string_140",
        "string_141",
        "string_142",
        "string_143"
      ]
    },
    {
      "id_qa": "autog_0249-2563_1984_num_17_15_T1_0063_0000_qa17_v3",
      "id_block": "block_3",
      "question": "Quelle est la déviance principale des néolithiques ?",
      "answer": "leur autogestion",
      "answer_stringIds": [
        "string_212",
        "string_213",
        "string_214"
      ]
    },
    {
      "id_qa": "autog_0249-2563_1984_num_17_15_T1_0063_0000_qa24_v3",
      "id_block": "block_3",
      "question": "Qu'est ce qui ne demande qu'à s'enflammer ?",
      "answer": "une lueur de déviance utopique",
      "answer_stringIds": [
        "string_237",
        "string_238",
        "string_239",
        "string_240",
        "string_241"
      ]
    },
    {
      "id_qa": "autog_0249-2563_1984_num_17_15_T1_0063_0000_qa29_v3",
      "id_block": "block_3",
      "question": "Que reste-t-il du modèle industrialiste ?",
      "answer": "une lueur de déviance utopique",
      "answer_stringIds": [
        "string_237",
        "string_238",
        "string_239",
        "string_240",
        "string_241"
      ]
    },
    {
      "id_qa": "autog_0249-2563_1984_num_17_15_T1_0063_0000_qa30_v3",
      "id_block": "block_3",
      "question": "Qui a adopté l'autogestion ?",
      "answer": "toutes les minorités déviantes",
      "answer_stringIds": [
        "string_305",
        "string_306",
        "string_307",
        "string_308"
      ]
    },
    {
      "id_qa": "autog_0249-2563_1984_num_17_15_T1_0063_0000_qa34_v3",
      "id_block": "block_3",
      "question": "Qui s'exprime de moins en moins sur un tel projet ?",
      "answer": "les néo-autogestionnaires",
      "answer_stringIds": [
        "string_340",
        "string_341"
      ]
    },
    {
      "id_qa": "autog_0249-2563_1984_num_17_15_T1_0063_0000_qa0_v3",
      "id_block": "block_4",
      "question": "Qu'est-ce qui est devenu davantage une réflexion ?",
      "answer": "le fonctionnement autogestionnaire",
      "answer_stringIds": [
        "string_405",
        "string_406",
        "string_407"
      ]
    },
    {
      "id_qa": "autog_0249-2563_1984_num_17_15_T1_0063_0000_qa23_v3",
      "id_block": "block_4",
      "question": "Qui a dépouillé peu à peu l'histoire de l'autogestion ?",
      "answer": "les autogestionnaires",
      "answer_stringIds": [
        "string_91",
        "string_92"
      ]
    }
  ]
}