{
  "num": "autog_0005-0970_1968_num_5_1",
  "article": "autog_0005-0970_1968_num_5_1_925",
  "page_name": "FMSH_PB188a_05-06_141",
  "questions": [
    {
      "id_qa": "FMSH_PB188a_05-06_141_qa0_v3",
      "id_block": "block_1",
      "question": "Qui est là pour mieux coordonner les assemblées ?",
      "answer": "Les dirigeants",
      "answer_stringIds": [
        "string_128",
        "string_129"
      ]
    },
    {
      "id_qa": "FMSH_PB188a_05-06_141_qa2_v3",
      "id_block": "block_1",
      "question": "Qui est là pour mieux coordonner les initiatives des assemblées ?",
      "answer": "Les dirigeants",
      "answer_stringIds": [
        "string_128",
        "string_129"
      ]
    },
    {
      "id_qa": "FMSH_PB188a_05-06_141_qa3_v3",
      "id_block": "block_1",
      "question": "Qui est là pour mieux coordonner ?",
      "answer": "Les dirigeants",
      "answer_stringIds": [
        "string_128",
        "string_129"
      ]
    },
    {
      "id_qa": "FMSH_PB188a_05-06_141_qa47_v3",
      "id_block": "block_1",
      "question": "Qui peut reprendre la lutte ?",
      "answer": "Celui",
      "answer_stringIds": [
        "string_15"
      ]
    },
    {
      "id_qa": "FMSH_PB188a_05-06_141_qa12_v3",
      "id_block": "block_2",
      "question": "Qu'est ce que les Harmoniens font eux-mêmes ?",
      "answer": "leurs lois",
      "answer_stringIds": [
        "string_410",
        "string_411"
      ]
    },
    {
      "id_qa": "FMSH_PB188a_05-06_141_qa14_v3",
      "id_block": "block_2",
      "question": "Qui est à l'origine des lois ?",
      "answer": "Les Harmoniens",
      "answer_stringIds": [
        "string_405",
        "string_406"
      ]
    },
    {
      "id_qa": "FMSH_PB188a_05-06_141_qa54_v3",
      "id_block": "block_2",
      "question": "Qu'est-ce qui est inhibé par l'écrit ?",
      "answer": "les mouvements",
      "answer_stringIds": [
        "string_457",
        "string_458"
      ]
    },
    {
      "id_qa": "FMSH_PB188a_05-06_141_qa55_v3",
      "id_block": "block_2",
      "question": "Où les mouvements sont-ils inhibés ?",
      "answer": "à la surface",
      "answer_stringIds": [
        "string_462",
        "string_463",
        "string_464",
        "string_465"
      ]
    }
  ]
}