{
  "num": "autog_0338-7259_1975_num_32_1",
  "article": "autog_0338-7259_1975_num_32_1_1144",
  "page_name": "FMSH_PB188a_00032_108",
  "questions": [
    "Quels groupes sociaux, économiques, ethniques, idéologiques et autres Radoslav Selucky considère comme relevant du rôle régulateur de l'État ?",
    "En quelle mesure l'État accomplit-il une tâche de coopération sociale dans une économie d'autogestion ?",
    "Comment la société est-elle représentée dans tous les organes d'autogestion économique ?",
    "Comment les corps politiques correspondants doivent-ils être représentés dans les conseils de travailleurs ?",
    "Comment faire pour assurer un contrôle réciproque des pouvoirs si tous les organes supérieurs sont composés exclusivement de délégués des organes inférieurs ?",
    "Comment l'absence de parti politique affecte le fonctionnement de l'autogestion ?",
    "Quel est le principe d'autogestion selon Selucky et comment il peut être pris en considération aujourd'hui ?",
    "Comment l'intérêt de l'autogestion réside selon Selucky ?",
    "Comment l'État et la politique sont-elles supposées dépérir dans le processus de construction du socialisme selon Selucky ?",
    "Comment la machine d'Etat doit-elle faire place à l'administration des choses selon Selucky ?"
  ]
}