{
  "num": "autog_0338-7259_1974_num_28_1",
  "article": "autog_0338-7259_1974_num_28_1_1190",
  "page_name": "FMSH_PB188a_28-29_049",
  "questions": [
    "Quels phénomènes considère M. Crozier comme caractéristiques de la société industrielle et de la société française ?",
    "Quand est parue la brochure De la Bureaucratie dans la collection « Les Livres Rouges » ?",
    "Quel sens donne C. Lefort au mot bureaucratie ?",
    "Quel est le rôle primordial dans une bureaucratie selon C. Lefort ?",
    "Quelle est la division qui est nécessaire à toute bureaucratie selon le texte ?",
    "Comment se retrouve la division par le social dans la bureaucratie ?",
    "Quels sont les deux signes révélant le glissement de la différenciation fonctionnelle vers la différenciation sociale ?",
    "Quels auteurs sont cités dans le texte en relation avec la théorie de la bureaucratie ?"
  ]
}