{
  "num": "autog_0338-7259_1974_num_28_1",
  "article": "autog_0338-7259_1974_num_28_1_1190",
  "page_name": "FMSH_PB188a_28-29_062",
  "questions": [
    "Quel rôle a Maurice Montuclard dans la réflexion sur l'utopie au XXème siècle ?",
    "Quels sont les trois formes d'utopie mentionnées dans le texte ?",
    "En quelle manière l'autogestion conteste les structures de pouvoir, d'appareils et d'hiérarchies ?",
    "Qu'est-il arrivé au concept d'utopie au point de développement atteint aujourd'hui ?",
    "Qu'est-il écrit par David Hume dans les Archives Européennes de Sociologie ?",
    "Qu'implique le renversement mentionné dans le texte ?",
    "Quand et comment deviendra-t-il intolérable l'acceptation du joug ?",
    "Quels modes de pensée pourrait impliquer ce renversement ?"
  ]
}