{
  "num": "autog_0338-7259_1974_num_28_1",
  "article": "autog_0338-7259_1974_num_28_1_1190",
  "page_name": "FMSH_PB188a_28-29_043",
  "questions": [
    "Quel est le rôle de la technostructure dans la décision du groupe ?",
    "Quel est le contrôle de la technostructure sur le processus de production ?",
    "Quel est le rôle du capital dans la détermination des finalités ?",
    "Quels sont les objectifs profonds de la technostructure ?",
    "Comment décrit Galbraith le rôle de l'industrie dans notre vie ?",
    "Qu'est-ce que le Nouvel État Industriel admet quant aux fins supérieures de la société ?",
    "Comment est-ce que la technostructure perpétue et s'accroît ?",
    "Comment l'extension de l'information au personnel affecte-t-elle la zérostructure ?"
  ]
}