{
  "num": "autog_0338-7259_1970_num_11_1",
  "article": "autog_0338-7259_1970_num_11_1_969",
  "page_name": "FMSH_PB188a_11-12_221",
  "questions": [
    "Quel événement historique est décrit dans ce passage ?",
    "En quelle année a eu lieu ce phénomène en Tchécoslovaquie ?",
    "Quel changement s'est produit dans le scrutin électoral ?",
    "Combien de candidats y avaient-il en moyenne pour chaque fonction ?",
    "Quel pourcentage des élus étaient des membres du Parti communiste ?",
    "Quels types de personnes étaient-elles ?",
    "Qu'est-ce qui se produisait en Tchécoslovaquie à cette époque ?",
    "Quels théoriciens tchèques sont mentionnés et quels sont leurs positions ?",
    "Qu'est-ce qui fait de ces controverses et contradictions un signe de révolution ?",
    "Quel est le point de vue de l'auteur sur les conseils ouvriers ?",
    "Qu'est-ce qui est difficile à annoncer dans les révolutions ?",
    "Quel est le rôle du prolétariat dans la transformation de la société ?",
    "Qu'est-ce qui est dangereux dans la mise sur pied d'un système autogéré ?",
    "Quel est le danger de voir une « technocratie économique » remplacer la « bureaucratie politique » ?"
  ]
}