{
  "num": "autog_0338-7259_1970_num_11_1",
  "article": "autog_0338-7259_1970_num_11_1_969",
  "page_name": "FMSH_PB188a_11-12_207",
  "questions": [
    "Quels intérêts réels et espoirs du socialisme dans le monde sont mentionnés dans ce document ?",
    "Quels intérêts et espoirs des travailleurs des nations tchèques sont cités ?",
    "Quel est l'intérêt déterminant pour le mouvement communiste international ?",
    "Comment justifient les syndicats tchèques la diminution d'effectifs des organisations affiliées à la Commission syndicale internationale de l'Empire ?",
    "En quelles conditions est le mouvement communiste international fort ?",
    "Quel était le pourcentage d'ouvriers en Tchécoslovaquie en 1963 par rapport à la population totale ?",
    "Quel était le pourcentage d'ouvriers en Pologne, en République démocratique allemande, en Hongrie et en Yougoslavie en 1963 ou environ ?",
    "Comment la Tchécoslovaquie est-elle différente des autres démocraties populaires en matière d'industrialisation ?"
  ]
}