{
  "num": "autog_0249-2563_1980_num_13_4",
  "article": "autog_0249-2563_1980_num_13_4_1402_t1_0510_0000_2",
  "page_name": "autog_0249-2563_1980_num_13_4_T1_0512_0000",
  "questions": [
    {
      "id_qa": "autog_0249-2563_1980_num_13_4_T1_0512_0000_qa26_v3",
      "id_block": "block_1",
      "question": "Quand est né le Mouvement Communautaire ?",
      "answer": "dans les années de guerre",
      "answer_stringIds": [
        "string_52",
        "string_53",
        "string_54",
        "string_55",
        "string_56"
      ]
    },
    {
      "id_qa": "autog_0249-2563_1980_num_13_4_T1_0512_0000_qa28_v3",
      "id_block": "block_1",
      "question": "Comment s'appelle le Mouvement Castor ?",
      "answer": "par le Mouvement Communautaire",
      "answer_stringIds": [
        "string_47",
        "string_48",
        "string_49",
        "string_50"
      ]
    },
    {
      "id_qa": "autog_0249-2563_1980_num_13_4_T1_0512_0000_qa13_v3",
      "id_block": "block_2",
      "question": "Qu'est-ce que le Mouvement ?",
      "answer": "une économie immobilière",
      "answer_stringIds": [
        "string_69",
        "string_70",
        "string_71"
      ]
    },
    {
      "id_qa": "autog_0249-2563_1980_num_13_4_T1_0512_0000_qa14_v3",
      "id_block": "block_2",
      "question": "Dans quelle société les techniques furent elles normalisées ?",
      "answer": "dans la société toute entière",
      "answer_stringIds": [
        "string_93",
        "string_94",
        "string_95",
        "string_96",
        "string_97"
      ]
    },
    {
      "id_qa": "autog_0249-2563_1980_num_13_4_T1_0512_0000_qa16_v3",
      "id_block": "block_2",
      "question": "Quel rôle le Mouvement assumera-t-il ?",
      "answer": "son rôle « créatif » de « talvera",
      "answer_stringIds": [
        "string_76",
        "string_77",
        "string_78",
        "string_79",
        "string_80",
        "string_81",
        "string_82",
        "string_83"
      ]
    },
    {
      "id_qa": "autog_0249-2563_1980_num_13_4_T1_0512_0000_qa18_v3",
      "id_block": "block_2",
      "question": "Qu'est ce que le Mouvement expérimenta ?",
      "answer": "des techniques qui furent « normalisées » dans la société toute entière",
      "answer_stringIds": [
        "string_86",
        "string_87",
        "string_88",
        "string_89",
        "string_90",
        "string_91",
        "string_92",
        "string_93",
        "string_94",
        "string_95",
        "string_96",
        "string_97"
      ]
    },
    {
      "id_qa": "autog_0249-2563_1980_num_13_4_T1_0512_0000_qa8_v3",
      "id_block": "block_3",
      "question": "Quand le législateur considéra-t-il la loi comme nuisible ?",
      "answer": "en 1971",
      "answer_stringIds": [
        "string_137",
        "string_138"
      ]
    },
    {
      "id_qa": "autog_0249-2563_1980_num_13_4_T1_0512_0000_qa11_v3",
      "id_block": "block_3",
      "question": "Qui considéra la loi comme nuisible ?",
      "answer": "le législateur",
      "answer_stringIds": [
        "string_141",
        "string_142"
      ]
    },
    {
      "id_qa": "autog_0249-2563_1980_num_13_4_T1_0512_0000_qa36_v3",
      "id_block": "block_3",
      "question": "Pourquoi est-il possible de se grouper dans la légalité ?",
      "answer": "pour construire ensemble son habitat",
      "answer_stringIds": [
        "string_163",
        "string_164",
        "string_165",
        "string_166",
        "string_167"
      ]
    },
    {
      "id_qa": "autog_0249-2563_1980_num_13_4_T1_0512_0000_qa42_v3",
      "id_block": "block_3",
      "question": "Qu'oublie la Société comme la mémoire des hommes ?",
      "answer": "ses propres origines",
      "answer_stringIds": [
        "string_115",
        "string_116",
        "string_117"
      ]
    },
    {
      "id_qa": "autog_0249-2563_1980_num_13_4_T1_0512_0000_qa43_v3",
      "id_block": "block_3",
      "question": "Qui oublie souvent ses propres origines ?",
      "answer": "La Société",
      "answer_stringIds": [
        "string_104",
        "string_105"
      ]
    },
    {
      "id_qa": "autog_0249-2563_1980_num_13_4_T1_0512_0000_qa44_v3",
      "id_block": "block_4",
      "question": "Qu'est ce qui n'existait pas ?",
      "answer": "Le « marché",
      "answer_stringIds": [
        "string_230",
        "string_231",
        "string_232"
      ]
    },
    {
      "id_qa": "autog_0249-2563_1980_num_13_4_T1_0512_0000_qa21_v3",
      "id_block": "block_5",
      "question": "Quel mouvement disparaissait en tant qu'institutions ?",
      "answer": "le Mouvement Castor et les Mouvements qui en étaient issus",
      "answer_stringIds": [
        "string_276",
        "string_277",
        "string_278",
        "string_279",
        "string_281",
        "string_282",
        "string_283",
        "string_284",
        "string_285",
        "string_286",
        "string_287"
      ]
    },
    {
      "id_qa": "autog_0249-2563_1980_num_13_4_T1_0512_0000_qa24_v3",
      "id_block": "block_5",
      "question": "Qui a écrit le Mouvement de l'Habitat Groupé Autogéré ?",
      "answer": "Y. Bourdet",
      "answer_stringIds": [
        "string_313",
        "string_314"
      ]
    },
    {
      "id_qa": "autog_0249-2563_1980_num_13_4_T1_0512_0000_qa4_v3",
      "id_block": "block_6",
      "question": "Où ont eu lieu les Ateliers d'octobre ?",
      "answer": "à Metz",
      "answer_stringIds": [
        "string_339",
        "string_340"
      ]
    },
    {
      "id_qa": "autog_0249-2563_1980_num_13_4_T1_0512_0000_qa5_v3",
      "id_block": "block_6",
      "question": "Qui a organisé les Ateliers d'octobre ?",
      "answer": "la Revue Autrement",
      "answer_stringIds": [
        "string_345",
        "string_346",
        "string_347"
      ]
    },
    {
      "id_qa": "autog_0249-2563_1980_num_13_4_T1_0512_0000_qa6_v3",
      "id_block": "block_6",
      "question": "Quand ont eu lieu les Ateliers d'octobre ?",
      "answer": "en octobre 1978",
      "answer_stringIds": [
        "string_341",
        "string_342",
        "string_343"
      ]
    }
  ]
}