{
  "num": "autog_0338-7259_1975_num_30_1",
  "article": "autog_0338-7259_1975_num_30_1_1124",
  "page_name": "FMSH_PB188a_30-31_092",
  "questions": [
    "Quel rôle Olivier Corpet a-t-il joué dans les débats co-gestionnaires en Allemagne ?",
    "En quelles manières la répartition des sièges dans les conseils a-t-elle été plus discutée que les moyens d'accroître la participation des travailleurs aux niveaux des ateliers et des postes de travail ?",
    "Comment la pratique co-gestionnaire en Allemagne a-t-elle contribué à développer une méfiance et une vigilance des travailleurs à l'égard de leurs représentants et des appareils syndicaux ?",
    "Comment les règles du jeu instituées peuvent-elles avoir poussé les représentants à prendre des distances avec elles et favorisé l'éveil et la formation d'une conscience sociale et d'un projet politique anticapitalistes ?"
  ]
}