{
  "num": "autog_0338-7259_1975_num_30_1",
  "article": "autog_0338-7259_1975_num_30_1_1124",
  "page_name": "FMSH_PB188a_30-31_085",
  "questions": [
    "Quel rôle a la cogestion joué sur la structure du travail salarié selon le texte ?",
    "Quels étaient les préoccupations des travailleurs syndiqués, non syndiqués et employés en matière de cogestion ?",
    "Quels avantages a-t-on retrouvés dans le rapport de la commission Biedenkopf sur la cogestion ?",
    "En quelles industries et secteurs a été étudiée la cogestion par la commission Biedenkopf ?",
    "Quel type d'experts la commission Biedenkopf comptait-elle dans son équipe ?",
    "Selon les auteurs cités, quels sont les connaissances des travailleurs quant à la composition actuelle des conseils de surveillance ?",
    "Quel jugement fait le texte sur la prise en charge du DGB du problème de la cogestion sur les lieux de travail ?",
    "Quels aspects déplaisants de la vie des entreprises a la cogestion permis d'éliminer ?",
    "Quel est le point de vue du texte sur la prise en charge du problème de la cogestion par le DGB ?",
    "Quel est le résultat de l'enquête du DGB sur la cogestion effectuée en 1968-1969 ?",
    "Quel est le niveau de la prise en compte de la cogestion par les travailleurs non syndiqués selon l'enquête du DGB ?",
    "Quel est le niveau de la prise en compte de la cogestion par les employés selon l'enquête du DGB ?",
    "Quel est le jugement du texte sur la prise en charge de l'analyse de la cogestion par la commission Biedenkopf ?",
    "Quel est le type d'approche d'analyse de la cogestion adoptée par la commission Biedenkopf ?"
  ]
}