{
  "num": "autog_0338-7259_1975_num_30_1",
  "article": "autog_0338-7259_1975_num_30_1_1124",
  "page_name": "FMSH_PB188a_30-31_088",
  "questions": [
    "Quels événements ont mis fin à la « paix sociale » des années 60 en Allemagne ?",
    "Quel rapport a publié la commission Biedenkopf sur le système paritaire ?",
    "Quels motifs la commission invoquait pour laisser aux travailleurs plus d'influence dans certaines industries ?",
    "Quels risques la commission craignait si le système paritaire était étendu à toutes les entreprises ?",
    "Quels partis formaient la coalition au pouvoir en Allemagne en 1968 ?",
    "Quel rôle jouait le FDP dans la coalition et envers les tentatives de gestion socialiste ?",
    "Quels sources peuvent fournir des informations supplémentaires sur le mouvement syndical et la copestion en Allemagne à cette époque ?"
  ]
}