{
  "num": "autog_0338-7259_1975_num_30_1",
  "article": "autog_0338-7259_1975_num_30_1_1124",
  "page_name": "FMSH_PB188a_30-31_075",
  "questions": [
    "Quel titre a l'article du Monde sur la cogestion paritaire en Allemagne ?",
    "Quels informations a-t-on apprises dans l'article du Monde selon lesquelles la Chambre de Commerce américaine de Francfort a agi ?",
    "Quels patrons américains ont été contactés par la Chambre de Commerce américaine de Francfort ?",
    "Quels pays européens sont-ils inquiétés par cette pratique allemande ?",
    "Quel traitement pourraient les investissements américains en Allemagne dépendre du traitement réservé dans la législation sur la cogestion ?",
    "Quand a eu lieu la première audition publique des experts du Bundestag chargés de la cogestion ?",
    "Quel est le terme utilisé pour décrire l'action de la Chambre de Commerce américaine de Francfort ?",
    "Quel autre usage est réservé par les Américains à la politique de la canonnière ?",
    "Dans quel pays a-t-on utilisé la politique de la canonnière récemment ?",
    "Quel terme est utilisé pour décrire la réorientation des investissements productifs ?"
  ]
}