{
  "num": "autog_0338-7259_1975_num_30_1",
  "article": "autog_0338-7259_1975_num_30_1_1124",
  "page_name": "FMSH_PB188a_30-31_091",
  "questions": [
    "Quels hommes politiques de droite sont-ils craints de ressusciter des « vieux démons » ?",
    "Quels sont les difficultés actuelles du gouvernement socialiste-libéral liées aux projets d'extension de la cogestion ?",
    "Qu'est-ce que la cogestion indigeste ?",
    "Qu'est-il arrivé aux négociations entre le patronat et la bourgeoisie et les syndicats ?",
    "Qu'est-ce que l'extrême gauche allemande veut de la réforme de la cogestion ?",
    "Comment s'interroge le patronat européen sur la cogestion ?",
    "Pourquoi les projets d'extension des formes de cogestion existantes rencontrent-ils des résistances fortes ?",
    "La cogestion a-t-elle favorisé la formation d'une conscience autogestionnaire chez les travailleurs allemands ?",
    "Qu'est-ce que les formules de participation instituées ont montré ?",
    "Quel titre porte l'article qui incite les dirigeants d'entreprises à se préparer à la participation des salariés à la gestion des entreprises ?"
  ]
}