{
  "num": "autog_0249-2563_1981_num_14_7",
  "article": "autog_0249-2563_1981_num_14_7_1447",
  "page_name": "autog_0249-2563_1981_num_14_7_T1_0287_0000",
  "questions": [
    "Quels sont les idées autogestionnaires que devrait aborder une revue comme Autogestions ?",
    "Quel attitude devrait adopter la revue face au nouveau pouvoir et à ses initiatives ?",
    "Quels pays sont-ils qui considèrent l'autogestion comme une réminiscence et une espérance ?",
    "Dans quels pays l'autogestion est-elle une réalité actuelle ?",
    "Quels événements ont été analysés dans le numéro consacré à la Pologne au début de l'année ?",
    "Comment a la référence à l'autogestion été perçue par le mouvement polonais lui-même ?",
    "Quels sont les débats et les luttes actuels entre \"Solidarité\" et le pouvoir en Pologne ?",
    "Quels sont les signes d'une puissance et d'un État qui craquent ?",
    "Quel est le nom de la « révolution auto-limitée » selon J. Kuron ?",
    "Quels sont les demandes et les propositions du mouvement social polonais en matière d'autogestion ?"
  ]
}