{
  "num": "autog_0249-2563_1981_num_14_7",
  "article": "autog_0249-2563_1981_num_14_7_1447",
  "page_name": "autog_0249-2563_1981_num_14_7_T1_0288_0000",
  "questions": [
    "Quel est le nom du syndicat qui a publié ce bulletin d'information inter-régional?",
    "Dans quelle ville est basé ce syndicat?",
    "Quel est le titre du premier numéro de la revue Autogestion?",
    "Quand a-t-il été publié ce premier numéro?",
    "Quel est le contenu principal du premier numéro de la revue Autogestion?",
    "Quels sont les sujets abordés dans la knótka historia likwidacji rad robomiczych?",
    "Quels sont les projets de lois gouvernementaux mentionnés dans le document?",
    "Quel est le rôle du syndicat dans la mise en œuvre des projets de lois gouvernementaux?",
    "Quel est le but de la publication de ce bulletin d'information inter-régional?",
    "Quel est le rôle de la revue Autogestion dans le syndicat Solidarité?",
    "Quels sont les enjeux politiques et sociaux de la publication de ce bulletin d'information inter-régional?"
  ]
}