{
  "num": "autog_0249-2563_1981_num_14_6",
  "article": "autog_0249-2563_1981_num_14_6_1423",
  "page_name": "autog_0249-2563_1981_num_14_6_T1_0153_0000",
  "questions": [
    {
      "id_qa": "autog_0249-2563_1981_num_14_6_T1_0153_0000_qa2_v3",
      "id_block": "block_0",
      "question": "Que signifie en théorie le pouvoir socialiste ?",
      "answer": "un pouvoir de dialogue",
      "answer_stringIds": [
        "string_35",
        "string_36",
        "string_37",
        "string_38"
      ]
    },
    {
      "id_qa": "autog_0249-2563_1981_num_14_6_T1_0153_0000_qa4_v3",
      "id_block": "block_0",
      "question": "Où est-ce que le fascisme ne passera pas ?",
      "answer": "dans la rue",
      "answer_stringIds": [
        "string_91",
        "string_92",
        "string_93"
      ]
    },
    {
      "id_qa": "autog_0249-2563_1981_num_14_6_T1_0153_0000_qa6_v3",
      "id_block": "block_0",
      "question": "Qu'est ce qui ne passera pas ?",
      "answer": "Le fascisme",
      "answer_stringIds": [
        "string_97",
        "string_98"
      ]
    },
    {
      "id_qa": "autog_0249-2563_1981_num_14_6_T1_0153_0000_qa8_v3",
      "id_block": "block_0",
      "question": "Qu'exige le renversement de perspective ?",
      "answer": "une reconversion",
      "answer_stringIds": [
        "string_119",
        "string_120"
      ]
    },
    {
      "id_qa": "autog_0249-2563_1981_num_14_6_T1_0153_0000_qa10_v3",
      "id_block": "block_0",
      "question": "Qui abolit l'Etat ?",
      "answer": "Mitterrand",
      "answer_stringIds": [
        "string_6"
      ]
    },
    {
      "id_qa": "autog_0249-2563_1981_num_14_6_T1_0153_0000_qa20_v3",
      "id_block": "block_0",
      "question": "Qu'est ce qui s'installe ?",
      "answer": "le pouvoir qui",
      "answer_stringIds": [
        "string_134",
        "string_135",
        "string_136"
      ]
    },
    {
      "id_qa": "autog_0249-2563_1981_num_14_6_T1_0153_0000_qa21_v3",
      "id_block": "block_0",
      "question": "Comment s'appelle le pouvoir qui s'installe ?",
      "answer": "devienne le nôtre",
      "answer_stringIds": [
        "string_139",
        "string_140",
        "string_141"
      ]
    },
    {
      "id_qa": "autog_0249-2563_1981_num_14_6_T1_0153_0000_qa12_v3",
      "id_block": "block_3",
      "question": "Qui doit être considérée sans méfiance ?",
      "answer": "toute la gauche",
      "answer_stringIds": [
        "string_185",
        "string_186",
        "string_187"
      ]
    },
    {
      "id_qa": "autog_0249-2563_1981_num_14_6_T1_0153_0000_qa14_v3",
      "id_block": "block_3",
      "question": "Qu'est ce qui doit être considéré sans méfiance ?",
      "answer": "toute la gauche qui",
      "answer_stringIds": [
        "string_185",
        "string_186",
        "string_187",
        "string_188"
      ]
    },
    {
      "id_qa": "autog_0249-2563_1981_num_14_6_T1_0153_0000_qa17_v3",
      "id_block": "block_3",
      "question": "Qu'est ce qu'on peut espérer d'une gauche assurément socialiste ?",
      "answer": "la victoire électorale",
      "answer_stringIds": [
        "string_153",
        "string_154",
        "string_155"
      ]
    },
    {
      "id_qa": "autog_0249-2563_1981_num_14_6_T1_0153_0000_qa18_v3",
      "id_block": "block_3",
      "question": "Comment est qualifiée la gauche du P.s ?",
      "answer": "très minoritaires",
      "answer_stringIds": [
        "string_244",
        "string_245"
      ]
    },
    {
      "id_qa": "autog_0249-2563_1981_num_14_6_T1_0153_0000_qa23_v3",
      "id_block": "block_3",
      "question": "Quel parti s'est opposé à l'autogestion ?",
      "answer": "Le P.C.F. qui",
      "answer_stringIds": [
        "string_206",
        "string_207",
        "string_208"
      ]
    },
    {
      "id_qa": "autog_0249-2563_1981_num_14_6_T1_0153_0000_qa24_v3",
      "id_block": "block_3",
      "question": "Qui a attaqué l'autogestion comme un vice yougoslave ?",
      "answer": "Le P.C.F.",
      "answer_stringIds": [
        "string_206",
        "string_207"
      ]
    },
    {
      "id_qa": "autog_0249-2563_1981_num_14_6_T1_0153_0000_qa19_v3",
      "id_block": "block_4",
      "question": "Qu'est-ce qui ne doit pas paralyser l'esprit ?",
      "answer": "être conscients de ces problèmes",
      "answer_stringIds": [
        "string_280",
        "string_281",
        "string_282",
        "string_283",
        "string_284"
      ]
    }
  ]
}