{
  "num": "autog_0249-2563_1981_num_14_6",
  "article": "autog_0249-2563_1981_num_14_6_1423",
  "page_name": "autog_0249-2563_1981_num_14_6_T1_0143_0000",
  "questions": [
    {
      "id_qa": "autog_0249-2563_1981_num_14_6_T1_0143_0000_qa6_v3",
      "id_block": "block_3",
      "question": "Qu'est ce qui peut se prendre et s'assumer ?",
      "answer": "des décisions graves",
      "answer_stringIds": [
        "string_68",
        "string_69",
        "string_70"
      ]
    },
    {
      "id_qa": "autog_0249-2563_1981_num_14_6_T1_0143_0000_qa7_v3",
      "id_block": "block_3",
      "question": "Qu'est ce qui peut être jugé obscène ou puéril ?",
      "answer": "un corps",
      "answer_stringIds": [
        "string_85",
        "string_86"
      ]
    },
    {
      "id_qa": "autog_0249-2563_1981_num_14_6_T1_0143_0000_qa9_v3",
      "id_block": "block_3",
      "question": "Qu'est-ce qui peut se prendre et s'assumer ?",
      "answer": "des décisions graves",
      "answer_stringIds": [
        "string_68",
        "string_69",
        "string_70"
      ]
    },
    {
      "id_qa": "autog_0249-2563_1981_num_14_6_T1_0143_0000_qa10_v3",
      "id_block": "block_3",
      "question": "Qu'est-ce qui permet à des décisions graves de s'assumer ?",
      "answer": "des yeux",
      "answer_stringIds": [
        "string_80",
        "string_81"
      ]
    },
    {
      "id_qa": "autog_0249-2563_1981_num_14_6_T1_0143_0000_qa0_v3",
      "id_block": "block_4",
      "question": "Que font les membres du comité de rédaction d'Autogestions ?",
      "answer": "collant",
      "answer_stringIds": [
        "string_108"
      ]
    },
    {
      "id_qa": "autog_0249-2563_1981_num_14_6_T1_0143_0000_qa18_v3",
      "id_block": "block_8",
      "question": "Quel est le contraste entre l'indolence désabusée avec laquelle nous envisageons l'avenir en France ?",
      "answer": "la sympathie chaude qui nous",
      "answer_stringIds": [
        "string_162",
        "string_163",
        "string_164",
        "string_165",
        "string_166"
      ]
    },
    {
      "id_qa": "autog_0249-2563_1981_num_14_6_T1_0143_0000_qa21_v3",
      "id_block": "block_9",
      "question": "Qu'aurions-nous fait en toute simplicité autogestionnaire ?",
      "answer": "quelque retard",
      "answer_stringIds": [
        "string_215",
        "string_216"
      ]
    }
  ]
}