{
  "num": "autog_0338-7259_1972_num_20_1",
  "article": "autog_0338-7259_1972_num_20_1_1066",
  "page_name": "FMSH_PB188a_20-21_105",
  "questions": [
    {
      "id_qa": "FMSH_PB188a_20-21_105_qa5_v3",
      "id_block": "block_2",
      "question": "Qu'est-ce que le prolétariat agricole portugais en 1822 ?",
      "answer": "la coalition",
      "answer_stringIds": [
        "string_105",
        "string_106"
      ]
    },
    {
      "id_qa": "FMSH_PB188a_20-21_105_qa12_v3",
      "id_block": "block_2",
      "question": "Qu'est ce qui s'est déjà manifesté par plusieurs faits ?",
      "answer": "La lutte de classes",
      "answer_stringIds": [
        "string_58",
        "string_59",
        "string_60",
        "string_61"
      ]
    },
    {
      "id_qa": "FMSH_PB188a_20-21_105_qa13_v3",
      "id_block": "block_2",
      "question": "Par quoi s'est déjà manifestée la lutte de classes ?",
      "answer": "par plusieurs faits",
      "answer_stringIds": [
        "string_68",
        "string_69",
        "string_70"
      ]
    },
    {
      "id_qa": "FMSH_PB188a_20-21_105_qa18_v3",
      "id_block": "block_2",
      "question": "Qui organise une grève ?",
      "answer": "les ouvriers arsenalistes de Lisbonne",
      "answer_stringIds": [
        "string_121",
        "string_122",
        "string_123",
        "string_124",
        "string_125"
      ]
    },
    {
      "id_qa": "FMSH_PB188a_20-21_105_qa20_v3",
      "id_block": "block_2",
      "question": "Qu'organise les ouvriers arsenalistes de Lisbonne ?",
      "answer": "une grève",
      "answer_stringIds": [
        "string_128",
        "string_129"
      ]
    },
    {
      "id_qa": "FMSH_PB188a_20-21_105_qa23_v3",
      "id_block": "block_2",
      "question": "Qu'est ce qui commence la diffusion des doctrines socialistes ?",
      "answer": "les premières associations ouvrières",
      "answer_stringIds": [
        "string_47",
        "string_48",
        "string_49",
        "string_50"
      ]
    },
    {
      "id_qa": "FMSH_PB188a_20-21_105_qa24_v3",
      "id_block": "block_2",
      "question": "Qu'est ce qui commence en 1835 à Lisbonne ?",
      "answer": "la diffusion des doctrines socialistes",
      "answer_stringIds": [
        "string_53",
        "string_54",
        "string_55",
        "string_56",
        "string_57"
      ]
    },
    {
      "id_qa": "FMSH_PB188a_20-21_105_qa28_v3",
      "id_block": "block_2",
      "question": "Quand a eu lieu la révolte de Madrid ?",
      "answer": "en 1765",
      "answer_stringIds": [
        "string_78",
        "string_79"
      ]
    },
    {
      "id_qa": "FMSH_PB188a_20-21_105_qa0_v3",
      "id_block": "block_4",
      "question": "Qui est intéressé par les premières manifestations de luttes prolétariennes ?",
      "answer": "le lecteur",
      "answer_stringIds": [
        "string_202",
        "string_203"
      ]
    },
    {
      "id_qa": "FMSH_PB188a_20-21_105_qa1_v3",
      "id_block": "block_4",
      "question": "Qu'est ce que R. Lamberet, Mouvements Ouvriers et Socialistes ?",
      "answer": "une bibliographie",
      "answer_stringIds": [
        "string_205",
        "string_206"
      ]
    },
    {
      "id_qa": "FMSH_PB188a_20-21_105_qa16_v3",
      "id_block": "block_4",
      "question": "Quel est le but de ce travail de longue haleine ?",
      "answer": "le simple cadre de cet article",
      "answer_stringIds": [
        "string_189",
        "string_190",
        "string_191",
        "string_192",
        "string_193",
        "string_194"
      ]
    },
    {
      "id_qa": "FMSH_PB188a_20-21_105_qa17_v3",
      "id_block": "block_4",
      "question": "Qu'est ce qui dépasserait le simple cadre de cet article ?",
      "answer": "Ce travail de longue haleine",
      "answer_stringIds": [
        "string_182",
        "string_183",
        "string_184",
        "string_185",
        "string_186"
      ]
    }
  ]
}