{
  "num": "autog_0005-0970_1968_num_7_1",
  "article": "autog_0005-0970_1968_num_7_1_941",
  "page_name": "FMSH_PB188a_00007_164",
  "questions": [
    {
      "id_qa": "FMSH_PB188a_00007_164_qa0_v3",
      "id_block": "block_1",
      "question": "Qu'est ce qui procure à ces fonctions-fictions économico-juridico-comptables leur réalité, leur puissance et leur justification productives ?",
      "answer": "le travail",
      "answer_stringIds": [
        "string_94",
        "string_95"
      ]
    },
    {
      "id_qa": "FMSH_PB188a_00007_164_qa15_v3",
      "id_block": "block_2",
      "question": "De quel courant philosophique s'inspire Marx ?",
      "answer": "des travaux proudhoniens",
      "answer_stringIds": [
        "string_150",
        "string_151",
        "string_152"
      ]
    },
    {
      "id_qa": "FMSH_PB188a_00007_164_qa17_v3",
      "id_block": "block_2",
      "question": "Qui a écrit la valeur-travail ?",
      "answer": "Marx",
      "answer_stringIds": [
        "string_147"
      ]
    },
    {
      "id_qa": "FMSH_PB188a_00007_164_qa21_v3",
      "id_block": "block_2",
      "question": "Par quoi sont engendrées les irrégularités de la production ?",
      "answer": "par la spéculation",
      "answer_stringIds": [
        "string_342",
        "string_343",
        "string_344"
      ]
    },
    {
      "id_qa": "FMSH_PB188a_00007_164_qa8_v3",
      "id_block": "block_3",
      "question": "Qui a écrit son Troisième Mémoire ?",
      "answer": "Proudhon",
      "answer_stringIds": [
        "string_156",
        "string_157"
      ]
    },
    {
      "id_qa": "FMSH_PB188a_00007_164_qa22_v3",
      "id_block": "block_3",
      "question": "Qui est l'auteur de cette théorie ?",
      "answer": "Adam Smith",
      "answer_stringIds": [
        "string_428",
        "string_429"
      ]
    },
    {
      "id_qa": "FMSH_PB188a_00007_164_qa11_v3",
      "id_block": "block_6",
      "question": "Où se situe l'oeuvre de Proudhon ?",
      "answer": "Marx dans la saine famille",
      "answer_stringIds": [
        "string_509",
        "string_510",
        "string_511",
        "string_512",
        "string_513"
      ]
    },
    {
      "id_qa": "FMSH_PB188a_00007_164_qa12_v3",
      "id_block": "block_6",
      "question": "A quand remonte l'oeuvre de Marx dans la saine famille ?",
      "answer": "avant sa brouille avec Proudhon",
      "answer_stringIds": [
        "string_515",
        "string_516",
        "string_517",
        "string_518",
        "string_519"
      ]
    },
    {
      "id_qa": "FMSH_PB188a_00007_164_qa13_v3",
      "id_block": "block_6",
      "question": "A quoi Marx a-t-il été soumis ?",
      "answer": "la propriété au premier examen absolu",
      "answer_stringIds": [
        "string_528",
        "string_529",
        "string_530",
        "string_531",
        "string_532",
        "string_533"
      ]
    }
  ]
}