{
  "num": "autog_0005-0970_1968_num_7_1",
  "article": "autog_0005-0970_1968_num_7_1_941",
  "page_name": "FMSH_PB188a_00007_156",
  "questions": [
    {
      "id_qa": "FMSH_PB188a_00007_156_qa0_v3",
      "id_block": "block_1",
      "question": "Combien d'hommes peuvent construire un système complet ?",
      "answer": "un seul homme",
      "answer_stringIds": [
        "string_61",
        "string_62",
        "string_63"
      ]
    },
    {
      "id_qa": "FMSH_PB188a_00007_156_qa2_v3",
      "id_block": "block_1",
      "question": "Qu'est-ce qui ne peut pas être construit par un seul homme ?",
      "answer": "construire un système complet",
      "answer_stringIds": [
        "string_66",
        "string_67",
        "string_68",
        "string_69"
      ]
    },
    {
      "id_qa": "FMSH_PB188a_00007_156_qa3_v3",
      "id_block": "block_1",
      "question": "Qu'est-ce qu'un seul homme peut construire ?",
      "answer": "un système complet",
      "answer_stringIds": [
        "string_67",
        "string_68",
        "string_69"
      ]
    },
    {
      "id_qa": "FMSH_PB188a_00007_156_qa5_v3",
      "id_block": "block_1",
      "question": "Qu'est ce que je puis dire avec certitude ?",
      "answer": "toute révolution procède",
      "answer_stringIds": [
        "string_120",
        "string_121",
        "string_122"
      ]
    },
    {
      "id_qa": "FMSH_PB188a_00007_156_qa8_v3",
      "id_block": "block_1",
      "question": "Qu'est-ce qui procède par négation et abolition ?",
      "answer": "toute révolution",
      "answer_stringIds": [
        "string_120",
        "string_121"
      ]
    },
    {
      "id_qa": "FMSH_PB188a_00007_156_qa12_v3",
      "id_block": "block_1",
      "question": "Que veut dire \"l'horoscope de l'humanité\" ?",
      "answer": "faire la réponse qui doit être celle de tout un peuple",
      "answer_stringIds": [
        "string_36",
        "string_37",
        "string_38",
        "string_39",
        "string_40",
        "string_41",
        "string_42",
        "string_43",
        "string_44",
        "string_45",
        "string_46"
      ]
    },
    {
      "id_qa": "FMSH_PB188a_00007_156_qa15_v3",
      "id_block": "block_1",
      "question": "A quoi aboutit la négation radicale de la propriété et de l'Etat ?",
      "answer": "leur transformation et",
      "answer_stringIds": [
        "string_363",
        "string_364",
        "string_365"
      ]
    },
    {
      "id_qa": "FMSH_PB188a_00007_156_qa16_v3",
      "id_block": "block_1",
      "question": "Quel est le rôle de Proudhon ?",
      "answer": "son rôle de « moniteur » de la révolution sociale",
      "answer_stringIds": [
        "string_22",
        "string_23",
        "string_24",
        "string_25",
        "string_26",
        "string_27",
        "string_28",
        "string_29",
        "string_30",
        "string_31"
      ]
    },
    {
      "id_qa": "FMSH_PB188a_00007_156_qa17_v3",
      "id_block": "block_1",
      "question": "Qui est l'auteur de ces apports critiques ?",
      "answer": "Proudhon",
      "answer_stringIds": [
        "string_4"
      ]
    },
    {
      "id_qa": "FMSH_PB188a_00007_156_qa18_v3",
      "id_block": "block_1",
      "question": "Qui a écrit toutes ses constructions autogestionnaires ?",
      "answer": "Proudhon",
      "answer_stringIds": [
        "string_4"
      ]
    },
    {
      "id_qa": "FMSH_PB188a_00007_156_qa19_v3",
      "id_block": "block_1",
      "question": "Qui est le fondateur de l'autogestionnaire ?",
      "answer": "Proudhon",
      "answer_stringIds": [
        "string_4"
      ]
    },
    {
      "id_qa": "FMSH_PB188a_00007_156_qa21_v3",
      "id_block": "block_1",
      "question": "Qui veut et peut amorcer une méthode du socialisme libéral ?",
      "answer": "Proudhon",
      "answer_stringIds": [
        "string_4"
      ]
    },
    {
      "id_qa": "FMSH_PB188a_00007_156_qa22_v3",
      "id_block": "block_1",
      "question": "Quelle est la méthode de Proudhon pour son compte ?",
      "answer": "une méthode du socialisme libéral",
      "answer_stringIds": [
        "string_81",
        "string_82",
        "string_83",
        "string_84",
        "string_85"
      ]
    },
    {
      "id_qa": "FMSH_PB188a_00007_156_qa24_v3",
      "id_block": "block_1",
      "question": "Qu'est ce que Proudhon veut et peut faire pour son compte ?",
      "answer": "amorcer",
      "answer_stringIds": [
        "string_80"
      ]
    },
    {
      "id_qa": "FMSH_PB188a_00007_156_qa25_v3",
      "id_block": "block_1",
      "question": "Qui veut et peut initier une méthode du socialisme libéral ?",
      "answer": "Proudhon",
      "answer_stringIds": [
        "string_4"
      ]
    },
    {
      "id_qa": "FMSH_PB188a_00007_156_qa26_v3",
      "id_block": "block_1",
      "question": "Qui veut amorcer une méthode du socialisme libéral ?",
      "answer": "Proudhon",
      "answer_stringIds": [
        "string_4"
      ]
    },
    {
      "id_qa": "FMSH_PB188a_00007_156_qa29_v3",
      "id_block": "block_3",
      "question": "Par quoi est-ce que le monopole économique est rendu possible ?",
      "answer": "par un « capital",
      "answer_stringIds": [
        "string_403",
        "string_404",
        "string_405",
        "string_406"
      ]
    },
    {
      "id_qa": "FMSH_PB188a_00007_156_qa30_v3",
      "id_block": "block_3",
      "question": "Qu'est-ce que le vol ?",
      "answer": "un « despotisme » économique",
      "answer_stringIds": [
        "string_382",
        "string_383",
        "string_384",
        "string_385",
        "string_386"
      ]
    },
    {
      "id_qa": "FMSH_PB188a_00007_156_qa9_v3",
      "id_block": "block_4",
      "question": "Quand Proudhon souligne-t-il qu'une même négation de l'absolutisme sous toutes ses formes reliera toutes ses critiques ?",
      "answer": "Dès les premières lignes de son Premier Mémoire",
      "answer_stringIds": [
        "string_457",
        "string_458",
        "string_459",
        "string_460",
        "string_461",
        "string_462",
        "string_463",
        "string_464"
      ]
    },
    {
      "id_qa": "FMSH_PB188a_00007_156_qa10_v3",
      "id_block": "block_4",
      "question": "Qui a écrit le Premier Mémoire ?",
      "answer": "Proudhon",
      "answer_stringIds": [
        "string_4"
      ]
    }
  ]
}