{
  "num": "autog_0005-0970_1968_num_7_1",
  "article": "autog_0005-0970_1968_num_7_1_941",
  "page_name": "FMSH_PB188a_00007_146",
  "questions": [
    {
      "id_qa": "FMSH_PB188a_00007_146_qa15_v3",
      "id_block": "block_3",
      "question": "Qu'est-ce qui donne naissance à un pluralisme organisateur ?",
      "answer": "le pluralisme organique de la société",
      "answer_stringIds": [
        "string_64",
        "string_65",
        "string_66",
        "string_67",
        "string_68",
        "string_69"
      ]
    },
    {
      "id_qa": "FMSH_PB188a_00007_146_qa0_v3",
      "id_block": "block_4",
      "question": "Qu'est ce que Proudhon cherche à construire ?",
      "answer": "un socialisme autogestionnaire",
      "answer_stringIds": [
        "string_144",
        "string_145",
        "string_146"
      ]
    },
    {
      "id_qa": "FMSH_PB188a_00007_146_qa1_v3",
      "id_block": "block_4",
      "question": "Qu'est ce que Proudhon cherche à dégager ?",
      "answer": "les matériaux propres à bâtir un socialisme autogestionnaire",
      "answer_stringIds": [
        "string_139",
        "string_140",
        "string_141",
        "string_142",
        "string_143",
        "string_144",
        "string_145",
        "string_146"
      ]
    },
    {
      "id_qa": "FMSH_PB188a_00007_146_qa2_v3",
      "id_block": "block_4",
      "question": "Qui a construit sa sociologie de l'autogestion ?",
      "answer": "Proudhon",
      "answer_stringIds": [
        "string_111"
      ]
    },
    {
      "id_qa": "FMSH_PB188a_00007_146_qa3_v3",
      "id_block": "block_4",
      "question": "Qui a écrit la sociologie de l'autogestion ?",
      "answer": "Proudhon",
      "answer_stringIds": [
        "string_111"
      ]
    },
    {
      "id_qa": "FMSH_PB188a_00007_146_qa13_v3",
      "id_block": "block_4",
      "question": "Qu'est ce qui constitue le préalable des constructions autogestionnaires de Proudhon ?",
      "answer": "Ces apports critiques",
      "answer_stringIds": [
        "string_147",
        "string_148",
        "string_149"
      ]
    },
    {
      "id_qa": "FMSH_PB188a_00007_146_qa5_v3",
      "id_block": "block_5",
      "question": "Qui est à l'origine de cette organisation autogestionnaire ?",
      "answer": "Proudhon",
      "answer_stringIds": [
        "string_111"
      ]
    },
    {
      "id_qa": "FMSH_PB188a_00007_146_qa8_v3",
      "id_block": "block_5",
      "question": "Qu'est ce qu'élabore Proudhon ?",
      "answer": "cette organisation autogestionnaire",
      "answer_stringIds": [
        "string_205",
        "string_206",
        "string_207"
      ]
    },
    {
      "id_qa": "FMSH_PB188a_00007_146_qa9_v3",
      "id_block": "block_5",
      "question": "Qu'est ce qui nécessite de reporter au prochain numéro la description de cette organisation autogestionnaire qu'élabore Proudhon ?",
      "answer": "les conditions de la rédaction",
      "answer_stringIds": [
        "string_190",
        "string_191",
        "string_192",
        "string_193",
        "string_194"
      ]
    }
  ]
}