{
  "num": "autog_0005-0970_1968_num_7_1",
  "article": "autog_0005-0970_1968_num_7_1_941",
  "page_name": "FMSH_PB188a_00007_147",
  "questions": [
    {
      "id_qa": "FMSH_PB188a_00007_147_qa2_v3",
      "id_block": "block_1",
      "question": "Qui a découvert le pluralisme réel ?",
      "answer": "Proudhon",
      "answer_stringIds": [
        "string_182"
      ]
    },
    {
      "id_qa": "FMSH_PB188a_00007_147_qa7_v3",
      "id_block": "block_1",
      "question": "Qu'est-ce que la sociologie de l'autogestion ?",
      "answer": "une science sociale",
      "answer_stringIds": [
        "string_189",
        "string_190",
        "string_191"
      ]
    },
    {
      "id_qa": "FMSH_PB188a_00007_147_qa6_v3",
      "id_block": "block_2",
      "question": "Qu'est ce qui fonde les apports critiques de Proudhon ?",
      "answer": "ce pluralisme sociologique",
      "answer_stringIds": [
        "string_373",
        "string_374",
        "string_375"
      ]
    },
    {
      "id_qa": "FMSH_PB188a_00007_147_qa12_v3",
      "id_block": "block_2",
      "question": "Qu'est ce qui a été créé par un ensemble de groupes et de personnes ?",
      "answer": "Cette société",
      "answer_stringIds": [
        "string_231",
        "string_232"
      ]
    },
    {
      "id_qa": "FMSH_PB188a_00007_147_qa14_v3",
      "id_block": "block_2",
      "question": "Qu'est-ce qui est apparu spontanément à cette société ?",
      "answer": "par un ensemble de groupes et de personnes qui",
      "answer_stringIds": [
        "string_250",
        "string_251",
        "string_252",
        "string_253",
        "string_254",
        "string_255",
        "string_256",
        "string_257",
        "string_258"
      ]
    }
  ]
}