{
  "num": "autog_0005-0970_1968_num_7_1",
  "article": "autog_0005-0970_1968_num_7_1_941",
  "page_name": "FMSH_PB188a_00007_162",
  "questions": [
    {
      "id_qa": "FMSH_PB188a_00007_162_qa7_v3",
      "id_block": "block_2",
      "question": "Qu'est-ce qui est appelé produit ?",
      "answer": "Le travail",
      "answer_stringIds": [
        "string_42",
        "string_43",
        "string_44"
      ]
    },
    {
      "id_qa": "FMSH_PB188a_00007_162_qa9_v3",
      "id_block": "block_2",
      "question": "Qu'est-ce qui s'appelle produit ?",
      "answer": "Le travail effectué",
      "answer_stringIds": [
        "string_42",
        "string_43",
        "string_44",
        "string_45"
      ]
    },
    {
      "id_qa": "FMSH_PB188a_00007_162_qa13_v3",
      "id_block": "block_2",
      "question": "Qui est à l'origine de la valeur-travail ?",
      "answer": "Proudhon",
      "answer_stringIds": [
        "string_22"
      ]
    },
    {
      "id_qa": "FMSH_PB188a_00007_162_qa16_v3",
      "id_block": "block_2",
      "question": "Qui a subi les accusations libérales ?",
      "answer": "Proudhon",
      "answer_stringIds": [
        "string_22"
      ]
    },
    {
      "id_qa": "FMSH_PB188a_00007_162_qa17_v3",
      "id_block": "block_2",
      "question": "En quoi est transformé le capital fonctionnel ?",
      "answer": "en instrument de production",
      "answer_stringIds": [
        "string_215",
        "string_216",
        "string_217",
        "string_218"
      ]
    },
    {
      "id_qa": "FMSH_PB188a_00007_162_qa20_v3",
      "id_block": "block_2",
      "question": "Qu'est ce qui est à l'origine des accusations libérales ?",
      "answer": "de la confusion",
      "answer_stringIds": [
        "string_183",
        "string_184",
        "string_185"
      ]
    },
    {
      "id_qa": "FMSH_PB188a_00007_162_qa23_v3",
      "id_block": "block_2",
      "question": "Quelle est la fonction du capital fonctionnel ?",
      "answer": "économiquement",
      "answer_stringIds": [
        "string_212"
      ]
    },
    {
      "id_qa": "FMSH_PB188a_00007_162_qa24_v3",
      "id_block": "block_2",
      "question": "Que décrit Proudhon dans sa Création de l'Ordre ?",
      "answer": "les étapes du processus productif qui lie le travail initial au capital",
      "answer_stringIds": [
        "string_29",
        "string_30",
        "string_31",
        "string_32",
        "string_33",
        "string_34",
        "string_35",
        "string_36",
        "string_37",
        "string_38",
        "string_39",
        "string_40"
      ]
    },
    {
      "id_qa": "FMSH_PB188a_00007_162_qa25_v3",
      "id_block": "block_2",
      "question": "Qui décrit le processus productif qui lie le travail initial au capital ?",
      "answer": "Proudhon",
      "answer_stringIds": [
        "string_22"
      ]
    },
    {
      "id_qa": "FMSH_PB188a_00007_162_qa28_v3",
      "id_block": "block_2",
      "question": "Que met en relief Proudhon dans ce passage ?",
      "answer": "deux points particulièrement importants",
      "answer_stringIds": [
        "string_80",
        "string_81",
        "string_82",
        "string_83"
      ]
    },
    {
      "id_qa": "FMSH_PB188a_00007_162_qa30_v3",
      "id_block": "block_2",
      "question": "Qui nie la fonction économique d'un « capital » ?",
      "answer": "Proudhon",
      "answer_stringIds": [
        "string_22"
      ]
    },
    {
      "id_qa": "FMSH_PB188a_00007_162_qa0_v3",
      "id_block": "block_3",
      "question": "Qu'est ce qui est produit par le travail accumulé ?",
      "answer": "le capital",
      "answer_stringIds": [
        "string_200",
        "string_201"
      ]
    },
    {
      "id_qa": "FMSH_PB188a_00007_162_qa1_v3",
      "id_block": "block_3",
      "question": "Qu'est ce qui est produit par le capital ?",
      "answer": "travail",
      "answer_stringIds": [
        "string_37"
      ]
    },
    {
      "id_qa": "FMSH_PB188a_00007_162_qa11_v3",
      "id_block": "block_3",
      "question": "Qui est ainsi conduite à disposer souverainement ?",
      "answer": "Cette caste capitaliste",
      "answer_stringIds": [
        "string_334",
        "string_335",
        "string_336"
      ]
    },
    {
      "id_qa": "FMSH_PB188a_00007_162_qa12_v3",
      "id_block": "block_3",
      "question": "Qui est ainsi conduite à disposer souverainement de ces capitaux ?",
      "answer": "Cette caste capitaliste",
      "answer_stringIds": [
        "string_334",
        "string_335",
        "string_336"
      ]
    },
    {
      "id_qa": "FMSH_PB188a_00007_162_qa31_v3",
      "id_block": "block_3",
      "question": "Que produit cette fiction d'une productivité du capital ?",
      "answer": "la division de la société",
      "answer_stringIds": [
        "string_314",
        "string_315",
        "string_316",
        "string_317",
        "string_318"
      ]
    },
    {
      "id_qa": "FMSH_PB188a_00007_162_qa34_v3",
      "id_block": "block_3",
      "question": "Qu'est ce que Proudhon développe dans sa controverse avec Bastiat ?",
      "answer": "les conséquences sociales de cette confusion",
      "answer_stringIds": [
        "string_221",
        "string_222",
        "string_223",
        "string_224",
        "string_225",
        "string_226",
        "string_227"
      ]
    },
    {
      "id_qa": "FMSH_PB188a_00007_162_qa35_v3",
      "id_block": "block_3",
      "question": "Qui est l'auteur de Mélanges III, Intérêt et capital ?",
      "answer": "Proudhon",
      "answer_stringIds": [
        "string_22"
      ]
    },
    {
      "id_qa": "FMSH_PB188a_00007_162_qa37_v3",
      "id_block": "block_3",
      "question": "Qu'est ce qui constitue pour Proudhon le vol légal ?",
      "answer": "du salaire du travailleur",
      "answer_stringIds": [
        "string_435",
        "string_436",
        "string_437",
        "string_438"
      ]
    },
    {
      "id_qa": "FMSH_PB188a_00007_162_qa39_v3",
      "id_block": "block_3",
      "question": "A quoi est attribué le progrès de la richesse sociale ?",
      "answer": "au capital considéré comme une",
      "answer_stringIds": [
        "string_510",
        "string_511",
        "string_512",
        "string_513",
        "string_514"
      ]
    },
    {
      "id_qa": "FMSH_PB188a_00007_162_qa41_v3",
      "id_block": "block_3",
      "question": "Qu'est ce qui est attribué faussement au capital ?",
      "answer": "Le progrès de la richesse sociale",
      "answer_stringIds": [
        "string_501",
        "string_502",
        "string_503",
        "string_504",
        "string_505",
        "string_506"
      ]
    }
  ]
}