{
  "num": "autog_0249-2563_1982_num_16_12",
  "article": "autog_0249-2563_1982_num_16_12_1549",
  "page_name": "autog_0249-2563_1982_num_16_12_T1_0217_0000",
  "questions": [
    "Quel est le sujet de la lettre de ce lecteur de la revue Autogestions ?",
    "Quel est le titre de l'article d'O. Corpet que critique ce lecteur ?",
    "Quel est le point de vue de ce lecteur envers O. Corpet et le PSU ?",
    "Quel est le but de la revue Autogestions selon ce lecteur ?",
    "Qu'est ce que O. Corpet ne supporte pas dans le PSU ?",
    "Comment O. Corpet utilise-t-il l'ironie et l'humour dans son article ?",
    "Qu'est ce que le PSU a fait de la lutte autogestionnaire ?",
    "Qu'est ce que certains militants du PSU ont fait après le 10 mai ?",
    "Qu'est ce que ce lecteur pense de l'extraction de phrases sans contexte ?",
    "Quel était le souci majeur d'O. Corpet lorsqu'il écrivit son article ?",
    "Quel est l'approche préférée de ce lecteur dans l'étude des mouvements politiques ?"
  ]
}