{
  "num": "autog_0249-2563_1982_num_16_12",
  "article": "autog_0249-2563_1982_num_16_12_1548_t1_0203_0000_1",
  "page_name": "autog_0249-2563_1982_num_16_12_T1_0203_0000",
  "questions": [
    "Qu'est ce que Rémi Hess essaie de mettre en évidence dans son écriture sur l'implication dans le travail social ?",
    "Comment la présence du doute, de l'hésitation et de la faille dans l'écriture de Rémi Hess influent-elles sur son analyse ?",
    "Comment le socianalyste de Rémi Hess surmonte-t-il les pièges de la situation ?",
    "Comment l'analyse de l'implication permet-elle la production de savoir socialisé selon Rémi Hess ?",
    "Quel est l'impression que m'a laisée l'assurance de Rémi Hess lors de ma lecture ?",
    "Comment Rémi Hess s'éloigne-t-il de Peter Handke dans leur traitement des déterminants des choix ?",
    "Quels dispositifs permettent une analyse des implications dans le travail social selon Rémi Hess ?",
    "Comment l'injection d'information sur une institution dans l'institution affecte-t-elle la sensibilité de l'analyse selon Rémi Hess ?",
    "Quels sont les lieux où se passent les histoires décrites dans le texte ?",
    "Comment l'objectif de changer la perception des acteurs de leur réalité peut-il être atteint en s'adressant à des oreilles qui ont déjà entendu trop ?",
    "Quels sont les commanditaires des médiations décrites dans le texte ?"
  ]
}