{
  "num": "autog_0249-2563_1982_num_15_8",
  "article": "autog_0249-2563_1982_num_15_8_1862",
  "page_name": "autog_0249-2563_1982_num_15_8_T1_0209_0000",
  "questions": [
    "Quel organisme international s'inquiète de l'augmentation du nombre de prisonniers d'opinion en Yougoslavie ?",
    "Quel est le nombre approximatif de prisonniers politiques en 1979 ?",
    "Quel est le nombre approximatif de prisonniers politiques en 1980 ?",
    "Quel est le nombre approximatif de prisonniers politiques depuis 1980 ?",
    "Quel est le nombre approximatif de personnes appartenant à l'ethnie albanaise qui ont été condamnées après les manifestations nationalistes de 1981 au Kosovo ?",
    "Quel est le nom et quelle est la profession du docteur Marko Veselica ?",
    "Quel est le motif pour lequel le docteur Marko Veselica a été arrêté et condamné ?",
    "Quel est le nom et quelle est la profession du Père Nedjo Janjitch ?",
    "Pour quelle raison le Père Nedjo Janjitch a-t-il été condamné ?",
    "Quel est l'âge et quelle est la profession de Dobroslav Paraga ?",
    "Quel est le motif pour lequel Dobroslav Paraga a été arrêté et condamné ?",
    "Quel est le nom de l'ami de Dobroslav Paraga qui a été arrêté et s'est suicidé ?",
    "Quels sont les lois en vertu desquelles sont condamnés les prisonniers politiques ?",
    "En contradiction avec quels pactes internationaux sont ces lois ?",
    "Quels sont les problèmes rencontrés par les prisonniers lors de leur réinsertion ?",
    "Quels sont les noms des six travailleurs immigrés mentionnés dans le rapport ?",
    "Pour quels motifs ont-ils été arrêtés ou condamnés ?",
    "Quels sont les organisations d'émigrés avec lesquels ils sont accusés d'avoir été en contact ?",
    "Quand sera disponible la version française?"
  ]
}