{
  "num": "autog_0338-7259_1970_num_13_1",
  "article": "autog_0338-7259_1970_num_13_1_985",
  "page_name": "FMSH_PB188a_13-14_183",
  "questions": [
    {
      "id_qa": "FMSH_PB188a_13-14_183_qa7_v3",
      "id_block": "block_3",
      "question": "Qui ne peut pas assister au conseil de l'école ?",
      "answer": "des personnes",
      "answer_stringIds": [
        "string_309",
        "string_310"
      ]
    }
  ]
}