{
  "num": "autog_0338-7259_1970_num_13_1",
  "article": "autog_0338-7259_1970_num_13_1_985",
  "page_name": "FMSH_PB188a_13-14_181",
  "questions": [
    {
      "id_qa": "FMSH_PB188a_13-14_181_qa9_v3",
      "id_block": "block_1",
      "question": "A qui est destiné cet enseignement ?",
      "answer": "des travailleurs",
      "answer_stringIds": [
        "string_15",
        "string_16"
      ]
    },
    {
      "id_qa": "FMSH_PB188a_13-14_181_qa13_v3",
      "id_block": "block_1",
      "question": "Quel est le projet de cet enseignement destiné à des travailleurs ?",
      "answer": "le projet du Mouvement Ouvrier",
      "answer_stringIds": [
        "string_36",
        "string_37",
        "string_38",
        "string_39",
        "string_40"
      ]
    },
    {
      "id_qa": "FMSH_PB188a_13-14_181_qa5_v3",
      "id_block": "block_2",
      "question": "Qui est à l'origine de l'exploitation des possibilités offertes par un groupe local ?",
      "answer": "par le pouvoir organisateur",
      "answer_stringIds": [
        "string_154",
        "string_155",
        "string_156",
        "string_157"
      ]
    },
    {
      "id_qa": "FMSH_PB188a_13-14_181_qa7_v3",
      "id_block": "block_2",
      "question": "Quel obstacle rencontre l'exploitation par un groupe local ?",
      "answer": "des possibilités",
      "answer_stringIds": [
        "string_147",
        "string_148"
      ]
    },
    {
      "id_qa": "FMSH_PB188a_13-14_181_qa17_v3",
      "id_block": "block_3",
      "question": "Qu'est ce qui caractérise le groupe de militants hommes et femmes d'organisations sociales ?",
      "answer": "La diversité du recrutement",
      "answer_stringIds": [
        "string_185",
        "string_186",
        "string_187",
        "string_188"
      ]
    },
    {
      "id_qa": "FMSH_PB188a_13-14_181_qa20_v3",
      "id_block": "block_6",
      "question": "Qui verrait dans ce texte une évaluation négative de l'LS ?",
      "answer": "Le lecteur",
      "answer_stringIds": [
        "string_265",
        "string_266"
      ]
    }
  ]
}