{
  "num": "autog_0249-2563_1982_num_15_8",
  "article": "autog_0249-2563_1982_num_15_8_1472",
  "page_name": "autog_0249-2563_1982_num_15_8_T1_0071_0000",
  "questions": [
    "Quels types de situations de travail noir peuvent être développées dans une économie de réseaux ?",
    "Comment les situations de travail noir peuvent-elles être caractérisées en fonction des types d'échanges et des relations qu'elles suscitent ?",
    "Quels sont les différents types de travail noir que l'on peut distinguer en fonction du circuit officiel ou non officiel dans lequel le travailleur s'insère ?",
    "Comment la catégorie de travail noir dans une structure officielle diffère-t-elle de la catégorie précédente ?",
    "Quels sont les secteurs particuliers qui sont affectés par le travail noir ?",
    "Comment le travail noir peut-il être à la base de certaines réorganisations spatiales et productives de l'entreprise ?",
    "Comment le travail noir développé exclusivement par l'entreprise diffère-t-il de celui dans lequel il existe une connivence manifeste de l'employé ?",
    "Dans quel cadre le travail noir peut-il être pratiqué dans les réseaux sociaux décrits dans le texte ?",
    "Comment les intérêts ou les avantages supplémentaires que tire l'employé de la stratégie de l'employeur peuvent-ils influencer les relations et les situations de travail dans le cadre du travail noir ?"
  ]
}