{
  "num": "autog_0249-2563_1982_num_15_8",
  "article": "autog_0249-2563_1982_num_15_8_1472",
  "page_name": "autog_0249-2563_1982_num_15_8_T1_0076_0000",
  "questions": [
    "Quel est le sens exact de l'autonomie et de l'hétéronomie dans ce contexte ?",
    "Quels types d'activités ne semblent pas directement liées à une subordination aux forces du marché ou de l'État ?",
    "Comment évaluer les degrés et modalités de subordination de ces activités par rapport à l'État ou au marché ?",
    "Et par rapport à d'autres facteurs tels que la famille, les voisins, les communautés idéologiques ou religieuses, les relations professionnelles, etc. ?",
    "Comment établir des niveaux d'appréciation de la qualité de ces subordinations, qui sont de nature différentes ?",
    "Quels rapports de domination/dépendance, de rivalités, de compétitions, d'inégalités existent dans chaque niveau d'organisation des individus ?",
    "Est-il possible de considérer l'autonomie comme une évolution positive en tous cas ?",
    "Quels sont les avantages de rechercher des alternatives à l'autonomie par rapport au marché et à l'État ?",
    "Est-il nécessaire de dépasser la question de savoir si les contradictions internes à la société civile sont produites ou reproduites par le système socio-économique dominante ?"
  ]
}