{
  "num": "autog_0249-2563_1984_num_17_16",
  "article": "autog_0249-2563_1984_num_17_16_1596",
  "page_name": "autog_0249-2563_1984_num_17_16_T1_0073_0000",
  "questions": [
    "Quel rôle a joué Jean-Pierre Deffontaine dans les vingt dernières années en matière d'hétérogénéité du milieu naturel et de son influence sur l'évolution des systèmes de production ?",
    "Qu'est-ce qu'on entend par un milieu naturel hétérogène ?",
    "Comment la variabilité d'un facteur donné, par exemple la texture du sol, affecte l'hétérogénéité d'un milieu naturel ?",
    "Comment l'échelle intervient-elle dans la représentation de l'hétérogénéité d'un milieu naturel sur une carte ?",
    "En termes de surface, comment les surfaces unitaires de chaque plage de texture différente influencent-elles l'hétérogénéité d'un milieu naturel ?",
    "Comment les surfaces petites contribuent-elles à augmenter l'hétérogénéité d'un milieu naturel ?",
    "Comment les collines sous-vosgiennes et les vastes étendues limoneuses du Soissonnais diffèrent-elles en termes d'hétérogénéité du milieu naturel ?"
  ]
}