{
  "num": "autog_0249-2563_1980_num_13_2",
  "article": "autog_0249-2563_1980_num_13_2_1375",
  "page_name": "autog_0249-2563_1980_num_13_2_T1_0333_0000",
  "questions": [
    {
      "id_qa": "autog_0249-2563_1980_num_13_2_T1_0333_0000_qa29_v3",
      "id_block": "block_10",
      "question": "Où peut-on marcher ?",
      "answer": "sur le chemin ensoleillé",
      "answer_stringIds": [
        "string_123",
        "string_124",
        "string_125",
        "string_126"
      ]
    },
    {
      "id_qa": "autog_0249-2563_1980_num_13_2_T1_0333_0000_qa6_v3",
      "id_block": "block_11",
      "question": "Comment s'appelle le parti ouvrier social-démocrate de Russie ?",
      "answer": "Le Bund",
      "answer_stringIds": [
        "string_0",
        "string_1"
      ]
    },
    {
      "id_qa": "autog_0249-2563_1980_num_13_2_T1_0333_0000_qa12_v3",
      "id_block": "block_11",
      "question": "Quel congrès a eu lieu à Minsk en 1898 ?",
      "answer": "le congrès de fondation du parti ouvrier social démocrate de Russie",
      "answer_stringIds": [
        "string_198",
        "string_199",
        "string_200",
        "string_201",
        "string_202",
        "string_203",
        "string_204",
        "string_205",
        "string_206",
        "string_207",
        "string_208"
      ]
    },
    {
      "id_qa": "autog_0249-2563_1980_num_13_2_T1_0333_0000_qa18_v3",
      "id_block": "block_12",
      "question": "Qu'a permis J.-P. Hammer ?",
      "answer": "les publier",
      "answer_stringIds": [
        "string_313",
        "string_314"
      ]
    },
    {
      "id_qa": "autog_0249-2563_1980_num_13_2_T1_0333_0000_qa19_v3",
      "id_block": "block_12",
      "question": "Qui a permis à N.D.L.R de publier ses oeuvres ?",
      "answer": "J.-P. Hammer",
      "answer_stringIds": [
        "string_305",
        "string_306"
      ]
    },
    {
      "id_qa": "autog_0249-2563_1980_num_13_2_T1_0333_0000_qa20_v3",
      "id_block": "block_12",
      "question": "Qui a bien voulu nous autoriser à les publier ?",
      "answer": "J.-P. Hammer",
      "answer_stringIds": [
        "string_305",
        "string_306"
      ]
    },
    {
      "id_qa": "autog_0249-2563_1980_num_13_2_T1_0333_0000_qa0_v3",
      "id_block": "block_2",
      "question": "Qu'est-ce qui nous invite ici à découvrir ?",
      "answer": "cette histoire",
      "answer_stringIds": [
        "string_32",
        "string_33"
      ]
    },
    {
      "id_qa": "autog_0249-2563_1980_num_13_2_T1_0333_0000_qa27_v3",
      "id_block": "block_2",
      "question": "Qui a renié ses racines juives ?",
      "answer": "Wolf Biermann",
      "answer_stringIds": [
        "string_6",
        "string_7"
      ]
    },
    {
      "id_qa": "autog_0249-2563_1980_num_13_2_T1_0333_0000_qa25_v3",
      "id_block": "block_4",
      "question": "Où est-ce que je construit des châteaux ?",
      "answer": "en Espagne",
      "answer_stringIds": [
        "string_63",
        "string_64"
      ]
    },
    {
      "id_qa": "autog_0249-2563_1980_num_13_2_T1_0333_0000_qa26_v3",
      "id_block": "block_4",
      "question": "Qu'est ce qui pourrait être construit en Espagne ?",
      "answer": "des châteaux",
      "answer_stringIds": [
        "string_61",
        "string_62"
      ]
    },
    {
      "id_qa": "autog_0249-2563_1980_num_13_2_T1_0333_0000_qa32_v3",
      "id_block": "block_5",
      "question": "Qu'est ce qui n'existe pas ?",
      "answer": "mon Dieu",
      "answer_stringIds": [
        "string_69",
        "string_70"
      ]
    },
    {
      "id_qa": "autog_0249-2563_1980_num_13_2_T1_0333_0000_qa30_v3",
      "id_block": "block_6",
      "question": "Comment se sent le ciel en rêve ?",
      "answer": "plus léger",
      "answer_stringIds": [
        "string_78",
        "string_79"
      ]
    },
    {
      "id_qa": "autog_0249-2563_1980_num_13_2_T1_0333_0000_qa38_v3",
      "id_block": "block_7",
      "question": "Qu'est ce qui ne peut pas être atteint ?",
      "answer": "le but",
      "answer_stringIds": [
        "string_102",
        "string_103"
      ]
    }
  ]
}