{
  "num": "autog_0338-7259_1972_num_18_1",
  "article": "autog_0338-7259_1972_num_18_1_1042",
  "page_name": "FMSH_PB188a_18-19_196",
  "questions": [
    {
      "id_qa": "FMSH_PB188a_18-19_196_qa26_v3",
      "id_block": "block_2",
      "question": "Qu'est ce qui a été interdit aux anarchistes ?",
      "answer": "la Révolution sociale",
      "answer_stringIds": [
        "string_22",
        "string_23",
        "string_24"
      ]
    },
    {
      "id_qa": "FMSH_PB188a_18-19_196_qa14_v3",
      "id_block": "block_4",
      "question": "Qui apprécie l'anarchisme ?",
      "answer": "Les masses",
      "answer_stringIds": [
        "string_184",
        "string_185"
      ]
    },
    {
      "id_qa": "FMSH_PB188a_18-19_196_qa16_v3",
      "id_block": "block_4",
      "question": "Qui est intéressé par l'anarchisme ?",
      "answer": "Les masses",
      "answer_stringIds": [
        "string_184",
        "string_185"
      ]
    },
    {
      "id_qa": "FMSH_PB188a_18-19_196_qa17_v3",
      "id_block": "block_4",
      "question": "Qui sont attirés par l'anarchisme ?",
      "answer": "Les masses laborieuses",
      "answer_stringIds": [
        "string_184",
        "string_185",
        "string_186"
      ]
    },
    {
      "id_qa": "FMSH_PB188a_18-19_196_qa18_v3",
      "id_block": "block_6",
      "question": "Qu'enlève le pouvoir bolchevique chaque année ?",
      "answer": "leurs conquêtes révolutionnaires",
      "answer_stringIds": [
        "string_262",
        "string_263",
        "string_264"
      ]
    },
    {
      "id_qa": "FMSH_PB188a_18-19_196_qa19_v3",
      "id_block": "block_6",
      "question": "Qu'est-ce que le pouvoir bolchevique restreint chaque année ?",
      "answer": "les droits sociaux et politiques des travailleurs",
      "answer_stringIds": [
        "string_252",
        "string_253",
        "string_254",
        "string_255",
        "string_256",
        "string_257",
        "string_258"
      ]
    }
  ]
}