{
  "num": "autog_0338-7259_1972_num_20_1",
  "article": "autog_0338-7259_1972_num_20_1_1067",
  "page_name": "FMSH_PB188a_20-21_159",
  "questions": [
    "Quel est le rôle des saints dans la formation morale de la jeunesse selon Fourier ?",
    "Où chercherions-nous les saints capables de former la jeunesse morale selon Fourier ?",
    "Comment Fourier a-t-il considéré Dieu dans son système ?",
    "Quel est le sens de la phrase \"Dieu a été capable de bien faire les choses et nos provisoires déviations ne sont que de passagères fantaisies de la nature\" ?",
    "Comment Fourier percevait-il les sciences et les arts ?",
    "Qu'implique la destruction des livres selon Fourier ?",
    "Comment Fourier voyait-il la transformation de la mentalité comme la première et principale étape vers une nouvelle conception ?",
    "Quels comparait-il à ceux qui ne sont pas disposés à transformer leur mentalité ?",
    "Quels sont les anciens moines dont Fourier parle et quels sont leurs idées sur la transformation de l'âme ?"
  ]
}