{
  "num": "autog_0249-2563_1982_num_15_8",
  "article": "autog_0249-2563_1982_num_15_8_1476",
  "page_name": "autog_0249-2563_1982_num_15_8_T1_0108_0000",
  "questions": [
    "Quel est votre préférence entre un sauna que vous chauffez vous-même et un sauna électriquement chauffé ?",
    "Quel est votre sentiment vis-à-vis du bois ramassé pour le sauna ?",
    "Quel est le rapport important que vous voyez entre le travail manuel et le travail intellectuel dans le projet de travailler autrement ?",
    "Quel est votre perspective sur la production de plus que ce dont on a besoin dans le cadre du travail autonome ?",
    "Comment le travail autonome crée-t-il des relations sociales nouvelles pour vous ?",
    "Comment percevez-vous le travail qui est perçu seulement comme une réalisation individuelle ?",
    "Comment définiriez-vous le travail aliéné selon votre expérience ?"
  ]
}