{
  "num": "autog_0249-2563_1983_num_16_14",
  "article": "autog_0249-2563_1983_num_16_14_1567_t1_0124_0000_2",
  "page_name": "autog_0249-2563_1983_num_16_14_T1_0124_0000",
  "questions": [
    "Quels auteurs examinent les communautés anti-crise dans ce livre ?",
    "Quels événements ont poussé ces auteurs à s'intéresser aux communautés anti-crise ?",
    "Quels sont les visions du futur qui animent ces communautés ?",
    "Quel est le rôle de la catastrophe dans la vision des communautés ?",
    "Quel est le sens de l'apocalypse selon les auteurs ?",
    "Quels groupes sont qualifiés d'apocalyptiques par les auteurs ?",
    "Quel rôle jouent les religions orientales et les pratiques culturelles des Indiens d'Amérique dans ces communautés ?",
    "En quoi la préoccupation récente de ces communautés envers la Nature est-elle différente des précédentes générations ?",
    "Quels domaines sont concernés par les nouveaux phénomènes observés dans ces communautés ?",
    "Quels sont les aspects matériels et spirituels indispensables à la renaissance, à la reconquête du monde, à la survie selon les auteurs ?"
  ]
}