{
  "num": "autog_0005-0970_1969_num_9_1",
  "article": "autog_0005-0970_1969_num_9_1_954",
  "page_name": "FMSH_PB188a_09-10_074",
  "questions": [
    "Quel est le rôle de la méthode de Leontieff dans la révolution économique ?",
    "Qu'est-ce que les tableaux des transactions ou tableaux carrés ?",
    "Comment permettent les tableaux carrés de connaître les rapports quantitatifs entre composants d'un produit ?",
    "Qu'est le coefficient technique courant et comment est-il calculé ?",
    "Quels sont les composantes nécessaires à la fabrication de divers produits ?",
    "Qu'est la méthode des matrices de Leontieff ?",
    "Qu'est l'activité analysis de Koopmans ?",
    "Qu'est la recherche opérationnelle et comment est-elle liée à l'activité analysis de Koopmans ?",
    "Qu'est l'image utilisée pour comprendre les relations entre secteurs dans le système économique ?",
    "Quel est le but de la recherche opérationnelle de Koopmans ?"
  ]
}