{
  "num": "autog_0005-0970_1969_num_9_1",
  "article": "autog_0005-0970_1969_num_9_1_954",
  "page_name": "FMSH_PB188a_09-10_083",
  "questions": [
    "Quels sont les conditions nécessaires à l'autogestion selon l'auteur ?",
    "Comment l'auteur propose de réguler le marché selon ses idées ?",
    "Pourquoi l'auteur pense que la concurrence commerciale serait remplacée par une forme de concurrence mathématique ?",
    "Quel est le sujet de l'étude comparée entre planification et concurrence selon l'auteur ?",
    "Quels sont les objections politiques levées contre l'usine du plan ?",
    "Comment les techniciens de l'usine du plan pourraient-ils manipuler l'information et son fraisement ?",
    "Doit-on se fier à la sincérité des techniciens de l'usine du plan ?",
    "Quels risques pourraient-ils représenter en tant que pensée dominante de l'ensemble du corps social ?"
  ]
}