{
  "num": "autog_0005-0970_1969_num_9_1",
  "article": "autog_0005-0970_1969_num_9_1_954",
  "page_name": "FMSH_PB188a_09-10_070",
  "questions": [
    "Quel auteur a écrit l'article intitulé « Les communistes et la Paix » avant la mort de Staline et qui a été oublié?",
    "Quels efforts désespérés ont été faits par les dirigeants et les « maîtrises » pour imposer un travail répétitif et borné aux tâches immédiates?",
    "Comment a perdu le travail (humain) sa humanité selon l'auteur?",
    "Quels thèmes sont connus et précédemment développés pour mieux faire apparaître la question fondamentale?",
    "Quel est le point de vue de l'auteur sur l'aliénation des hommes dans la société politique et dans leur travail?",
    "Comment peut-on faire autrement selon l'auteur?",
    "Est-il réaliste d'espérer un changement radical et immédiat selon l'auteur?",
    "Quels sont les conséquences de l'absence de transparence de divers centres de décision?",
    "Quels philosophes ont étudié les conditions de possibilité effective de la vraie démocratie?"
  ]
}