{
  "num": "autog_0005-0970_1969_num_9_1",
  "article": "autog_0005-0970_1969_num_9_1_954",
  "page_name": "FMSH_PB188a_09-10_086",
  "questions": [
    "Quel est l'auteur de cette critique sur l'usine du plan ?",
    "Quels sont les conditions de compréhension des clients aux époques de l'artisanat ?",
    "Quel mystère y avait-il pour les clients dans chaque métier spécialisé ?",
    "Savait-on à l'époque de l'artisanat comment penser, former un projet et mouvoir un bras ?",
    "Qu'est-ce qui fait l'importance de l'usine du plan selon l'auteur ?",
    "Pourquoi les ingénieurs compétents peuvent en faire usage à leur profit ?",
    "Qu'est-ce qui distingue un mauvais architecte de l'abeille experte selon Marx ?",
    "Dans quelle section et chapitre de Le Capital Marx aborde-t-il cette formule ?"
  ]
}