{
  "num": "autog_0249-2563_1982_num_15_10",
  "article": "autog_0249-2563_1982_num_15_10_1504",
  "page_name": "autog_0249-2563_1982_num_15_10_T1_0109_0000",
  "questions": [
    {
      "id_qa": "autog_0249-2563_1982_num_15_10_T1_0109_0000_qa17_v3",
      "id_block": "block_0",
      "question": "Qu'est ce qui est un facteur d'intégration dans l'entreprise ?",
      "answer": "le modèle français de formation",
      "answer_stringIds": [
        "string_76",
        "string_77",
        "string_78",
        "string_79",
        "string_80"
      ]
    },
    {
      "id_qa": "autog_0249-2563_1982_num_15_10_T1_0109_0000_qa0_v3",
      "id_block": "block_1",
      "question": "Dans quels secteurs les services publics sont-ils nationalisés ?",
      "answer": "des entreprises",
      "answer_stringIds": [
        "string_129",
        "string_130"
      ]
    },
    {
      "id_qa": "autog_0249-2563_1982_num_15_10_T1_0109_0000_qa11_v3",
      "id_block": "block_2",
      "question": "Quel est le but actuel des industriels français ?",
      "answer": "appliquer les recettes du succès économique japonais",
      "answer_stringIds": [
        "string_220",
        "string_221",
        "string_222",
        "string_223",
        "string_224",
        "string_225",
        "string_226"
      ]
    },
    {
      "id_qa": "autog_0249-2563_1982_num_15_10_T1_0109_0000_qa14_v3",
      "id_block": "block_2",
      "question": "Qu'est-ce que les industriels français cherchent à appliquer au Japon ?",
      "answer": "les recettes du succès économique japonais",
      "answer_stringIds": [
        "string_221",
        "string_222",
        "string_223",
        "string_224",
        "string_225",
        "string_226"
      ]
    },
    {
      "id_qa": "autog_0249-2563_1982_num_15_10_T1_0109_0000_qa28_v3",
      "id_block": "block_3",
      "question": "Qu'est-ce que les communautés utopiques ?",
      "answer": "un mode de vie autarcique",
      "answer_stringIds": [
        "string_241",
        "string_242",
        "string_243",
        "string_244",
        "string_245"
      ]
    },
    {
      "id_qa": "autog_0249-2563_1982_num_15_10_T1_0109_0000_qa29_v3",
      "id_block": "block_3",
      "question": "Qu'est ce que les communautés utopiques ?",
      "answer": "assurer un mode de vie autarcique",
      "answer_stringIds": [
        "string_240",
        "string_241",
        "string_242",
        "string_243",
        "string_244",
        "string_245"
      ]
    },
    {
      "id_qa": "autog_0249-2563_1982_num_15_10_T1_0109_0000_qa9_v3",
      "id_block": "block_4",
      "question": "Quel est le rôle de l'ouvrier ?",
      "answer": "une sorte de sous-traitant de son patron",
      "answer_stringIds": [
        "string_340",
        "string_341",
        "string_342",
        "string_343",
        "string_344",
        "string_345",
        "string_346"
      ]
    },
    {
      "id_qa": "autog_0249-2563_1982_num_15_10_T1_0109_0000_qa22_v3",
      "id_block": "block_4",
      "question": "Qui conclut un marché avec chacun de ses ouvriers ?",
      "answer": "le propriétaire et patron",
      "answer_stringIds": [
        "string_299",
        "string_300",
        "string_301",
        "string_302"
      ]
    },
    {
      "id_qa": "autog_0249-2563_1982_num_15_10_T1_0109_0000_qa31_v3",
      "id_block": "block_4",
      "question": "Qu'est ce qui est reproduit au niveau individuel ?",
      "answer": "la relation",
      "answer_stringIds": [
        "string_381",
        "string_382"
      ]
    }
  ]
}