{
  "num": "autog_0249-2563_1981_num_14_7",
  "article": "autog_0249-2563_1981_num_14_7_1454",
  "page_name": "autog_0249-2563_1981_num_14_7_T1_0351_0000",
  "questions": [
    {
      "id_qa": "autog_0249-2563_1981_num_14_7_T1_0351_0000_qa13_v3",
      "id_block": "block_1",
      "question": "Quand a eu lieu le congrès historique de Saragosse ?",
      "answer": "mai 1936",
      "answer_stringIds": [
        "string_71",
        "string_72"
      ]
    },
    {
      "id_qa": "autog_0249-2563_1981_num_14_7_T1_0351_0000_qa3_v3",
      "id_block": "block_3",
      "question": "Qu'est-ce que l'organisation révolutionnaire ?",
      "answer": "une préfiguration de la société future",
      "answer_stringIds": [
        "string_155",
        "string_156",
        "string_157",
        "string_158",
        "string_159",
        "string_160"
      ]
    },
    {
      "id_qa": "autog_0249-2563_1981_num_14_7_T1_0351_0000_qa5_v3",
      "id_block": "block_3",
      "question": "Qu'est-ce que la C.N.T ?",
      "answer": "autogestion et action directe",
      "answer_stringIds": [
        "string_135",
        "string_136",
        "string_137",
        "string_138"
      ]
    },
    {
      "id_qa": "autog_0249-2563_1981_num_14_7_T1_0351_0000_qa10_v3",
      "id_block": "block_3",
      "question": "Qu'est-ce que l'action directe ?",
      "answer": "autogestion",
      "answer_stringIds": [
        "string_59"
      ]
    },
    {
      "id_qa": "autog_0249-2563_1981_num_14_7_T1_0351_0000_qa22_v3",
      "id_block": "block_4",
      "question": "Par qui sont publiés les textes de la période de réorganisation ?",
      "answer": "par les quelques milliers de fidèles du secteur historique qui restent organisés dans les villes",
      "answer_stringIds": [
        "string_269",
        "string_270",
        "string_271",
        "string_272",
        "string_273",
        "string_274",
        "string_275",
        "string_276",
        "string_277",
        "string_278",
        "string_279",
        "string_280",
        "string_281",
        "string_282",
        "string_283"
      ]
    },
    {
      "id_qa": "autog_0249-2563_1981_num_14_7_T1_0351_0000_qa23_v3",
      "id_block": "block_4",
      "question": "Où sont organisés les textes de la période de réorganisation ?",
      "answer": "dans les villes",
      "answer_stringIds": [
        "string_281",
        "string_282",
        "string_283"
      ]
    },
    {
      "id_qa": "autog_0249-2563_1981_num_14_7_T1_0351_0000_qa25_v3",
      "id_block": "block_4",
      "question": "Qu'est ce qui est publié par les fidèles du secteur historique ?",
      "answer": "Des textes de la période de réorganisation",
      "answer_stringIds": [
        "string_260",
        "string_261",
        "string_262",
        "string_263",
        "string_264",
        "string_265",
        "string_266"
      ]
    },
    {
      "id_qa": "autog_0249-2563_1981_num_14_7_T1_0351_0000_qa18_v3",
      "id_block": "block_7",
      "question": "Quelle est l'autre alternative au capitalisme et au bureaucratisme étatique ?",
      "answer": "la coopération",
      "answer_stringIds": [
        "string_316",
        "string_317"
      ]
    }
  ]
}