{
  "num": "autog_0005-0970_1967_num_2_1",
  "article": "autog_0005-0970_1967_num_2_1_907_t1_0152_0000_1",
  "page_name": "FMSH_PB188a_00002_155",
  "questions": [
    {
      "id_qa": "FMSH_PB188a_00002_155_qa0_v3",
      "id_block": "block_1",
      "question": "Qu'est-ce que la nationalité républicaine ?",
      "answer": "en droit",
      "answer_stringIds": [
        "string_194",
        "string_195"
      ]
    },
    {
      "id_qa": "FMSH_PB188a_00002_155_qa2_v3",
      "id_block": "block_1",
      "question": "Quelle est la nationalité des citoyens de chaque république ?",
      "answer": "la nationalité de cette république et la nationalité fédérale",
      "answer_stringIds": [
        "string_178",
        "string_179",
        "string_180",
        "string_181",
        "string_182",
        "string_183",
        "string_184",
        "string_185",
        "string_186"
      ]
    },
    {
      "id_qa": "FMSH_PB188a_00002_155_qa4_v3",
      "id_block": "block_1",
      "question": "Qu'est-ce que la constitution d'ensemble ?",
      "answer": "les principes généraux",
      "answer_stringIds": [
        "string_26",
        "string_27",
        "string_28"
      ]
    },
    {
      "id_qa": "FMSH_PB188a_00002_155_qa5_v3",
      "id_block": "block_1",
      "question": "A quoi revient la constitution d'ensemble ?",
      "answer": "de décider de leur application pratique",
      "answer_stringIds": [
        "string_37",
        "string_38",
        "string_39",
        "string_40",
        "string_41",
        "string_42"
      ]
    },
    {
      "id_qa": "FMSH_PB188a_00002_155_qa7_v3",
      "id_block": "block_1",
      "question": "Qu'est-ce qui revient à la constitution d'ensemble ?",
      "answer": "leur application pratique",
      "answer_stringIds": [
        "string_40",
        "string_41",
        "string_42"
      ]
    },
    {
      "id_qa": "FMSH_PB188a_00002_155_qa15_v3",
      "id_block": "block_1",
      "question": "Qu'est-ce que la Fédération décide de l'orientation économique ?",
      "answer": "les relations internationales",
      "answer_stringIds": [
        "string_58",
        "string_59",
        "string_60"
      ]
    },
    {
      "id_qa": "FMSH_PB188a_00002_155_qa16_v3",
      "id_block": "block_1",
      "question": "Qui décide de l'orientation économique ?",
      "answer": "La Fédération",
      "answer_stringIds": [
        "string_43",
        "string_44"
      ]
    },
    {
      "id_qa": "FMSH_PB188a_00002_155_qa35_v3",
      "id_block": "block_1",
      "question": "Par qui sont révocables les membres de la République socialiste ?",
      "answer": "la base",
      "answer_stringIds": [
        "string_149",
        "string_150"
      ]
    },
    {
      "id_qa": "FMSH_PB188a_00002_155_qa37_v3",
      "id_block": "block_1",
      "question": "Quel est le rôle des différentes républiques ?",
      "answer": "dans leur constitution",
      "answer_stringIds": [
        "string_91",
        "string_92",
        "string_93"
      ]
    },
    {
      "id_qa": "FMSH_PB188a_00002_155_qa39_v3",
      "id_block": "block_1",
      "question": "Qui précise les droits et les devoirs de la Fédération ?",
      "answer": "Un long article de Jovan Diordjevic",
      "answer_stringIds": [
        "string_3",
        "string_4",
        "string_5",
        "string_6",
        "string_7",
        "string_8"
      ]
    },
    {
      "id_qa": "FMSH_PB188a_00002_155_qa8_v3",
      "id_block": "block_2",
      "question": "Dans quels pays se situent les deux provinces autonomes ?",
      "answer": "Dans les rapports entre républiques",
      "answer_stringIds": [
        "string_210",
        "string_211",
        "string_212",
        "string_213",
        "string_214"
      ]
    },
    {
      "id_qa": "FMSH_PB188a_00002_155_qa9_v3",
      "id_block": "block_2",
      "question": "Quel est le système constitutionnel de la Yougoslavie ?",
      "answer": "la constitution de la république de Serbie",
      "answer_stringIds": [
        "string_242",
        "string_243",
        "string_244",
        "string_245",
        "string_246",
        "string_247",
        "string_248"
      ]
    },
    {
      "id_qa": "FMSH_PB188a_00002_155_qa13_v3",
      "id_block": "block_3",
      "question": "Qu'est ce qui vient à l'appui de textes officiels ?",
      "answer": "ces données précises",
      "answer_stringIds": [
        "string_321",
        "string_322",
        "string_323"
      ]
    },
    {
      "id_qa": "FMSH_PB188a_00002_155_qa21_v3",
      "id_block": "block_4",
      "question": "Qu'est ce qui a servi de panacée ?",
      "answer": "la seule constitution fédérale",
      "answer_stringIds": [
        "string_424",
        "string_425",
        "string_426",
        "string_427"
      ]
    },
    {
      "id_qa": "FMSH_PB188a_00002_155_qa22_v3",
      "id_block": "block_4",
      "question": "De quand date la constitution fédérale ?",
      "answer": "1946",
      "answer_stringIds": [
        "string_415"
      ]
    },
    {
      "id_qa": "FMSH_PB188a_00002_155_qa24_v3",
      "id_block": "block_4",
      "question": "Qu'est ce qui a servi de panacée à la Yougoslavie ?",
      "answer": "la seule constitution fédérale",
      "answer_stringIds": [
        "string_424",
        "string_425",
        "string_426",
        "string_427"
      ]
    },
    {
      "id_qa": "FMSH_PB188a_00002_155_qa12_v3",
      "id_block": "block_5",
      "question": "Qu'est ce qui a été résolu dans un pays européen ?",
      "answer": "nationalités et minorités ethniques",
      "answer_stringIds": [
        "string_482",
        "string_483",
        "string_484",
        "string_485"
      ]
    }
  ]
}