{
  "num": "autog_0249-2563_1982_num_15_10",
  "article": "autog_0249-2563_1982_num_15_10_1498",
  "page_name": "autog_0249-2563_1982_num_15_10_T1_0064_0000",
  "questions": [
    "Quels sont les membres prédominants du Collectif et quels sont leurs rôles dans la gestion directe ?",
    "Quels sont les compétences de la gestion directe du Collectif ?",
    "Comment la gestion directe du Collectif peut-elle être décrite ?",
    "Quels sont les pouvoirs formels des étudiants dans le Collectif ?",
    "Comment les étudiants participent-ils aux réunions du Collectif ?",
    "Quel est le rôle de la « liste autogestionnaire » étudiante dans le Conseil de l'U.e.r. ?",
    "Comment les étudiants se sentent-ils dans cette situation de deux instances concurrentes et en conflit ?",
    "Quel est le débat que la liste autogestionnaire étudiante a provoqué ?",
    "Comment l'analyse de ces situations peut-elle être utilisée pour comprendre le rôle du pouvoir socialiste dans les tendances autogestionnaires ?"
  ]
}