{
  "num": "autog_0249-2563_1984_num_17_17",
  "article": "autog_0249-2563_1984_num_17_17_1618_t1_0122_0000_4",
  "page_name": "autog_0249-2563_1984_num_17_17_T1_0122_0000",
  "questions": [
    "Quel est le but principal de Solagro selon les fondateurs ?",
    "Quels sont les objectifs à moyen et long termes de Solagro ?",
    "Quels sont les objectifs à court terme de Solagro ?",
    "Comment se déroule l'action de Solagro selon ses fondateurs ?",
    "Quels sont les trois axes de l'action de Solagro ?",
    "Comment collabore Solagro avec les organismes régionaux ?",
    "Quels sont les sujets abordés dans le Bulletin de Solagro ?",
    "Dans quelle région se trouve Solagro et quelle est sa population ?",
    "Quel est le contexte historique de la création de Solagro ?",
    "Quel est le nombre d'habitants qui ont émigré de la région entre 1951 et 1981 ?",
    "Quel est le but local de la reconstruction après le tremblement de terre de novembre 1980 ?"
  ]
}