{
  "num": "autog_0249-2563_1982_num_16_12",
  "article": "autog_0249-2563_1982_num_16_12_1541",
  "page_name": "autog_0249-2563_1982_num_16_12_T1_0150_0000",
  "questions": [
    "Quels sont les nouveautés pédagogiques apportées par Korczak en utilisant l'autogestion ?",
    "Dans quels domaines Korczak a-t-il appliqué l'autogestion ?",
    "Comment Korczak s'est-il adressé à la Pologne entière ?",
    "Quel est le résultat de l'application de l'idée d'autogestion généralisée dans les institutions hiérarchiques ?",
    "Quels autres rôles Korczak a-t-il occupés outre celui de pédagogue ?",
    "Quels sont les ouvrages de Korczak mentionnés dans la bibliographie ?"
  ]
}