{
  "num": "autog_0249-2563_1982_num_16_12",
  "article": "autog_0249-2563_1982_num_16_12_1542",
  "page_name": "autog_0249-2563_1982_num_16_12_T1_0155_0000",
  "questions": [
    "Quel rapport est-il resté entre Schwartz et Castel ?",
    "Quels types de populations posent des problèmes aux responsables du maintien d'un ordre social et idéologique ?",
    "Quelles sont les similitudes entre les Missions locales proposées par Schwartz et les COTOREP ?",
    "Pouvons-nous penser que le dispositif « 16-18 ans » sortira de la « stratégie générale de gestion des différences, des fragilités et des risques » des sociétés néo-libérales ?",
    "Qu'affirme Schwartz quant au statut du jeune ?",
    "Comment les Missions locales proposées par Schwartz s'articuleront-elles avec les CDES et les COTOREP ?",
    "Quelles propositions de Schwartz seront gardées ?",
    "Quelle annonce fait le Conseil des ministres à la fin de l'année ?",
    "Quels types de jeunes ont été désœuvrés durant l'été à Villeurbanne ?",
    "Quels types d'actions ont été perpétrées par ces jeunes ?",
    "Quels types d'objets ont été volés ou détruits ?"
  ]
}