{
  "num": "autog_0249-2563_1982_num_16_12",
  "article": "autog_0249-2563_1982_num_16_12_1542",
  "page_name": "autog_0249-2563_1982_num_16_12_T1_0153_0000",
  "questions": [
    "Quel est le sujet de la commande du Premier ministre au rapporteur Bertrand Schwartz en juin 1981 ?",
    "Quel est le but de cette commande selon Mauroy ?",
    "Quel est le contexte historique de cette commande ?",
    "Quel est le contenu du rapport de Schwartz et comment il élargit le champ d'investigation proposé par le gouvernement ?",
    "Quel est l'approche globale proposée par Schwartz pour les jeunes de 16-18 ans ?",
    "Quels sont les différents domaines d'action proposés par Schwartz pour la \"remise en jeu économique et sociale\" des jeunes ?",
    "Quel est l'attitude de Schwartz envers les valeurs culturelles nouvelles des jeunes ?",
    "Quels sont les limites du rapport de Schwartz et quelles questions laissent planer ?",
    "Comment le pouvoir socialiste envisage la régulation qu'il met en place selon le texte ?",
    "Quel est l'analyse lucide de la situation actuelle des jeunes selon Mauroy ?",
    "Quel est le but de l'approfondie réflexion sur l'articulation de l'école, de la formation et de l'emploi des jeunes ?",
    "Quel est le rôle du service national dans cette réflexion ?",
    "Quel est le ton du rapport de Schwartz et comment il est perçu ?",
    "Quels sont les alternatives idéologiques mentionnées dans le texte et comment Schwartz les caractérise ?"
  ]
}