{
  "num": "autog_0249-2563_1982_num_16_12",
  "article": "autog_0249-2563_1982_num_16_12_1542",
  "page_name": "autog_0249-2563_1982_num_16_12_T1_0154_0000",
  "questions": [
    "Quel est le point de vue de Schwartz sur le travail et la critique sociale associée ?",
    "Quel est le double thème abordé dans le rapport ?",
    "Quel est le but de Schwartz en matière de citoyenneté ?",
    "Y a-t-il un risque de nouvelle société à deux vitesses avec cette politique ?",
    "Quels sont les objectifs proposés par Schwartz pour atteindre ses buts ?",
    "Comment sont composées les Missions locales ?",
    "Quel est le rôle des Missions locales en matière de dépistage et de distribution de la population ?",
    "Quel est l'intérêt de la proposition de Schwartz ?",
    "Comment Schwartz réoriente sa proposition ?",
    "Quel est le but final de la proposition de Schwartz ?",
    "Y a-t-il une tendance résistante à l'intégration des spécialistes dans certains ministères ?"
  ]
}