{
  "num": "autog_0249-2563_1981_num_14_6",
  "article": "autog_0249-2563_1981_num_14_6_1426",
  "page_name": "autog_0249-2563_1981_num_14_6_T1_0171_0000",
  "questions": [
    {
      "id_qa": "autog_0249-2563_1981_num_14_6_T1_0171_0000_qa27_v3",
      "id_block": "block_0",
      "question": "Qu'est ce qui permet aux citoyens de se réapproprier ce qui leur a été octroyé ?",
      "answer": "évolution démocratique",
      "answer_stringIds": [
        "string_0",
        "string_1"
      ]
    },
    {
      "id_qa": "autog_0249-2563_1981_num_14_6_T1_0171_0000_qa28_v3",
      "id_block": "block_0",
      "question": "Qu'est ce qui leur a été octroyé ?",
      "answer": "évolution démocratique",
      "answer_stringIds": [
        "string_0",
        "string_1"
      ]
    },
    {
      "id_qa": "autog_0249-2563_1981_num_14_6_T1_0171_0000_qa21_v3",
      "id_block": "block_1",
      "question": "Quelle est la réponse de L.T. ?",
      "answer": "raison",
      "answer_stringIds": [
        "string_18"
      ]
    },
    {
      "id_qa": "autog_0249-2563_1981_num_14_6_T1_0171_0000_qa45_v3",
      "id_block": "block_2",
      "question": "Qu'est ce qui est réali ?",
      "answer": "la révolution",
      "answer_stringIds": [
        "string_29",
        "string_30"
      ]
    },
    {
      "id_qa": "autog_0249-2563_1981_num_14_6_T1_0171_0000_qa0_v3",
      "id_block": "block_3",
      "question": "Qui pense le marxisme comme une sorte de religion ?",
      "answer": "Les bureaucrates",
      "answer_stringIds": [
        "string_115",
        "string_116"
      ]
    },
    {
      "id_qa": "autog_0249-2563_1981_num_14_6_T1_0171_0000_qa1_v3",
      "id_block": "block_3",
      "question": "Qui pense que le marxisme est une sorte de religion ?",
      "answer": "Les bureaucrates conçoivent",
      "answer_stringIds": [
        "string_115",
        "string_116",
        "string_117"
      ]
    },
    {
      "id_qa": "autog_0249-2563_1981_num_14_6_T1_0171_0000_qa2_v3",
      "id_block": "block_3",
      "question": "Quel est le moyen de contrôle de la pensée ?",
      "answer": "le marxisme",
      "answer_stringIds": [
        "string_118",
        "string_119"
      ]
    },
    {
      "id_qa": "autog_0249-2563_1981_num_14_6_T1_0171_0000_qa3_v3",
      "id_block": "block_3",
      "question": "Qu'est ce qui n'existe pas dans le marxisme ?",
      "answer": "les couches sociales les plus nombreuses restent des objets de la politique et",
      "answer_stringIds": [
        "string_156",
        "string_157",
        "string_158",
        "string_159",
        "string_160",
        "string_161",
        "string_162",
        "string_163",
        "string_164",
        "string_165",
        "string_166",
        "string_167",
        "string_168"
      ]
    },
    {
      "id_qa": "autog_0249-2563_1981_num_14_6_T1_0171_0000_qa4_v3",
      "id_block": "block_3",
      "question": "Qu'est-ce que le marxisme ?",
      "answer": "les problèmes",
      "answer_stringIds": [
        "string_140",
        "string_141"
      ]
    },
    {
      "id_qa": "autog_0249-2563_1981_num_14_6_T1_0171_0000_qa5_v3",
      "id_block": "block_3",
      "question": "Comment les bureaucrates conçoivent le marxisme ?",
      "answer": "comme une sorte de religion",
      "answer_stringIds": [
        "string_120",
        "string_121",
        "string_122",
        "string_123",
        "string_124"
      ]
    },
    {
      "id_qa": "autog_0249-2563_1981_num_14_6_T1_0171_0000_qa6_v3",
      "id_block": "block_3",
      "question": "Dans quoi la routine bureaucratique domine-t-elle ?",
      "answer": "dans la société",
      "answer_stringIds": [
        "string_89",
        "string_90",
        "string_91"
      ]
    },
    {
      "id_qa": "autog_0249-2563_1981_num_14_6_T1_0171_0000_qa7_v3",
      "id_block": "block_3",
      "question": "Qu'est ce qui domine dans la société ?",
      "answer": "la routine bureaucratique qui",
      "answer_stringIds": [
        "string_83",
        "string_84",
        "string_85",
        "string_86",
        "string_87"
      ]
    },
    {
      "id_qa": "autog_0249-2563_1981_num_14_6_T1_0171_0000_qa9_v3",
      "id_block": "block_3",
      "question": "Par quoi est-ce que la démocratie est institutionnalisée et perdue ?",
      "answer": "par la sauvegarde du pouvoir politique",
      "answer_stringIds": [
        "string_41",
        "string_42",
        "string_43",
        "string_44",
        "string_45",
        "string_46"
      ]
    },
    {
      "id_qa": "autog_0249-2563_1981_num_14_6_T1_0171_0000_qa10_v3",
      "id_block": "block_3",
      "question": "Qui est à l'origine de cette institutionnalisation ?",
      "answer": "par des gens",
      "answer_stringIds": [
        "string_37",
        "string_38",
        "string_39"
      ]
    },
    {
      "id_qa": "autog_0249-2563_1981_num_14_6_T1_0171_0000_qa18_v3",
      "id_block": "block_3",
      "question": "Quelle idéologie est une caricature ?",
      "answer": "Le marxisme",
      "answer_stringIds": [
        "string_95",
        "string_96"
      ]
    },
    {
      "id_qa": "autog_0249-2563_1981_num_14_6_T1_0171_0000_qa39_v3",
      "id_block": "block_3",
      "question": "Qu'est ce qui n'a pas comme objet l'émancipation humaine ?",
      "answer": "la révolution",
      "answer_stringIds": [
        "string_29",
        "string_30"
      ]
    },
    {
      "id_qa": "autog_0249-2563_1981_num_14_6_T1_0171_0000_qa43_v3",
      "id_block": "block_3",
      "question": "Qu'est ce qui peut empêcher la sclérose d'une révolution entamée ?",
      "answer": "la vie publique active",
      "answer_stringIds": [
        "string_67",
        "string_68",
        "string_69",
        "string_70"
      ]
    },
    {
      "id_qa": "autog_0249-2563_1981_num_14_6_T1_0171_0000_qa37_v3",
      "id_block": "block_5",
      "question": "Qu'est-ce que je voudrais revenir à l'université ?",
      "answer": "à la situation",
      "answer_stringIds": [
        "string_178",
        "string_179",
        "string_180"
      ]
    },
    {
      "id_qa": "autog_0249-2563_1981_num_14_6_T1_0171_0000_qa11_v3",
      "id_block": "block_6",
      "question": "Qu'est ce qui est complètement contrôlé ?",
      "answer": "La presse",
      "answer_stringIds": [
        "string_264",
        "string_265"
      ]
    },
    {
      "id_qa": "autog_0249-2563_1981_num_14_6_T1_0171_0000_qa13_v3",
      "id_block": "block_6",
      "question": "Qu'est ce qui empêche les problèmes de la société ?",
      "answer": "le régime",
      "answer_stringIds": [
        "string_286",
        "string_287"
      ]
    },
    {
      "id_qa": "autog_0249-2563_1981_num_14_6_T1_0171_0000_qa17_v3",
      "id_block": "block_6",
      "question": "Qu'est ce qui a développé une grande activité contre les mouvements à l'université ?",
      "answer": "le pouvoir",
      "answer_stringIds": [
        "string_195",
        "string_196"
      ]
    },
    {
      "id_qa": "autog_0249-2563_1981_num_14_6_T1_0171_0000_qa19_v3",
      "id_block": "block_6",
      "question": "Qui a écrasé la réaction très concentrée, très répressive ?",
      "answer": "le mouvement étudiant",
      "answer_stringIds": [
        "string_227",
        "string_228",
        "string_229"
      ]
    },
    {
      "id_qa": "autog_0249-2563_1981_num_14_6_T1_0171_0000_qa20_v3",
      "id_block": "block_6",
      "question": "Qu'est ce qui a écrasé le mouvement étudiant ?",
      "answer": "La réaction très concentrée",
      "answer_stringIds": [
        "string_218",
        "string_219",
        "string_220",
        "string_221",
        "string_222"
      ]
    },
    {
      "id_qa": "autog_0249-2563_1981_num_14_6_T1_0171_0000_qa34_v3",
      "id_block": "block_6",
      "question": "Par qui est appréciée chaque tentative pour réorganiser la société d'une façon démocratique ?",
      "answer": "par le pouvoir",
      "answer_stringIds": [
        "string_332",
        "string_333",
        "string_334"
      ]
    },
    {
      "id_qa": "autog_0249-2563_1981_num_14_6_T1_0171_0000_qa35_v3",
      "id_block": "block_6",
      "question": "Qu'est-ce qui est considéré comme une activité anti-socialiste ?",
      "answer": "la société",
      "answer_stringIds": [
        "string_90",
        "string_91"
      ]
    },
    {
      "id_qa": "autog_0249-2563_1981_num_14_6_T1_0171_0000_qa38_v3",
      "id_block": "block_6",
      "question": "Qui a posé le problème du développement démocratique du socialisme ?",
      "answer": "Le mouvement étudiant",
      "answer_stringIds": [
        "string_292",
        "string_293",
        "string_294",
        "string_295"
      ]
    }
  ]
}