{
  "num": "autog_0249-2563_1981_num_14_6",
  "article": "autog_0249-2563_1981_num_14_6_1426",
  "page_name": "autog_0249-2563_1981_num_14_6_T1_0172_0000",
  "questions": [
    {
      "id_qa": "autog_0249-2563_1981_num_14_6_T1_0172_0000_qa10_v3",
      "id_block": "block_1",
      "question": "Qu'est ce qui n'a pas la volonté, ni la possibilité, de résoudre les problèmes ?",
      "answer": "La bureaucratie",
      "answer_stringIds": [
        "string_33",
        "string_34"
      ]
    },
    {
      "id_qa": "autog_0249-2563_1981_num_14_6_T1_0172_0000_qa28_v3",
      "id_block": "block_1",
      "question": "Qu'est ce qui ne peut pas s'éliminer par la répression ?",
      "answer": "les contradictions réelles",
      "answer_stringIds": [
        "string_17",
        "string_18",
        "string_19"
      ]
    },
    {
      "id_qa": "autog_0249-2563_1981_num_14_6_T1_0172_0000_qa29_v3",
      "id_block": "block_1",
      "question": "Qu'est ce qui continue à peser sur la société ?",
      "answer": "les contradictions réelles",
      "answer_stringIds": [
        "string_17",
        "string_18",
        "string_19"
      ]
    },
    {
      "id_qa": "autog_0249-2563_1981_num_14_6_T1_0172_0000_qa31_v3",
      "id_block": "block_1",
      "question": "Par quoi les contradictions réelles ne peuvent-elles pas s'éliminer ?",
      "answer": "la répression",
      "answer_stringIds": [
        "string_24",
        "string_25"
      ]
    },
    {
      "id_qa": "autog_0249-2563_1981_num_14_6_T1_0172_0000_qa24_v3",
      "id_block": "block_2",
      "question": "A quoi est comparé la répression ?",
      "answer": "à une campagne politique qui assimile les activités démocratiques à des activités anti-socialistes et anti-nationales",
      "answer_stringIds": [
        "string_61",
        "string_62",
        "string_63",
        "string_64",
        "string_65",
        "string_66",
        "string_67",
        "string_68",
        "string_69",
        "string_70",
        "string_71",
        "string_72",
        "string_73",
        "string_74",
        "string_75",
        "string_76",
        "string_77"
      ]
    },
    {
      "id_qa": "autog_0249-2563_1981_num_14_6_T1_0172_0000_qa26_v3",
      "id_block": "block_2",
      "question": "Quelle est la conséquence d'une campagne politique ?",
      "answer": "la répression",
      "answer_stringIds": [
        "string_24",
        "string_25"
      ]
    },
    {
      "id_qa": "autog_0249-2563_1981_num_14_6_T1_0172_0000_qa1_v3",
      "id_block": "block_3",
      "question": "Qui a trouvé un succédané pour cette activité démocratique ?",
      "answer": "la bureaucratie",
      "answer_stringIds": [
        "string_133",
        "string_134"
      ]
    },
    {
      "id_qa": "autog_0249-2563_1981_num_14_6_T1_0172_0000_qa35_v3",
      "id_block": "block_3",
      "question": "Qu'est-ce qui est à l'origine des nationalismes ?",
      "answer": "ce problème ancien des nationalismes",
      "answer_stringIds": [
        "string_85",
        "string_86",
        "string_87",
        "string_88",
        "string_89",
        "string_90"
      ]
    },
    {
      "id_qa": "autog_0249-2563_1981_num_14_6_T1_0172_0000_qa36_v3",
      "id_block": "block_3",
      "question": "Qu'est ce qui constitue une barrière pour une véritable liberté dans le pays ?",
      "answer": "cette liberté des nations",
      "answer_stringIds": [
        "string_169",
        "string_170",
        "string_171",
        "string_172"
      ]
    },
    {
      "id_qa": "autog_0249-2563_1981_num_14_6_T1_0172_0000_qa14_v3",
      "id_block": "block_5",
      "question": "Qu'est ce qui empêche la libre évolution de la société ?",
      "answer": "Cette représentation qui est énorme",
      "answer_stringIds": [
        "string_235",
        "string_236",
        "string_237",
        "string_238",
        "string_239",
        "string_240"
      ]
    },
    {
      "id_qa": "autog_0249-2563_1981_num_14_6_T1_0172_0000_qa32_v3",
      "id_block": "block_5",
      "question": "Qu'est ce qui est multiplié par huit ?",
      "answer": "la bureaucratie",
      "answer_stringIds": [
        "string_133",
        "string_134"
      ]
    },
    {
      "id_qa": "autog_0249-2563_1981_num_14_6_T1_0172_0000_qa33_v3",
      "id_block": "block_5",
      "question": "Combien de temps la bureaucratie est-elle réduite ?",
      "answer": "par huit",
      "answer_stringIds": [
        "string_267",
        "string_268"
      ]
    },
    {
      "id_qa": "autog_0249-2563_1981_num_14_6_T1_0172_0000_qa43_v3",
      "id_block": "block_5",
      "question": "Quelle est la conséquence de cet accroissement de la bureaucratie ?",
      "answer": "un grand accroissement de la bureaucratie au niveau de la république",
      "answer_stringIds": [
        "string_223",
        "string_224",
        "string_225",
        "string_226",
        "string_227",
        "string_228",
        "string_229",
        "string_230",
        "string_231",
        "string_232",
        "string_233",
        "string_234"
      ]
    },
    {
      "id_qa": "autog_0249-2563_1981_num_14_6_T1_0172_0000_qa17_v3",
      "id_block": "block_6",
      "question": "Qui a pu continuer à travailler après 1975 ?",
      "answer": "les professeurs",
      "answer_stringIds": [
        "string_272",
        "string_273"
      ]
    },
    {
      "id_qa": "autog_0249-2563_1981_num_14_6_T1_0172_0000_qa21_v3",
      "id_block": "block_6",
      "question": "A quoi les professeurs exclus ont-ils pu continuer après 1975 ?",
      "answer": "à travailler",
      "answer_stringIds": [
        "string_278",
        "string_279",
        "string_280"
      ]
    },
    {
      "id_qa": "autog_0249-2563_1981_num_14_6_T1_0172_0000_qa6_v3",
      "id_block": "block_7",
      "question": "Combien de livres ont été publiés ?",
      "answer": "un seul livre",
      "answer_stringIds": [
        "string_298",
        "string_299",
        "string_300"
      ]
    },
    {
      "id_qa": "autog_0249-2563_1981_num_14_6_T1_0172_0000_qa37_v3",
      "id_block": "block_7",
      "question": "Qui a publié en Yougoslavie ?",
      "answer": "Mes collègues et moi",
      "answer_stringIds": [
        "string_305",
        "string_306",
        "string_307",
        "string_308"
      ]
    },
    {
      "id_qa": "autog_0249-2563_1981_num_14_6_T1_0172_0000_qa38_v3",
      "id_block": "block_7",
      "question": "Où mes collègues et moi avons-ils publié ?",
      "answer": "en Yougoslavie",
      "answer_stringIds": [
        "string_123",
        "string_124"
      ]
    },
    {
      "id_qa": "autog_0249-2563_1981_num_14_6_T1_0172_0000_qa39_v3",
      "id_block": "block_7",
      "question": "Qu'est ce qui est strictement respecté par les rédactions ?",
      "answer": "les listes noires",
      "answer_stringIds": [
        "string_333",
        "string_334",
        "string_335"
      ]
    },
    {
      "id_qa": "autog_0249-2563_1981_num_14_6_T1_0172_0000_qa41_v3",
      "id_block": "block_7",
      "question": "Par qui est respectée la liste noire ?",
      "answer": "les rédactions",
      "answer_stringIds": [
        "string_349",
        "string_350"
      ]
    }
  ]
}