{
  "num": "autog_0338-7259_1973_num_22_1",
  "article": "autog_0338-7259_1973_num_22_1_1091",
  "page_name": "FMSH_PB188a_22-23_174",
  "questions": [
    {
      "id_qa": "FMSH_PB188a_22-23_174_qa35_v3",
      "id_block": "block_1",
      "question": "Qu'est ce qui divise les ouvriers entre eux ?",
      "answer": "des luttes pour unir",
      "answer_stringIds": [
        "string_12",
        "string_13",
        "string_14",
        "string_15"
      ]
    },
    {
      "id_qa": "FMSH_PB188a_22-23_174_qa37_v3",
      "id_block": "block_1",
      "question": "Qu'oppose le nouveau fascisme ?",
      "answer": "la nouvelle démocratie",
      "answer_stringIds": [
        "string_48",
        "string_49",
        "string_50"
      ]
    },
    {
      "id_qa": "FMSH_PB188a_22-23_174_qa38_v3",
      "id_block": "block_1",
      "question": "Qu'est-ce qui est proposé contre la division des nationalités ?",
      "answer": "Palternative",
      "answer_stringIds": [
        "string_40"
      ]
    },
    {
      "id_qa": "FMSH_PB188a_22-23_174_qa25_v3",
      "id_block": "block_2",
      "question": "Qui rejette les syndicats ?",
      "answer": "Les maoïstes",
      "answer_stringIds": [
        "string_52",
        "string_53"
      ]
    },
    {
      "id_qa": "FMSH_PB188a_22-23_174_qa30_v3",
      "id_block": "block_2",
      "question": "Qu'est-ce que la C.G.T. à Renault ?",
      "answer": "la hiérarchie capitaliste",
      "answer_stringIds": [
        "string_81",
        "string_82",
        "string_83"
      ]
    },
    {
      "id_qa": "FMSH_PB188a_22-23_174_qa31_v3",
      "id_block": "block_3",
      "question": "Qu'est ce qui fait avancer le contrôle ouvrier dans l'entreprise ?",
      "answer": "de luttes",
      "answer_stringIds": [
        "string_107",
        "string_108"
      ]
    },
    {
      "id_qa": "FMSH_PB188a_22-23_174_qa32_v3",
      "id_block": "block_3",
      "question": "Qui est l'auteur de « Quatre actes de contrôle ouvrier » ?",
      "answer": "Jean-pierre Barou",
      "answer_stringIds": [
        "string_87",
        "string_88"
      ]
    },
    {
      "id_qa": "FMSH_PB188a_22-23_174_qa36_v3",
      "id_block": "block_3",
      "question": "Que remet en question le système hiérarchique de l'entreprise ?",
      "answer": "Ces luttes",
      "answer_stringIds": [
        "string_119",
        "string_120"
      ]
    },
    {
      "id_qa": "FMSH_PB188a_22-23_174_qa24_v3",
      "id_block": "block_6",
      "question": "Qu'est ce que les ouvriers d'une chaîne tiennent ?",
      "answer": "un cahier de toutes les infractions des chefs",
      "answer_stringIds": [
        "string_170",
        "string_171",
        "string_172",
        "string_173",
        "string_174",
        "string_175",
        "string_176",
        "string_177"
      ]
    },
    {
      "id_qa": "FMSH_PB188a_22-23_174_qa3_v3",
      "id_block": "block_8",
      "question": "Qui prend en charge la transformation de la réalité ?",
      "answer": "les ouvriers",
      "answer_stringIds": [
        "string_6",
        "string_7"
      ]
    },
    {
      "id_qa": "FMSH_PB188a_22-23_174_qa5_v3",
      "id_block": "block_8",
      "question": "Qu'est-ce que les ouvriers prennent en charge ?",
      "answer": "la transformation de la réalité",
      "answer_stringIds": [
        "string_202",
        "string_203",
        "string_204",
        "string_205",
        "string_206"
      ]
    },
    {
      "id_qa": "FMSH_PB188a_22-23_174_qa8_v3",
      "id_block": "block_9",
      "question": "Que doivent s'approprier les masses ouvrières ?",
      "answer": "la politique des maos et leur initiatives",
      "answer_stringIds": [
        "string_371",
        "string_372",
        "string_373",
        "string_374",
        "string_375",
        "string_376",
        "string_377"
      ]
    },
    {
      "id_qa": "FMSH_PB188a_22-23_174_qa11_v3",
      "id_block": "block_9",
      "question": "Qu'est-ce que les militants \" maos\" ?",
      "answer": "des gens",
      "answer_stringIds": [
        "string_350",
        "string_351"
      ]
    },
    {
      "id_qa": "FMSH_PB188a_22-23_174_qa12_v3",
      "id_block": "block_9",
      "question": "Qui doit s'approprier la politique des maos ?",
      "answer": "les masses",
      "answer_stringIds": [
        "string_321",
        "string_322"
      ]
    }
  ]
}