{
  "num": "autog_0338-7259_1975_num_30_1",
  "article": "autog_0338-7259_1975_num_30_1_1136_t1_0202_0000_1",
  "page_name": "FMSH_PB188a_30-31_206",
  "questions": [
    "Quels sont les mouvements d'idées qui ont déterminé les projets sociaux des vingt dernières années ?",
    "Quels sont les efforts de renouvellement et de transformation des partis socialistes depuis les années 50 ?",
    "Quel est le rôle des réformes de structures dans la société ?",
    "Qu'est-il arrivé au capitalisme ?",
    "Comment les luttes sociales sont-elles liées aux projets de transformation des structures ?",
    "Quels sont les nouveaux acteurs historiques privilégiés dans la société ?",
    "Est-la classe ouvrière toujours révolutionnaire ?",
    "Quel est le rôle du concept d'aliénation dans le nouveau discours politique ?",
    "Comment la croissance économique des années 60 a-t-elle bousculé les schémas de la gauche ?",
    "Quels sont les nouveaux discours politiques contre l'économisme et pour la révolution culturelle ?",
    "Comment la Terre est-elle devenue trop étroite et quels sont les risques de la croissance à tout prix ?",
    "Comment les objecteurs de croissance contribuent-ils à survivre ?"
  ]
}