{
  "num": "autog_0338-7259_1974_num_28_1",
  "article": "autog_0338-7259_1974_num_28_1_1189",
  "page_name": "FMSH_PB188a_28-29_010",
  "questions": [
    "Quel rôle prend Georges Lasserre dans la démocratisation de l'entreprise (C.F.D.T.) ?",
    "Les travailleurs sont-ils aptes à assumer la fonction d'entrepreneur ?",
    "Quel type de compétence est nécessaire des travailleurs dans le cadre de l'autogestion ?",
    "Quels sont les rôles des travailleurs dans l'autogestion ?",
    "Comment les travailleurs expriment leurs besoins, intérêts et aspirations dans l'autogestion ?",
    "Comment les travailleurs choisissent les spécialistes dans l'autogestion ?",
    "Comment les travailleurs adoptent les grandes orientations et la politique générale de l'entreprise dans l'autogestion ?",
    "Comment les travailleurs jugent la gestion des dirigeants dans l'autogestion ?",
    "Comment les travailleurs élisent des représentants pour suivre et surveiller la gestion directoriale et la marche de l'entreprise dans l'autogestion ?",
    "Comment l'autogestion échappe au problème de la démocratie ?"
  ]
}