{
  "num": "autog_0338-7259_1974_num_28_1",
  "article": "autog_0338-7259_1974_num_28_1_1189",
  "page_name": "FMSH_PB188a_28-29_025",
  "questions": [
    "Quels sont les recherches théoriques et expérimentales importantes dans le domaine de l'auto-gestion ?",
    "Quel a été le sort de la planification yougoslave ?",
    "Comment l'expérience de réforme de l'économie soviétique a-t-elle évolué ?",
    "Quel est l'avenir probable d'une économie d'entreprises autogérées en matière de rôle de l'État ?",
    "Comment peut l'organisation des consommateurs contrecarrer l'égoïsme des travailleurs autogestionnaires ?",
    "Dans quels domaines la production n'a-t-elle aucun sens ?",
    "Pourquoi la production ne peut-elle pas être considérée comme ayant pour but de satisfaire les consommateurs dans tous les cas ?"
  ]
}