{
  "num": "autog_0338-7259_1974_num_28_1",
  "article": "autog_0338-7259_1974_num_28_1_1189",
  "page_name": "FMSH_PB188a_28-29_027",
  "questions": [
    "Quel pays est-il question ici ?",
    "Quels syndicats français pensent-ils qu'il est nécessaire de construire une démocratie des consommateurs ?",
    "Dans quels types d'organismes les auteurs veulent intégrer les consommateurs ?",
    "Quel rôle envisagent-ils pour les consommateurs dans le système de production ?",
    "Qu'est-ce qu'une coopérative de consommateurs ?",
    "Comment les coopératives de consommateurs pourraient-elles agir dans un système économique socialiste d'autogestion ?",
    "Qu'est le rôle envisagé pour ces coopératives de neutraliser les abus des producteurs ?",
    "Qu'est le danger d'abus des producteurs que les auteurs veulent neutraliser ?",
    "Qu'est le mouvement du « consumérisme » et comment il peut réveiller les consommateurs ?",
    "Quand parle-t-on de l'intérêt général dans ce passage ?",
    "Quels sont les pays où le réseau de distribution et de production des coopératives de consommateurs est plus puissant que en France ?"
  ]
}