{
  "num": "autog_0338-7259_1974_num_28_1",
  "article": "autog_0338-7259_1974_num_28_1_1189",
  "page_name": "FMSH_PB188a_28-29_017",
  "questions": [
    "Quels sont les conséquences économiques de l'auto-gestion sur l'emploi ?",
    "Quels pouvoirs spéciaux ont été accordés aux directeurs en Yougoslavie pour réduire les effectifs ?",
    "Pourquoi les employeurs ont-ils hésité à congédier un travailleur peu productif ?",
    "Quels types de pratiques syndicales ont été critiquées dans le paragraphe ?",
    "Quels sont les tendances observées dans la classe ouvrière en matière de technologie ?",
    "Comment les attitudes des travailleurs se comprendent-elles dans leur origine ?",
    "Comment les coopératives espagnoles de Mondragon ont-elles réagi aux transformations technologiques ?",
    "Quels sont les caractéristiques du personnel de ces coopératives ?"
  ]
}