{
  "num": "autog_0338-7259_1971_num_16_1",
  "article": "autog_0338-7259_1971_num_16_1_1012",
  "page_name": "FMSH_PB188a_16-17_031",
  "questions": [
    "Quels groupes sont impliqués dans l'adoption de l'autogestion en France ?",
    "Comment l'autogestion est-elle perçue par ses détracteurs ?",
    "Quels travailleurs sont impliqués dans la demande d'autogestion ?",
    "Quels types de figures symboliques sont mis en question par les travailleurs ?",
    "Quels types de luttes syndicales sont considérées comme « rassurantes » ?",
    "Quel choix face à l'illusion de l'enfance ou le contrôle de son destin est proposé à l'humanité ?"
  ]
}