{
  "num": "autog_0338-7259_1971_num_16_1",
  "article": "autog_0338-7259_1971_num_16_1_1012",
  "page_name": "FMSH_PB188a_16-17_029",
  "questions": [
    "Quels principes sous-tendent la philosophie idéologique d'une autogestion programmatique ?",
    "Comment est-ce que le rôle du syndicat est défini dans cette philosophie ?",
    "Quel but poursuit l'autogestion selon cette philosophie ?",
    "Comment l'autogestion vise à renverser l'autorité dans les luttes quotidiennes ?",
    "Comment les dirigeants sont-ils perçus dans cette philosophie ?",
    "Quel rôle joue l'élection dans la philosophie de l'autogestion ?"
  ]
}