{
  "num": "autog_0338-7259_1971_num_16_1",
  "article": "autog_0338-7259_1971_num_16_1_1012",
  "page_name": "FMSH_PB188a_16-17_023",
  "questions": [
    "Quel syndicaliste italien a posé l'objection au fonctionnement des syndicats en Yougoslavie ?",
    "Quels mouvements de grèves ont été signalés dans la presse bourgeoise ?",
    "Comment les dirigeants yougoslaves ont répondu à l'objection sur le rôle des syndicats dans les grèves ?",
    "Qu'est-ce qui empêche la grève de réaliser son essence en Yougoslavie ?",
    "Comment les syndicats existent-ils en régime d'autogestion ?",
    "Quelle est la conclusion logique si on se limite aux définitions abstraites ?",
    "Comment expliquent les contradictions entre les définitions abstraites et les observations empiriques ?",
    "Quel est le point de vue des dirigeants yougoslaves sur l'autogestion ?",
    "Qu'est-ce qui peut expliquer la contradiction entre les définitions abstraites et les réalités observées ?"
  ]
}