{
  "num": "autog_0005-0970_1968_num_7_1",
  "article": "autog_0005-0970_1968_num_7_1_931",
  "page_name": "FMSH_PB188a_00007_010",
  "questions": [
    {
      "id_qa": "FMSH_PB188a_00007_010_qa10_v3",
      "id_block": "block_1",
      "question": "Où se déroule l'assemblée générale du département de sociologie ?",
      "answer": "à Nanterre",
      "answer_stringIds": [
        "string_7",
        "string_8"
      ]
    },
    {
      "id_qa": "FMSH_PB188a_00007_010_qa11_v3",
      "id_block": "block_1",
      "question": "Quand a eu lieu l'assemblée générale du département de sociologie ?",
      "answer": "Le 19 novembre",
      "answer_stringIds": [
        "string_3",
        "string_4",
        "string_5"
      ]
    },
    {
      "id_qa": "FMSH_PB188a_00007_010_qa43_v3",
      "id_block": "block_1",
      "question": "Qu'est-ce qui est prévu le lendemain de la décision de la mise en place du plan Touraine ?",
      "answer": "un séminaire de travail",
      "answer_stringIds": [
        "string_25",
        "string_26",
        "string_27",
        "string_28"
      ]
    },
    {
      "id_qa": "FMSH_PB188a_00007_010_qa1_v3",
      "id_block": "block_2",
      "question": "Qui quitte la Faculté en fin de matinée ?",
      "answer": "René Lourau",
      "answer_stringIds": [
        "string_65",
        "string_66"
      ]
    },
    {
      "id_qa": "FMSH_PB188a_00007_010_qa3_v3",
      "id_block": "block_2",
      "question": "Par quoi René Lourau quitte-t-il la Faculté ?",
      "answer": "par la lutte interminable des « groupuscules",
      "answer_stringIds": [
        "string_80",
        "string_81",
        "string_82",
        "string_83",
        "string_84",
        "string_85",
        "string_86"
      ]
    },
    {
      "id_qa": "FMSH_PB188a_00007_010_qa5_v3",
      "id_block": "block_2",
      "question": "Où René Lourau quitte-t-il en fin de matinée ?",
      "answer": "la Faculté",
      "answer_stringIds": [
        "string_89",
        "string_90"
      ]
    },
    {
      "id_qa": "FMSH_PB188a_00007_010_qa6_v3",
      "id_block": "block_2",
      "question": "Qui décide de proclamer l'autogestion du département de sociologie ?",
      "answer": "ces étudiants",
      "answer_stringIds": [
        "string_109",
        "string_110"
      ]
    },
    {
      "id_qa": "FMSH_PB188a_00007_010_qa9_v3",
      "id_block": "block_2",
      "question": "Qu'affiche les groupes ?",
      "answer": "leur programme",
      "answer_stringIds": [
        "string_147",
        "string_148"
      ]
    },
    {
      "id_qa": "FMSH_PB188a_00007_010_qa15_v3",
      "id_block": "block_2",
      "question": "Qui est à l'origine du programme autogéré ?",
      "answer": "les enseignants",
      "answer_stringIds": [
        "string_221",
        "string_222"
      ]
    },
    {
      "id_qa": "FMSH_PB188a_00007_010_qa16_v3",
      "id_block": "block_2",
      "question": "Qu'est ce qui remplace les programmes prévus par les enseignants ?",
      "answer": "le programme",
      "answer_stringIds": [
        "string_344",
        "string_345"
      ]
    },
    {
      "id_qa": "FMSH_PB188a_00007_010_qa21_v3",
      "id_block": "block_2",
      "question": "Qu'est ce qui est incompatible avec toute forme de cogestion ?",
      "answer": "Pautogestion",
      "answer_stringIds": [
        "string_370"
      ]
    },
    {
      "id_qa": "FMSH_PB188a_00007_010_qa22_v3",
      "id_block": "block_2",
      "question": "Qui a appelé l'autogestion spontanée ?",
      "answer": "René Lourau",
      "answer_stringIds": [
        "string_65",
        "string_66"
      ]
    },
    {
      "id_qa": "FMSH_PB188a_00007_010_qa24_v3",
      "id_block": "block_2",
      "question": "Qu'est ce qui rend public cette décision ?",
      "answer": "un tract",
      "answer_stringIds": [
        "string_204",
        "string_205"
      ]
    },
    {
      "id_qa": "FMSH_PB188a_00007_010_qa25_v3",
      "id_block": "block_2",
      "question": "Qu'est ce qui est rendu public le matin ?",
      "answer": "cette décision",
      "answer_stringIds": [
        "string_208",
        "string_209"
      ]
    },
    {
      "id_qa": "FMSH_PB188a_00007_010_qa28_v3",
      "id_block": "block_2",
      "question": "A partir de quoi les groupes d'étudiants travaillent-ils le matin ?",
      "answer": "des thèmes",
      "answer_stringIds": [
        "string_172",
        "string_173"
      ]
    },
    {
      "id_qa": "FMSH_PB188a_00007_010_qa29_v3",
      "id_block": "block_2",
      "question": "Quand les groupes d'étudiants travaillent-ils à partir des thèmes décidés ?",
      "answer": "le matin",
      "answer_stringIds": [
        "string_175",
        "string_176"
      ]
    },
    {
      "id_qa": "FMSH_PB188a_00007_010_qa35_v3",
      "id_block": "block_2",
      "question": "A partir de quand l'autogestion est-elle possible ?",
      "answer": "le pouvoir enseignant",
      "answer_stringIds": [
        "string_317",
        "string_318",
        "string_319"
      ]
    },
    {
      "id_qa": "FMSH_PB188a_00007_010_qa36_v3",
      "id_block": "block_2",
      "question": "Qu'est-ce qui est demandé aux élèves ?",
      "answer": "participer à ce travail",
      "answer_stringIds": [
        "string_182",
        "string_183",
        "string_184",
        "string_185"
      ]
    },
    {
      "id_qa": "FMSH_PB188a_00007_010_qa38_v3",
      "id_block": "block_2",
      "question": "A quoi me demande-t-ils de participer ?",
      "answer": "à ce travail",
      "answer_stringIds": [
        "string_183",
        "string_184",
        "string_185"
      ]
    },
    {
      "id_qa": "FMSH_PB188a_00007_010_qa48_v3",
      "id_block": "block_2",
      "question": "Quand est-ce que René Lourau assiste au séminaire annoncé la veille ?",
      "answer": "Le lendemain 20 novembre au matin",
      "answer_stringIds": [
        "string_57",
        "string_58",
        "string_59",
        "string_60",
        "string_61",
        "string_62"
      ]
    }
  ]
}