{
  "num": "autog_0005-0970_1968_num_7_1",
  "article": "autog_0005-0970_1968_num_7_1_931",
  "page_name": "FMSH_PB188a_00007_025",
  "questions": [
    {
      "id_qa": "FMSH_PB188a_00007_025_qa23_v3",
      "id_block": "block_1",
      "question": "Qu'est ce qui contrôle le renouvellement du personnel enseignant ?",
      "answer": "super-structures idéologiques",
      "answer_stringIds": [
        "string_28",
        "string_29"
      ]
    },
    {
      "id_qa": "FMSH_PB188a_00007_025_qa36_v3",
      "id_block": "block_1",
      "question": "Qui a déjà montré que la connaissance scientifique et technique joue un rôle de plus en plus important dans l'ensemble des forces productives ?",
      "answer": "Marx",
      "answer_stringIds": [
        "string_46"
      ]
    },
    {
      "id_qa": "FMSH_PB188a_00007_025_qa5_v3",
      "id_block": "block_2",
      "question": "Dans quel but l'université a-t-elle joué un rôle ?",
      "answer": "dans la diffusion de la revendication autogestionnaire",
      "answer_stringIds": [
        "string_98",
        "string_99",
        "string_100",
        "string_101",
        "string_102",
        "string_103",
        "string_104"
      ]
    },
    {
      "id_qa": "FMSH_PB188a_00007_025_qa8_v3",
      "id_block": "block_2",
      "question": "Quel rôle pourrait jouer l'université dans la lutte pour le socialisme ?",
      "answer": "jouer un rôle dans la diffusion de la revendication autogestionnaire",
      "answer_stringIds": [
        "string_95",
        "string_96",
        "string_97",
        "string_98",
        "string_99",
        "string_100",
        "string_101",
        "string_102",
        "string_103",
        "string_104"
      ]
    },
    {
      "id_qa": "FMSH_PB188a_00007_025_qa17_v3",
      "id_block": "block_3",
      "question": "Quel est le rôle de dressage de l'éducation physique et sportive ?",
      "answer": "le système éducatif",
      "answer_stringIds": [
        "string_169",
        "string_170",
        "string_171"
      ]
    },
    {
      "id_qa": "FMSH_PB188a_00007_025_qa31_v3",
      "id_block": "block_3",
      "question": "Qu'est-ce que l'éducation libertaire ?",
      "answer": "un contre projet",
      "answer_stringIds": [
        "string_177",
        "string_178",
        "string_179"
      ]
    },
    {
      "id_qa": "FMSH_PB188a_00007_025_qa0_v3",
      "id_block": "block_4",
      "question": "Qu'est-ce qui rend irréalisable le projet ?",
      "answer": "la société",
      "answer_stringIds": [
        "string_206",
        "string_207"
      ]
    },
    {
      "id_qa": "FMSH_PB188a_00007_025_qa2_v3",
      "id_block": "block_4",
      "question": "Qu'est-ce qui reste irréalisable si la société ne change pas ?",
      "answer": "ce projet",
      "answer_stringIds": [
        "string_200",
        "string_201"
      ]
    },
    {
      "id_qa": "FMSH_PB188a_00007_025_qa16_v3",
      "id_block": "block_5",
      "question": "Quand l'autogestion a-t-elle eu lieu ?",
      "answer": "En mai",
      "answer_stringIds": [
        "string_226",
        "string_227"
      ]
    },
    {
      "id_qa": "FMSH_PB188a_00007_025_qa25_v3",
      "id_block": "block_5",
      "question": "Que prépare la destruction de l'Etat selon Marx ?",
      "answer": "le « self gouvernement",
      "answer_stringIds": [
        "string_306",
        "string_307",
        "string_308",
        "string_309"
      ]
    },
    {
      "id_qa": "FMSH_PB188a_00007_025_qa26_v3",
      "id_block": "block_5",
      "question": "Qui pense que la destruction de l'Etat précède nécessairement le self gouvernement ?",
      "answer": "Marx",
      "answer_stringIds": [
        "string_46"
      ]
    },
    {
      "id_qa": "FMSH_PB188a_00007_025_qa29_v3",
      "id_block": "block_5",
      "question": "Qui parle de l'usine Pechiney ?",
      "answer": "René Lourau",
      "answer_stringIds": [
        "string_239",
        "string_240"
      ]
    },
    {
      "id_qa": "FMSH_PB188a_00007_025_qa32_v3",
      "id_block": "block_5",
      "question": "Quelle était la première usine en autogestion ?",
      "answer": "Certaines usines",
      "answer_stringIds": [
        "string_232",
        "string_233"
      ]
    },
    {
      "id_qa": "FMSH_PB188a_00007_025_qa10_v3",
      "id_block": "block_6",
      "question": "Qu'est-ce qui est devenu un bien vacant ?",
      "answer": "le pouvoir",
      "answer_stringIds": [
        "string_341",
        "string_342"
      ]
    },
    {
      "id_qa": "FMSH_PB188a_00007_025_qa27_v3",
      "id_block": "block_6",
      "question": "A partir de quoi l'autogestion devient réalisable ?",
      "answer": "cette destruction",
      "answer_stringIds": [
        "string_331",
        "string_332"
      ]
    }
  ]
}