{
  "num": "autog_0249-2563_1982_num_16_12",
  "article": "autog_0249-2563_1982_num_16_12_1523",
  "page_name": "autog_0249-2563_1982_num_16_12_T1_0025_0000",
  "questions": [
    {
      "id_qa": "autog_0249-2563_1982_num_16_12_T1_0025_0000_qa14_v3",
      "id_block": "block_0",
      "question": "Qu'est ce qui devait aboutir en 1964 à un Colloque de Royaumont ?",
      "answer": "Ce travail",
      "answer_stringIds": [
        "string_14",
        "string_15"
      ]
    },
    {
      "id_qa": "autog_0249-2563_1982_num_16_12_T1_0025_0000_qa15_v3",
      "id_block": "block_0",
      "question": "Qu'est ce qui a abouti à un Colloque de Royaumont ?",
      "answer": "Ce travail",
      "answer_stringIds": [
        "string_14",
        "string_15"
      ]
    },
    {
      "id_qa": "autog_0249-2563_1982_num_16_12_T1_0025_0000_qa17_v3",
      "id_block": "block_0",
      "question": "Où a eu lieu le travail sur l'Autogestion pédagogique ?",
      "answer": "à un Colloque de Royaumont",
      "answer_stringIds": [
        "string_20",
        "string_21",
        "string_22",
        "string_23",
        "string_24"
      ]
    },
    {
      "id_qa": "autog_0249-2563_1982_num_16_12_T1_0025_0000_qa23_v3",
      "id_block": "block_3",
      "question": "Qu'est-ce que le conseil de classe ?",
      "answer": "une « coopérative",
      "answer_stringIds": [
        "string_136",
        "string_137",
        "string_138"
      ]
    },
    {
      "id_qa": "autog_0249-2563_1982_num_16_12_T1_0025_0000_qa24_v3",
      "id_block": "block_3",
      "question": "Avec le conseil de classe, qu'est-ce que la coopérative ?",
      "answer": "toute la classe",
      "answer_stringIds": [
        "string_130",
        "string_131",
        "string_132"
      ]
    },
    {
      "id_qa": "autog_0249-2563_1982_num_16_12_T1_0025_0000_qa7_v3",
      "id_block": "block_6",
      "question": "Qu'est ce qui menaçait de paralyser la vie de la classe ou l'activité de l'équipe ?",
      "answer": "un conflit",
      "answer_stringIds": [
        "string_249",
        "string_250"
      ]
    },
    {
      "id_qa": "autog_0249-2563_1982_num_16_12_T1_0025_0000_qa13_v3",
      "id_block": "block_6",
      "question": "Quel était le modèle de la pédagogie institutionnelle ?",
      "answer": "le T. Group",
      "answer_stringIds": [
        "string_312",
        "string_313",
        "string_314"
      ]
    }
  ]
}