{
  "num": "autog_0249-2563_1982_num_15_8",
  "article": "autog_0249-2563_1982_num_15_8_1469",
  "page_name": "autog_0249-2563_1982_num_15_8_T1_0036_0000",
  "questions": [
    "Quels types de grandes entreprises ont développé des formes de travail précaires ?",
    "Quelles petites entreprises périphériques sont très performantes et offrent des emplois intéressants et bien payés ?",
    "Dans quels pays et contextes s'est développée cette segmentation du marché du travail à partir des années 60 ?",
    "Quels sont les travaux les plus anciens et les plus nombreux sur la double économie et le double marché du travail ?",
    "Dans quelle mesure l'approche duale a-t-elle été élargie à l'ensemble des sphères d'activité de la société ?",
    "Qu'est-ce que l'économie non-marchande, domestique et communautaire ou associative ?",
    "Quels travaux se sont attachés à montrer un développement ou une possibilité de développement d'une économie « informelle » ?",
    "Comment les auteurs récents défendent-ils une approche de l'économie duale ?",
    "Comment cette approche d'ensemble des activités de la société coïncide avec des discussions plus anciennes ?",
    "Quels sont les deux schémas opposés dans le débat sur la société et l'économie duale en France ?",
    "Quels sont les commentateurs et les technocrates qui ont été agités par ce débat en France ?"
  ]
}