{
  "num": "autog_0249-2563_1982_num_15_8",
  "article": "autog_0249-2563_1982_num_15_8_1469",
  "page_name": "autog_0249-2563_1982_num_15_8_T1_0035_0000",
  "questions": [
    "Quel est le contexte historique dans lequel s'est engagée la discussion sur la socio-économie duale dans les pays les plus industrialisés ?",
    "Quel est la vision apocalyptique de Arnold Toynbee sur la division entre la minorité productive et la majorité inoccupée ?",
    "En quels pays et à quelle époque ont été entrepris les premiers travaux sur l'approche dualiste ?",
    "Qui sont les sociologues et économistes du travail qui ont contribué à l'approche dualiste dans les pays industrialisés ?",
    "Quel est le rôle de l'approche dualiste dans l'analyse du marché du travail et de l'appareil de production ?",
    "Quels sont les types d'emplois distingués par l'approche dualiste ?",
    "Quels sont les types d'entreprises distingués par l'approche dualiste ?",
    "Comment les deux expressions du dualisme se distinguent-elles ?",
    "Dans quel contexte est cette étude de Michel Schiray et Krystyna Vinaver publiée ?"
  ]
}