{
  "num": "autog_0249-2563_1982_num_15_8",
  "article": "autog_0249-2563_1982_num_15_8_1469",
  "page_name": "autog_0249-2563_1982_num_15_8_T1_0038_0000",
  "questions": [
    "Quel est le dualisme économique en question ?",
    "Quel est le sens de l'alternative entre un dualisme vertical et un dualisme horizontal ?",
    "Comment la société assure-t-elle la répartition des activités entre ses membres ?",
    "Quels sont les différents temps sociaux qui traversent l'économie et la société ?",
    "Quels auteurs sont cités dans le texte en relation avec le dualisme économique ?",
    "Quels sont les titres des articles et livres cités dans le texte ?",
    "Quels sont les thèmes abordés dans chaque texte cité ?",
    "Quels sont les auteurs qui abordent le thème de l'autogestion et de l'économie duale ?",
    "Quels sont les auteurs qui abordent le thème de la superindustrialisation et de ses effets sur la société ?",
    "Quels sont les auteurs qui abordent le thème de l'économie informelle ?",
    "Quels sont les auteurs qui proposent des alternatives à l'actuel système économique ?",
    "Quels sont les auteurs cités par Azouni dans son article sur le dualisme du marché du travail ?",
    "Quels sont les auteurs cités par Saba dans son article sur l'industrie soumise ?",
    "Quels sont les auteurs cités par Gershuny dans son livre sur l'économie après l'industrialisation ?",
    "Quels sont les auteurs cités par Huber dans son article sur l'autogestion et l'économie duale ?",
    "Quels sont les auteurs cités par Illich dans son livre sur le travail fantôme ?",
    "Quels sont les auteurs cités par Gorz dans son livre Adieux au prolétariat ?",
    "Quels sont les auteurs cités par Friedman dans son article sur le secteur D de l'économie ?",
    "Quels sont les auteurs cités par Robertson dans son livre The sane alternative ?",
    "Quels?"
  ]
}