{
  "num": "autog_0338-7259_1971_num_16_1",
  "article": "autog_0338-7259_1971_num_16_1_1023_t1_0191_0000_1",
  "page_name": "FMSH_PB188a_16-17_196",
  "questions": [
    "Quel était le but initial de l'autogestion en Yougoslavie selon D. ?",
    "Comment Meister décrit-il l'autogestion en Yougoslavie en termes de pouvoir et d'autorité ?",
    "Quel rôle avait-il l'autogestion joué dans la formation de cadres en Yougoslavie ?",
    "Quel était le secteur de l'économie concerné par l'autogestion en Yougoslavie ?",
    "Comment Meister caractérise-t-il l'autogestion en termes de niveau d'organisation ?",
    "Quel était le statut de la propriété sociale dans les entreprises autogérées selon Meister ?",
    "Comment Meister compare l'économie yougoslave à une économie occidentale ?",
    "Quel est le point de vue de Meister sur le socialisme ?",
    "Quel est le sort de l'autogestion au niveau global selon Meister ?"
  ]
}