{
  "num": "autog_0338-7259_1979_num_43_1",
  "article": "autog_0338-7259_1979_num_43_1_1302_t1_0106_0000_2",
  "page_name": "FMSH_PB188a_00043_109",
  "questions": [
    "Quel est le Syndicalisme du Cadre de Vie (SCV) et de quelle manière est-il né ?",
    "Comment s'est étendue la lutte des classes au-delà de la production ?",
    "Quels sont les domaines de la vie quotidienne où se manifestent ces luttes ?",
    "Quels sont les deux courants essentiels du SCV ?",
    "Comment le mouvement familial et le mouvement écologique se distinguent dans le SCV ?",
    "Quel rôle joue le SCV dans l'autogestion ?",
    "Quels sont les axes de luttes du SCV ?",
    "Quels sont les exemples de luttes menées dans chaque secteur du cadre de vie par la CSCV ?",
    "Quels sont les ferments et les pratiques autogestionnaires ressortant des luttes mentionnées dans l'ouvrage ?"
  ]
}