{
  "num": "autog_0338-7259_1975_num_32_1",
  "article": "autog_0338-7259_1975_num_32_1_1139",
  "page_name": "FMSH_PB188a_00032_024",
  "questions": [
    "Quel est le point de vue de l'auteur sur le développement de l'autogestion aux États-Unis ?",
    "Quels pays en Europe et en Amérique latine sont-ils en avance en matière d'autogestion ?",
    "Quel est le rôle des médias dans la couverture de l'autogestion aux États-Unis ?",
    "Quel est le retard des États-Unis par rapport aux autres pays dans le domaine de l'autogestion ?",
    "Quel est l'impact de ce retard sur le monde entier ?",
    "Quel est l'opinion de l'auteur sur le rôle des États-Unis comme référence pour d'autres pays ?",
    "Quel est l'effet potentiellement positif de l'affaiblissement des positions américaines dans le monde sur l'autogestion ?"
  ]
}