{
  "num": "autog_0338-7259_1975_num_32_1",
  "article": "autog_0338-7259_1975_num_32_1_1139",
  "page_name": "FMSH_PB188a_00032_027",
  "questions": [
    "People for selfmanagement» un mouvement historique particulier aux États-Unis ?",
    "Quelle est la philosophie fondamentale de ce mouvement ?",
    "Qu'est-ce qui est mis en avant par les membres de ce mouvement au niveau philosophique ?",
    "Qu'est-ce qui est rejeté par les membres de ce mouvement au niveau philosophique ?",
    "Quel est le point de vue des membres de ce mouvement sur la propriété des moyens de production ?",
    "Quel est le but final de ce mouvement selon ses membres ?",
    "Quel est le statut social de ce mouvement ?",
    "Quel est le but de la première conférence générale sur l'autogestion ?",
    "Dans quels domaines le mouvement «People for selfmanagement» cherche-t-il à promouvoir la participation ?",
    "Quand a-t-elle eu lieu la première conférence générale sur l'autogestion ?",
    "Où a-t-elle eu lieu la première conférence générale sur l'autogestion ?",
    "Combien de personnes ont assisté à cette conférence ?",
    "Quel était l'objectif principal de cette conférence ?"
  ]
}