{
  "num": "autog_0338-7259_1978_num_41_1",
  "article": "autog_0338-7259_1978_num_41_1_1324",
  "page_name": "FMSH_PB188a_41-42_220",
  "questions": [
    {
      "id_qa": "FMSH_PB188a_41-42_220_qa16_v3",
      "id_block": "block_1",
      "question": "Qu'est-ce qui require a great deal of expertise and should be taken by the experts ?",
      "answer": "many particular decisions",
      "answer_stringIds": [
        "string_X"
      ]
    },
    {
      "id_qa": "FMSH_PB188a_41-42_220_qa18_v3",
      "id_block": "block_1",
      "question": "Qui peut t'il t'aider à identifier les particular decisions still require a great deal of expertise ?",
      "answer": "by the experts",
      "answer_stringIds": [
        "string_X"
      ]
    },
    {
      "id_qa": "FMSH_PB188a_41-42_220_qa7_v3",
      "id_block": "block_2",
      "question": "Comment les personal and social problems of workers in the enterprise shall be decided ?",
      "answer": "upon conjointly",
      "answer_stringIds": [
        "string_X"
      ]
    },
    {
      "id_qa": "FMSH_PB188a_41-42_220_qa9_v3",
      "id_block": "block_4",
      "question": "Qu'est-ce qui ne doit pas être confined to a stratum of officials remote from the basis ?",
      "answer": "participation",
      "answer_stringIds": [
        "string_X"
      ]
    },
    {
      "id_qa": "FMSH_PB188a_41-42_220_qa10_v3",
      "id_block": "block_4",
      "question": "Dans quel système les workers' councils should be established ?",
      "answer": "similarly as in the Yugoslav system",
      "answer_stringIds": [
        "string_X"
      ]
    }
  ]
}