{
  "num": "autog_0338-7259_1978_num_41_1",
  "article": "autog_0338-7259_1978_num_41_1_1324",
  "page_name": "FMSH_PB188a_41-42_208",
  "questions": [
    {
      "id_qa": "FMSH_PB188a_41-42_208_qa2_v3",
      "id_block": "block_3",
      "question": "Qu'est-ce qui est important pour les entreprises?",
      "answer": "the management and the technocrats in the enterprises",
      "answer_stringIds": [
        "string_X"
      ]
    },
    {
      "id_qa": "FMSH_PB188a_41-42_208_qa15_v3",
      "id_block": "block_4",
      "question": "Qu'est-ce qui place les People ?",
      "answer": "in a situation of dependency vis-à-vis a badly functioning system",
      "answer_stringIds": [
        "string_X"
      ]
    },
    {
      "id_qa": "FMSH_PB188a_41-42_208_qa16_v3",
      "id_block": "block_4",
      "question": "Qui est en situation de dependency vis-à-vis a badly functioning system ?",
      "answer": "People",
      "answer_stringIds": [
        "string_X"
      ]
    },
    {
      "id_qa": "FMSH_PB188a_41-42_208_qa21_v3",
      "id_block": "block_4",
      "question": "Qu'est-ce qui est incurred par les disturbances?",
      "answer": "the economic waste and losses",
      "answer_stringIds": [
        "string_X"
      ]
    },
    {
      "id_qa": "FMSH_PB188a_41-42_208_qa14_v3",
      "id_block": "block_6",
      "question": "Qu'est ce qui est developed with the centralisticbureaucratic model ?",
      "answer": "a number of theoretical and practical approaches",
      "answer_stringIds": [
        "string_X"
      ]
    }
  ]
}