{
  "num": "autog_0338-7259_1975_num_30_1",
  "article": "autog_0338-7259_1975_num_30_1_1130",
  "page_name": "FMSH_PB188a_30-31_154",
  "questions": [
    "Quel est le rôle de Serge Koulytchizky dans l'étude de la vacance de l'État algérien pendant l'été 1962 ?",
    "Quel est le caractère réel du pouvoir politique et administratif en Algérie de 1963 à 1965, selon Koulytchizky ?",
    "Qu'est-ce que Maurice Duverger appelle le régime politique algérien de 1963 à 1965 ?",
    "Quel rôle joue le Parti unique et son chef dans ce régime politique ?",
    "Qu'est-il arrivé des institutions en place après le coup d'État du 19 juin 1965 ?",
    "Quel rôle joue l'autogestion dans ces constructions politiques provisoires ?",
    "Quel est le rôle économique confié aux communes et quelle est-elle l'implication pour un État fédéraliste autogéré ?",
    "Quelle est la nature de cet État, plus précisément quelle est sa « nature de classe » ?",
    "Comment l'État et son administration succèdent-elles à l'ancien Gouvernement Général ?"
  ]
}