{
  "num": "autog_0249-2563_1982_num_16_12",
  "article": "autog_0249-2563_1982_num_16_12_1533",
  "page_name": "autog_0249-2563_1982_num_16_12_T1_0092_0000",
  "questions": [
    {
      "id_qa": "autog_0249-2563_1982_num_16_12_T1_0092_0000_qa16_v3",
      "id_block": "block_0",
      "question": "Comment s'appelle l'annexe du lycée F. Villon ?",
      "answer": "un centre expérimental",
      "answer_stringIds": [
        "string_63",
        "string_64",
        "string_65"
      ]
    },
    {
      "id_qa": "autog_0249-2563_1982_num_16_12_T1_0092_0000_qa17_v3",
      "id_block": "block_0",
      "question": "Où se situe le centre expérimental autogéré ?",
      "answer": "du lycée F. Villon",
      "answer_stringIds": [
        "string_68",
        "string_69",
        "string_70",
        "string_71"
      ]
    },
    {
      "id_qa": "autog_0249-2563_1982_num_16_12_T1_0092_0000_qa21_v3",
      "id_block": "block_0",
      "question": "Qu'est-ce qui a un caractère suffisamment global dans le cadre de cette localité ?",
      "answer": "une expérience locale",
      "answer_stringIds": [
        "string_20",
        "string_21",
        "string_22"
      ]
    },
    {
      "id_qa": "autog_0249-2563_1982_num_16_12_T1_0092_0000_qa2_v3",
      "id_block": "block_1",
      "question": "Qu'est-ce qui continue d'obéir aux règles de l'appareil d'Etat éducatif ?",
      "answer": "cette expérience",
      "answer_stringIds": [
        "string_165",
        "string_166"
      ]
    },
    {
      "id_qa": "autog_0249-2563_1982_num_16_12_T1_0092_0000_qa14_v3",
      "id_block": "block_2",
      "question": "Qu'est-ce que la formation ?",
      "answer": "une expérience",
      "answer_stringIds": [
        "string_20",
        "string_21"
      ]
    },
    {
      "id_qa": "autog_0249-2563_1982_num_16_12_T1_0092_0000_qa15_v3",
      "id_block": "block_2",
      "question": "Qu'est-ce qu'une formation ?",
      "answer": "une expérience",
      "answer_stringIds": [
        "string_20",
        "string_21"
      ]
    },
    {
      "id_qa": "autog_0249-2563_1982_num_16_12_T1_0092_0000_qa1_v3",
      "id_block": "block_5",
      "question": "Qu'est-ce que l'autogestion pédagogique ?",
      "answer": "une autogestion",
      "answer_stringIds": [
        "string_253",
        "string_254"
      ]
    },
    {
      "id_qa": "autog_0249-2563_1982_num_16_12_T1_0092_0000_qa12_v3",
      "id_block": "block_5",
      "question": "Quel est l'utilité du courant autogestionnaire en pédagogie institutionnelle ?",
      "answer": "son utilité",
      "answer_stringIds": [
        "string_334",
        "string_335"
      ]
    },
    {
      "id_qa": "autog_0249-2563_1982_num_16_12_T1_0092_0000_qa23_v3",
      "id_block": "block_5",
      "question": "Qu'est-ce qui est condamné à ne pas faire de l'autogestion ?",
      "answer": "lesquelles il",
      "answer_stringIds": [
        "string_361",
        "string_362"
      ]
    }
  ]
}