{
  "num": "autog_0005-0970_1967_num_2_1",
  "article": "autog_0005-0970_1967_num_2_1_899",
  "page_name": "FMSH_PB188a_00002_078",
  "questions": [
    {
      "id_qa": "FMSH_PB188a_00002_078_qa21_v3",
      "id_block": "block_1",
      "question": "Qu'est ce que le socialisme est comproïnis ?",
      "answer": "une séparation",
      "answer_stringIds": [
        "string_7",
        "string_8"
      ]
    },
    {
      "id_qa": "FMSH_PB188a_00002_078_qa22_v3",
      "id_block": "block_1",
      "question": "Quelle est la distinction entre les travailleurs et les producteurs ?",
      "answer": "la catégorie sociale",
      "answer_stringIds": [
        "string_10",
        "string_11",
        "string_12"
      ]
    },
    {
      "id_qa": "FMSH_PB188a_00002_078_qa28_v3",
      "id_block": "block_1",
      "question": "Qui assure une telle tâche ?",
      "answer": "des travailleurs",
      "answer_stringIds": [
        "string_31",
        "string_32"
      ]
    },
    {
      "id_qa": "FMSH_PB188a_00002_078_qa29_v3",
      "id_block": "block_1",
      "question": "Qu'assure la collectivité organisée des travailleurs ?",
      "answer": "une telle tâche",
      "answer_stringIds": [
        "string_35",
        "string_36",
        "string_37"
      ]
    },
    {
      "id_qa": "FMSH_PB188a_00002_078_qa5_v3",
      "id_block": "block_3",
      "question": "A qui est faite la situation dans le second alinéa ?",
      "answer": "à la plupart des travailleurs",
      "answer_stringIds": [
        "string_167",
        "string_168",
        "string_169",
        "string_170",
        "string_171"
      ]
    },
    {
      "id_qa": "FMSH_PB188a_00002_078_qa32_v3",
      "id_block": "block_4",
      "question": "Qui a étudié les systèmes d'oppositions ?",
      "answer": "LéviStrauss",
      "answer_stringIds": [
        "string_338",
        "string_339"
      ]
    },
    {
      "id_qa": "FMSH_PB188a_00002_078_qa11_v3",
      "id_block": "block_5",
      "question": "Qu'est-ce qui est compris entre le biologique et le biologique ?",
      "answer": "de la représentation",
      "answer_stringIds": [
        "string_411",
        "string_412",
        "string_413"
      ]
    },
    {
      "id_qa": "FMSH_PB188a_00002_078_qa43_v3",
      "id_block": "block_6",
      "question": "Qui parle de l'archi-écriture de la loi ?",
      "answer": "Derrida",
      "answer_stringIds": [
        "string_436"
      ]
    }
  ]
}