{
  "num": "autog_0005-0970_1967_num_2_1",
  "article": "autog_0005-0970_1967_num_2_1_899",
  "page_name": "FMSH_PB188a_00002_079",
  "questions": [
    {
      "id_qa": "FMSH_PB188a_00002_079_qa3_v3",
      "id_block": "block_1",
      "question": "Quelle idéologie utilise-t-elle pour contourner la séparation ?",
      "answer": "les idéologies progressistes",
      "answer_stringIds": [
        "string_47",
        "string_48",
        "string_49"
      ]
    },
    {
      "id_qa": "FMSH_PB188a_00002_079_qa8_v3",
      "id_block": "block_1",
      "question": "Quel courant politique utilise-t-il pour contourner la séparation ?",
      "answer": "les idéologies progressistes",
      "answer_stringIds": [
        "string_47",
        "string_48",
        "string_49"
      ]
    },
    {
      "id_qa": "FMSH_PB188a_00002_079_qa0_v3",
      "id_block": "block_3",
      "question": "Qu'est-ce que l'autogestion ?",
      "answer": "une société",
      "answer_stringIds": [
        "string_132",
        "string_133"
      ]
    }
  ]
}