{
  "num": "autog_0005-0970_1967_num_2_1",
  "article": "autog_0005-0970_1967_num_2_1_899",
  "page_name": "FMSH_PB188a_00002_072",
  "questions": [
    {
      "id_qa": "FMSH_PB188a_00002_072_qa2_v3",
      "id_block": "block_2",
      "question": "Qu'est-ce que l'illusion du changement, voire de la révolution ?",
      "answer": "la société",
      "answer_stringIds": [
        "string_237",
        "string_238"
      ]
    },
    {
      "id_qa": "FMSH_PB188a_00002_072_qa4_v3",
      "id_block": "block_2",
      "question": "Qui rejoint l'humanisme des Grenobliens ?",
      "answer": "celui des amis de M. Massé",
      "answer_stringIds": [
        "string_184",
        "string_185",
        "string_186",
        "string_187",
        "string_188",
        "string_189"
      ]
    },
    {
      "id_qa": "FMSH_PB188a_00002_072_qa14_v3",
      "id_block": "block_3",
      "question": "Par qui est prise la décision de prendre le pouvoir ?",
      "answer": "ceux qui",
      "answer_stringIds": [
        "string_423",
        "string_424"
      ]
    },
    {
      "id_qa": "FMSH_PB188a_00002_072_qa24_v3",
      "id_block": "block_4",
      "question": "Qu'est-ce qui se manifeste dans les formes de langage ?",
      "answer": "Ce système de séparation",
      "answer_stringIds": [
        "string_432",
        "string_433",
        "string_434",
        "string_435"
      ]
    }
  ]
}