{
  "num": "autog_0338-7259_1970_num_11_1",
  "article": "autog_0338-7259_1970_num_11_1_970",
  "page_name": "FMSH_PB188a_11-12_223",
  "questions": [
    {
      "id_qa": "FMSH_PB188a_11-12_223_qa1_v3",
      "id_block": "block_3",
      "question": "Dans quel système le mouvement ouvrier a-t-il évolué ?",
      "answer": "un système industriel qui",
      "answer_stringIds": [
        "string_82",
        "string_83",
        "string_84",
        "string_85"
      ]
    },
    {
      "id_qa": "FMSH_PB188a_11-12_223_qa7_v3",
      "id_block": "block_4",
      "question": "Quelle est la conséquence de l'invasion russe de la Tchécoslovaquie ?",
      "answer": "Cette expérience",
      "answer_stringIds": [
        "string_101",
        "string_102"
      ]
    },
    {
      "id_qa": "FMSH_PB188a_11-12_223_qa4_v3",
      "id_block": "block_5",
      "question": "Quand a eu lieu le symposium sur l'Autogestion en Yougoslavie ?",
      "answer": "en janvier 1970",
      "answer_stringIds": [
        "string_171",
        "string_172",
        "string_173"
      ]
    },
    {
      "id_qa": "FMSH_PB188a_11-12_223_qa5_v3",
      "id_block": "block_5",
      "question": "Où a eu lieu le symposium sur l'Autogestion en Yougoslavie ?",
      "answer": "à Amsterdam",
      "answer_stringIds": [
        "string_174",
        "string_175"
      ]
    }
  ]
}