{
  "num": "autog_0338-7259_1977_num_37_1",
  "article": "autog_0338-7259_1977_num_37_1_1230",
  "page_name": "FMSH_PB188a_37-38_087",
  "questions": [
    {
      "id_qa": "FMSH_PB188a_37-38_087_qa28_v3",
      "id_block": "block_2",
      "question": "A quoi aboutit le mier ?",
      "answer": "aux triomphe final de la",
      "answer_stringIds": [
        "string_X"
      ]
    },
    {
      "id_qa": "FMSH_PB188a_37-38_087_qa32_v3",
      "id_block": "block_3",
      "question": "Sur quoi s'appuie le second ?",
      "answer": "sur des base",
      "answer_stringIds": [
        "string_X"
      ]
    },
    {
      "id_qa": "FMSH_PB188a_37-38_087_qa7_v3",
      "id_block": "block_5",
      "question": "Qu'est ce qui ne peut pas se développer sans se perdre elle-même ?",
      "answer": "La révolution",
      "answer_stringIds": [
        "string_X"
      ]
    },
    {
      "id_qa": "FMSH_PB188a_37-38_087_qa9_v3",
      "id_block": "block_5",
      "question": "Qu'est ce qui ne peut se développer en légiférant la liberté sous peine de se perdre elle-même ?",
      "answer": "La révolution",
      "answer_stringIds": [
        "string_X"
      ]
    },
    {
      "id_qa": "FMSH_PB188a_37-38_087_qa5_v3",
      "id_block": "block_6",
      "question": "Qui a créé l'Internationale anti-autoritaire ?",
      "answer": "Bakounine",
      "answer_stringIds": [
        "string_X"
      ]
    },
    {
      "id_qa": "FMSH_PB188a_37-38_087_qa6_v3",
      "id_block": "block_6",
      "question": "Qui a créé l'Association internationale des travailleurs ?",
      "answer": "militants qui",
      "answer_stringIds": [
        "string_X"
      ]
    },
    {
      "id_qa": "FMSH_PB188a_37-38_087_qa22_v3",
      "id_block": "block_6",
      "question": "Qui est un praticien de la démarche autogestionnaire ?",
      "answer": "Bakounine",
      "answer_stringIds": [
        "string_X"
      ]
    }
  ]
}