{
  "num": "autog_0338-7259_1979_num_43_1",
  "article": "autog_0338-7259_1979_num_43_1_1295",
  "page_name": "FMSH_PB188a_00043_057",
  "questions": [
    {
      "id_qa": "FMSH_PB188a_00043_057_qa24_v3",
      "id_block": "block_1",
      "question": "Qu'est-ce qui doit exister pour ralentir le processus ?",
      "answer": "les solutions",
      "answer_stringIds": [
        "string_16",
        "string_17"
      ]
    },
    {
      "id_qa": "FMSH_PB188a_00043_057_qa25_v3",
      "id_block": "block_1",
      "question": "Qu'est-ce qui doit exister ?",
      "answer": "le processus",
      "answer_stringIds": [
        "string_25",
        "string_26"
      ]
    },
    {
      "id_qa": "FMSH_PB188a_00043_057_qa26_v3",
      "id_block": "block_1",
      "question": "Qu'est-ce qui doit exister pour ralentir ou même stopper le processus ?",
      "answer": "les solutions",
      "answer_stringIds": [
        "string_16",
        "string_17"
      ]
    },
    {
      "id_qa": "FMSH_PB188a_00043_057_qa27_v3",
      "id_block": "block_1",
      "question": "Que doivent faire les solutions pour ralentir ou même pour stopper le processus ?",
      "answer": "exister",
      "answer_stringIds": [
        "string_28"
      ]
    },
    {
      "id_qa": "FMSH_PB188a_00043_057_qa28_v3",
      "id_block": "block_1",
      "question": "Qu'est-ce qui nécessite un fonctionnement en continu ?",
      "answer": "leur non-application",
      "answer_stringIds": [
        "string_30",
        "string_31"
      ]
    },
    {
      "id_qa": "FMSH_PB188a_00043_057_qa40_v3",
      "id_block": "block_2",
      "question": "Quelle est la conséquence de certains contrôles ?",
      "answer": "la concentration de la fonction de contrôle sur des",
      "answer_stringIds": [
        "string_106",
        "string_107",
        "string_108",
        "string_109",
        "string_110",
        "string_111",
        "string_112",
        "string_113",
        "string_114",
        "string_115"
      ]
    },
    {
      "id_qa": "FMSH_PB188a_00043_057_qa3_v3",
      "id_block": "block_4",
      "question": "Quels moyens les ouvriers ont-ils mis au point ?",
      "answer": "les moyens les plus courts",
      "answer_stringIds": [
        "string_252",
        "string_253",
        "string_254",
        "string_255",
        "string_256"
      ]
    },
    {
      "id_qa": "FMSH_PB188a_00043_057_qa4_v3",
      "id_block": "block_4",
      "question": "Dans quelle industrie les machines ont-elles été inventées ?",
      "answer": "dans les manufactures",
      "answer_stringIds": [
        "string_224",
        "string_225",
        "string_226"
      ]
    },
    {
      "id_qa": "FMSH_PB188a_00043_057_qa5_v3",
      "id_block": "block_4",
      "question": "Qu'est-ce qui était la seule occupation des ouvriers ?",
      "answer": "la tâche particulière",
      "answer_stringIds": [
        "string_263",
        "string_264",
        "string_265"
      ]
    },
    {
      "id_qa": "FMSH_PB188a_00043_057_qa10_v3",
      "id_block": "block_4",
      "question": "Qu'est ce qui est le plus subdivisé dans les manufactures ?",
      "answer": "le travail",
      "answer_stringIds": [
        "string_228",
        "string_229",
        "string_230"
      ]
    },
    {
      "id_qa": "FMSH_PB188a_00043_057_qa18_v3",
      "id_block": "block_4",
      "question": "Qu'est-ce que l'autogestion ne pourra pas résoudre ?",
      "answer": "poser le problème des techniques de travail",
      "answer_stringIds": [
        "string_179",
        "string_180",
        "string_181",
        "string_182",
        "string_183",
        "string_184",
        "string_185"
      ]
    },
    {
      "id_qa": "FMSH_PB188a_00043_057_qa19_v3",
      "id_block": "block_4",
      "question": "Qu'est ce qui ne pourra pas ne pas poser l'autogestion ?",
      "answer": "le problème des techniques de travail",
      "answer_stringIds": [
        "string_180",
        "string_181",
        "string_182",
        "string_183",
        "string_184",
        "string_185"
      ]
    }
  ]
}