{
  "num": "autog_0338-7259_1979_num_43_1",
  "article": "autog_0338-7259_1979_num_43_1_1295",
  "page_name": "FMSH_PB188a_00043_045",
  "questions": [
    {
      "id_qa": "FMSH_PB188a_00043_045_qa11_v3",
      "id_block": "block_1",
      "question": "Qu'est ce qui pose problème ?",
      "answer": "les infrastructures techniques",
      "answer_stringIds": [
        "string_9",
        "string_10",
        "string_11"
      ]
    },
    {
      "id_qa": "FMSH_PB188a_00043_045_qa6_v3",
      "id_block": "block_3",
      "question": "Qu'est-ce que l'autogestion ?",
      "answer": "la maîtrise collective de la production",
      "answer_stringIds": [
        "string_65",
        "string_66",
        "string_67",
        "string_68",
        "string_69",
        "string_70"
      ]
    },
    {
      "id_qa": "FMSH_PB188a_00043_045_qa0_v3",
      "id_block": "block_5",
      "question": "Qu'impose l'autogestion ?",
      "answer": "une remise en question",
      "answer_stringIds": [
        "string_139",
        "string_140",
        "string_141",
        "string_142"
      ]
    },
    {
      "id_qa": "FMSH_PB188a_00043_045_qa3_v3",
      "id_block": "block_8",
      "question": "A quoi les employeurs recourent-ils pour assurer la fabrication d'un produit ?",
      "answer": "une combinaison de techniques",
      "answer_stringIds": [
        "string_172",
        "string_173",
        "string_174",
        "string_175"
      ]
    },
    {
      "id_qa": "FMSH_PB188a_00043_045_qa4_v3",
      "id_block": "block_8",
      "question": "Qui utilise une combinaison de techniques pour assurer la fabrication d'un produit ?",
      "answer": "les employeurs",
      "answer_stringIds": [
        "string_168",
        "string_169"
      ]
    },
    {
      "id_qa": "FMSH_PB188a_00043_045_qa5_v3",
      "id_block": "block_8",
      "question": "Qui utilise les techniques pour assurer la fabrication d'un produit ?",
      "answer": "les employeurs",
      "answer_stringIds": [
        "string_168",
        "string_169"
      ]
    }
  ]
}