{
  "num": "autog_0338-7259_1979_num_43_1",
  "article": "autog_0338-7259_1979_num_43_1_1295",
  "page_name": "FMSH_PB188a_00043_046",
  "questions": [
    {
      "id_qa": "FMSH_PB188a_00043_046_qa10_v3",
      "id_block": "block_1",
      "question": "Qui fait complètement un produit ?",
      "answer": "le travailleur",
      "answer_stringIds": [
        "string_61",
        "string_62"
      ]
    },
    {
      "id_qa": "FMSH_PB188a_00043_046_qa12_v3",
      "id_block": "block_1",
      "question": "Qu'est ce qui est largement développé dans les usines ?",
      "answer": "la division du travail",
      "answer_stringIds": [
        "string_86",
        "string_87",
        "string_88",
        "string_89"
      ]
    },
    {
      "id_qa": "FMSH_PB188a_00043_046_qa13_v3",
      "id_block": "block_1",
      "question": "Où est-ce que la division du travail est largement développée ?",
      "answer": "dans les usines",
      "answer_stringIds": [
        "string_93",
        "string_94",
        "string_95"
      ]
    },
    {
      "id_qa": "FMSH_PB188a_00043_046_qa25_v3",
      "id_block": "block_3",
      "question": "Qu'est-ce qui est décomposé ?",
      "answer": "Un travail",
      "answer_stringIds": [
        "string_126",
        "string_127"
      ]
    },
    {
      "id_qa": "FMSH_PB188a_00043_046_qa27_v3",
      "id_block": "block_3",
      "question": "Qu'est ce qui est dit non décomposé ?",
      "answer": "Un travail",
      "answer_stringIds": [
        "string_126",
        "string_127"
      ]
    },
    {
      "id_qa": "FMSH_PB188a_00043_046_qa2_v3",
      "id_block": "block_4",
      "question": "Que permet le travail sur machine automatisée ?",
      "answer": "des corrections",
      "answer_stringIds": [
        "string_239",
        "string_240",
        "string_241"
      ]
    },
    {
      "id_qa": "FMSH_PB188a_00043_046_qa5_v3",
      "id_block": "block_4",
      "question": "Qu'est-ce que contrôle la machine ?",
      "answer": "les résultats",
      "answer_stringIds": [
        "string_234",
        "string_235"
      ]
    },
    {
      "id_qa": "FMSH_PB188a_00043_046_qa16_v3",
      "id_block": "block_5",
      "question": "Qu'est ce qui relie la chaîne ?",
      "answer": "différents postes de travail",
      "answer_stringIds": [
        "string_332",
        "string_333",
        "string_334",
        "string_335"
      ]
    },
    {
      "id_qa": "FMSH_PB188a_00043_046_qa17_v3",
      "id_block": "block_5",
      "question": "Qu'est ce qui relie entre eux différents postes de travail ?",
      "answer": "manutention",
      "answer_stringIds": [
        "string_120"
      ]
    },
    {
      "id_qa": "FMSH_PB188a_00043_046_qa19_v3",
      "id_block": "block_5",
      "question": "Qu'est-ce que l'intégration ?",
      "answer": "la technique qui relie entre elles les différentes opérations effectuées sur le produit",
      "answer_stringIds": [
        "string_266",
        "string_267",
        "string_268",
        "string_269",
        "string_270",
        "string_271",
        "string_272",
        "string_273",
        "string_274",
        "string_275",
        "string_276",
        "string_277",
        "string_278",
        "string_279"
      ]
    },
    {
      "id_qa": "FMSH_PB188a_00043_046_qa24_v3",
      "id_block": "block_5",
      "question": "Qu'est-ce qui est intégré au processus de production d'une usine ?",
      "answer": "les opérations sur le produit",
      "answer_stringIds": [
        "string_289",
        "string_290",
        "string_291",
        "string_292",
        "string_293"
      ]
    }
  ]
}