{
  "num": "autog_0338-7259_1979_num_43_1",
  "article": "autog_0338-7259_1979_num_43_1_1295",
  "page_name": "FMSH_PB188a_00043_058",
  "questions": [
    {
      "id_qa": "FMSH_PB188a_00043_058_qa1_v3",
      "id_block": "block_1",
      "question": "Qui assure les services de sécurité dans les grèves ?",
      "answer": "les ouvriers",
      "answer_stringIds": [
        "string_68",
        "string_69"
      ]
    },
    {
      "id_qa": "FMSH_PB188a_00043_058_qa2_v3",
      "id_block": "block_1",
      "question": "Qui est responsable d'assurer les services de sécurité ?",
      "answer": "les ouvriers",
      "answer_stringIds": [
        "string_68",
        "string_69"
      ]
    },
    {
      "id_qa": "FMSH_PB188a_00043_058_qa5_v3",
      "id_block": "block_1",
      "question": "Quel service les ouvriers laissent-ils à d'autres ?",
      "answer": "les services de sécurité",
      "answer_stringIds": [
        "string_76",
        "string_77",
        "string_78",
        "string_79"
      ]
    },
    {
      "id_qa": "FMSH_PB188a_00043_058_qa6_v3",
      "id_block": "block_1",
      "question": "Qui inventent et collaborent à la création de techniques émancipatrices ?",
      "answer": "les travailleurs",
      "answer_stringIds": [
        "string_25",
        "string_26"
      ]
    }
  ]
}