{
  "num": "autog_0249-2563_1984_num_17_17",
  "article": "autog_0249-2563_1984_num_17_17_1611",
  "page_name": "autog_0249-2563_1984_num_17_17_T1_0050_0000",
  "questions": [
    {
      "id_qa": "autog_0249-2563_1984_num_17_17_T1_0050_0000_qa26_v3",
      "id_block": "block_0",
      "question": "Qu'est-ce qui menace les manifestations populaires ?",
      "answer": "la dictature",
      "answer_stringIds": [
        "string_0",
        "string_1"
      ]
    },
    {
      "id_qa": "autog_0249-2563_1984_num_17_17_T1_0050_0000_qa35_v3",
      "id_block": "block_1",
      "question": "Comment se sent une dictature lorsqu'elle se sait discréditée ?",
      "answer": "en danger",
      "answer_stringIds": [
        "string_138",
        "string_139"
      ]
    },
    {
      "id_qa": "autog_0249-2563_1984_num_17_17_T1_0050_0000_qa36_v3",
      "id_block": "block_1",
      "question": "Qu'est-ce qui est dangereux pour une dictature ?",
      "answer": "discréditée",
      "answer_stringIds": [
        "string_143"
      ]
    },
    {
      "id_qa": "autog_0249-2563_1984_num_17_17_T1_0050_0000_qa38_v3",
      "id_block": "block_1",
      "question": "Qu'est-ce qui est risqué ?",
      "answer": "Cette résistance",
      "answer_stringIds": [
        "string_117",
        "string_118"
      ]
    },
    {
      "id_qa": "autog_0249-2563_1984_num_17_17_T1_0050_0000_qa40_v3",
      "id_block": "block_1",
      "question": "Qu'est ce qui ne s'exprime pas de façon systématique ?",
      "answer": "cette résistance",
      "answer_stringIds": [
        "string_159",
        "string_160"
      ]
    },
    {
      "id_qa": "autog_0249-2563_1984_num_17_17_T1_0050_0000_qa6_v3",
      "id_block": "block_2",
      "question": "Qui se livre à une attaque en règle contre la théologie de Ia libération ?",
      "answer": "les autorités du Vatican",
      "answer_stringIds": [
        "string_383",
        "string_384",
        "string_385",
        "string_386"
      ]
    },
    {
      "id_qa": "autog_0249-2563_1984_num_17_17_T1_0050_0000_qa12_v3",
      "id_block": "block_2",
      "question": "Qu'est ce qui a progressivement entamé les processus complexes ?",
      "answer": "un long travail de sape",
      "answer_stringIds": [
        "string_340",
        "string_341",
        "string_342",
        "string_343",
        "string_344"
      ]
    },
    {
      "id_qa": "autog_0249-2563_1984_num_17_17_T1_0050_0000_qa37_v3",
      "id_block": "block_2",
      "question": "Qu'est ce qui fonde la dictature ?",
      "answer": "sa « légitimité",
      "answer_stringIds": [
        "string_359",
        "string_360",
        "string_361"
      ]
    }
  ]
}