{
  "num": "autog_0249-2563_1982_num_15_8",
  "article": "autog_0249-2563_1982_num_15_8_1473",
  "page_name": "autog_0249-2563_1982_num_15_8_T1_0079_0000",
  "questions": [
    {
      "id_qa": "autog_0249-2563_1982_num_15_8_T1_0079_0000_qa14_v3",
      "id_block": "block_3",
      "question": "Comment est devenu le système industriel en crise ?",
      "answer": "contre-productif et foncièrement instable",
      "answer_stringIds": [
        "string_23",
        "string_24",
        "string_25",
        "string_26"
      ]
    },
    {
      "id_qa": "autog_0249-2563_1982_num_15_8_T1_0079_0000_qa16_v3",
      "id_block": "block_3",
      "question": "Quand le système industriel est-il devenu contre-productif ?",
      "answer": "en crise",
      "answer_stringIds": [
        "string_14",
        "string_15"
      ]
    },
    {
      "id_qa": "autog_0249-2563_1982_num_15_8_T1_0079_0000_qa0_v3",
      "id_block": "block_4",
      "question": "Qu'est-ce que les transports dévorent ?",
      "answer": "le temps",
      "answer_stringIds": [
        "string_44",
        "string_45"
      ]
    },
    {
      "id_qa": "autog_0249-2563_1982_num_15_8_T1_0079_0000_qa4_v3",
      "id_block": "block_4",
      "question": "Qu'est-ce qui conduit à l'apathie et au quasi-analphabétisme ?",
      "answer": "la scolarisation",
      "answer_stringIds": [
        "string_46",
        "string_47"
      ]
    },
    {
      "id_qa": "autog_0249-2563_1982_num_15_8_T1_0079_0000_qa8_v3",
      "id_block": "block_5",
      "question": "Qui est contraint à une règlementation envahissante?",
      "answer": "les Etats",
      "answer_stringIds": [
        "string_159",
        "string_160"
      ]
    },
    {
      "id_qa": "autog_0249-2563_1982_num_15_8_T1_0079_0000_qa13_v3",
      "id_block": "block_5",
      "question": "Qui sont contraints à une règlementation envahissante pour dominer tous les risques que l'appareil techno-économique manipule?",
      "answer": "les Etats",
      "answer_stringIds": [
        "string_159",
        "string_160"
      ]
    },
    {
      "id_qa": "autog_0249-2563_1982_num_15_8_T1_0079_0000_qa19_v3",
      "id_block": "block_5",
      "question": "Qu'est-ce qui rend les interdépendances de plus en plus longues et compliquées ?",
      "answer": "ses moyens de production",
      "answer_stringIds": [
        "string_67",
        "string_68",
        "string_69",
        "string_70"
      ]
    }
  ]
}