{
  "num": "autog_0249-2563_1984_num_17_17",
  "article": "autog_0249-2563_1984_num_17_17_1613",
  "page_name": "autog_0249-2563_1984_num_17_17_T1_0061_0000",
  "questions": [
    {
      "id_qa": "autog_0249-2563_1984_num_17_17_T1_0061_0000_qa5_v3",
      "id_block": "block_1",
      "question": "Qu'est ce qui est créé tout au long du pays ?",
      "answer": "prisons pleines et camps de concentration",
      "answer_stringIds": [
        "string_32",
        "string_33",
        "string_34",
        "string_35",
        "string_36",
        "string_37",
        "string_38"
      ]
    },
    {
      "id_qa": "autog_0249-2563_1984_num_17_17_T1_0061_0000_qa6_v3",
      "id_block": "block_1",
      "question": "Qu'est ce qui est mis en place par les militaires ?",
      "answer": "des barrages",
      "answer_stringIds": [
        "string_10",
        "string_11"
      ]
    },
    {
      "id_qa": "autog_0249-2563_1984_num_17_17_T1_0061_0000_qa7_v3",
      "id_block": "block_1",
      "question": "Qu'est-ce qui s'est passé la nuit précédente ?",
      "answer": "sirènes",
      "answer_stringIds": [
        "string_18"
      ]
    },
    {
      "id_qa": "autog_0249-2563_1984_num_17_17_T1_0061_0000_qa8_v3",
      "id_block": "block_1",
      "question": "Où se situent les prisons pleines et camps de concentration ?",
      "answer": "tout au long du pays",
      "answer_stringIds": [
        "string_40",
        "string_41",
        "string_42",
        "string_43",
        "string_44"
      ]
    },
    {
      "id_qa": "autog_0249-2563_1984_num_17_17_T1_0061_0000_qa9_v3",
      "id_block": "block_1",
      "question": "Où sont placés les barrages militaires ?",
      "answer": "à tous les coins de rues",
      "answer_stringIds": [
        "string_12",
        "string_13",
        "string_14",
        "string_15",
        "string_16",
        "string_17"
      ]
    },
    {
      "id_qa": "autog_0249-2563_1984_num_17_17_T1_0061_0000_qa10_v3",
      "id_block": "block_1",
      "question": "Qu'est ce qui est brûlé dans les rues ?",
      "answer": "maisons",
      "answer_stringIds": [
        "string_48"
      ]
    },
    {
      "id_qa": "autog_0249-2563_1984_num_17_17_T1_0061_0000_qa11_v3",
      "id_block": "block_1",
      "question": "Où les livres sont-ils brûlés ?",
      "answer": "dans les rues",
      "answer_stringIds": [
        "string_55",
        "string_56",
        "string_57"
      ]
    },
    {
      "id_qa": "autog_0249-2563_1984_num_17_17_T1_0061_0000_qa13_v3",
      "id_block": "block_1",
      "question": "Quand les sirènes se sont-elles déclenchées ?",
      "answer": "la nuit",
      "answer_stringIds": [
        "string_20",
        "string_21"
      ]
    },
    {
      "id_qa": "autog_0249-2563_1984_num_17_17_T1_0061_0000_qa16_v3",
      "id_block": "block_1",
      "question": "Qu'est-ce qui s'est déroulé la nuit ?",
      "answer": "sirènes",
      "answer_stringIds": [
        "string_18"
      ]
    },
    {
      "id_qa": "autog_0249-2563_1984_num_17_17_T1_0061_0000_qa17_v3",
      "id_block": "block_2",
      "question": "Qu'est ce qui ne concernait pas seulement les militants politiques ?",
      "answer": "La peur",
      "answer_stringIds": [
        "string_58",
        "string_59"
      ]
    }
  ]
}