{
  "num": "autog_0249-2563_1984_num_17_17",
  "article": "autog_0249-2563_1984_num_17_17_1613",
  "page_name": "autog_0249-2563_1984_num_17_17_T1_0069_0000",
  "questions": [
    {
      "id_qa": "autog_0249-2563_1984_num_17_17_T1_0069_0000_qa37_v3",
      "id_block": "block_0",
      "question": "Où se situe le mouvement d'opposition politique ?",
      "answer": "à présent",
      "answer_stringIds": [
        "string_26",
        "string_27"
      ]
    },
    {
      "id_qa": "autog_0249-2563_1984_num_17_17_T1_0069_0000_qa15_v3",
      "id_block": "block_2",
      "question": "Où sont emprisonnés les dirigeants d'organisations syndicales ?",
      "answer": "du pays",
      "answer_stringIds": [
        "string_95",
        "string_96"
      ]
    },
    {
      "id_qa": "autog_0249-2563_1984_num_17_17_T1_0069_0000_qa11_v3",
      "id_block": "block_3",
      "question": "Qu'est-ce qui caractérise un régime autoritaire ?",
      "answer": "sa domination économique",
      "answer_stringIds": [
        "string_208",
        "string_209",
        "string_210"
      ]
    },
    {
      "id_qa": "autog_0249-2563_1984_num_17_17_T1_0069_0000_qa17_v3",
      "id_block": "block_3",
      "question": "Qu'est ce qui a permis d'ouvrir au niveau de la base ?",
      "answer": "des espaces de participation",
      "answer_stringIds": [
        "string_128",
        "string_129",
        "string_130",
        "string_131"
      ]
    },
    {
      "id_qa": "autog_0249-2563_1984_num_17_17_T1_0069_0000_qa26_v3",
      "id_block": "block_3",
      "question": "Comment étaient qualifiés les partisans d'une idéologie anti-politique ?",
      "answer": "les « durs",
      "answer_stringIds": [
        "string_319",
        "string_320",
        "string_321"
      ]
    },
    {
      "id_qa": "autog_0249-2563_1984_num_17_17_T1_0069_0000_qa41_v3",
      "id_block": "block_3",
      "question": "Quel régime a un caractère essentiellement autoritaire dans le cas chilien ?",
      "answer": "le régime militaire",
      "answer_stringIds": [
        "string_246",
        "string_247",
        "string_248"
      ]
    },
    {
      "id_qa": "autog_0249-2563_1984_num_17_17_T1_0069_0000_qa21_v3",
      "id_block": "block_5",
      "question": "Que devait faire la dictature militaire après l'expérience du gouvernement d'Al Qaida ?",
      "answer": "remettre",
      "answer_stringIds": [
        "string_359"
      ]
    },
    {
      "id_qa": "autog_0249-2563_1984_num_17_17_T1_0069_0000_qa29_v3",
      "id_block": "block_8",
      "question": "Qu'est ce qui tranche le référendum de 1980 ?",
      "answer": "cette discus",
      "answer_stringIds": [
        "string_441",
        "string_442"
      ]
    }
  ]
}