{
  "num": "autog_0249-2563_1984_num_17_17",
  "article": "autog_0249-2563_1984_num_17_17_1613",
  "page_name": "autog_0249-2563_1984_num_17_17_T1_0064_0000",
  "questions": [
    {
      "id_qa": "autog_0249-2563_1984_num_17_17_T1_0064_0000_qa6_v3",
      "id_block": "block_2",
      "question": "Qu'est ce qui est remplacé par une militance politique ?",
      "answer": "un travail",
      "answer_stringIds": [
        "string_167",
        "string_168"
      ]
    },
    {
      "id_qa": "autog_0249-2563_1984_num_17_17_T1_0064_0000_qa4_v3",
      "id_block": "block_2",
      "question": "Qu'est ce qui est remplacé par une militance ?",
      "answer": "un travail",
      "answer_stringIds": [
        "string_167",
        "string_168"
      ]
    },
    {
      "id_qa": "autog_0249-2563_1984_num_17_17_T1_0064_0000_qa29_v3",
      "id_block": "block_2",
      "question": "Dans quelles organisations les pobladores s'organisent-ils ?",
      "answer": "travailler auprès des plus nécessiteux",
      "answer_stringIds": [
        "string_161",
        "string_162",
        "string_163",
        "string_164",
        "string_165"
      ]
    },
    {
      "id_qa": "autog_0249-2563_1984_num_17_17_T1_0064_0000_qa36_v3",
      "id_block": "block_3",
      "question": "Qu'est ce qui touche d'autres secteurs sociaux ?",
      "answer": "Une évolution semblable",
      "answer_stringIds": [
        "string_185",
        "string_186",
        "string_187"
      ]
    },
    {
      "id_qa": "autog_0249-2563_1984_num_17_17_T1_0064_0000_qa23_v3",
      "id_block": "block_5",
      "question": "Quand a eu lieu la répression contre les étudiants de gauche ?",
      "answer": "dès 1974",
      "answer_stringIds": [
        "string_219",
        "string_220"
      ]
    },
    {
      "id_qa": "autog_0249-2563_1984_num_17_17_T1_0064_0000_qa0_v3",
      "id_block": "block_6",
      "question": "Qui a créé l'Association Culturelle Universitaire ?",
      "answer": "par les étudiants",
      "answer_stringIds": [
        "string_305",
        "string_306",
        "string_307"
      ]
    }
  ]
}