{
  "num": "autog_0249-2563_1982_num_15_10",
  "article": "autog_0249-2563_1982_num_15_10_1496",
  "page_name": "autog_0249-2563_1982_num_15_10_T1_0033_0000",
  "questions": [
    "Qui est Daniel Mothé ?",
    "Quels sont les deux méthodes d'interpeller un pouvoir en place selon Daniel Mothé ?",
    "Quel est le premier type de méthode selon Daniel Mothé ?",
    "Quel est le second type de méthode selon Daniel Mothé ?",
    "Quel gouvernement est-ce que Mauroy ?",
    "Quand le gouvernement Mauroy aurait-il dû déclarer solennellement l'autogestion ?",
    "Dans quels domaines le peuple français aurait-il été en autogestion selon Daniel Mothé ?",
    "Pourquoi la méthode d'indignation de Daniel Mothé ressemble-t-elle à se méprendre à la fausseté des promesses électorales ?",
    "Quel parti politique est accusé par Daniel Mothé d'avoir utilisé le concept d'autogestion ?",
    "Pourquoi est-il important de savoir quels sont les méthodes d'interpeller un pouvoir en place selon Daniel Mothé ?"
  ]
}