{
  "num": "autog_0249-2563_1982_num_15_10",
  "article": "autog_0249-2563_1982_num_15_10_1496",
  "page_name": "autog_0249-2563_1982_num_15_10_T1_0043_0000",
  "questions": [
    "Quel est le rôle des réunions dans le contexte des politiques syndicales ?",
    "Comment ces réunions sont-elles similaires aux assemblées générales d'atelier ?",
    "Quel serait le rôle de la loi dans ce contexte ?",
    "Pourquoi les ouvriers ne se réunissent-ils pas plus fréquemment ?",
    "Quels sont les revendications des salariés ?",
    "Les représentants syndicaux et les représentants du personnel sont-ils au courant de ces revendications ?",
    "Quel serait le résultat si les directions des entreprises fixaient l'heure des réunions en fin de journée ?",
    "Comment les militants syndicaux peuvent-ils utiliser ces groupes d'expression ?",
    "Quels sont les thèmes sur lesquels les salariés peuvent apprendre à gérer collectivement ?",
    "Comment ces groupes d'expression peuvent-ils servir de lieux de pédagogie de l'autogestion ?"
  ]
}