{
  "num": "autog_0249-2563_1982_num_15_10",
  "article": "autog_0249-2563_1982_num_15_10_1496",
  "page_name": "autog_0249-2563_1982_num_15_10_T1_0038_0000",
  "questions": [
    "Quels groupes sont-ils à l'origine de ces changements dans les conditions de travail, l'organisation du travail et la technologie ?",
    "En quoi ces formules apportent-elles des satisfactions aux employeurs ?",
    "Comment ces formules améliorent-elles les relations hiérarchiques ?",
    "Sur quelle base politique espère le patronat retirer le plus de profit de ces tentatives ?",
    "Comment les directions d'entreprise espèrent-elles gérer les doléances des salariés sans la médiation des syndicats ?",
    "Quelles sont les deux orientations choisies par le mouvement syndical français et quels sont leurs caractéristiques ?"
  ]
}