{
  "num": "autog_0249-2563_1981_num_14_5",
  "article": "autog_0249-2563_1981_num_14_5_1421_t1_0116_0000_4",
  "page_name": "autog_0249-2563_1981_num_14_5_T1_0116_0000",
  "questions": [
    {
      "id_qa": "autog_0249-2563_1981_num_14_5_T1_0116_0000_qa12_v3",
      "id_block": "block_0",
      "question": "Qu'est-ce qui a provoqué les brûlures corporelles ?",
      "answer": "leurs vêtements",
      "answer_stringIds": [
        "string_13",
        "string_14"
      ]
    },
    {
      "id_qa": "autog_0249-2563_1981_num_14_5_T1_0116_0000_qa13_v3",
      "id_block": "block_0",
      "question": "Qu'est ce qui est apparu lors de la manifestation ?",
      "answer": "brûlures corporelles",
      "answer_stringIds": [
        "string_0",
        "string_1"
      ]
    },
    {
      "id_qa": "autog_0249-2563_1981_num_14_5_T1_0116_0000_qa14_v3",
      "id_block": "block_0",
      "question": "Qui n'a pas té ses vêtements assez rapidement ?",
      "answer": "les manifestants",
      "answer_stringIds": [
        "string_8",
        "string_9"
      ]
    },
    {
      "id_qa": "autog_0249-2563_1981_num_14_5_T1_0116_0000_qa32_v3",
      "id_block": "block_2",
      "question": "Quel mouvement conteste sa filiation par rapport au mouvement étudiant ?",
      "answer": "Le mouvement des jeunes Zurichois",
      "answer_stringIds": [
        "string_157",
        "string_158",
        "string_159",
        "string_160",
        "string_161"
      ]
    },
    {
      "id_qa": "autog_0249-2563_1981_num_14_5_T1_0116_0000_qa35_v3",
      "id_block": "block_2",
      "question": "Qu'est-ce que le mouvement des jeunes Zurichois ?",
      "answer": "un objectif précis",
      "answer_stringIds": [
        "string_205",
        "string_206",
        "string_207"
      ]
    },
    {
      "id_qa": "autog_0249-2563_1981_num_14_5_T1_0116_0000_qa43_v3",
      "id_block": "block_4",
      "question": "Qui a réalisé le montage vidéo ?",
      "answer": "par des participants au mouvement].",
      "answer_stringIds": [
        "string_301",
        "string_302",
        "string_303",
        "string_304",
        "string_305",
        "string_306"
      ]
    },
    {
      "id_qa": "autog_0249-2563_1981_num_14_5_T1_0116_0000_qa50_v3",
      "id_block": "block_5",
      "question": "Qui parle de contre-bruit ?",
      "answer": "le fou",
      "answer_stringIds": [
        "string_312",
        "string_313"
      ]
    },
    {
      "id_qa": "autog_0249-2563_1981_num_14_5_T1_0116_0000_qa26_v3",
      "id_block": "block_6",
      "question": "Dans quel ouvrage est paru le \"bruit\" ?",
      "answer": "dans Autogestions n° 4/80",
      "answer_stringIds": [
        "string_353",
        "string_354",
        "string_355",
        "string_356"
      ]
    },
    {
      "id_qa": "autog_0249-2563_1981_num_14_5_T1_0116_0000_qa27_v3",
      "id_block": "block_6",
      "question": "Qui parle d'autogestion ?",
      "answer": "le fou",
      "answer_stringIds": [
        "string_312",
        "string_313"
      ]
    },
    {
      "id_qa": "autog_0249-2563_1981_num_14_5_T1_0116_0000_qa0_v3",
      "id_block": "block_7",
      "question": "Quel parti semble plus soucieux de gérer son espace électoral que de se rapporter à la société civile ?",
      "answer": "les partis de gauche",
      "answer_stringIds": [
        "string_385",
        "string_386",
        "string_387",
        "string_388"
      ]
    },
    {
      "id_qa": "autog_0249-2563_1981_num_14_5_T1_0116_0000_qa5_v3",
      "id_block": "block_7",
      "question": "A qui les partis de gauche semblent-ils plus soucieux de gérer leur espace électoral ?",
      "answer": "la société civile",
      "answer_stringIds": [
        "string_402",
        "string_403",
        "string_404"
      ]
    },
    {
      "id_qa": "autog_0249-2563_1981_num_14_5_T1_0116_0000_qa18_v3",
      "id_block": "block_7",
      "question": "Qui a récupéré l'autogestion ?",
      "answer": "les divers partis",
      "answer_stringIds": [
        "string_441",
        "string_442",
        "string_443"
      ]
    }
  ]
}