{
  "num": "autog_0249-2563_1981_num_14_7",
  "article": "autog_0249-2563_1981_num_14_7_1462_t1_0393_0000_1",
  "page_name": "autog_0249-2563_1981_num_14_7_T1_0393_0000",
  "questions": [
    {
      "id_qa": "autog_0249-2563_1981_num_14_7_T1_0393_0000_qa21_v3",
      "id_block": "block_0",
      "question": "Qu'est ce qui est rendu public ?",
      "answer": "omptes",
      "answer_stringIds": [
        "string_0"
      ]
    },
    {
      "id_qa": "autog_0249-2563_1981_num_14_7_T1_0393_0000_qa4_v3",
      "id_block": "block_11",
      "question": "Où sont placés les 29 récits d'une histoire pas comme les autres ?",
      "answer": "au pied de la lettre",
      "answer_stringIds": [
        "string_247",
        "string_248",
        "string_249",
        "string_250",
        "string_251"
      ]
    },
    {
      "id_qa": "autog_0249-2563_1981_num_14_7_T1_0393_0000_qa24_v3",
      "id_block": "block_4",
      "question": "Qu'est ce qui se déploie comme la grève générale ?",
      "answer": "Ta chevelure",
      "answer_stringIds": [
        "string_53",
        "string_54"
      ]
    },
    {
      "id_qa": "autog_0249-2563_1981_num_14_7_T1_0393_0000_qa8_v3",
      "id_block": "block_7",
      "question": "Qu'est-ce qui ne s'embarasse pas des lourdes justifications méthodologiques des historiens sérieux ?",
      "answer": "Choix",
      "answer_stringIds": [
        "string_120"
      ]
    },
    {
      "id_qa": "autog_0249-2563_1981_num_14_7_T1_0393_0000_qa10_v3",
      "id_block": "block_7",
      "question": "Qui a totalement neutralisé et aseptisé leur \"objet\" d'étude ?",
      "answer": "des historiens",
      "answer_stringIds": [
        "string_135",
        "string_136"
      ]
    },
    {
      "id_qa": "autog_0249-2563_1981_num_14_7_T1_0393_0000_qa12_v3",
      "id_block": "block_8",
      "question": "Qu'est-ce qui est mis à l'endroit par Y. Frémion ?",
      "answer": "de luttes sociales",
      "answer_stringIds": [
        "string_174",
        "string_175",
        "string_176"
      ]
    },
    {
      "id_qa": "autog_0249-2563_1981_num_14_7_T1_0393_0000_qa13_v3",
      "id_block": "block_8",
      "question": "Qui cherche à remettre à l'endroit 3 000 ans de luttes sociales ?",
      "answer": "Y. Frémion",
      "answer_stringIds": [
        "string_159",
        "string_160"
      ]
    },
    {
      "id_qa": "autog_0249-2563_1981_num_14_7_T1_0393_0000_qa16_v3",
      "id_block": "block_8",
      "question": "Qu'est ce que Y. Frémion cherche à remettre à l'endroit ?",
      "answer": "3 000 ans de luttes sociales généralement inversée",
      "answer_stringIds": [
        "string_171",
        "string_172",
        "string_173",
        "string_174",
        "string_175",
        "string_176",
        "string_177",
        "string_178"
      ]
    },
    {
      "id_qa": "autog_0249-2563_1981_num_14_7_T1_0393_0000_qa0_v3",
      "id_block": "block_9",
      "question": "Sur quoi porte le regard porté sur l'histoire-ce-faisant ?",
      "answer": "les forces instituantes",
      "answer_stringIds": [
        "string_186",
        "string_187",
        "string_188"
      ]
    },
    {
      "id_qa": "autog_0249-2563_1981_num_14_7_T1_0393_0000_qa1_v3",
      "id_block": "block_9",
      "question": "Sur quoi porte le regard sur l'histoire-ce-faisant ?",
      "answer": "les forces",
      "answer_stringIds": [
        "string_186",
        "string_187"
      ]
    }
  ]
}