{
  "num": "autog_0249-2563_1980_num_13_1",
  "article": "autog_0249-2563_1980_num_13_1_1348",
  "page_name": "autog_0249-2563_1980_num_13_1_T1_0101_0000",
  "questions": [
    "Quel procès est-il question ici pour Standard et Paramount ?",
    "En parallèle de cette bataille juridique, comment le syndicat s'est-il mis à produire lui-même ?",
    "Quels types de produits ont été fabriqués au début par les ouvriers ?",
    "Comment les ouvriers se sont-ils interrogés au début sur la possibilité de fabriquer des chaussures ?",
    "Quel genre d'aide a apporté le syndicat national de la chaussure ?",
    "Quel accord a été conclu entre Standard et Paramount ?",
    "Quel était le nombre d'employés avant la faillite ?",
    "Quel est le nombre d'employés actuellement ?",
    "Comment se répartissent les employés actuellement entre les différentes catégories ?",
    "Quel est le salaire versé actuellement aux employés ?",
    "Quel est le pourcentage du salaire d'avant la faillite ?",
    "Quel est le salaire maximal et le salaire minimal actuellement ?",
    "Quel est le rôle des femmes dans le syndicat ?",
    "Quels objets sont utilisés pour signer un document au Japon ?",
    "Quel est la forme de ces objets ?",
    "Quel est le nom de ces objets ?",
    "Comment sont-ils rangés ?"
  ]
}