{
  "num": "autog_0249-2563_1980_num_13_1",
  "article": "autog_0249-2563_1980_num_13_1_1348",
  "page_name": "autog_0249-2563_1980_num_13_1_T1_0097_0000",
  "questions": [
    "Quel était l'entreprise Van avant sa faillite en 1978 ?",
    "Quel était le contexte économique dans lequel l'entreprise Van a évolué avant sa faillite ?",
    "Quels facteurs ont contribué à la faillite de l'entreprise Van ?",
    "Quand a été formé le syndicat ouvrier de l'entreprise Van ?",
    "Quel était l'attitude du syndicat vis-à-vis de la faillite de l'entreprise Van ?",
    "Comment le syndicat a-t-il réagi à la faillite de l'entreprise Van ?",
    "Quel était le stock important que possédait l'entreprise Van à la faillite ?",
    "Comment le syndicat se procurait-il le revenu des ouvriers après la faillite ?",
    "Quels événements liés aux relations entre le syndicat, le syndic, et les créanciers ont pu se produire après la faillite ?",
    "Quels événements liés à l'occupation de l'usine ont pu se produire après la faillite ?"
  ]
}