{
  "num": "autog_0338-7259_1971_num_15_1",
  "article": "autog_0338-7259_1971_num_15_1_1001",
  "page_name": "FMSH_PB188a_00015_096",
  "questions": [
    "Quel est le lien entre le gouvernement de la classe ouvrière et la classe ouvrière elle-même, selon Yvon Bourdet (29)?",
    "Quelle devise formulée Marx lors de la création de l'Internationale pour son combat en faveur de l'émancipation de la classe ouvrière (30)?",
    "Pourquoi Marx n'a-t-il jamais voulu être à la tête d'un parti qui ne représenterait qu'une partie de la classe ouvrière (31)?",
    "Quels intérêts distincts Marx attribue-t-il aux communistes par rapport au prolétariat dans son ensemble (31)?",
    "Dans quelle acception historique Marx entend le terme de \"parti\" (31)?",
    "Quels aspects des \"parlottes et petites intrigues\" de la vie politique des partis ont déplu à Marx (31)?",
    "Comment Marx percevait-il l'action internationale des classes ouvrières et l'Association internationale des travailleurs (29-30)?"
  ]
}