{
  "num": "autog_0338-7259_1971_num_15_1",
  "article": "autog_0338-7259_1971_num_15_1_1001",
  "page_name": "FMSH_PB188a_00015_089",
  "questions": [
    "Quel est le rôle de la force selon Marx ?",
    "Comment Marx a-t-il caractérisé le marxisme réduit à une action politique ignorent-elles les phases du développement naturel ?",
    "Quels objectifs déclarent les communistes de détruire par la violence l'ancien ordre social ?",
    "Qu'est-ce que Marx entend par « dictature du prolétariat » ?",
    "Comment a-t-il défini la dictature selon Lenine ?",
    "Dans quels textes Marx a-t-il parlé du rôle et de la nécessité d'une telle dictature ?",
    "Qu'est-ce que Kautsky a affirmé sur la dictature du prolétariat selon Marx ?",
    "Quels textes de Marx sont-ils concernés dans la question de la dictature ?",
    "Comment les forces réactionnaires peuvent-elles jouer un rôle dans le développement historique selon Marx ?"
  ]
}