{
  "num": "autog_0338-7259_1971_num_15_1",
  "article": "autog_0338-7259_1971_num_15_1_1001",
  "page_name": "FMSH_PB188a_00015_099",
  "questions": [
    "Quel est le but final que Marx cherche à atteindre dans sa dialectique?",
    "Comment la réalisation de ce but final ne se sépare-t-elle pas des moyens d'atteindre cet objectif?",
    "Qu'est l'autogestion des luttes et comment elle est liée à l'autogestion de la production?",
    "Comment Marx réagit lorsque l'organisation libératrice devient une institution extérieure?",
    "Quels textes de Marx abordent-ils plus précisément le sujet de l'autogestion?",
    "Quels auteurs sont cités parmi les « utopistes » et comment sont-ils liés au mouvement coopératif et à l'autogestion?"
  ]
}