{
  "num": "autog_0338-7259_1972_num_20_1",
  "article": "autog_0338-7259_1972_num_20_1_1063",
  "page_name": "FMSH_PB188a_20-21_038",
  "questions": [
    "Quand parle-t-on de Jean Goret dans ce passage ?",
    "Qu'implique la \"question morale\" pour Jean Goret ?",
    "En quoi la législation anglaise est-elle \"rétrograde\" selon le texte ?",
    "Quel est le lien entre le caractère de l'école Summerhill et le risque de fermeture ?",
    "Quels soucis économiques sont-ils perceptibles dans la pratique pédagogique de Neill ?",
    "Qu'entendrait Neill par \"fausseté harmonique\" ?",
    "Qu'est le système de Neill et comment il peut-il ne pas prétendre à rendre la société harmonieuse ?",
    "Qu'implique la condamnation de Neill pour \"former une société dans laquelle les adolescents seraient libres de vivre leur vie sexuelle naturellement\" ?",
    "Pourquoi Neill est-il \"obligé\" de faire des compromis et de comprendre que sa destinée n'est pas de réformer la société ?"
  ]
}