{
  "num": "autog_0338-7259_1972_num_20_1",
  "article": "autog_0338-7259_1972_num_20_1_1063",
  "page_name": "FMSH_PB188a_20-21_056",
  "questions": [
    "Quel est le titre du livre de René Schérer sur Fourier ?",
    "D'après Neill, quels sont les thèmes abordés dans L'Ordre Subversif ?",
    "Quel est le titre du livre de Neill mentionné par Laguillaumie ?",
    "Dans quelle publication est-on trouvé l'article de Yvon Bourdet sur l'autogestion ?",
    "Quel est le titre du livre de Jean Piaget cité par Schmid ?",
    "Quel est le rôle de Neill dans la pédagogie libertaire selon Schmid ?",
    "Quel est le titre du livre de Neill où il parle de libres enfants ?",
    "Quel est le titre du livre de Barthes cité dans le texte ?",
    "Dans quelle publication est-on trouvé l'article de Bourdet sur l'autogestion et la spontanéité ?",
    "Quel est le titre du livre de Neill, Pour ou Contre Summerhill ?",
    "Quel est le titre du livre de Neill, Libres Enfants... ?",
    "Quel est le titre du livre de Schérer où il parle de la lutte des classes et des civilisations ?",
    "Quel est le rôle de Neill dans l'histoire de Summerhill selon le texte ?",
    "Quel est le titre du livre de Neill où il se proclame dictateur de Summerhill ?",
    "Quel est le titre du livre de Neill, Le Maître Camarade et la Pédagogie Libertaire ?",
    "Quel est le titre du livre de Neill, La Liberté, pas l'Anarchie ?",
    "Quel est le titre du livre de Neill, Autogestion ?",
    "Quel est le titre du livre de Neill, Neill, p. 26 ?",
    "Quel est le titre du livre de Neill, Neill, p. 305 ?",
    "Quel est le titre du livre de Neill, Neill, p. 61 ?",
    "Quel?"
  ]
}