{
  "num": "autog_0338-7259_1972_num_20_1",
  "article": "autog_0338-7259_1972_num_20_1_1063",
  "page_name": "FMSH_PB188a_20-21_030",
  "questions": [
    "Qui est Jean Goret et quels sont ses idées sur la punition ?",
    "En quoi est Summerhill qualifié de «lieu anti-civilisé» ?",
    "Comment Neill et Fourier sont-ils similaires dans leur pédagogie ?",
    "Quel rôle joue l'agréable, le sensible et le présent dans la pédagogie de Fourier ?",
    "Quel est le rôle de la vie présent dans l'école de Neill et en quoi cela diffère de la civilisation ?",
    "Quel est le rôle du théâtre dans l'école de Neill et comment cela remplit la fonction morale dans la pédagogie de Fourier ?"
  ]
}