{
  "num": "autog_0338-7259_1972_num_20_1",
  "article": "autog_0338-7259_1972_num_20_1_1063",
  "page_name": "FMSH_PB188a_20-21_041",
  "questions": [
    "Quels sont les élèves de Summerhill qui ont établi le premier contact avec les curieux et comment ont-ils fait cela ?",
    "Comment les adultes tentent-ils de s'approcher des curieux et quels sont les premiers à abattre les barrières ?",
    "En quelle manière les biens de l'école de Summerhill sont-ils gérés et quelle dépendance économique en résulte ?",
    "Quel lien y a-t-il entre la pratique et la théorie à Summerhill selon Neill et comment cela diffère de la vision de Fourier ?",
    "Comment Neill perçoit-il l'étude et comment cela peut-il être considéré comme insuffisant selon Fourier ?",
    "Quel est l'attitude de Neill envers le travail des enfants et comment cela diffère de la vision de Fourier ?"
  ]
}