{
  "num": "autog_0338-7259_1972_num_20_1",
  "article": "autog_0338-7259_1972_num_20_1_1063",
  "page_name": "FMSH_PB188a_20-21_037",
  "questions": [
    "Quelle est la fonction du maître dans la cinquième période selon Fourier ?",
    "Qu'observent Mme Simone Debout sur le surmoi et la contradiction qu'il crée entre l'idéal et la réalité ?",
    "Comment résout l'école d'Summerhill la contradiction entre l'idéal et la réalité ?",
    "Qu'est l'éducation harmonienne selon Neill ?",
    "Qu'est la deuxième topique freudienne et comment elle ne s'applique-t-elle pas aux harmoniens selon Fourier ?",
    "Qu'est l'impulsion externe et interne selon Fourier ?",
    "Qu'est la mixité de l'école d'Summerhill et comment elle diffère de la mixité de la vie ?",
    "Comment Neill réagit-il lorsqu'il rencontre deux élèves amoureux l'un de l'autre ?"
  ]
}