{
  "num": "autog_0249-2563_1981_num_14_7",
  "article": "autog_0249-2563_1981_num_14_7_1449",
  "page_name": "autog_0249-2563_1981_num_14_7_T1_0302_0000",
  "questions": [
    {
      "id_qa": "autog_0249-2563_1981_num_14_7_T1_0302_0000_qa25_v3",
      "id_block": "block_1",
      "question": "Quand l'IRA et le Sinn Féin se scindent-ils ?",
      "answer": "dès 1969",
      "answer_stringIds": [
        "string_26",
        "string_27"
      ]
    },
    {
      "id_qa": "autog_0249-2563_1981_num_14_7_T1_0302_0000_qa6_v3",
      "id_block": "block_2",
      "question": "En quelle année le Sinn Féin et l'IRA Provisoire semblent traditionnalistes ?",
      "answer": "en 1970",
      "answer_stringIds": [
        "string_60",
        "string_61"
      ]
    },
    {
      "id_qa": "autog_0249-2563_1981_num_14_7_T1_0302_0000_qa7_v3",
      "id_block": "block_2",
      "question": "De quoi sont qualifiés le Sinn Féin et l'IRA Provisoire en 1970 ?",
      "answer": "traditionnalistes",
      "answer_stringIds": [
        "string_69"
      ]
    },
    {
      "id_qa": "autog_0249-2563_1981_num_14_7_T1_0302_0000_qa8_v3",
      "id_block": "block_3",
      "question": "Qu'est-ce que le moyement républicain ?",
      "answer": "refléter",
      "answer_stringIds": [
        "string_176",
        "string_177"
      ]
    },
    {
      "id_qa": "autog_0249-2563_1981_num_14_7_T1_0302_0000_qa9_v3",
      "id_block": "block_3",
      "question": "Qu'est ce qui doit refléter les intérêts des classes défavorisées ?",
      "answer": "le moyement républicain",
      "answer_stringIds": [
        "string_172",
        "string_173",
        "string_174"
      ]
    },
    {
      "id_qa": "autog_0249-2563_1981_num_14_7_T1_0302_0000_qa10_v3",
      "id_block": "block_3",
      "question": "Que doit refléter le moyement républicain dans son programme ?",
      "answer": "leurs intérêts",
      "answer_stringIds": [
        "string_181",
        "string_182"
      ]
    },
    {
      "id_qa": "autog_0249-2563_1981_num_14_7_T1_0302_0000_qa12_v3",
      "id_block": "block_3",
      "question": "En quelle année a changé leur programme politique ?",
      "answer": "en 1919",
      "answer_stringIds": [
        "string_131",
        "string_132"
      ]
    },
    {
      "id_qa": "autog_0249-2563_1981_num_14_7_T1_0302_0000_qa13_v3",
      "id_block": "block_3",
      "question": "Qu'est ce qui n'a pas changé en 1919.",
      "answer": "leur programme politique",
      "answer_stringIds": [
        "string_117",
        "string_118",
        "string_119"
      ]
    },
    {
      "id_qa": "autog_0249-2563_1981_num_14_7_T1_0302_0000_qa16_v3",
      "id_block": "block_3",
      "question": "Quand la bourgeoisie irlandaise est-elle au pouvoir au sud ?",
      "answer": "de la décennie",
      "answer_stringIds": [
        "string_136",
        "string_137",
        "string_138"
      ]
    },
    {
      "id_qa": "autog_0249-2563_1981_num_14_7_T1_0302_0000_qa22_v3",
      "id_block": "block_3",
      "question": "Qui sont les provisoires en 1970 ?",
      "answer": "des traditionnalistes républicains",
      "answer_stringIds": [
        "string_204",
        "string_205",
        "string_206"
      ]
    },
    {
      "id_qa": "autog_0249-2563_1981_num_14_7_T1_0302_0000_qa5_v3",
      "id_block": "block_4",
      "question": "Qu'est ce qui a été lancé aux côtés des Provisoires ?",
      "answer": "la courte campagne armée",
      "answer_stringIds": [
        "string_360",
        "string_361",
        "string_362",
        "string_363"
      ]
    }
  ]
}