{
  "num": "autog_0249-2563_1981_num_14_7",
  "article": "autog_0249-2563_1981_num_14_7_1449",
  "page_name": "autog_0249-2563_1981_num_14_7_T1_0309_0000",
  "questions": [
    {
      "id_qa": "autog_0249-2563_1981_num_14_7_T1_0309_0000_qa0_v3",
      "id_block": "block_2",
      "question": "Combien de temps dure la grève des prisonniers politiques ?",
      "answer": "depuis quatre ans",
      "answer_stringIds": [
        "string_104",
        "string_105",
        "string_106"
      ]
    },
    {
      "id_qa": "autog_0249-2563_1981_num_14_7_T1_0309_0000_qa1_v3",
      "id_block": "block_2",
      "question": "Dans quelle grève les prisonniers politiques sont-ils engagés ?",
      "answer": "dans la grève de la nudité",
      "answer_stringIds": [
        "string_107",
        "string_108",
        "string_109",
        "string_110",
        "string_111",
        "string_112"
      ]
    },
    {
      "id_qa": "autog_0249-2563_1981_num_14_7_T1_0309_0000_qa4_v3",
      "id_block": "block_2",
      "question": "De quelle tendance politique sont les forces politiques en France ?",
      "answer": "de gauche",
      "answer_stringIds": [
        "string_157",
        "string_158"
      ]
    }
  ]
}