{
  "num": "autog_0249-2563_1981_num_14_7",
  "article": "autog_0249-2563_1981_num_14_7_1449",
  "page_name": "autog_0249-2563_1981_num_14_7_T1_0305_0000",
  "questions": [
    {
      "id_qa": "autog_0249-2563_1981_num_14_7_T1_0305_0000_qa14_v3",
      "id_block": "block_0",
      "question": "Quelle est la conséquence d'une quasi-égalité numérique ?",
      "answer": "par un taux de natalité très inégal dans les deux communautés",
      "answer_stringIds": [
        "string_48",
        "string_49",
        "string_50",
        "string_51",
        "string_52",
        "string_53",
        "string_54",
        "string_55",
        "string_56",
        "string_57",
        "string_58",
        "string_59"
      ]
    },
    {
      "id_qa": "autog_0249-2563_1981_num_14_7_T1_0305_0000_qa22_v3",
      "id_block": "block_0",
      "question": "Combien de comités composent l'Irlande du Nord actuelle ?",
      "answer": "les six",
      "answer_stringIds": [
        "string_14",
        "string_15"
      ]
    },
    {
      "id_qa": "autog_0249-2563_1981_num_14_7_T1_0305_0000_qa7_v3",
      "id_block": "block_1",
      "question": "Que permettrait le fédéralisme d'Eire Na ?",
      "answer": "le système de partition",
      "answer_stringIds": [
        "string_91",
        "string_92",
        "string_93",
        "string_94"
      ]
    },
    {
      "id_qa": "autog_0249-2563_1981_num_14_7_T1_0305_0000_qa10_v3",
      "id_block": "block_1",
      "question": "Qu'est-ce que le fédéralisme d'Eire Na ?",
      "answer": "un parlement",
      "answer_stringIds": [
        "string_77",
        "string_78"
      ]
    },
    {
      "id_qa": "autog_0249-2563_1981_num_14_7_T1_0305_0000_qa13_v3",
      "id_block": "block_2",
      "question": "Quelle idéologie est incompatible avec les idéaux égalitaires du Républicanisme ?",
      "answer": "du socialisme",
      "answer_stringIds": [
        "string_278",
        "string_279"
      ]
    },
    {
      "id_qa": "autog_0249-2563_1981_num_14_7_T1_0305_0000_qa27_v3",
      "id_block": "block_2",
      "question": "Avec quoi le fédéralisme ne devait pas être une couverture ?",
      "answer": "un compromis avec le loyalisme",
      "answer_stringIds": [
        "string_255",
        "string_256",
        "string_257",
        "string_258",
        "string_259"
      ]
    },
    {
      "id_qa": "autog_0249-2563_1981_num_14_7_T1_0305_0000_qa29_v3",
      "id_block": "block_2",
      "question": "Qu'est-ce que la voie irlandaise selon la jeune gauche nouvelle ?",
      "answer": "le fédéralisme",
      "answer_stringIds": [
        "string_212",
        "string_213"
      ]
    },
    {
      "id_qa": "autog_0249-2563_1981_num_14_7_T1_0305_0000_qa30_v3",
      "id_block": "block_2",
      "question": "Qu'est ce qui devait être une couverture pour accepter un compromis ?",
      "answer": "le fédéralisme",
      "answer_stringIds": [
        "string_212",
        "string_213"
      ]
    },
    {
      "id_qa": "autog_0249-2563_1981_num_14_7_T1_0305_0000_qa33_v3",
      "id_block": "block_2",
      "question": "Quelle est la nationalité de la Suisse ?",
      "answer": "la Yougoslavie",
      "answer_stringIds": [
        "string_223",
        "string_224"
      ]
    },
    {
      "id_qa": "autog_0249-2563_1981_num_14_7_T1_0305_0000_qa35_v3",
      "id_block": "block_2",
      "question": "Qu'est ce qui n'avait pas de sens sans un système autogestionnaire ?",
      "answer": "le fédéralisme",
      "answer_stringIds": [
        "string_212",
        "string_213"
      ]
    },
    {
      "id_qa": "autog_0249-2563_1981_num_14_7_T1_0305_0000_qa0_v3",
      "id_block": "block_4",
      "question": "Quel mouvement politique a adopté son nouveau programme socialiste en 1980 ?",
      "answer": "le mouvement républicain",
      "answer_stringIds": [
        "string_294",
        "string_295",
        "string_296"
      ]
    }
  ]
}