{
  "num": "autog_0338-7259_1970_num_13_1",
  "article": "autog_0338-7259_1970_num_13_1_987",
  "page_name": "FMSH_PB188a_13-14_204",
  "questions": [
    {
      "id_qa": "FMSH_PB188a_13-14_204_qa2_v3",
      "id_block": "block_1",
      "question": "Qu'est ce qui n'implique pas, par exemple, telle forme de propriété des biens de production ?",
      "answer": "le processus de gestion collective",
      "answer_stringIds": [
        "string_21",
        "string_22",
        "string_23",
        "string_24",
        "string_25",
        "string_26"
      ]
    },
    {
      "id_qa": "FMSH_PB188a_13-14_204_qa3_v3",
      "id_block": "block_1",
      "question": "Qu'implique le processus de gestion collective ?",
      "answer": "telle ou telle forme de propriété des biens de production",
      "answer_stringIds": [
        "string_32",
        "string_33",
        "string_34",
        "string_35",
        "string_36",
        "string_37",
        "string_38",
        "string_39",
        "string_40",
        "string_41"
      ]
    },
    {
      "id_qa": "FMSH_PB188a_13-14_204_qa9_v3",
      "id_block": "block_4",
      "question": "Qu'est-ce que la décentralisation ?",
      "answer": "le contrôle de la société",
      "answer_stringIds": [
        "string_167",
        "string_168",
        "string_169",
        "string_170",
        "string_171"
      ]
    }
  ]
}