{
  "num": "autog_0338-7259_1970_num_13_1",
  "article": "autog_0338-7259_1970_num_13_1_987",
  "page_name": "FMSH_PB188a_13-14_208",
  "questions": [
    {
      "id_qa": "FMSH_PB188a_13-14_208_qa8_v3",
      "id_block": "block_3",
      "question": "Dans quelle société les activités de formation sont-elles favorisées ?",
      "answer": "dans les sociétés occidentales",
      "answer_stringIds": [
        "string_185",
        "string_186",
        "string_187",
        "string_188"
      ]
    },
    {
      "id_qa": "FMSH_PB188a_13-14_208_qa19_v3",
      "id_block": "block_3",
      "question": "Quel est le métier des anciens militants ?",
      "answer": "des formateurs",
      "answer_stringIds": [
        "string_148",
        "string_149"
      ]
    },
    {
      "id_qa": "FMSH_PB188a_13-14_208_qa26_v3",
      "id_block": "block_3",
      "question": "Sur quelle société l'accent actuel est-il porté ?",
      "answer": "sur la société libérale",
      "answer_stringIds": [
        "string_134",
        "string_135",
        "string_136",
        "string_137"
      ]
    },
    {
      "id_qa": "FMSH_PB188a_13-14_208_qa11_v3",
      "id_block": "block_4",
      "question": "Quelle est la tendance actuelle de l'autogestion en matière de formation ?",
      "answer": "la transformation",
      "answer_stringIds": [
        "string_232",
        "string_233"
      ]
    },
    {
      "id_qa": "FMSH_PB188a_13-14_208_qa15_v3",
      "id_block": "block_4",
      "question": "Que signifie la tendance actuelle de l'autogestion en matière de formation ?",
      "answer": "la transformation peut être autogérée",
      "answer_stringIds": [
        "string_232",
        "string_233",
        "string_234",
        "string_235",
        "string_236"
      ]
    }
  ]
}