{
  "num": "autog_0338-7259_1970_num_13_1",
  "article": "autog_0338-7259_1970_num_13_1_975",
  "page_name": "FMSH_PB188a_13-14_054",
  "questions": [
    "Qu'est ce qui empêcheait le groupe de travail de développer une analyse approfondie et rapide ?",
    "Comment était structurée la série de conférences et quels avantages offrait-elle ?",
    "En décembre 1969, pourquoi les membres du groupe de travail se sont-ils posés le problème de rejoindre l'Université ?",
    "Comment a-t-on obtenu une salle pour le groupe de travail à la Faculté de droit de Reims ?",
    "Qu'est ce qui a changé dans le travail du groupe à partir du 15 décembre 1969 ?",
    "Qu'est ce que le groupe cherchait à faire différemment que les groupuscules politiques ?",
    "Qu'est ce qui a conduit le groupe à se rendre compte qu'ils devaient être analysés avant d'analyser ?",
    "Qu'est ce qui était mis sur le tapis chaque semaine et comment échappait le travail du groupe ?"
  ]
}