{
  "num": "autog_0249-2563_1980_num_13_4",
  "article": "autog_0249-2563_1980_num_13_4_1403_t1_0521_0000_3",
  "page_name": "autog_0249-2563_1980_num_13_4_T1_0521_0000",
  "questions": [
    "Quelles corrections des auteurs sont interdites selon la règle commune dans beaucoup de revues ?",
    "Quand les corrections sont-elles autorisées ?",
    "Qu'est-il arrivé avec l'auteur concerné dans ce cas ?",
    "Qu'est-ce qui a motivé la remarque de la correspondante sur l'autogestion ?",
    "Peut-on et faut-on autogérer une revue sur le plan des principes ?",
    "Qu'implique l'autogestion pour les lecteurs et les auteurs non-membres du conseil de rédaction ?",
    "Qu'implique l'autogestion pour ceux qui fabriquent la revue ?",
    "Qu'est-ce que l'autogestion d'une revue ne consiste pas à faire ?",
    "Qu'est-ce que l'article de S. Zukin traite de manière juste ?",
    "Quels sont les insuffisances du régime en matière de représentation démocratique selon l'article de S. Zukin ?",
    "Comment fonctionne le système des délégations ?",
    "Quels sont les balbutiements du système des délégations selon l'article de S. Zukin ?",
    "Quel livre a récemment été publié sur l'expérience de l'autogestion en Yougoslavie ?",
    "Quel est le rôle du syndicat dans la représentation démocratique selon l'article de S. Zukin ?",
    "Comment sont les candidats filtrés dans le régime ?",
    "Quel est le balbutiements du système des délégations selon la correspondance ?"
  ]
}