{
  "num": "autog_0249-2563_1982_num_16_12",
  "article": "autog_0249-2563_1982_num_16_12_1524",
  "page_name": "autog_0249-2563_1982_num_16_12_T1_0036_0000",
  "questions": [
    "Quels sont les principaux facteurs qui ont contribué à la croissance rapide de la population mondiale au XXe siècle ?",
    "En quelles régions du monde la croissance démographique a-t-elle été la plus forte ?",
    "Quel rôle a joué l'industrialisation dans la croissance démographique ?",
    "Quels facteurs sociaux et économiques ont contribué à la baisse de la mortalité au XXe siècle ?",
    "Comment l'urbanisation a-t-elle influencé la croissance démographique ?",
    "Quels sont les principaux défis démographiques que pose la croissance démographique actuelle ?",
    "Comment les gouvernements et les organisations internationales ont-elles répondu aux défis démographiques du XXe siècle ?",
    "Quels sont les principaux facteurs qui ont contribué à la réduction de la natalité au XXIe siècle ?",
    "Comment l'avancée des technologies de contraception a-t-elle influencé la croissance démographique ?",
    "Quels sont les principaux défis sociaux et économiques liés à l'âge croissant de la population mondiale ?",
    "Comment les migrations internationales ont-elles influencé la croissance démographique ?",
    "Quels sont les principaux défis environnementaux liés à la croissance démographique ?",
    "Comment les changements climatiques peuvent-ils influencer la croissance démographique ?",
    "Quels sont les principaux défis politiques liés à la croissance démographique ?",
    "Comment les changements technologiques peuvent-ils influencer la croissance démographique ?",
    "Quels sont les principaux défis sanitaires liés à la croissance démographique ?",
    "Comment les changements sociaux peuvent-ils influencer la croissance démographique ?",
    "Quels sont les principaux défis éducatifs liés à la croissance démographique ?",
    "Comment les changements culturels peuvent-ils influencer la croissance démographique ?",
    "Quels sont les principaux?"
  ]
}