{
  "num": "autog_0338-7259_1974_num_28_1",
  "article": "autog_0338-7259_1974_num_28_1_1206_t1_0190_0000_1",
  "page_name": "FMSH_PB188a_28-29_193",
  "questions": [
    "Quels titres de textes sont mentionnés dans ce passage ?",
    "Dans quels années sont écrites les critiques de l'organisation capitaliste du travail ?",
    "Quels groupes sont concernés par la rupture mentionnée ?",
    "Quel est le point de départ des analyses réunies dans ce livre ?",
    "Qu'est-ce que la société bureaucratique regroupe d'analyses ?",
    "Comment la classe ouvrière perçoit-elle la bureaucratie selon les textes ?",
    "Qu'est-il dit dans S. ou B. à propos de l'objectif de la révolution socialiste ?",
    "Qu'est-ce que le socialisme ne peut être défini que comme ?",
    "Quel est le but de comprendre que la revendication de la gestion collective n'est pas purement utopique ?",
    "Qu'y a-t-il de réellement dans la théorie marxiste pour répondre à cette question ?"
  ]
}