{
  "num": "autog_0338-7259_1974_num_26_1",
  "article": "autog_0338-7259_1974_num_26_1_1114",
  "page_name": "FMSH_PB188a_26-27_117",
  "questions": [
    {
      "id_qa": "FMSH_PB188a_26-27_117_qa4_v3",
      "id_block": "block_2",
      "question": "Qu'est ce qui transforme le comité de base ?",
      "answer": "discussions",
      "answer_stringIds": [
        "string_177"
      ]
    },
    {
      "id_qa": "FMSH_PB188a_26-27_117_qa16_v3",
      "id_block": "block_2",
      "question": "Qui gagne les sympathies et l'intérêt de la masse des travailleurs de la Pirelli ?",
      "answer": "militants ouvriers",
      "answer_stringIds": [
        "string_83",
        "string_84"
      ]
    },
    {
      "id_qa": "FMSH_PB188a_26-27_117_qa17_v3",
      "id_block": "block_2",
      "question": "Qu'obtient le noyau initial des militants ouvriers ?",
      "answer": "les sympathies",
      "answer_stringIds": [
        "string_89",
        "string_90"
      ]
    },
    {
      "id_qa": "FMSH_PB188a_26-27_117_qa20_v3",
      "id_block": "block_2",
      "question": "Qu'est ce qui motive les dirigeants syndicaux d'entreprises ?",
      "answer": "à ses réunions",
      "answer_stringIds": [
        "string_224",
        "string_225",
        "string_226",
        "string_227"
      ]
    },
    {
      "id_qa": "FMSH_PB188a_26-27_117_qa21_v3",
      "id_block": "block_2",
      "question": "Qu'est-ce qui motive les dirigeants syndicaux d'entreprises ?",
      "answer": "le besoin de participer à ses réunions",
      "answer_stringIds": [
        "string_220",
        "string_221",
        "string_222",
        "string_223",
        "string_224",
        "string_225",
        "string_226",
        "string_227"
      ]
    },
    {
      "id_qa": "FMSH_PB188a_26-27_117_qa22_v3",
      "id_block": "block_2",
      "question": "Qu'est-ce qui motive les grévistes ?",
      "answer": "les conditions de renouvellement de leur contrat de travail",
      "answer_stringIds": [
        "string_106",
        "string_107",
        "string_108",
        "string_109",
        "string_110",
        "string_111",
        "string_112",
        "string_113",
        "string_114",
        "string_115"
      ]
    },
    {
      "id_qa": "FMSH_PB188a_26-27_117_qa13_v3",
      "id_block": "block_3",
      "question": "Quel syndicat s'est distingué par rapport à l'appareil syndical ?",
      "answer": "le CUB",
      "answer_stringIds": [
        "string_187",
        "string_188"
      ]
    }
  ]
}