{
  "num": "autog_0338-7259_1974_num_26_1",
  "article": "autog_0338-7259_1974_num_26_1_1114",
  "page_name": "FMSH_PB188a_26-27_118",
  "questions": [
    {
      "id_qa": "FMSH_PB188a_26-27_118_qa1_v3",
      "id_block": "block_1",
      "question": "Qu'est-ce que l'organisme ?",
      "answer": "autour de lui un réseau organisationnel permanent",
      "answer_stringIds": [
        "string_74",
        "string_75",
        "string_76",
        "string_77",
        "string_78",
        "string_79",
        "string_80"
      ]
    },
    {
      "id_qa": "FMSH_PB188a_26-27_118_qa2_v3",
      "id_block": "block_1",
      "question": "Qu'est-ce que le syndicat ?",
      "answer": "un organisme",
      "answer_stringIds": [
        "string_51",
        "string_52"
      ]
    },
    {
      "id_qa": "FMSH_PB188a_26-27_118_qa9_v3",
      "id_block": "block_1",
      "question": "Par qui doivent être discutés les contenus des négociations ?",
      "answer": "les travailleurs",
      "answer_stringIds": [
        "string_131",
        "string_132"
      ]
    },
    {
      "id_qa": "FMSH_PB188a_26-27_118_qa12_v3",
      "id_block": "block_1",
      "question": "Qu'est-ce qui ne peut pas assister à leur travail ?",
      "answer": "les cars qui",
      "answer_stringIds": [
        "string_181",
        "string_182",
        "string_183"
      ]
    },
    {
      "id_qa": "FMSH_PB188a_26-27_118_qa13_v3",
      "id_block": "block_1",
      "question": "Qu'est ce qui ne peut pas assister à leur travail ?",
      "answer": "les cars",
      "answer_stringIds": [
        "string_181",
        "string_182"
      ]
    },
    {
      "id_qa": "FMSH_PB188a_26-27_118_qa14_v3",
      "id_block": "block_1",
      "question": "Qu'est-ce que nous devons lutter ?",
      "answer": "la liberté de discuter",
      "answer_stringIds": [
        "string_199",
        "string_200",
        "string_201",
        "string_202"
      ]
    },
    {
      "id_qa": "FMSH_PB188a_26-27_118_qa15_v3",
      "id_block": "block_1",
      "question": "Qu'est-ce qui interrompt les discussions à l'usine ?",
      "answer": "le travail",
      "answer_stringIds": [
        "string_212",
        "string_213"
      ]
    },
    {
      "id_qa": "FMSH_PB188a_26-27_118_qa22_v3",
      "id_block": "block_1",
      "question": "Quelle est la ligne politique du Comité Unitaire de Base ?",
      "answer": "un nouveau syndicat",
      "answer_stringIds": [
        "string_34",
        "string_35",
        "string_36"
      ]
    },
    {
      "id_qa": "FMSH_PB188a_26-27_118_qa26_v3",
      "id_block": "block_1",
      "question": "Qu'est ce qui est assuré lors des assemblées sur le lieu du travail ?",
      "answer": "la participation réelle de tous les ouvriers",
      "answer_stringIds": [
        "string_235",
        "string_236",
        "string_237",
        "string_238",
        "string_239",
        "string_240",
        "string_241"
      ]
    },
    {
      "id_qa": "FMSH_PB188a_26-27_118_qa20_v3",
      "id_block": "block_2",
      "question": "A quoi correspondent les positions du CUB ?",
      "answer": "celles",
      "answer_stringIds": [
        "string_261"
      ]
    },
    {
      "id_qa": "FMSH_PB188a_26-27_118_qa27_v3",
      "id_block": "block_2",
      "question": "Qui propose une première phase ?",
      "answer": "Le CUB",
      "answer_stringIds": [
        "string_310",
        "string_311"
      ]
    }
  ]
}