{
  "num": "autog_0338-7259_1977_num_37_1",
  "article": "autog_0338-7259_1977_num_37_1_1247",
  "page_name": "FMSH_PB188a_37-38_233",
  "questions": [
    "Quels auteurs ont écrit des articles sur l'autogestion dans les revues spécifiées ?",
    "Dans quels numéros desquelles revues ces articles ont-ils paru ?",
    "Quels autres articles sur l'autogestion sont parus dans les mêmes numéros ?",
    "Quels autres auteurs ont écrit des articles sur l'autogestion dans ces revues ?",
    "Quels pays sont concernés par ces articles sur l'autogestion ?",
    "Quels sont les titres des articles sur l'autogestion ?",
    "Quels sont les principaux arguments développés dans ces articles ?",
    "Quels sont les points de vue opposés à l'autogestion et comment sont-ils traités dans ces articles ?",
    "Quels sont les enseignements que l'on peut tirer des articles sur l'autogestion pour comprendre son évolution historique ?"
  ]
}