{
  "num": "autog_0005-0970_1966_num_1_1",
  "article": "autog_0005-0970_1966_num_1_1_884",
  "page_name": "FMSH_PB188a_00001_007",
  "questions": [
    {
      "id_qa": "FMSH_PB188a_00001_007_qa2_v3",
      "id_block": "block_3",
      "question": "Qui était l'auteur des Cahiers ?",
      "answer": "Georges Gurvitch",
      "answer_stringIds": [
        "string_0",
        "string_1"
      ]
    },
    {
      "id_qa": "FMSH_PB188a_00001_007_qa3_v3",
      "id_block": "block_3",
      "question": "A quelle occasion Georges Gurvitch a-t-il pris la parole ?",
      "answer": "au Colloque",
      "answer_stringIds": [
        "string_36",
        "string_37"
      ]
    },
    {
      "id_qa": "FMSH_PB188a_00001_007_qa5_v3",
      "id_block": "block_3",
      "question": "Quel était le rôle du syndicalisme révolutionnaire ?",
      "answer": "le rôle international",
      "answer_stringIds": [
        "string_48",
        "string_49",
        "string_50",
        "string_51"
      ]
    },
    {
      "id_qa": "FMSH_PB188a_00001_007_qa6_v3",
      "id_block": "block_3",
      "question": "Quel est le rôle international joué par Georges Gurvitch ?",
      "answer": "par le syndicalisme révolutionnaire",
      "answer_stringIds": [
        "string_53",
        "string_54",
        "string_55",
        "string_56"
      ]
    },
    {
      "id_qa": "FMSH_PB188a_00001_007_qa9_v3",
      "id_block": "block_4",
      "question": "Quand les premiers conseils ouvriers ont-ils été créés en Russie ?",
      "answer": "dès 1905",
      "answer_stringIds": [
        "string_108",
        "string_109"
      ]
    },
    {
      "id_qa": "FMSH_PB188a_00001_007_qa11_v3",
      "id_block": "block_4",
      "question": "Qui a organisé les premiers soviets russes ?",
      "answer": "par des proudhoniens",
      "answer_stringIds": [
        "string_209",
        "string_210",
        "string_211"
      ]
    },
    {
      "id_qa": "FMSH_PB188a_00001_007_qa17_v3",
      "id_block": "block_4",
      "question": "Qu'est ce que j'ai voulu approfondir en France ?",
      "answer": "ma connaissance de Proudhon",
      "answer_stringIds": [
        "string_188",
        "string_189",
        "string_190",
        "string_191",
        "string_192"
      ]
    },
    {
      "id_qa": "FMSH_PB188a_00001_007_qa18_v3",
      "id_block": "block_4",
      "question": "Qu'est-ce qui a posé problème en France ?",
      "answer": "les problèmes du syndicalisme révolutionnaire",
      "answer_stringIds": [
        "string_79",
        "string_80",
        "string_81",
        "string_82",
        "string_83"
      ]
    }
  ]
}