{
  "num": "autog_0005-0970_1966_num_1_1",
  "article": "autog_0005-0970_1966_num_1_1_884",
  "page_name": "FMSH_PB188a_00001_011",
  "questions": [
    {
      "id_qa": "FMSH_PB188a_00001_011_qa24_v3",
      "id_block": "block_1",
      "question": "Qu'est ce qui concerne la Société globale ?",
      "answer": "le secteur",
      "answer_stringIds": [
        "string_23",
        "string_24"
      ]
    },
    {
      "id_qa": "FMSH_PB188a_00001_011_qa40_v3",
      "id_block": "block_3",
      "question": "Qu'appelle-t-il les types microsociologiques ?",
      "answer": "de « solidarités vivantes",
      "answer_stringIds": [
        "string_59",
        "string_60",
        "string_61",
        "string_62"
      ]
    },
    {
      "id_qa": "FMSH_PB188a_00001_011_qa32_v3",
      "id_block": "block_4",
      "question": "Qui propose des classifications et des nomenclatures ?",
      "answer": "Gurvitch",
      "answer_stringIds": [
        "string_39"
      ]
    },
    {
      "id_qa": "FMSH_PB188a_00001_011_qa36_v3",
      "id_block": "block_4",
      "question": "Qu'est ce que propose Gurvitch ?",
      "answer": "les classifications et les nomenclatures",
      "answer_stringIds": [
        "string_82",
        "string_83",
        "string_84",
        "string_85",
        "string_86"
      ]
    },
    {
      "id_qa": "FMSH_PB188a_00001_011_qa29_v3",
      "id_block": "block_5",
      "question": "Quel est le métier de Gurvitch ?",
      "answer": "le sociologue",
      "answer_stringIds": [
        "string_143",
        "string_144"
      ]
    },
    {
      "id_qa": "FMSH_PB188a_00001_011_qa37_v3",
      "id_block": "block_5",
      "question": "Qu'est-ce qui s'élaborent au niveau de l'expérience collective ?",
      "answer": "des œuvres et des actes",
      "answer_stringIds": [
        "string_188",
        "string_189",
        "string_190",
        "string_191",
        "string_192"
      ]
    },
    {
      "id_qa": "FMSH_PB188a_00001_011_qa14_v3",
      "id_block": "block_7",
      "question": "Pour qui la démocratie sociale consistait-elle ?",
      "answer": "pour un individu",
      "answer_stringIds": [
        "string_383",
        "string_384",
        "string_385"
      ]
    }
  ]
}