{
  "num": "autog_0338-7259_1974_num_26_1",
  "article": "autog_0338-7259_1974_num_26_1_1108",
  "page_name": "FMSH_PB188a_26-27_045",
  "questions": [
    "Dans quelle période révolutionnaire les conseils peuvent-ils avoir une efficacité révolutionnaire?",
    "Qu'est-ce qui arrive aux conseils durant une période contre-révolutionnaire?",
    "Quels sont les deux rôles de l'État selon les anarchistes?",
    "Comment les conseils réduisent l'État?",
    "Quel est le rôle des conseils dans la destruction de l'appareil étatique?",
    "Quel type de force politique organisée est nécessaire pour détruire le mécanisme de contrainte et de sanction de l'État?"
  ]
}