{
  "num": "autog_0338-7259_1974_num_26_1",
  "article": "autog_0338-7259_1974_num_26_1_1108",
  "page_name": "FMSH_PB188a_26-27_046",
  "questions": [
    "Quels groupes politiques sont mentionnés dans ce passage ?",
    "Quel est le point de vue des « ordinovistes » sur l'État ?",
    "Quel est le point de vue des « soviétistes » sur l'État ?",
    "Comment les anarchistes abordent le problème de l'État ?",
    "Quel est le rôle des Conseils dans le Congrès National de l'USI ?",
    "Quels sont les journalistes qui ont abordé le sujet des Conseils avant le Congrès ?",
    "Quel journal a abordé la question des Conseils de manière critique ?",
    "Quel est le rôle de Matta dans le Congrès de l'USI ?",
    "Quels groupes sont comparés aux Conseils dans le Congrès ?",
    "Quel est le point de vue de Gramsci sur les idées du syndicaliste nord-américain De Leon ?",
    "Quel mot a été traduit par «isolement» dans ce passage ?",
    "Quel est le résultat attendu de la croissance du pouvoir des Conseils selon «l'Ordine Nuovo » ?"
  ]
}