{
  "num": "autog_0338-7259_1974_num_28_1",
  "article": "autog_0338-7259_1974_num_28_1_1189",
  "page_name": "FMSH_PB188a_28-29_024",
  "questions": [
    {
      "id_qa": "FMSH_PB188a_28-29_024_qa9_v3",
      "id_block": "block_1",
      "question": "Qu'est-ce qui rend la souveraineté du personnel nettement contre-indiquée ?",
      "answer": "le danger du monopolisme",
      "answer_stringIds": [
        "string_64",
        "string_65",
        "string_66",
        "string_67"
      ]
    },
    {
      "id_qa": "FMSH_PB188a_28-29_024_qa14_v3",
      "id_block": "block_1",
      "question": "Quel type d'entreprise peut-on qualifier d'autogérées ?",
      "answer": "les entreprises",
      "answer_stringIds": [
        "string_101",
        "string_102"
      ]
    },
    {
      "id_qa": "FMSH_PB188a_28-29_024_qa21_v3",
      "id_block": "block_1",
      "question": "Qu'est ce qui aurait tendance à s'aggraver par processus cumulatif ?",
      "answer": "ces inégalités",
      "answer_stringIds": [
        "string_127",
        "string_128"
      ]
    },
    {
      "id_qa": "FMSH_PB188a_28-29_024_qa0_v3",
      "id_block": "block_3",
      "question": "A quoi s'adapte l'initiative des entreprises ?",
      "answer": "indications des marchés",
      "answer_stringIds": [
        "string_244",
        "string_245",
        "string_246"
      ]
    },
    {
      "id_qa": "FMSH_PB188a_28-29_024_qa1_v3",
      "id_block": "block_3",
      "question": "Quel courant veut-il sauver ?",
      "answer": "le courant autogestionnaire français",
      "answer_stringIds": [
        "string_218",
        "string_219",
        "string_220",
        "string_221"
      ]
    },
    {
      "id_qa": "FMSH_PB188a_28-29_024_qa2_v3",
      "id_block": "block_3",
      "question": "Quel courant veut sauver la multiplicité des centres de décisions économiques ?",
      "answer": "le courant autogestionnaire français",
      "answer_stringIds": [
        "string_218",
        "string_219",
        "string_220",
        "string_221"
      ]
    },
    {
      "id_qa": "FMSH_PB188a_28-29_024_qa3_v3",
      "id_block": "block_3",
      "question": "Qui a voulu sauver la multiplicité des centres de décisions économiques ?",
      "answer": "les dirigeants yougoslaves",
      "answer_stringIds": [
        "string_226",
        "string_227",
        "string_228",
        "string_229"
      ]
    },
    {
      "id_qa": "FMSH_PB188a_28-29_024_qa4_v3",
      "id_block": "block_3",
      "question": "Quel courant a voulu sauver la multiplicité des centres de décisions économiques ?",
      "answer": "le courant autogestionnaire français",
      "answer_stringIds": [
        "string_218",
        "string_219",
        "string_220",
        "string_221"
      ]
    },
    {
      "id_qa": "FMSH_PB188a_28-29_024_qa12_v3",
      "id_block": "block_3",
      "question": "Qu'est-ce qui doit étre pleinement impérative ?",
      "answer": "cette planification",
      "answer_stringIds": [
        "string_204",
        "string_205"
      ]
    }
  ]
}