{
  "num": "autog_0338-7259_1974_num_28_1",
  "article": "autog_0338-7259_1974_num_28_1_1189",
  "page_name": "FMSH_PB188a_28-29_017",
  "questions": [
    {
      "id_qa": "FMSH_PB188a_28-29_017_qa20_v3",
      "id_block": "block_1",
      "question": "Qu'est ce qui fut donné aux directeurs en Yougoslavie ?",
      "answer": "des pouvoirs spéciaux",
      "answer_stringIds": [
        "string_24",
        "string_25",
        "string_26"
      ]
    },
    {
      "id_qa": "FMSH_PB188a_28-29_017_qa22_v3",
      "id_block": "block_1",
      "question": "Qui a donné des pouvoirs spéciaux en Yougoslavie ?",
      "answer": "directeurs",
      "answer_stringIds": [
        "string_22",
        "string_23"
      ]
    },
    {
      "id_qa": "FMSH_PB188a_28-29_017_qa9_v3",
      "id_block": "block_2",
      "question": "Qu'est-ce qui a été compromis dans certaines coopératives ?",
      "answer": "leur avenir",
      "answer_stringIds": [
        "string_89",
        "string_90"
      ]
    },
    {
      "id_qa": "FMSH_PB188a_28-29_017_qa10_v3",
      "id_block": "block_2",
      "question": "Qu'est-ce qui a empêché certaines coopératives d'opérer ?",
      "answer": "des innovations techniques ou des reconversions nécessaires",
      "answer_stringIds": [
        "string_79",
        "string_80",
        "string_81",
        "string_82",
        "string_83",
        "string_84",
        "string_85"
      ]
    },
    {
      "id_qa": "FMSH_PB188a_28-29_017_qa12_v3",
      "id_block": "block_2",
      "question": "Qui a refusé de, ou trop tardé à, opérer des innovations techniques ou des reconversions nécessaires ?",
      "answer": "Certaines coopératives",
      "answer_stringIds": [
        "string_61",
        "string_62"
      ]
    },
    {
      "id_qa": "FMSH_PB188a_28-29_017_qa23_v3",
      "id_block": "block_2",
      "question": "Qu'est ce qui permettrait d'améliorer les progrès techniques ?",
      "answer": "des économies de force de travail",
      "answer_stringIds": [
        "string_55",
        "string_56",
        "string_57",
        "string_58",
        "string_59",
        "string_60"
      ]
    },
    {
      "id_qa": "FMSH_PB188a_28-29_017_qa25_v3",
      "id_block": "block_2",
      "question": "Qu'est ce qui permettrait des économies de force de travail ?",
      "answer": "des progrès techniques",
      "answer_stringIds": [
        "string_50",
        "string_51",
        "string_52"
      ]
    },
    {
      "id_qa": "FMSH_PB188a_28-29_017_qa30_v3",
      "id_block": "block_2",
      "question": "Quel est le défaut de travail d'un employé ?",
      "answer": "un travailleur peu productif",
      "answer_stringIds": [
        "string_42",
        "string_43",
        "string_44",
        "string_45"
      ]
    },
    {
      "id_qa": "FMSH_PB188a_28-29_017_qa2_v3",
      "id_block": "block_3",
      "question": "Quel est le pays d'origine des pratiques de featherbedding ?",
      "answer": "syndicats anglo-saxons",
      "answer_stringIds": [
        "string_111",
        "string_112"
      ]
    },
    {
      "id_qa": "FMSH_PB188a_28-29_017_qa4_v3",
      "id_block": "block_3",
      "question": "Par quoi sont rendus inutiles les postes de travail ?",
      "answer": "les transformations techniques",
      "answer_stringIds": [
        "string_138",
        "string_139",
        "string_140",
        "string_141"
      ]
    },
    {
      "id_qa": "FMSH_PB188a_28-29_017_qa5_v3",
      "id_block": "block_3",
      "question": "Qu'est ce qui est rendu inutile par les transformations techniques ?",
      "answer": "maintien de postes de travail",
      "answer_stringIds": [
        "string_130",
        "string_131",
        "string_132",
        "string_133",
        "string_134"
      ]
    },
    {
      "id_qa": "FMSH_PB188a_28-29_017_qa28_v3",
      "id_block": "block_5",
      "question": "Quelle était l'origine des attitudes des travailleurs ?",
      "answer": "lorsque la position des travailleurs était si faible",
      "answer_stringIds": [
        "string_258",
        "string_259",
        "string_260",
        "string_261",
        "string_262",
        "string_263",
        "string_264",
        "string_265"
      ]
    }
  ]
}