{
  "num": "autog_0338-7259_1971_num_15_1",
  "article": "autog_0338-7259_1971_num_15_1_1007_t1_0159_0000_1",
  "page_name": "FMSH_PB188a_00015_165",
  "questions": [
    "Quel est le but de l'auteur pour la construction d'une société sociale ?",
    "Quel est le rôle de la compétence professionnelle dans la société selon l'auteur ?",
    "Pourquoi l'auteur veut que tous les hommes soient égaux dans cette société ?",
    "Quel est le point de vue matériel de l'auteur sur la compétence professionnelle ?",
    "Quel est le point de vue culturel de l'auteur sur la compétence professionnelle ?",
    "Comment l'auteur envisage la rémunération des compétences professionnelles dans une société autogérée ?",
    "Comment l'auteur envisage l'éducation permanente dans une société socialiste autogérée ?",
    "Comment l'auteur croit que la compétence professionnelle perdra de son importance dans une société plus développée culturellement ?",
    "Comment l'auteur décrit la transformation de la compétence professionnelle dans une société plus développée culturellement ?",
    "Quel est le lien entre l'autogestion et l'égalité des hommes selon l'auteur ?",
    "Comment l'auteur envisage la gradation de la compétence professionnelle dans une société plus développée culturellement ?"
  ]
}