{
  "num": "autog_0249-2563_1980_num_13_2",
  "article": "autog_0249-2563_1980_num_13_2_1373",
  "page_name": "autog_0249-2563_1980_num_13_2_T1_0314_0000",
  "questions": [
    "Quel est le rôle du directeur du travail dans l'entreprise \"cogérée\" ?",
    "Comment les représentants du personnel sont-ils décrits dans le conseil de surveillance ?",
    "Quel est le but réel de la présence des représentants des salariés dans le conseil de surveillance ?",
    "Quel est le résultat observé de la présence des représentants des salariés dans le conseil de surveillance ?",
    "Comment les organisations syndicales décrivent la cogestion dans leurs déclarations ?",
    "Quel est le rôle des principes démocratiques dans l'économie selon le D.G.B. ?",
    "Comment le D.G.B. perçoit le partnership en rapport avec la cogestion ?",
    "Quel est le rôle des actionnaires dans l'entreprise \"cogérée\" selon le texte ?"
  ]
}