{
  "num": "autog_0338-7259_1977_num_39_1",
  "article": "autog_0338-7259_1977_num_39_1_1253",
  "page_name": "FMSH_PB188a_00039_056",
  "questions": [
    {
      "id_qa": "FMSH_PB188a_00039_056_qa0_v3",
      "id_block": "block_1",
      "question": "Qu'est ce que le long repli sur soi du Fokonolona ?",
      "answer": "les valeurs",
      "answer_stringIds": [
        "string_46",
        "string_47"
      ]
    },
    {
      "id_qa": "FMSH_PB188a_00039_056_qa21_v3",
      "id_block": "block_1",
      "question": "Quand a eu lieu le soulèvement populaire ?",
      "answer": "de mai 1972",
      "answer_stringIds": [
        "string_4",
        "string_5",
        "string_6"
      ]
    },
    {
      "id_qa": "FMSH_PB188a_00039_056_qa5_v3",
      "id_block": "block_2",
      "question": "Qu'est-ce qui rappelle par trop le régime des camarades pseudo-démocrates ?",
      "answer": "Le mot « socialisme »",
      "answer_stringIds": [
        "string_169",
        "string_170",
        "string_171",
        "string_172",
        "string_173"
      ]
    },
    {
      "id_qa": "FMSH_PB188a_00039_056_qa11_v3",
      "id_block": "block_2",
      "question": "Quand a été présenté le programme du nouveau régime ?",
      "answer": "le 27 juillet 1972",
      "answer_stringIds": [
        "string_115",
        "string_116",
        "string_117",
        "string_118"
      ]
    },
    {
      "id_qa": "FMSH_PB188a_00039_056_qa25_v3",
      "id_block": "block_2",
      "question": "Quand la confusion et l'euphorie sont-elles érigées en système de gouvernement?",
      "answer": "Dès le renversèment du régime post-colonial en mai 1972",
      "answer_stringIds": [
        "string_89",
        "string_90",
        "string_91",
        "string_92",
        "string_93",
        "string_94",
        "string_95",
        "string_96",
        "string_97"
      ]
    },
    {
      "id_qa": "FMSH_PB188a_00039_056_qa19_v3",
      "id_block": "block_3",
      "question": "Quelle est l'origine de cette révolution ?",
      "answer": "une révolution prolétarienne partant des communautés de base",
      "answer_stringIds": [
        "string_257",
        "string_258",
        "string_259",
        "string_260",
        "string_261",
        "string_262",
        "string_263",
        "string_264",
        "string_265"
      ]
    },
    {
      "id_qa": "FMSH_PB188a_00039_056_qa24_v3",
      "id_block": "block_3",
      "question": "Qu'est ce qui se développe sous le manteau ?",
      "answer": "un embryon de restructuration économique",
      "answer_stringIds": [
        "string_237",
        "string_238",
        "string_239",
        "string_240",
        "string_241"
      ]
    }
  ]
}