{
  "num": "autog_0249-2563_1982_num_15_10",
  "article": "autog_0249-2563_1982_num_15_10_1494",
  "page_name": "autog_0249-2563_1982_num_15_10_T1_0015_0000",
  "questions": [
    {
      "id_qa": "autog_0249-2563_1982_num_15_10_T1_0015_0000_qa14_v3",
      "id_block": "block_1",
      "question": "Qu'est ce qui a suscité les entreprises publiques en RFA ?",
      "answer": "beaucoup de discussions",
      "answer_stringIds": [
        "string_28",
        "string_29",
        "string_30",
        "string_31"
      ]
    },
    {
      "id_qa": "autog_0249-2563_1982_num_15_10_T1_0015_0000_qa7_v3",
      "id_block": "block_3",
      "question": "Quand est-ce qu'on a rencontré le pouvoir chez nous ?",
      "answer": "après 1969",
      "answer_stringIds": [
        "string_321",
        "string_322"
      ]
    },
    {
      "id_qa": "autog_0249-2563_1982_num_15_10_T1_0015_0000_qa23_v3",
      "id_block": "block_3",
      "question": "Qu'est ce qui bloquait l'opposition ?",
      "answer": "la discussion",
      "answer_stringIds": [
        "string_292",
        "string_293"
      ]
    },
    {
      "id_qa": "autog_0249-2563_1982_num_15_10_T1_0015_0000_qa24_v3",
      "id_block": "block_3",
      "question": "Qu'apportait l'opposition à la discussion ?",
      "answer": "sa contribution",
      "answer_stringIds": [
        "string_283",
        "string_284"
      ]
    },
    {
      "id_qa": "autog_0249-2563_1982_num_15_10_T1_0015_0000_qa25_v3",
      "id_block": "block_4",
      "question": "Qu'est-ce que la démocratie parlementaire ?",
      "answer": "les règles traditionnelles de la démocratie parlementaire",
      "answer_stringIds": [
        "string_331",
        "string_332",
        "string_333",
        "string_334",
        "string_335",
        "string_336",
        "string_337"
      ]
    },
    {
      "id_qa": "autog_0249-2563_1982_num_15_10_T1_0015_0000_qa10_v3",
      "id_block": "block_5",
      "question": "Qu'est ce que la décentralisation va finalement rendre au peuple ?",
      "answer": "le pouvoir",
      "answer_stringIds": [
        "string_324",
        "string_325"
      ]
    },
    {
      "id_qa": "autog_0249-2563_1982_num_15_10_T1_0015_0000_qa12_v3",
      "id_block": "block_5",
      "question": "Qu'est-ce qui rend le pouvoir au peuple ?",
      "answer": "la décentralisation",
      "answer_stringIds": [
        "string_341",
        "string_342"
      ]
    },
    {
      "id_qa": "autog_0249-2563_1982_num_15_10_T1_0015_0000_qa13_v3",
      "id_block": "block_5",
      "question": "Qu'est ce qui rend le pouvoir au peuple au niveau régional ?",
      "answer": "la décentralisation",
      "answer_stringIds": [
        "string_341",
        "string_342"
      ]
    },
    {
      "id_qa": "autog_0249-2563_1982_num_15_10_T1_0015_0000_qa0_v3",
      "id_block": "block_7",
      "question": "Quand est-ce que je suis venu en France ?",
      "answer": "Quelques jours après le 10 mai 1981",
      "answer_stringIds": [
        "string_376",
        "string_377",
        "string_378",
        "string_379",
        "string_380",
        "string_381",
        "string_382"
      ]
    }
  ]
}