{
  "num": "autog_0338-7259_1972_num_20_1",
  "article": "autog_0338-7259_1972_num_20_1_1070",
  "page_name": "FMSH_PB188a_20-21_197",
  "questions": [
    "Quel est le concept de \"stagnation en échelle\" selon Fourier et comment il est lié au mécanisme industriel moderne ?",
    "Quels sont les huit régimes politiques que Fourier a vécu et comment il a vécu la phase de chaos et de désorientation produite par le début de la transformation industrielle ?",
    "Qu'est la \"construction sociétaire\" de Fourier et comment elle représente une tentative de retenir l'humanité au bord de l'abîme ?",
    "Qu'est la notion d'incohérence industrielle selon Massari et comment elle est caractéristique du système capitaliste dans ses premières années ?",
    "Comment la pensée théorique de Fourier est-elle intéressante et durable selon Massari ?",
    "Quels sont les aspects non-productifs qui ont gonflé artificiellement et dangereusement selon le texte ?",
    "Comment la notion d'incohérence industrielle est-elle liée à l'isolement des producteurs et l'utilisation insuffisante de leurs capacités ?",
    "Comment le chômage massif est-il un trait permanent du panorama industriel français au début du siècle ?"
  ]
}