{
  "num": "autog_0338-7259_1972_num_20_1",
  "article": "autog_0338-7259_1972_num_20_1_1070",
  "page_name": "FMSH_PB188a_20-21_194",
  "questions": [
    "Proudhon lorsqu'il rencontre Fourier et sa philosophie ?",
    "Quel est le rôle que Proudhon joue dans l'impression du Nouveau monde Industriel et Sociétaire ?",
    "Qu'en pense Proudhon de Fourier après leur première rencontre ?",
    "Comment décrit-on Fourier dans la Création de l'Ordre ?",
    "Qu'en pense Proudhon de l'idée de phalanstère proposée par Fourier ?",
    "Pourquoi, selon Proudhon, l'erreur de Fourier et de ses disciples est d'avoir voulu introduire la réforme dans le monde par un fait isolé ?",
    "Comment, selon Proudhon, doit naître la réforme de la société ?"
  ]
}