{
  "num": "autog_0338-7259_1971_num_15_1",
  "article": "autog_0338-7259_1971_num_15_1_1007_t1_0183_0000_1",
  "page_name": "FMSH_PB188a_00015_192",
  "questions": [
    "Quels sont les unités autogérées que l'on veut atomiser ?",
    "Quel phénomène crée le pouvoir central en ce qui concerne l'intérêt général ?",
    "Comment les conseils ouvriers pourraient être le pouvoir central d'un type nouveau ?",
    "Comment le conseil central de tous les conseils ouvriers serait-il l'émission directe et révocable de la volonté de tous les producteurs associés ?",
    "Comment le pouvoir central pourrait-il manquer de garantir l'intérêt général ?",
    "Quels sont les vieilles formules qui promettent un État ouvrier sans déformation bureaucratique ?",
    "Comment le fameux « centralisme » serait-il « démocratique » ?",
    "Qu'est-ce que la « société de transition » ?",
    "Comment les États ouvriers persévèrent-ils dans leur être et s'y renforcent ?",
    "Comment les révolutions ne brisent-elles pas réellement la structure de classe de la société ?"
  ]
}