{
  "num": "autog_0338-7259_1974_num_28_1",
  "article": "autog_0338-7259_1974_num_28_1_1203",
  "page_name": "FMSH_PB188a_28-29_165",
  "questions": [
    "Quels événements ont conduit à l'annulation du deuxième colloque Autogestion et vie sociale prévu les 8 et 9 juin 1974 ?",
    "Quels rapports ont été présentés au premier colloque Autogestion et entreprise organisé par la C.F.D.T. ?",
    "Quels sont les thèmes des deux colloques Autogestion organisés par la C.F.D.T. ?",
    "Quel rapport sur l'autogestion et l'information a été préparé pour le deuxième colloque annulé ?",
    "Quel document a été publié pour servir de base à la réflexion collective sur les objectifs de transition vers le socialisme autogestionnaire ?",
    "Dans quelle revue a été prévu la publication du rapport sur l'autogestion et l'information préparé pour le deuxième colloque annulé ?",
    "Quels groupes politiques ont participé au premier colloque Autogestion et entreprise ?",
    "Quels sont les objectifs de transition vers le socialisme autogestionnaire que discute la C.F.D.T. ?"
  ]
}