{
  "num": "autog_0005-0970_1967_num_2_1",
  "article": "autog_0005-0970_1967_num_2_1_899",
  "page_name": "FMSH_PB188a_00002_073",
  "questions": [
    "Qu'est-ce que l'autogestion selon les Grenobliens pour les planificateurs ?",
    "Pourquoi l'autogestion ne doit-elle pas être qualifiée de socialiste ?",
    "Quels bouleversements supposerait un plan socialiste pour les managers ?",
    "Qu'est l'idéal socialiste selon les auteurs ?",
    "Comment les auteurs voient-ils le rôle de l'autogestion dans la société ?",
    "Qu'est-ce qui inquiète les serviteurs du rendement à l'idée de l'autogestion ?",
    "Qu'est la confusion entre les moyens et les fins selon les auteurs ?",
    "Comment les auteurs voient-ils l'impact de l'autogestion sur la productivité ?"
  ]
}