{
  "num": "autog_0249-2563_1982_num_15_10",
  "article": "autog_0249-2563_1982_num_15_10_1959",
  "page_name": "autog_0249-2563_1982_num_15_10_T1_0001_0000",
  "questions": [
    {
      "id_qa": "autog_0249-2563_1982_num_15_10_T1_0001_0000_qa2_v3",
      "id_block": "block_1",
      "question": "Quand a eu lieu l'exposition universelle ?",
      "answer": "1982",
      "answer_stringIds": [
        "string_4"
      ]
    },
    {
      "id_qa": "autog_0249-2563_1982_num_15_10_T1_0001_0000_qa1_v3",
      "id_block": "block_3",
      "question": "Qu'est-ce qui a changé ?",
      "answer": "passer la gauche",
      "answer_stringIds": [
        "string_8",
        "string_9",
        "string_10"
      ]
    }
  ]
}