{
  "num": "autog_0249-2563_1982_num_15_10",
  "article": "autog_0249-2563_1982_num_15_10_1959",
  "page_name": "autog_0249-2563_1982_num_15_10_T1_0002_0000",
  "questions": [
    {
      "id_qa": "autog_0249-2563_1982_num_15_10_T1_0002_0000_qa8_v3",
      "id_block": "block_1",
      "question": "Qui frappe à nouveau ?",
      "answer": "monsieur Propre",
      "answer_stringIds": [
        "string_13",
        "string_14"
      ]
    },
    {
      "id_qa": "autog_0249-2563_1982_num_15_10_T1_0002_0000_qa9_v3",
      "id_block": "block_1",
      "question": "Qu'est-ce qui est ineffable ?",
      "answer": "P.S.U. moi j'",
      "answer_stringIds": [
        "string_9",
        "string_10",
        "string_11"
      ]
    },
    {
      "id_qa": "autog_0249-2563_1982_num_15_10_T1_0002_0000_qa3_v3",
      "id_block": "block_10",
      "question": "Qu'est-ce qui est publié dans Autogestions ?",
      "answer": "Les articles",
      "answer_stringIds": [
        "string_137",
        "string_138"
      ]
    },
    {
      "id_qa": "autog_0249-2563_1982_num_15_10_T1_0002_0000_qa5_v3",
      "id_block": "block_10",
      "question": "Qu'engagent les articles signés, insérés ou reproduits dans Autogestions ?",
      "answer": "la seule responsabilité de leurs signataires",
      "answer_stringIds": [
        "string_147",
        "string_148",
        "string_149",
        "string_150",
        "string_151",
        "string_152",
        "string_153"
      ]
    },
    {
      "id_qa": "autog_0249-2563_1982_num_15_10_T1_0002_0000_qa6_v3",
      "id_block": "block_7",
      "question": "Qui a composé ce numéro ?",
      "answer": "par les Travaëtlles",
      "answer_stringIds": [
        "string_78",
        "string_79",
        "string_80"
      ]
    },
    {
      "id_qa": "autog_0249-2563_1982_num_15_10_T1_0002_0000_qa1_v3",
      "id_block": "block_8",
      "question": "Quels sont les horaires de la permanence de la rédaction ?",
      "answer": "tous les lundis et mercredis de 14 heures à 17 heures",
      "answer_stringIds": [
        "string_96",
        "string_97",
        "string_98",
        "string_99",
        "string_100",
        "string_101",
        "string_102",
        "string_103",
        "string_104",
        "string_105",
        "string_106"
      ]
    },
    {
      "id_qa": "autog_0249-2563_1982_num_15_10_T1_0002_0000_qa11_v3",
      "id_block": "block_9",
      "question": "Qui est l'auteur de cet article ?",
      "answer": "-nous",
      "answer_stringIds": [
        "string_122"
      ]
    }
  ]
}