{
  "num": "autog_0249-2563_1981_num_14_6",
  "article": "autog_0249-2563_1981_num_14_6_1434",
  "page_name": "autog_0249-2563_1981_num_14_6_T1_0207_0000",
  "questions": [
    "Quand a-t-on rejeté le réalisme socialiste dans le domaine de la culture yougoslave ?",
    "Quels modèles ont été rejetés dans le domaine de la culture yougoslave au moment de la fondation des conseils ouvriers ?",
    "Quel rôle a joué l'autoritarisme de la partiynost dans la rejet de certains modèles culturels ?",
    "Quels types d'associations culturelles et artistiques ont été mis en veilleuse ?",
    "Quels types d'amateurisme ont été rejetés ?",
    "Quels sont les facteurs qui ont contribué à la réduction des actions de masse et leurs programmes culturels ?",
    "Quel est le rôle de Predrag Matvejevic dans la culture yougoslave ?",
    "En quelle revue a été publiée la longue étude de Predrag Matvejevic sur la littérature croate ?",
    "Pourquoi cette étude était destinée à l'étranger ?"
  ]
}