{
  "num": "autog_0249-2563_1981_num_14_6",
  "article": "autog_0249-2563_1981_num_14_6_1434",
  "page_name": "autog_0249-2563_1981_num_14_6_T1_0211_0000",
  "questions": [
    "Quels divergences actuelles existent entre le politique et le culturel selon le texte ?",
    "Qu'est l'idée de culture apportant à la politique l'imagination nécessaire au dépassement de la routine et de la banalité ?",
    "Qu'est l'idée d'une politique autogestionnaire selon le texte ?",
    "Quels préjugés doit la culture dépasser envers la politique selon le texte ?",
    "Quels préjugés doit la politique traditionnelle renoncer à envers la culture selon le texte ?",
    "Comment peut la création culturelle requérir un degré élevé d'autonomie et être souvent par nature déviante selon le texte ?",
    "Comment peut le travail du créateur se libérer de ses propres hypothèques et déprofessionnaliser selon le texte ?",
    "Comment peut la société devenir l'objet d'une créativité et d'une inventivité pratiquées sur la plus vaste échelle selon le texte ?"
  ]
}