{
  "num": "autog_0005-0970_1967_num_2_1",
  "article": "autog_0005-0970_1967_num_2_1_898",
  "page_name": "FMSH_PB188a_00002_055",
  "questions": [
    {
      "id_qa": "FMSH_PB188a_00002_055_qa7_v3",
      "id_block": "block_1",
      "question": "Qui lève la main contre le pouvoir populaire ?",
      "answer": "tout provocateur",
      "answer_stringIds": [
        "string_13",
        "string_14"
      ]
    },
    {
      "id_qa": "FMSH_PB188a_00002_055_qa1_v3",
      "id_block": "block_2",
      "question": "Quel est le métier de Max Weber ?",
      "answer": "ces dirigeants",
      "answer_stringIds": [
        "string_84",
        "string_85"
      ]
    },
    {
      "id_qa": "FMSH_PB188a_00002_055_qa4_v3",
      "id_block": "block_2",
      "question": "Qui décrit les dirigeants ?",
      "answer": "par Max Weber",
      "answer_stringIds": [
        "string_92",
        "string_93",
        "string_94"
      ]
    },
    {
      "id_qa": "FMSH_PB188a_00002_055_qa14_v3",
      "id_block": "block_2",
      "question": "Qu'est ce que l'ouvrier ne peut pas faire sans son ingéniosité permanente ?",
      "answer": "une sorte de grève du zèle",
      "answer_stringIds": [
        "string_228",
        "string_229",
        "string_230",
        "string_231",
        "string_232",
        "string_233"
      ]
    },
    {
      "id_qa": "FMSH_PB188a_00002_055_qa16_v3",
      "id_block": "block_2",
      "question": "Que doit faire l'ouvrier pour réaliser une grève du zèle ?",
      "answer": "respecter scrupuleusement les normes et directives",
      "answer_stringIds": [
        "string_220",
        "string_221",
        "string_222",
        "string_223",
        "string_224",
        "string_225"
      ]
    },
    {
      "id_qa": "FMSH_PB188a_00002_055_qa36_v3",
      "id_block": "block_2",
      "question": "Que produit l'ouvrier pendant un tiers de la journée de travail ?",
      "answer": "son propre minimum vital",
      "answer_stringIds": [
        "string_300",
        "string_301",
        "string_302",
        "string_303"
      ]
    },
    {
      "id_qa": "FMSH_PB188a_00002_055_qa25_v3",
      "id_block": "block_3",
      "question": "Qui pense que le capital n'est pas une puissance personnelle ?",
      "answer": "Marx",
      "answer_stringIds": [
        "string_369"
      ]
    },
    {
      "id_qa": "FMSH_PB188a_00002_055_qa28_v3",
      "id_block": "block_4",
      "question": "Comment s'appelle le Parti ouvrier polonais ?",
      "answer": "Lettre ouverte au Parti ouvrier polonais",
      "answer_stringIds": [
        "string_394",
        "string_395",
        "string_396",
        "string_397",
        "string_398",
        "string_399"
      ]
    }
  ]
}