{
  "num": "autog_0338-7259_1971_num_15_1",
  "article": "autog_0338-7259_1971_num_15_1_1003",
  "page_name": "FMSH_PB188a_00015_128",
  "questions": [
    {
      "id_qa": "FMSH_PB188a_00015_128_qa8_v3",
      "id_block": "block_1",
      "question": "Dans quelle société est possible la démocratie dans l'entreprise ?",
      "answer": "dans la société globale",
      "answer_stringIds": [
        "string_77",
        "string_78",
        "string_79",
        "string_80"
      ]
    },
    {
      "id_qa": "FMSH_PB188a_00015_128_qa12_v3",
      "id_block": "block_1",
      "question": "Qu'est ce qui limite l'action de l'entreprise ?",
      "answer": "un syndicat",
      "answer_stringIds": [
        "string_54",
        "string_55"
      ]
    },
    {
      "id_qa": "FMSH_PB188a_00015_128_qa21_v3",
      "id_block": "block_2",
      "question": "Quel est le métier de Marx ?",
      "answer": "Cet économiste",
      "answer_stringIds": [
        "string_81",
        "string_82"
      ]
    },
    {
      "id_qa": "FMSH_PB188a_00015_128_qa22_v3",
      "id_block": "block_2",
      "question": "Qui a souvent combattu dans sa propre pensée ?",
      "answer": "Marx",
      "answer_stringIds": [
        "string_96"
      ]
    },
    {
      "id_qa": "FMSH_PB188a_00015_128_qa17_v3",
      "id_block": "block_3",
      "question": "Qui n'a pas voulu faire de l'économie un facteur prédominant ?",
      "answer": "Marx",
      "answer_stringIds": [
        "string_96"
      ]
    },
    {
      "id_qa": "FMSH_PB188a_00015_128_qa18_v3",
      "id_block": "block_3",
      "question": "Qui n'avait pas voulu faire de l'économie un facteur prédominant ?",
      "answer": "Marx",
      "answer_stringIds": [
        "string_96"
      ]
    },
    {
      "id_qa": "FMSH_PB188a_00015_128_qa24_v3",
      "id_block": "block_3",
      "question": "Qui a réduit le concept de forces productives aux facteurs morphologiques et techniques ?",
      "answer": "Marx",
      "answer_stringIds": [
        "string_96"
      ]
    },
    {
      "id_qa": "FMSH_PB188a_00015_128_qa32_v3",
      "id_block": "block_3",
      "question": "Qu'est-ce que l'Idéologie Allemande ?",
      "answer": "la production matérielle et spirituelle",
      "answer_stringIds": [
        "string_182",
        "string_183",
        "string_184",
        "string_185",
        "string_186"
      ]
    },
    {
      "id_qa": "FMSH_PB188a_00015_128_qa34_v3",
      "id_block": "block_3",
      "question": "Où est-ce que l'Idéologie Allemande arrive à entendre par production ?",
      "answer": "dans l'",
      "answer_stringIds": [
        "string_27",
        "string_28"
      ]
    },
    {
      "id_qa": "FMSH_PB188a_00015_128_qa0_v3",
      "id_block": "block_4",
      "question": "Qui décrit la société capitaliste ?",
      "answer": "Marx",
      "answer_stringIds": [
        "string_96"
      ]
    },
    {
      "id_qa": "FMSH_PB188a_00015_128_qa1_v3",
      "id_block": "block_4",
      "question": "Qu'est ce que Marx décrit ici ?",
      "answer": "la société capitaliste",
      "answer_stringIds": [
        "string_278",
        "string_279",
        "string_280"
      ]
    },
    {
      "id_qa": "FMSH_PB188a_00015_128_qa2_v3",
      "id_block": "block_4",
      "question": "Qu'est-ce que la société capitaliste ?",
      "answer": "ses forces productives",
      "answer_stringIds": [
        "string_292",
        "string_293",
        "string_294"
      ]
    },
    {
      "id_qa": "FMSH_PB188a_00015_128_qa4_v3",
      "id_block": "block_4",
      "question": "Par quoi est dominée la société capitaliste ?",
      "answer": "par le fétichisme de la marchandise",
      "answer_stringIds": [
        "string_282",
        "string_283",
        "string_284",
        "string_285",
        "string_286",
        "string_287"
      ]
    },
    {
      "id_qa": "FMSH_PB188a_00015_128_qa5_v3",
      "id_block": "block_4",
      "question": "Quelle société est décrite par Marx ?",
      "answer": "la société capitaliste",
      "answer_stringIds": [
        "string_278",
        "string_279",
        "string_280"
      ]
    },
    {
      "id_qa": "FMSH_PB188a_00015_128_qa20_v3",
      "id_block": "block_4",
      "question": "Qu'est-ce qui est aliénable selon Marx ?",
      "answer": "les rapports sociaux",
      "answer_stringIds": [
        "string_330",
        "string_331",
        "string_332"
      ]
    },
    {
      "id_qa": "FMSH_PB188a_00015_128_qa28_v3",
      "id_block": "block_4",
      "question": "Qu'est-ce que les rapports de production ?",
      "answer": "forces",
      "answer_stringIds": [
        "string_159"
      ]
    },
    {
      "id_qa": "FMSH_PB188a_00015_128_qa29_v3",
      "id_block": "block_4",
      "question": "Qu'est-ce que le Marx de la Misère de la philosophie ?",
      "answer": "forces productives et rapports de production",
      "answer_stringIds": [
        "string_219",
        "string_220",
        "string_221",
        "string_222",
        "string_223",
        "string_224"
      ]
    },
    {
      "id_qa": "FMSH_PB188a_00015_128_qa35_v3",
      "id_block": "block_5",
      "question": "Quelle révolution est déterminée par la révolution technologique ?",
      "answer": "la révolution politique et sociale",
      "answer_stringIds": [
        "string_355",
        "string_356",
        "string_357",
        "string_358",
        "string_359"
      ]
    },
    {
      "id_qa": "FMSH_PB188a_00015_128_qa37_v3",
      "id_block": "block_5",
      "question": "Par quoi est déterminée la révolution politique et sociale ?",
      "answer": "par la révolution technologique",
      "answer_stringIds": [
        "string_362",
        "string_363",
        "string_364",
        "string_365"
      ]
    }
  ]
}