{
  "user_1": [
    "autog_0338-7259_1976_num_33_1_1152",
    "autog_0249-2563_1984_num_17_18_1623",
    "autog_0249-2563_1986_num_20_23_1766_t1_0094_0000_2",
    "autog_0249-2563_1984_num_17_18_1621",
    "autog_0338-7259_1978_num_40_1_1286_t1_0137_0000_1",
    "autog_0338-7259_1972_num_18_1_1037",
    "autog_0338-7259_1972_num_18_1_1032",
    "autog_0005-0970_1968_num_7_1_938",
    "autog_0249-2563_1982_num_16_12_1529",
    "autog_0005-0970_1968_num_7_1_933"
  ],
  "user_2": [
    "autog_0005-0970_1966_num_1_1_892",
    "autog_0005-0970_1966_num_1_1_892",
    "autog_0338-7259_1976_num_33_1_1163",
    "autog_0338-7259_1972_num_20_1_1067",
    "autog_0005-0970_1966_num_1_1_892",
    "autog_0005-0970_1968_num_5_1_926",
    "autog_0005-0970_1968_num_7_1_930",
    "autog_0005-0970_1968_num_5_1_923",
    "autog_0005-0970_1967_num_2_1_898",
    "autog_0005-0970_1969_num_8_1_946"
  ],
  "user_3": [
    "autog_0005-0970_1968_num_5_1_925",
    "autog_0005-0970_1968_num_5_1_919",
    "autog_0338-7259_1972_num_20_1_1063",
    "autog_0005-0970_1968_num_7_1_941",
    "autog_0005-0970_1968_num_7_1_941",
    "autog_0005-0970_1967_num_2_1_899",
    "autog_0005-0970_1968_num_7_1_938",
    "autog_0005-0970_1968_num_7_1_930",
    "autog_0005-0970_1968_num_7_1_931",
    "autog_0005-0970_1968_num_7_1_931",
    "autog_0005-0970_1968_num_5_1_920",
    "autog_0249-2563_1985_num_19_22_1730"
  ],
  "user_4": [
    "autog_0005-0970_1967_num_4_1_911",
    "autog_0005-0970_1967_num_2_1_898",
    "autog_0005-0970_1966_num_1_1_886",
    "autog_0005-0970_1968_num_5_1_926",
    "autog_0005-0970_1968_num_7_1_941",
    "autog_0005-0970_1968_num_7_1_938",
    "autog_0249-2563_1984_num_17_15_1577"
  ],
  "user_5": [
    "autog_0338-7259_1974_num_28_1_1191",
    "autog_0005-0970_1967_num_4_1_910",
    "autog_0249-2563_1980_num_13_2_1382",
    "autog_0249-2563_1981_num_14_6_1439",
    "autog_0338-7259_1974_num_28_1_1191",
    "autog_0005-0970_1968_num_7_1_938",
    "autog_0005-0970_1968_num_7_1_936"
  ],
  "user_6": [
    "autog_0338-7259_1974_num_28_1_1200",
    "autog_0338-7259_1974_num_28_1_1200",
    "autog_0338-7259_1974_num_28_1_1200",
    "autog_0338-7259_1974_num_28_1_1200",
    "autog_0249-2563_1983_num_16_14_1563",
    "autog_0249-2563_1983_num_16_14_1563",
    "autog_0338-7259_1974_num_28_1_1200",
    "autog_0338-7259_1974_num_28_1_1200",
    "autog_0338-7259_1974_num_28_1_1200",
    "autog_0249-2563_1983_num_16_14_1563",
    "autog_0338-7259_1974_num_28_1_1192",
    "autog_0005-0970_1966_num_1_1_885",
    "autog_0249-2563_1983_num_16_14_1563",
    "autog_0249-2563_1984_num_17_16_1898",
    "autog_0338-7259_1970_num_11_1_1785",
    "autog_0338-7259_1970_num_11_1_1785",
    "autog_0338-7259_1970_num_11_1_965",
    "autog_0338-7259_1970_num_11_1_961",
    "autog_0005-0970_1969_num_8_1_946"
  ],
  "user_7": [
    "autog_0005-0970_1968_num_5_1_926",
    "autog_0005-0970_1968_num_5_1_929",
    "autog_0005-0970_1968_num_5_1_922",
    "autog_0338-7259_1974_num_28_1_1196",
    "autog_0338-7259_1974_num_28_1_1206_t1_0167_0000_3",
    "autog_0005-0970_1967_num_2_1_898",
    "autog_0005-0970_1968_num_5_1_926",
    "autog_0005-0970_1968_num_7_1_941",
    "autog_0005-0970_1968_num_7_1_938",
    "autog_0338-7259_1970_num_11_1_1785",
    "autog_0005-0970_1967_num_2_1_898"
  ],
  "user_8": [
    "autog_0249-2563_1986_num_20_23_1766_t1_0094_0000_2",
    "autog_0005-0970_1966_num_1_1_886",
    "autog_0005-0970_1967_num_2_1_899",
    "autog_0005-0970_1966_num_1_1_885",
    "autog_0005-0970_1966_num_1_1_885",
    "autog_0005-0970_1966_num_1_1_885",
    "autog_0005-0970_1966_num_1_1_885",
    "autog_0338-7259_1972_num_18_1_1057",
    "autog_0338-7259_1972_num_18_1_1057",
    "autog_0338-7259_1978_num_40_1_1271",
    "autog_0338-7259_1974_num_28_1_1206_t1_0190_0000_1",
    "autog_0338-7259_1972_num_18_1_1056_t1_0282_0000_1",
    "autog_0005-0970_1967_num_4_1_916_t1_0179_0000_1",
    "autog_0005-0970_1967_num_2_1_898",
    "autog_0005-0970_1967_num_2_1_898",
    "autog_0005-0970_1968_num_5_1_923",
    "autog_0005-0970_1966_num_1_1_887",
    "autog_0005-0970_1968_num_5_1_926",
    "autog_0005-0970_1967_num_2_1_898",
    "autog_0005-0970_1967_num_2_1_898"
  ],
  "user_9": [
    "autog_0005-0970_1966_num_1_1_1927",
    "autog_0005-0970_1967_num_4_1_912",
    "autog_0338-7259_1972_num_18_1_1036",
    "autog_0005-0970_1968_num_5_1_927",
    "autog_0338-7259_1971_num_16_1_1015",
    "autog_0338-7259_1971_num_16_1_1023_t1_0181_0000_1",
    "autog_0338-7259_1978_num_40_1_1271",
    "autog_0005-0970_1966_num_1_1_885",
    "autog_0338-7259_1972_num_18_1_1047",
    "autog_0005-0970_1967_num_2_1_898"
  ],
  "user_10": [
    "autog_0249-2563_1980_num_13_2_1368",
    "autog_0338-7259_1971_num_15_1_1001",
    "autog_0338-7259_1970_num_11_1_963",
    "autog_0338-7259_1971_num_15_1_1001",
    "autog_0249-2563_1984_num_17_18_1632",
    "autog_0338-7259_1978_num_40_1_1271",
    "autog_0005-0970_1968_num_5_1_926",
    "autog_0005-0970_1968_num_5_1_926",
    "autog_0338-7259_1970_num_11_1_965",
    "autog_0338-7259_1974_num_28_1_1190"
  ],
  "user_11": [
    "autog_0249-2563_1982_num_16_12_1530",
    "autog_0249-2563_1982_num_15_8_1489_t1_0238_0000_1",
    "autog_0249-2563_1982_num_16_12_1531",
    "autog_0249-2563_1982_num_16_12_1530",
    "autog_0249-2563_1982_num_16_12_1887",
    "autog_0249-2563_1982_num_16_12_1530",
    "autog_0249-2563_1983_num_16_14_1565",
    "autog_0005-0970_1966_num_1_1_892",
    "autog_0338-7259_1971_num_16_1_1015",
    "autog_0005-0970_1967_num_2_1_898",
    "autog_0005-0970_1967_num_2_1_903",
    "autog_0005-0970_1966_num_1_1_892",
    "autog_0338-7259_1971_num_16_1_1015",
    "autog_0338-7259_1971_num_16_1_1023_t1_0181_0000_1"
  ],
  "user_12": [
    "autog_0338-7259_1976_num_33_1_1152",
    "autog_0338-7259_1970_num_11_1_970",
    "autog_0005-0970_1967_num_4_1_1930",
    "autog_0005-0970_1967_num_4_1_909",
    "autog_0338-7259_1971_num_16_1_1023_t1_0217_0000_1",
    "autog_0005-0970_1969_num_9_1_1808",
    "autog_0005-0970_1969_num_9_1_1807",
    "autog_0249-2563_1982_num_15_8_1471",
    "autog_0005-0970_1969_num_8_1_946",
    "autog_0005-0970_1968_num_7_1_938",
    "autog_0338-7259_1971_num_15_1_1000"
  ],
  "user_13": [
    "autog_0005-0970_1966_num_1_1_884",
    "autog_0005-0970_1966_num_1_1_1927",
    "autog_0005-0970_1967_num_2_1_902",
    "autog_0249-2563_1980_num_13_1_1347",
    "autog_0249-2563_1980_num_13_1_1347",
    "autog_0338-7259_1978_num_40_1_1271",
    "autog_0338-7259_1978_num_41_1_1324",
    "autog_0005-0970_1967_num_2_1_902",
    "autog_0005-0970_1966_num_1_1_884",
    "autog_0005-0970_1967_num_2_1_907_t1_0145_0000_1",
    "autog_0005-0970_1966_num_1_1_887",
    "autog_0005-0970_1966_num_1_1_894",
    "autog_0005-0970_1967_num_4_1_916_t1_0177_0000_1",
    "autog_0338-7259_1978_num_40_1_1950",
    "autog_0338-7259_1975_num_32_1_1142",
    "autog_0005-0970_1967_num_2_1_898",
    "autog_0005-0970_1966_num_1_1_887",
    "autog_0005-0970_1967_num_2_1_898"
  ],
  "user_14": [
    "autog_0338-7259_1976_num_33_1_1152",
    "autog_0338-7259_1974_num_28_1_1188",
    "autog_0005-0970_1968_num_7_1_939",
    "autog_0338-7259_1978_num_41_1_1335",
    "autog_0005-0970_1966_num_1_1_886",
    "autog_0005-0970_1968_num_7_1_938",
    "autog_0338-7259_1970_num_11_1_1785",
    "autog_0005-0970_1967_num_2_1_898",
    "autog_0005-0970_1967_num_2_1_898",
    "autog_0338-7259_1970_num_11_1_1785",
    "autog_0338-7259_1970_num_11_1_965",
    "autog_0338-7259_1970_num_11_1_1785"
  ],
  "user_15": [
    "autog_0005-0970_1967_num_2_1_905",
    "autog_0005-0970_1969_num_9_1_1805",
    "autog_0005-0970_1967_num_2_1_899",
    "autog_0338-7259_1972_num_18_1_1057",
    "autog_0005-0970_1968_num_5_1_926",
    "autog_0338-7259_1971_num_15_1_1000",
    "autog_0338-7259_1974_num_28_1_1190",
    "autog_0338-7259_1978_num_41_1_1316",
    "autog_0005-0970_1967_num_2_1_905",
    "autog_0005-0970_1967_num_2_1_907_t1_0145_0000_1",
    "autog_0005-0970_1967_num_2_1_907_t1_0148_0000_1"
  ],
  "user_16": [
    "autog_0005-0970_1968_num_5_1_927",
    "autog_0249-2563_1980_num_13_4_1390",
    "autog_0338-7259_1970_num_11_1_1785",
    "autog_0338-7259_1972_num_18_1_1051",
    "autog_0338-7259_1972_num_18_1_1057",
    "autog_0005-0970_1968_num_5_1_926",
    "autog_0338-7259_1972_num_18_1_1029"
  ],
  "user_17": [
    "autog_0249-2563_1985_num_19_22_1726",
    "autog_0249-2563_1983_num_16_14_1561",
    "autog_0249-2563_1985_num_19_20_1671",
    "autog_0249-2563_1985_num_19_20_1674",
    "autog_0249-2563_1982_num_16_12_1526",
    "autog_0249-2563_1980_num_13_4_1394",
    "autog_0249-2563_1980_num_13_4_1395",
    "autog_0338-7259_1974_num_28_1_1191",
    "autog_0005-0970_1968_num_5_1_926",
    "autog_0338-7259_1979_num_43_1_1294",
    "autog_0005-0970_1968_num_5_1_926",
    "autog_0005-0970_1968_num_5_1_926",
    "autog_0005-0970_1968_num_5_1_925",
    "autog_0249-2563_1984_num_17_18_1621"
  ],
  "user_18": [
    "autog_0338-7259_1977_num_39_1_1251",
    "autog_0005-0970_1966_num_1_1_894",
    "autog_0338-7259_1972_num_18_1_1033",
    "autog_0005-0970_1968_num_5_1_919",
    "autog_0249-2563_1980_num_13_4_1391",
    "autog_0249-2563_1980_num_13_1_1340",
    "autog_0338-7259_1972_num_20_1_1940",
    "autog_0338-7259_1970_num_11_1_1785",
    "autog_0338-7259_1970_num_11_1_1785",
    "autog_0338-7259_1970_num_11_1_1785",
    "autog_0338-7259_1970_num_11_1_1785",
    "autog_0249-2563_1980_num_13_1_1352_t1_0124_0000_2",
    "autog_0338-7259_1970_num_11_1_1785",
    "autog_0249-2563_1980_num_13_1_1344",
    "autog_0249-2563_1982_num_16_12_1543",
    "autog_0338-7259_1970_num_11_1_964",
    "autog_0338-7259_1970_num_11_1_961"
  ],
  "user_19": [
    "autog_0249-2563_1985_num_19_22_1719",
    "autog_0249-2563_1985_num_19_22_1719",
    "autog_0249-2563_1985_num_19_20_1665",
    "autog_0249-2563_1985_num_19_20_1665",
    "autog_0249-2563_1983_num_16_14_1566_t1_0112_0000_1",
    "autog_0005-0970_1967_num_2_1_907_t1_0148_0000_1",
    "autog_0249-2563_1985_num_19_22_1722_t1_0044_0000_7",
    "autog_0338-7259_1978_num_40_1_1286_t1_0125_0000_3",
    "autog_0249-2563_1980_num_13_2_1382",
    "autog_0338-7259_1974_num_28_1_1191",
    "autog_0005-0970_1967_num_2_1_898",
    "autog_0005-0970_1967_num_2_1_898",
    "autog_0005-0970_1967_num_2_1_898",
    "autog_0005-0970_1967_num_2_1_898",
    "autog_0005-0970_1968_num_5_1_923",
    "autog_0005-0970_1967_num_2_1_898",
    "autog_0249-2563_1982_num_15_11_1512",
    "autog_0249-2563_1982_num_15_10_1497",
    "autog_0249-2563_1982_num_15_10_1501",
    "autog_0249-2563_1982_num_15_10_1508_t1_0129_0000_1"
  ],
  "user_20": [
    "autog_0249-2563_1981_num_14_6_1431",
    "autog_0005-0970_1967_num_4_1_909",
    "autog_0005-0970_1967_num_2_1_1929",
    "autog_0249-2563_1984_num_17_16_1897_t1_0128_0000_3",
    "autog_0005-0970_1967_num_4_1_910",
    "autog_0005-0970_1967_num_4_1_909",
    "autog_0249-2563_1984_num_17_15_1578_t1_0073_0000_1",
    "autog_0249-2563_1986_num_20_23_1745",
    "autog_0249-2563_1980_num_13_1_1340",
    "autog_0338-7259_1971_num_15_1_1001",
    "autog_0338-7259_1974_num_28_1_1200",
    "autog_0338-7259_1974_num_28_1_1206_t1_0175_0000_2",
    "autog_0338-7259_1971_num_16_1_1015",
    "autog_0338-7259_1974_num_28_1_1192",
    "autog_0249-2563_1982_num_15_10_1496",
    "autog_0249-2563_1981_num_14_7_1453",
    "autog_0338-7259_1978_num_40_1_1286_t1_0140_0000_2",
    "autog_0338-7259_1970_num_11_1_1785",
    "autog_0338-7259_1970_num_11_1_1785",
    "autog_0338-7259_1970_num_11_1_1785",
    "autog_0338-7259_1972_num_18_1_1029",
    "autog_0249-2563_1985_num_19_20_1688",
    "autog_0338-7259_1974_num_28_1_1194",
    "autog_0005-0970_1968_num_5_1_920"
  ],
  "user_21": [
    "autog_0005-0970_1967_num_2_1_900",
    "autog_0005-0970_1967_num_2_1_906",
    "autog_0338-7259_1970_num_11_1_962",
    "autog_0005-0970_1968_num_5_1_922",
    "autog_0005-0970_1968_num_5_1_923",
    "autog_0005-0970_1968_num_5_1_925",
    "autog_0338-7259_1979_num_43_1_1294",
    "autog_0005-0970_1969_num_8_1_946",
    "autog_0338-7259_1971_num_16_1_1014",
    "autog_0005-0970_1968_num_5_1_919",
    "autog_0005-0970_1969_num_8_1_948",
    "autog_0005-0970_1968_num_5_1_922",
    "autog_0338-7259_1974_num_28_1_1190",
    "autog_0005-0970_1967_num_2_1_907_t1_0152_0000_1",
    "autog_0005-0970_1966_num_1_1_889",
    "autog_0249-2563_1980_num_13_1_1339",
    "autog_0005-0970_1968_num_5_1_922",
    "autog_0005-0970_1968_num_5_1_922",
    "autog_0005-0970_1968_num_5_1_923",
    "autog_0005-0970_1968_num_5_1_922",
    "autog_0005-0970_1967_num_2_1_899",
    "autog_0338-7259_1974_num_28_1_1196",
    "autog_0005-0970_1966_num_1_1_886",
    "autog_0005-0970_1967_num_2_1_898",
    "autog_0005-0970_1968_num_5_1_922",
    "autog_0005-0970_1968_num_5_1_929",
    "autog_0005-0970_1967_num_4_1_915",
    "autog_0338-7259_1972_num_20_1_1067",
    "autog_0338-7259_1972_num_18_1_1056_t1_0282_0000_1",
    "autog_0338-7259_1972_num_18_1_1041"
  ],
  "user_22": [
    "autog_0338-7259_1974_num_28_1_1193",
    "autog_0338-7259_1971_num_16_1_1020",
    "autog_0338-7259_1978_num_40_1_1279",
    "autog_0338-7259_1977_num_39_1_1253",
    "autog_0249-2563_1980_num_13_1_1340",
    "autog_0249-2563_1980_num_13_1_1342",
    "autog_0249-2563_1980_num_13_2_1358",
    "autog_0005-0970_1968_num_7_1_936",
    "autog_0005-0970_1968_num_5_1_922",
    "autog_0338-7259_1976_num_33_1_1157",
    "autog_0338-7259_1972_num_20_1_1063",
    "autog_0005-0970_1968_num_5_1_927",
    "autog_0005-0970_1968_num_5_1_1969",
    "autog_0005-0970_1968_num_5_1_926",
    "autog_0249-2563_1982_num_15_8_1476",
    "autog_0249-2563_1984_num_17_17_1613",
    "autog_0249-2563_1984_num_17_17_1613",
    "autog_0249-2563_1984_num_17_17_1613",
    "autog_0005-0970_1968_num_5_1_922",
    "autog_0249-2563_1980_num_13_1_1342"
  ],
  "user_23": [
    "autog_0338-7259_1971_num_16_1_1019",
    "autog_0338-7259_1972_num_20_1_1063"
  ],
  "user_24": [
    "autog_0338-7259_1972_num_18_1_1026",
    "autog_0005-0970_1966_num_1_1_892",
    "autog_0005-0970_1966_num_1_1_889",
    "autog_0005-0970_1968_num_5_1_925",
    "autog_0005-0970_1968_num_5_1_925",
    "autog_0249-2563_1982_num_15_11_1513",
    "autog_0005-0970_1968_num_5_1_922",
    "autog_0005-0970_1968_num_5_1_922",
    "autog_0005-0970_1968_num_5_1_926",
    "autog_0005-0970_1966_num_1_1_892",
    "autog_0005-0970_1968_num_5_1_922",
    "autog_0338-7259_1972_num_20_1_1074"
  ],
  "user_26": [
    "autog_0005-0970_1968_num_5_1_919",
    "autog_0005-0970_1969_num_8_1_946",
    "autog_0005-0970_1969_num_8_1_950",
    "autog_0005-0970_1967_num_2_1_899",
    "autog_0005-0970_1967_num_2_1_905",
    "autog_0005-0970_1968_num_7_1_936",
    "autog_0249-2563_1982_num_15_8_1481",
    "autog_0338-7259_1979_num_43_1_1294",
    "autog_0338-7259_1971_num_16_1_1022",
    "autog_0249-2563_1986_num_20_23_1746",
    "autog_0005-0970_1968_num_5_1_922",
    "autog_0338-7259_1974_num_28_1_1190",
    "autog_0005-0970_1966_num_1_1_894",
    "autog_0005-0970_1968_num_5_1_923"
  ]
}