{
  "num": "autog_0338-7259_1973_num_22_1",
  "article": "autog_0338-7259_1973_num_22_1_1096",
  "page_name": "FMSH_PB188a_22-23_238",
  "questions": [
    "Quel est l'événement actuellement effectivement en cause dans les Comptes Rendus ?",
    "Qu'est l'autogestion selon la C.F.D.T. ?",
    "Comment les travailleurs sont-ils changés par l'autogestion ?",
    "Quels sont les responsables de l'entreprise élus par les travailleurs dans l'autogestion ?",
    "Comment les travailleurs décident-ils de l'organisation du travail et des conditions de travail ?",
    "Comment les travailleurs déterminent la politique de l'entreprise en matière de fabrication, de répartition des investissements, de rémunérations ?",
    "Quelle est la position de la C.G.T. envers l'autogestion ?",
    "Qu'appelle-t-on l'alternative de la gestion étatiste ?",
    "Pourquoi la C.F.D.T. ne pense-t-elle pas possible de mettre en pratique l'autogestion dans le capitalisme actuel ?",
    "Quel droit doit être abolie pour mettre en pratique l'autogestion ?",
    "Quels ne peuvent plus être vendus les entreprises ou les services collectifs ?"
  ]
}