{
  "num": "autog_0338-7259_1970_num_13_1",
  "article": "autog_0338-7259_1970_num_13_1_988",
  "page_name": "FMSH_PB188a_13-14_221",
  "questions": [
    "Quels sont les conditions évoquées dans le texte qui ne seraient pas réalisées malgré leur réalisation technique ?",
    "Qu'arrivent-ils quand les gens rentrent chez eux après avoir participé à une formation d'autogestion ?",
    "Comment les efforts d'autogestion sont-ils perçus par les individus ?",
    "Quels sont les sentiments ressentis par les individus face à leur utilisation ou exploitation ?",
    "Quels sont les illusions que certains se font de considération ?",
    "Comment l'autogestion éducative a-t-elle contribué à préparer les gens à la participation sociale et à l'autogestion en général ?",
    "Qu'est la signification politique de l'autogestion éducative ?",
    "Comment l'autogestion éducative sert-elle aux « mandarins » et à leurs détracteurs ?"
  ]
}