{
  "num": "autog_0005-0970_1967_num_2_1",
  "article": "autog_0005-0970_1967_num_2_1_907_t1_0148_0000_1",
  "page_name": "FMSH_PB188a_00002_150",
  "questions": [
    {
      "id_qa": "FMSH_PB188a_00002_150_qa44_v3",
      "id_block": "block_2",
      "question": "Comment s'appelle le travail de Jean-Jacques MARIE ?",
      "answer": "Textes choisis et traduits",
      "answer_stringIds": [
        "string_10",
        "string_11",
        "string_12",
        "string_13"
      ]
    },
    {
      "id_qa": "FMSH_PB188a_00002_150_qa7_v3",
      "id_block": "block_4",
      "question": "Quelle est la nationalité de l'auteur des textes ?",
      "answer": "la Pologne",
      "answer_stringIds": [
        "string_308",
        "string_309"
      ]
    },
    {
      "id_qa": "FMSH_PB188a_00002_150_qa8_v3",
      "id_block": "block_4",
      "question": "Qu'est ce qui fait référence explicitement à l'autogestion ouvrière ?",
      "answer": "Les textes",
      "answer_stringIds": [
        "string_304",
        "string_305"
      ]
    },
    {
      "id_qa": "FMSH_PB188a_00002_150_qa16_v3",
      "id_block": "block_4",
      "question": "Qui écrit sur l'Octobre russe ?",
      "answer": "Pierre Broué",
      "answer_stringIds": [
        "string_413",
        "string_414"
      ]
    },
    {
      "id_qa": "FMSH_PB188a_00002_150_qa19_v3",
      "id_block": "block_4",
      "question": "Qui revendique le développement systématique de l'autogestion ouvrière dans tout le pays ?",
      "answer": "La gauche",
      "answer_stringIds": [
        "string_490",
        "string_491",
        "string_492"
      ]
    },
    {
      "id_qa": "FMSH_PB188a_00002_150_qa32_v3",
      "id_block": "block_4",
      "question": "Qui est l'organe des syndicats ?",
      "answer": "Glos Pracy",
      "answer_stringIds": [
        "string_359",
        "string_360"
      ]
    }
  ]
}