{
  "num": "autog_0249-2563_1981_num_14_6",
  "article": "autog_0249-2563_1981_num_14_6_1434",
  "page_name": "autog_0249-2563_1981_num_14_6_T1_0209_0000",
  "questions": [
    {
      "id_qa": "autog_0249-2563_1981_num_14_6_T1_0209_0000_qa34_v3",
      "id_block": "block_0",
      "question": "Qu'élargit le rôle autoritaire du directeur ?",
      "answer": "la possibilité de choix des ouvrages publiés",
      "answer_stringIds": [
        "string_19",
        "string_20",
        "string_21",
        "string_22",
        "string_23",
        "string_24",
        "string_25"
      ]
    },
    {
      "id_qa": "autog_0249-2563_1981_num_14_6_T1_0209_0000_qa36_v3",
      "id_block": "block_0",
      "question": "Quel est le rôle autoritaire du directeur ou de la rédaction ?",
      "answer": "la censure",
      "answer_stringIds": [
        "string_5",
        "string_6"
      ]
    },
    {
      "id_qa": "autog_0249-2563_1981_num_14_6_T1_0209_0000_qa7_v3",
      "id_block": "block_2",
      "question": "Où l'autogestion a-t-elle été introduite ?",
      "answer": "dans la culture",
      "answer_stringIds": [
        "string_123",
        "string_124",
        "string_125"
      ]
    },
    {
      "id_qa": "autog_0249-2563_1981_num_14_6_T1_0209_0000_qa13_v3",
      "id_block": "block_3",
      "question": "Quel est le caractère du travail des conseils ?",
      "answer": "un caractère assez limité ou formel",
      "answer_stringIds": [
        "string_249",
        "string_250",
        "string_251",
        "string_252",
        "string_253",
        "string_254"
      ]
    },
    {
      "id_qa": "autog_0249-2563_1981_num_14_6_T1_0209_0000_qa15_v3",
      "id_block": "block_3",
      "question": "Qu'est-ce qui a été exclu par les corps constitués ?",
      "answer": "le travail des conseils",
      "answer_stringIds": [
        "string_238",
        "string_239",
        "string_240",
        "string_241"
      ]
    },
    {
      "id_qa": "autog_0249-2563_1981_num_14_6_T1_0209_0000_qa37_v3",
      "id_block": "block_4",
      "question": "Qu'est ce qui modifie la dimension et le contenu de la participation ?",
      "answer": "Ces associations",
      "answer_stringIds": [
        "string_356",
        "string_357"
      ]
    },
    {
      "id_qa": "autog_0249-2563_1981_num_14_6_T1_0209_0000_qa39_v3",
      "id_block": "block_4",
      "question": "Qu'est-ce qui poursuit l'expérience des anciennes commissions et fonds ?",
      "answer": "Ces associations",
      "answer_stringIds": [
        "string_356",
        "string_357"
      ]
    }
  ]
}