{
  "num": "autog_0338-7259_1974_num_26_1",
  "article": "autog_0338-7259_1974_num_26_1_1114",
  "page_name": "FMSH_PB188a_26-27_121",
  "questions": [
    "Quel est le caractère essentiel de la gestion ouvrière des luttes selon le texte ?",
    "Quel est l'accent mis sur l'organisation autonome des ouvriers dans la mobilisation ?",
    "Quel rôle jouent la propagande et l'agitation dans ces nouvelles directives ?",
    "Qu'est l'objectif principal de l'autonomie ouvrière selon le texte ?",
    "Qu'est le but du Comité Unitaire selon ses propres termes ?",
    "Comment le Comité Unité veut-il créer une unité à la base ?",
    "Quel est le risque de fragmentation politique du CUB selon le texte ?",
    "Comment le débat politique sera-t-il géré dans d'autres cas selon le texte ?"
  ]
}