{
  "num": "autog_0338-7259_1974_num_26_1",
  "article": "autog_0338-7259_1974_num_26_1_1114",
  "page_name": "FMSH_PB188a_26-27_103",
  "questions": [
    "Quels sont les deux conditions préliminaires importantes pour la définition d'un modèle de démocratie ouvrière ?",
    "Quel rôle jouent les données concrètes dans l'analyse de l'expérience ouvrière ?",
    "En quelle période historique se déroule l'analyse de l'expérience italienne de l'initiative ouvrière ?",
    "Quels sont les structures embryonnaires d'auto-organisation mentionnées dans le texte ?",
    "Comment les structures embryonnaires d'auto-organisation permettent aux ouvriers d'accéder au pouvoir ?",
    "Quels sont les caractéristiques communes aux différents niveaux du développement historique de l'initiative ouvrière ?",
    "Comment l'analyse de l'expérience italienne permet-elle d'identifier un « fil rouge » dans le développement historique de l'initiative ouvrière ?"
  ]
}