{
  "num": "autog_0005-0970_1967_num_2_1",
  "article": "autog_0005-0970_1967_num_2_1_900",
  "page_name": "FMSH_PB188a_00002_095",
  "questions": [
    {
      "id_qa": "FMSH_PB188a_00002_095_qa3_v3",
      "id_block": "block_2",
      "question": "Pour quelle raison l'utopie est-elle retardée ?",
      "answer": "des causes spécifiques",
      "answer_stringIds": [
        "string_221",
        "string_222",
        "string_223"
      ]
    },
    {
      "id_qa": "FMSH_PB188a_00002_095_qa6_v3",
      "id_block": "block_3",
      "question": "Qui a montré un tel dépassement ?",
      "answer": "Marx",
      "answer_stringIds": [
        "string_118"
      ]
    },
    {
      "id_qa": "FMSH_PB188a_00002_095_qa7_v3",
      "id_block": "block_3",
      "question": "Qu'est-ce que la dialectique sociale post-révolutionnaire ?",
      "answer": "un tel dépassement",
      "answer_stringIds": [
        "string_367",
        "string_368",
        "string_369"
      ]
    },
    {
      "id_qa": "FMSH_PB188a_00002_095_qa8_v3",
      "id_block": "block_3",
      "question": "Qui pense qu'un tel dépassement est fondé ?",
      "answer": "Marx",
      "answer_stringIds": [
        "string_118"
      ]
    },
    {
      "id_qa": "FMSH_PB188a_00002_095_qa28_v3",
      "id_block": "block_3",
      "question": "Qu'est-ce que l'Etat de l'autogestion ?",
      "answer": "un Etat dépérissant",
      "answer_stringIds": [
        "string_288",
        "string_289",
        "string_290"
      ]
    }
  ]
}