{
  "num": "autog_0249-2563_1982_num_15_10",
  "article": "autog_0249-2563_1982_num_15_10_1508_t1_0133_0000_1",
  "page_name": "autog_0249-2563_1982_num_15_10_T1_0133_0000",
  "questions": [
    "Quels sont les étapes clés dans l'écriture de ce livre pour Alberoni ?",
    "Quel est le rôle de Statu Nascenti et de la première édition de Mouvement et institution dans l'œuvre d'Alberoni ?",
    "Quel est le contexte historique dans lequel Alberoni écrit ?",
    "Quels auteurs ont influencé Alberoni dans son travail ?",
    "Quel est le thème central de ce livre selon Alberoni ?",
    "Comment Alberoni voit-il le rapport entre le mouvement et l'institution ?",
    "Quel est le message que Alberoni trouve dans l'institution ?",
    "Comment Alberoni décrit-il le mouvement ?",
    "Quel est le rôle du projet dans le mouvement selon Alberoni ?",
    "Comment Alberoni voit-il l'histoire ?",
    "Quels sont les domaines dans lesquels cette théorie d'Alberoni a été appliquée et critiquée ?",
    "Quels sont les concepts clés de l'analyse institutionnelle en France et comment ils sont liés à la théorie d'Alberoni ?"
  ]
}