{
  "num": "autog_0249-2563_1982_num_15_10",
  "article": "autog_0249-2563_1982_num_15_10_1508_t1_0133_0000_1",
  "page_name": "autog_0249-2563_1982_num_15_10_T1_0135_0000",
  "questions": [
    "Quels sont les thèses d'Alberoni sur les éléments mouvement, projet et institutionnalisation ?",
    "Le rapport entre projet et mouvement pourrait être analysé comme quelle relation ?",
    "Est-ce que l'état naissant est autre chose qu'un modèle nominal ?",
    "Y a-t-il toujours de l'institué au début du mouvement ?",
    "Quel est le rôle des idées philosophiques d'Alberoni dans la politique italienne des vingt dernières années ?",
    "Quel est le sens du soustitre du livre « théorie générale » ?",
    "Comment Alberoni justifie-t-il l'idée d'une dialectique entre mouvement et institution, dans laquelle le mouvement est toujours premier ?",
    "Quel est le rôle des forces énormes dans l'effort de refoulement de la théorie ?",
    "Quel est le pire des cas pour une théorie générale ?",
    "Quel est le meilleur des cas pour une théorie générale ?"
  ]
}