{
  "num": "autog_0005-0970_1967_num_3_1",
  "article": "autog_0005-0970_1967_num_3_1_908",
  "page_name": "FMSH_PB188a_00003_048",
  "questions": [
    "Quel est le rôle justifié de l'assemblée par rapport au comité de gestion dans les entreprises à plus de 30 travailleurs permanents ?",
    "Quel est le rôle du directeur dans les entreprises d'autogestion ?",
    "Quel est le rôle du conseil communal dans la gestion des entreprises d'autogestion ?",
    "Quels sont les conséquences pour une personne ou une autorité qui empêche le fonctionnement d'un comité de gestion ?",
    "Quel est l'autorité suprême de tutelle des organismes d'autogestion ?",
    "Quels sont les objectifs du décret du 22 mars 1963 concernant les entreprises d'autogestion ?",
    "Quel est le but du troisième décret déterminant les règles de répartition du revenu des entreprises d'autogestion ?",
    "Quels sont les différentes composantes de la rémunération des travailleurs dans les entreprises d'autogestion ?",
    "Comment la condition salariale des travailleurs sera-t-elle abolie dans les entreprises d'autogestion ?"
  ]
}