{
  "num": "autog_0005-0970_1967_num_3_1",
  "article": "autog_0005-0970_1967_num_3_1_908",
  "page_name": "FMSH_PB188a_00003_044",
  "questions": [
    "Quel est le rôle exceptionnel des travailleurs de la terre dans le développement de la confiance générale dans les capacités gestionnaires des gens ?",
    "Quels abus étaient commis contre les biens vacants et les comités de gestion ?",
    "Quel est le rôle du B.N.B.V. dans la situation des biens vacants ?",
    "Quels inconvénients rencontre le B.N.B.V. dans son fonctionnement ?",
    "Quel est l'obligation du directeur du B.N.B.V. envers le président Ahmed Ben Belia ?",
    "Quel est la politique définie en matière de biens vacants ?",
    "Quels moyens humains et matériels le B.N.B.V. manque-t-il pour fonctionner efficacement ?",
    "Quel rôle joue le corps de contrôleurs de gestion dans la propagande de la politique de l'autogestion ?",
    "Quels sont les origines du corps de contrôleurs de gestion ?",
    "Quels sont les fonctions du corps de contrôleurs de gestion ?",
    "Quels sont les liens entre le corps de contrôleurs de gestion et le service de l'animation rurale ?",
    "Quels sont les conséquences possibles si le B.N.B.V. était dissous ?",
    "Quels sont les raisons pour lesquelles le B.N.B.V. a été confirmé dans ses fonctions ?",
    "Quels sont les motivations des anciens condamnés à mort pour rejoindre le corps de contrôleurs de gestion ?"
  ]
}