{
  "num": "autog_0005-0970_1967_num_3_1",
  "article": "autog_0005-0970_1967_num_3_1_908",
  "page_name": "FMSH_PB188a_00003_014",
  "questions": [
    "Quand ont commencé les investissements industriels et les grands ensembles industriels prévus par le Plan, selon le texte ?",
    "Quel était l'état de l'Algérie économiquement et socialement au moment de l'indépendance, selon le texte ?",
    "Quel était le contenu du Programme de Tripoli du FLN, à quelle date il a été élaboré ?",
    "Quels étaient les principaux défis sociaux et économiques que le pouvoir révolutionnaire a hérités au lendemain de l'indépendance, selon la Charte d'Algérie ?",
    "Quels étaient les principaux projets industriels prévus par le Plan, selon le texte ?",
    "Quels étaient les principaux objectifs de la politique de rénovation rurale, selon le texte ?",
    "Quels étaient les principaux défis sociaux et économiques que la guerre a laissés à la future Algérie, selon le texte ?",
    "Quels étaient les principaux domaines de sous-développement de l'économie algérienne, selon la Charte d'Alger ?",
    "Quels étaient les principaux facteurs de l'aggravation des problèmes sociaux après l'indépendance, selon la Charte d'Alger ?",
    "Quels étaient les principaux domaines de l'économie algérienne qui étaient dépendants de l'ancien colonisateur, selon la Charte d'Alger ?"
  ]
}