{
  "num": "autog_0005-0970_1967_num_3_1",
  "article": "autog_0005-0970_1967_num_3_1_908",
  "page_name": "FMSH_PB188a_00003_161",
  "questions": [
    "Quels sont les rendements du secteur privé qui ont amusé les autorités en Algérie ?",
    "Quel type de bétail est le plus nombreux et le plus productif en U.R.S.S. ?",
    "Quelles conditions sont absolument nécessaires pour le succès d'une politique agricole ?",
    "Quels moyens ont été mis en œuvre pour familiariser l'agriculture traditionnelle avec l'économie agricole moderne en Tunisie et au Maroc ?",
    "Quel bilan est donné pour ces efforts de modernisation en Tunisie et au Maroc ?",
    "Quels sont les souvenirs négatifs de la paysannerie marocaine envers le « Maghzen » ?",
    "Comment la transformation de l'agriculture est-elle liée à l'ensemble de la structure sociale d'un pays ?"
  ]
}