{
  "num": "autog_0005-0970_1967_num_3_1",
  "article": "autog_0005-0970_1967_num_3_1_908",
  "page_name": "FMSH_PB188a_00003_108",
  "questions": [
    "Quels sont les frères paysans et ouvriers, travailleurs des entreprises d'autogestion, appelés à répéter l'exemple de la ferme Borgeaud et à élaborer des conseils communaux d'animation de l'autogestion ?",
    "Quels sont les fonctions des conseils communaux d'animation de l'autogestion ?",
    "Comment les conseils communaux d'animation de l'autogestion doivent-ils coordonner et planifier le travail des travailleurs des fermes et des usines d'autogestion ?",
    "Quels sont les besoins et les problèmes soulevés par le fonctionnement des organismes d'autogestion ?",
    "Quels sont les fonctions précises de chaque organisme d'autogestion (assemblée des travailleurs, conseil des travailleurs, comité de gestion, président du comité de gestion, directeur) selon les textes officiels ?",
    "Qu'est l'autogestion et comment elle diffère d'une caricature ou d'une escroquerie ?",
    "Quels biens sont confiés à l'État et quels sont confiés aux organismes démocratiques des travailleurs ?",
    "Quels sont les objectifs des travailleurs dans l'autogestion et quels sont les garanties contre la création de nouveaux privilégiés ou nouveaux riches ?",
    "Comment l'assemblée des travailleurs est-elle la base de l'autogestion et quels sont ses pouvoirs envers les conseils des travailleurs et les comités de gestion ?"
  ]
}