{
  "num": "autog_0005-0970_1967_num_3_1",
  "article": "autog_0005-0970_1967_num_3_1_908",
  "page_name": "FMSH_PB188a_00003_026",
  "questions": [
    "Quels sont les responsables de fixer les modalités de la gestion des biens vacants ?",
    "Quels sont les actions que le propriétaire ne peut effectuer sans l'accord du comité de gestion ?",
    "Quel est le rôle de la double signature dans ce système ?",
    "Comment les dispositions de cette circulaire ont-elles été perçues par les propriétaires ?",
    "Quel est l'effet de la divulgation de la circulaire sur les retours des propriétaires et les départs des travailleurs ?",
    "Comment la circulaire a-t-elle été interprétée par l'administration et les travailleurs ?",
    "Quel est le but de l'annexe N° 7 de la circulaire ?",
    "Quels biens sont considérés comme vacants selon l'annexe N° 7 ?"
  ]
}