{
  "num": "autog_0005-0970_1967_num_3_1",
  "article": "autog_0005-0970_1967_num_3_1_908",
  "page_name": "FMSH_PB188a_00003_052",
  "questions": [
    "Quel est le lieu choisi pour l'élection des premiers conseils des travailleurs et comités de gestion selon Michel Raptis ?",
    "Quel est le nom donné à la ferme Borgeaud après l'élection des premiers conseils des travailleurs ?",
    "Quels groupes sont présents lors de l'élection et quels sont leurs rôles ?",
    "Quel est l'importance de l'élection pour les travailleurs et travailleuses ?",
    "Quels décrets sont mentionnés et quels sont leurs objectifs ?",
    "Quels groupes sont cités pour leur contribution à l'application des décrets et à l'autogestion ?",
    "Quel est le rôle du parti FLN dans cette période ?",
    "Quel est le ton de la « Voix de l'Algérie Socialiste » envers l'autogestion et les décrets de mars 1963 ?"
  ]
}