{
  "num": "autog_0005-0970_1967_num_3_1",
  "article": "autog_0005-0970_1967_num_3_1_908",
  "page_name": "FMSH_PB188a_00003_066",
  "questions": [
    "Quels types d'exploitations sont concernées par l'autogestion selon Michel Raptis ?",
    "Quels rôles assument les travailleurs dans l'administration et le fonctionnement productif des entreprises en autogestion ?",
    "Pourquoi est-il nécessaire de prendre en compte leur avis et accord pour conserver l'efficacité actuelle de la structure collective des travailleurs ?",
    "Quel est le danger réel et grand qui pèse sur l'autogestion selon Michel Raptis ?",
    "Quel rôle devrait jouer une commission compétente dans l'étude approfondie et exhaustive de l'autogestion ?",
    "Quel devrait être le résultat d'un examen approfondi de l'expérience acquise de l'autogestion ?",
    "Quels sont les différenciations idéologiques dans la révolution socialiste selon Michel Raptis ?",
    "Quel danger commence-t-il à se préciser autour de la question de l'autogestion selon Michel Raptis ?",
    "Quels sont les réactions des travailleurs et des militants politiques les plus conscients face au processus de déformation grave de l'autogestion ?",
    "Quels congrès ont apporté des indications nécessaires sur ce sujet ?"
  ]
}