{
  "num": "autog_0005-0970_1967_num_3_1",
  "article": "autog_0005-0970_1967_num_3_1_908",
  "page_name": "FMSH_PB188a_00003_085",
  "questions": [
    "Quels sont les objectifs économiques et sociaux de l'extension de la réforme agraire dans le secteur de la paysannerie traditionnelle en Algérie ?",
    "Quel est le coût estimé de la restauration des sols sur l'ensemble des terres susceptibles d'être remises en valeur ?",
    "Quel est le coût annuel estimé de la restauration de 800.000 ha de terres ?",
    "Comment pourrait la paysannerie traditionnelle s'intégrer dans le circuit économique productif du pays ?",
    "Quels sont les deux principes qui doivent guider la formation de coopératives dans le secteur traditionnel ?",
    "Comment les coopératives peuvent-elles procurer des avantages matériels manifestement supérieurs à ceux de l'exploitation individuelle pour les paysans pauvres ?",
    "Quel est le rôle de l'État dans la formation et la stabilisation des coopératives dans le secteur traditionnel ?",
    "Comment les travaux de restauration des sols peuvent-ils résorber immédiatement une grande partie du chômage du secteur traditionnel ?",
    "Quel est le rôle des nouvelles techniques agricoles et industrielles dans la restauration des sols et la valorisation de la production agricole et de l'élevage ?",
    "Comment les cultures orientées vers une prépondérance des cultures fourragères, industrielles et d'arboriculture peuvent-elles augmenter la valeur nutritive et marchande de la production agricole et de l'élevage ?",
    "Comment les coopératives peuvent-elles permettre le développement d'une industrie locale transformant sur place certains produits de l'agriculture et de l'élevage ?",
    "Comment les coopératives peuvent-elles faciliter la production et la commercialisation de l'agriculture et de l'élevage ?",
    "Comment les coopératives peuvent-elles permettre l'établissement productif de nouveaux paysans?"
  ]
}