{
  "num": "autog_0005-0970_1967_num_3_1",
  "article": "autog_0005-0970_1967_num_3_1_908",
  "page_name": "FMSH_PB188a_00003_033",
  "questions": [
    "Quels sont les sujets abordés dans ce paragraphe ?",
    "Quels sont les avant-projets successifs pour l'organisation de l'autogestion des biens vacants ?",
    "Quand a été effectué le travail pour clarifier la notion de l'autogestion ?",
    "Quel rôle jouait l'administration dans l'organisation de l'autogestion à cette époque ?",
    "Quels étaient les éléments et forces sociales hostiles à une ouverture socialiste de la Révolution ?",
    "Quel rôle agissait le B.N.B.V. dans la clarification de la notion de l'autogestion ?",
    "Dans quels services a été envoyée la note sur l'autogestion ?"
  ]
}