{
  "num": "autog_0005-0970_1967_num_3_1",
  "article": "autog_0005-0970_1967_num_3_1_908",
  "page_name": "FMSH_PB188a_00003_015",
  "questions": [
    "Quelles zones forestières ont été détruites pendant la guerre d'Algérie ?",
    "Comment la situation agricole algérienne a-t-elle été affectée par la guerre ?",
    "Comment la terre a-t-elle été redistribuée entre les différents éléments de la population ?",
    "Quels secteurs dominent l'agriculture algérienne ?",
    "Quel est le secteur agricole le plus important en termes d'exportations ?",
    "Quel est le secteur industriel le plus important en termes de production brute avant l'indépendance ?",
    "Quels sont les propriétaires européens et algériens possédant les plus grandes terres ?",
    "Dans quels secteurs ont émergé les premiers embryons du système d'autogestion ?",
    "Quel est le rôle de l'industrie dans l'économie algérienne avant l'indépendance ?",
    "Quel est le nombre d'entreprises industrielles et combien d'entre elles appartenaient à des algériens avant l'indépendance ?",
    "Quels sont les types de terres qui ont été abandonnées et ont servi à la création des comités de gestion ?",
    "Quels sont les propriétaires qui ont abandonné leurs terres et leurs cadres et qui ont permis la création des comités de gestion ?",
    "Quels sont les propriétaires qui ont abandonné leurs terres et leurs cadres et qui ont été des riches algériens réfugiés dans les villes ou en France ?"
  ]
}