{
  "num": "autog_0005-0970_1967_num_3_1",
  "article": "autog_0005-0970_1967_num_3_1_908",
  "page_name": "FMSH_PB188a_00003_058",
  "questions": [
    "Quel type de secteur économique est décrit dans le texte ?",
    "Quel est le but de l'organisation de ce secteur en offices ?",
    "Quels sont les différents offices mentionnés dans le texte ?",
    "Quel est la fonction de la direction unique dans l'organisation des offices ?",
    "Quel est le rôle de la présidence du conseil dans l'organisation transitoire ?",
    "Quels sont les tâches immédiates de l'Office national de la réforme agraire ?",
    "Quels sont les tâches immédiates de l'Office national de l'industrialisation ?",
    "Comment l'État contribue-t-il au développement du secteur structuré ?"
  ]
}