{
  "num": "autog_0005-0970_1967_num_3_1",
  "article": "autog_0005-0970_1967_num_3_1_908",
  "page_name": "FMSH_PB188a_00003_142",
  "questions": [
    "Quels succès a-t-on obtenus dans le secteur autogéré ?",
    "Comment les travailleurs sont-ils plus aptes qu'anciennement pour gérer les entreprises ?",
    "Quels sont les conditions fondamentales pour le succès définitif de l'autogestion ?",
    "Quels décrets de mars sont-ils en question et comment ils sont-ils liés à l'autogestion ?",
    "Quel est le rôle de l'État dans la réalisation de l'autogestion ?",
    "Quels sont les éléments hostiles à la révolution socialiste et comment ils doivent être éliminés ?",
    "Quel est le rôle du parti dans les entreprises autogérées ?",
    "Quel est le rôle des syndicats dans la réalisation de l'autogestion ?",
    "Quels sont les objectifs du programme présenté au congrès pour la résorption du chômage ?",
    "Quel est le soutien du Bureau politique du FLN et du gouvernement du travailleurs du secteur industriel socialiste ?",
    "Quel est l'action du frère Boumaza pour inscrire le socialisme dans les faits ?"
  ]
}