{
  "num": "autog_0005-0970_1967_num_3_1",
  "article": "autog_0005-0970_1967_num_3_1_908",
  "page_name": "FMSH_PB188a_00003_157",
  "questions": [
    "Quel est le pourcentage de la population algérienne qui travaille dans l'agriculture ?",
    "En pourcentage, quelle part de la production brute et de la valeur totale des exportations est due à l'agriculture en Algérie ?",
    "Quel rôle politique a joué la paysannerie dans la lutte armée en Algérie ?",
    "Quels sont les avis des économistes sur le développement important de l'agriculture pour un développement économique général et rapide en Algérie ?",
    "Comment le développement initial important de l'agriculture peut-il permettre un développement rapide et continu d'une industrie en Algérie ?",
    "Quel est le risque d'inflation intérieure incontrôlée en cas d'une balance commerciale déficitaire en Algérie ?",
    "Comment la production agricole détermine-t-elle l'essor de l'industrie légère en Algérie ?",
    "Quelle sera la principale source de formation de capitaux d'investissement dans l'économie nationale algérienne pendant une période donnée ?",
    "Comment peut-on éviter que le développement de l'agriculture ne soit accompagné par l'appauvrissement de la paysannerie ?"
  ]
}