{
  "num": "autog_0005-0970_1967_num_3_1",
  "article": "autog_0005-0970_1967_num_3_1_908",
  "page_name": "FMSH_PB188a_00003_032",
  "questions": [
    "Quels militants influents dans l'administration, le parti FLN et les syndicats avaient atteint ces conclusions au sujet de la politique économique et sociale en Algérie à cette époque ?",
    "Quel était l'importance des mesures prises par le gouvernement en matière de réforme agraire et de nationalisation selon le journal Af Châab ?",
    "Quels biens revenaient à l'Algérie et à ses travailleurs selon le journal Af Châab ?",
    "Quels types de conseils ouvriers, comités de gestion et coopératives étaient mentionnés dans le journal Af Châab ?",
    "Quels biens industriels, agricoles, artisanaux et commerciaux étaient concernés par ces institutions ?",
    "Quel rôle assuraient ces institutions dans l'autogestion des entreprises selon le journal Af Châab ?",
    "Quel journal international avait admis que ces mesures étaient les plus importantes prises depuis l'installation de Ben Bella à Alger ?",
    "Quel rôle assuraient les comités de gestion dans l'exploitation des entreprises industrielles et commerciales selon Le Monde ?",
    "Quel discours avait prononcé le président Ben Bella le 1er novembre 1962 et dans quel contexte ?",
    "Quel rôle jouait le secteur des biens vacants dans la politique du gouvernement en matière de réforme agraire, de nationalisation, de planification et d'autogestion selon Ben Bella ?"
  ]
}