{
  "num": "autog_0005-0970_1967_num_3_1",
  "article": "autog_0005-0970_1967_num_3_1_908",
  "page_name": "FMSH_PB188a_00003_074",
  "questions": [
    "Quels facteurs objectifs et subjectifs sont-ils considérés dans l'origine de l'autogestion en Algérie selon Michel Raptis ?",
    "Quel rôle attribue la Charte d'Alger au pouvoir dans la dynamique de la lutte sociale après la libération ?",
    "Quel décret est-il questionné dans le texte et quels sont ses conséquences ?",
    "Comment la Charte d'Algérie explique-t-elle l'origine du mouvement des comités de gestion ?",
    "Quels sont les enjeux économiques et politiques de l'autogestion selon la Charte d'Algérie ?",
    "Comment la Charte d'Algérie définissait-elle le régime du pays et quels sont les questions laissées ouvertes ?"
  ]
}