{
  "num": "autog_0005-0970_1967_num_3_1",
  "article": "autog_0005-0970_1967_num_3_1_908",
  "page_name": "FMSH_PB188a_00003_158",
  "questions": [
    "Quel est le niveau de vie des paysans algériens et comment il est comparé à d'autres pays du monde ?",
    "Quels sont les carences alimentaires graves en Algérie ?",
    "Comment l'amélioration de la production agricole peut résoudre ces problèmes ?",
    "Quels sont les moyens modernes utilisés pour améliorer la production agricole ?",
    "Quel est le problème majeur de la production agricole moderne dans les pays capitalistes avancés ?",
    "Comment les États-Unis ont résolu ce problème ?",
    "Quel est le coût de revient de la culture intensive moderne dans les pays capitalistes avancés ?",
    "Comment l'État intervient dans le cas de surproduction agricole ?",
    "Comment l'agriculture pratiquée sur la petite propriété foncière est incapable de résoudre la question de l'augmentation de la production ?",
    "Quel est le rôle de l'industrie lourde dans le développement de l'agriculture en Union Soviétique et d'autres pays à régime socialiste ?"
  ]
}