{
  "num": "autog_0005-0970_1967_num_3_1",
  "article": "autog_0005-0970_1967_num_3_1_908",
  "page_name": "FMSH_PB188a_00003_121",
  "questions": [
    "Quels groupes de personnes ont organisé les élections des nouveaux organismes d'autogestion ?",
    "Quel processus a été suivi pour les élections des nouveaux organismes d'autogestion ?",
    "Quels cas de pressions sur les travailleurs ont été signalés pendant les élections ?",
    "Quel rôle ont les syndicats devant encadrer les organismes d'autogestion ?",
    "Quels sont les nouveaux organismes à former après les élections démocratiques ?",
    "Quels sont les composants des conseils communaux d'animation de l'autogestion ?",
    "Dans quels cas les élections des nouveaux organismes d'autogestion n'ont pas encore eu lieu ?",
    "Quels travaux ont entravé ou interrompu la réalisation de la réorganisation démocratique des organismes d'autogestion ?",
    "Quel est le but final de la réorganisation démocratique des organismes d'autogestion ?"
  ]
}