{
  "num": "autog_0005-0970_1967_num_3_1",
  "article": "autog_0005-0970_1967_num_3_1_908",
  "page_name": "FMSH_PB188a_00003_096",
  "questions": [
    "Quels travailleurs ne peuvent être membres de l'Assemblée générale ?",
    "Comment est déterminé le nombre optimum de travailleurs permanents ?",
    "Comment chaque membre de l'Assemblée générale vote ?",
    "Quel est le nombre minimum de membres présents pour que l'Assemblée générale délibère valablement ?",
    "Comment un travailleur peut être exclu de l'Assemblée générale ?",
    "Comment est convoquée l'Assemblée générale des travailleurs ?",
    "Quels sont les pouvoirs de l'Assemblée générale des travailleurs ?",
    "Quel est le rôle et la composition du Conseil des travailleurs ?",
    "Comment sont élus les membres du Conseil des travailleurs ?",
    "Combien de fois se réunit-il le Conseil des travailleurs par mois ?"
  ]
}