{
  "num": "autog_0005-0970_1967_num_3_1",
  "article": "autog_0005-0970_1967_num_3_1_908",
  "page_name": "FMSH_PB188a_00003_083",
  "questions": [
    "Quels types de terres sont les plus fertiles en Algérie ?",
    "Quel est le rôle de l'agriculture dans le développement économique et industriel du pays ?",
    "Quel est le but de la réforme agraire en Algérie ?",
    "Quels sont les différentes formes de la réforme agraire ?",
    "Quel est le type de réforme agraire prédominant pour les meilleures terres du pays ?",
    "Quel est le rôle de l'État dans la gestion des exploitations autogérées ?",
    "Quel est le nombre d'ouvriers agricoles et khamimès concernés par la réforme agraire ?",
    "Quel est le but de la constitution d'unités culturales optimales ?",
    "Quels sont les facteurs importants pour déterminer les dimensions optimales des exploitations agricoles ?",
    "Quel est le lien entre la culture intensive et diversifiée et l'exportation agricole ?",
    "Quels sont les avantages économiques et industriels de la culture intensive et diversifiée ?"
  ]
}