{
  "num": "autog_0005-0970_1967_num_3_1",
  "article": "autog_0005-0970_1967_num_3_1_908",
  "page_name": "FMSH_PB188a_00003_036",
  "questions": [
    "Quels sont les caractéristiques clés de l'économie algérienne nouvelle selon le programme de Tripoli ?",
    "Comment l'économie algérienne nouvelle sera-t-elle différente d'une économie étatisée ?",
    "Quels secteurs de l'économie seront nationalisés et quels resteront mixtes ou privés ?",
    "Comment les entreprises d'autogestion seront-elles classées : étatiques ou sociales ?",
    "Comment les entreprises d'autogestation nationalisées devraient-elles être gérées ?",
    "Quels sont les droits et obligations des entreprises d'autogestion créées par l'État ?",
    "Comment l'État intervient-il dans la gestion des entreprises d'autogestion ?",
    "Comment l'État finance les entreprises d'autogestion ?",
    "Comment l'État nomme-t-il le directeur des entreprises d'autogestion ?",
    "Comment les entreprises d'autogestion sont-elles indépendantes par rapport à l'État ?"
  ]
}