{
  "num": "autog_0005-0970_1967_num_3_1",
  "article": "autog_0005-0970_1967_num_3_1_908",
  "page_name": "FMSH_PB188a_00003_031",
  "questions": [
    "Quels bien vacants sont-ils questionnés dans le texte ?",
    "Quels sont les conditions pour que les travailleurs réintègrent un bien vacant ?",
    "Quel est le but de la création d'un comité de gestion dans les entreprises ?",
    "Comment le gouvernement veut promouvoir la participation des travailleurs dans l'agriculture ?",
    "Quels sont les objectifs de la politique de distribution des logements vacants ?",
    "Quels sont les conséquences pour ceux qui profitent du retard dans la mise en place des comités de gestion démocratiques ?",
    "Quel rôle joue la presse, la radio, la télévision et le cinéma dans l'application des décrets gouvernementaux ?",
    "Comment les masses du pays sont-elles impliquées dans l'organisation socialiste du secteur des biens vacants ?"
  ]
}