{
  "num": "autog_0005-0970_1967_num_3_1",
  "article": "autog_0005-0970_1967_num_3_1_908",
  "page_name": "FMSH_PB188a_00003_008",
  "questions": [
    "Quel rôle a joué le pouvoir central dans l'introduction de l'économie socialisée en Yougoslavie ?",
    "Quels sont les niveaux à partir desquels l'autogestion a été instaurée en Yougoslavie ?",
    "Quels sont les défis principaux que l'autogestion a rencontrés en Yougoslavie ?",
    "Quels sont les niveaux à partir desquels l'autogestion a été appliquée en Algérie ?",
    "Quels sont les trois groupes de problèmes principaux que l'autogestion a mis en évidence en Yougoslavie et en Algérie ?",
    "Pourquoi les travailleurs n'avaient-ils pas la préparation adéquate pour leur rôle de « gestionnaires » dans l'autogestion ?",
    "Quels sont les intérêts que représentent le pouvoir politique et l'administration dans l'autogestion ?",
    "Comment la tutelle politique et administrative devrait-elle être orientée pour aider la classe à faire l'apprentissage de l'autogestion ?",
    "Quels sont les risques de déformation bureaucratique de l'autogestion si la tutelle politique et administrative s'approprie des prérogatives qui appartiennent à l'essence même de l'autogestion ?"
  ]
}