{
  "num": "autog_0005-0970_1967_num_3_1",
  "article": "autog_0005-0970_1967_num_3_1_908",
  "page_name": "FMSH_PB188a_00003_136",
  "questions": [
    "Quels sont les entreprises concernées par la loi d'autogestion ?",
    "Quel est le rôle exclusif des travailleurs dans la gestion des entreprises d'autogestion ?",
    "Quels sont les conséquences pour quiconque porte atteinte au droit exclusif des travailleurs dans les entreprises d'autogestion ?",
    "Quel est le statut légal du matériel nécessaire à la production dans les entreprises d'autogestion ?",
    "Quels sont les pratiques illégales des fonctionnaires des S.A.P. envers les entreprises d'autogestion ?",
    "Quelles demandes formule les travailleurs d'autogestion envers les S.A.P. ?",
    "Quel est le rôle des S.A.P. dans l'autogestion selon les travailleurs ?",
    "Quel est le but de l'émission hebdomadaire de la radio ?",
    "Qu'est-ce que la comptabilité ?",
    "Quelle est la première étape dans la pratique de la comptabilité ?"
  ]
}