{
  "num": "autog_0338-7259_1971_num_16_1",
  "article": "autog_0338-7259_1971_num_16_1_1014",
  "page_name": "FMSH_PB188a_16-17_056",
  "questions": [
    {
      "id_qa": "FMSH_PB188a_16-17_056_qa0_v3",
      "id_block": "block_1",
      "question": "Qui reprenait à son compte les revendications de cet ordre ?",
      "answer": "un syndicat",
      "answer_stringIds": [
        "string_73",
        "string_74"
      ]
    },
    {
      "id_qa": "FMSH_PB188a_16-17_056_qa1_v3",
      "id_block": "block_1",
      "question": "Qu'est ce qui est repris à son compte par le syndicat ?",
      "answer": "des revendications de cet ordre",
      "answer_stringIds": [
        "string_79",
        "string_80",
        "string_81",
        "string_82",
        "string_83"
      ]
    },
    {
      "id_qa": "FMSH_PB188a_16-17_056_qa7_v3",
      "id_block": "block_1",
      "question": "Qu'est-ce qui est à l'origine des revendications salariales ?",
      "answer": "la sécurité et",
      "answer_stringIds": [
        "string_44",
        "string_45",
        "string_46"
      ]
    },
    {
      "id_qa": "FMSH_PB188a_16-17_056_qa15_v3",
      "id_block": "block_2",
      "question": "Dans quel but l'I.W.C. s'engage-t-il ?",
      "answer": "dans la lutte politique",
      "answer_stringIds": [
        "string_158",
        "string_159",
        "string_160",
        "string_161"
      ]
    },
    {
      "id_qa": "FMSH_PB188a_16-17_056_qa18_v3",
      "id_block": "block_2",
      "question": "Qu'est ce qui s'oppose à la liberté des travailleurs ?",
      "answer": "un gouvernement répressif",
      "answer_stringIds": [
        "string_167",
        "string_168",
        "string_169"
      ]
    },
    {
      "id_qa": "FMSH_PB188a_16-17_056_qa8_v3",
      "id_block": "block_5",
      "question": "Qui accuse les groupes d'extrême-gauche d'ouvrir la porte à l'intégration du mouvement ouvrier dans un système capitaliste ?",
      "answer": "PIW.C.",
      "answer_stringIds": [
        "string_193"
      ]
    },
    {
      "id_qa": "FMSH_PB188a_16-17_056_qa3_v3",
      "id_block": "block_6",
      "question": "Qu'est ce qui a été repris lors de la grève des marins de février 1970 ?",
      "answer": "Revendications",
      "answer_stringIds": [
        "string_255"
      ]
    }
  ]
}