{
  "num": "autog_0338-7259_1971_num_16_1",
  "article": "autog_0338-7259_1971_num_16_1_1014",
  "page_name": "FMSH_PB188a_16-17_080",
  "questions": [
    {
      "id_qa": "FMSH_PB188a_16-17_080_qa3_v3",
      "id_block": "block_1",
      "question": "Qu'est-ce qui reste à résoudre dans la gauche britannique ?",
      "answer": "Une ambiguité fondamentale",
      "answer_stringIds": [
        "string_82",
        "string_83",
        "string_84",
        "string_85"
      ]
    },
    {
      "id_qa": "FMSH_PB188a_16-17_080_qa10_v3",
      "id_block": "block_1",
      "question": "Quelle forme d'organisation politique est mise en oeuvre dans les luttes pour le contrôle ouvrier ?",
      "answer": "le socialisme démocratique",
      "answer_stringIds": [
        "string_29",
        "string_30",
        "string_31"
      ]
    },
    {
      "id_qa": "FMSH_PB188a_16-17_080_qa11_v3",
      "id_block": "block_1",
      "question": "Qu'exprime le socialisme démocratique dans son fonctionnement et sa structure ?",
      "answer": "le socialisme démocratique mis en action dans les luttes pour le contrôle ouvrier",
      "answer_stringIds": [
        "string_29",
        "string_30",
        "string_31",
        "string_32",
        "string_33",
        "string_34",
        "string_35",
        "string_36",
        "string_37",
        "string_38",
        "string_39",
        "string_40",
        "string_41"
      ]
    },
    {
      "id_qa": "FMSH_PB188a_16-17_080_qa14_v3",
      "id_block": "block_1",
      "question": "Quel pouvoir peut être mis en question ?",
      "answer": "le pouvoir patronal",
      "answer_stringIds": [
        "string_51",
        "string_52",
        "string_53"
      ]
    },
    {
      "id_qa": "FMSH_PB188a_16-17_080_qa16_v3",
      "id_block": "block_1",
      "question": "A quels niveaux peut-on identifier le pouvoir patronal ?",
      "answer": "tous les niveaux où le pouvoir patronal peut être mis en question",
      "answer_stringIds": [
        "string_47",
        "string_48",
        "string_49",
        "string_50",
        "string_51",
        "string_52",
        "string_53",
        "string_54",
        "string_55",
        "string_56",
        "string_57",
        "string_58"
      ]
    },
    {
      "id_qa": "FMSH_PB188a_16-17_080_qa7_v3",
      "id_block": "block_3",
      "question": "Qu'est-ce qui est moralement injustifiable ?",
      "answer": "les lois",
      "answer_stringIds": [
        "string_164",
        "string_165"
      ]
    },
    {
      "id_qa": "FMSH_PB188a_16-17_080_qa8_v3",
      "id_block": "block_3",
      "question": "Quel est l'argument conservateur ?",
      "answer": "un mandat de la majorité",
      "answer_stringIds": [
        "string_156",
        "string_157",
        "string_158",
        "string_159",
        "string_160"
      ]
    },
    {
      "id_qa": "FMSH_PB188a_16-17_080_qa9_v3",
      "id_block": "block_3",
      "question": "Quel est le but de l'action directe ?",
      "answer": "la démocratie réelle",
      "answer_stringIds": [
        "string_182",
        "string_183",
        "string_184"
      ]
    },
    {
      "id_qa": "FMSH_PB188a_16-17_080_qa19_v3",
      "id_block": "block_3",
      "question": "Quelle est la traduction française de Spokesman Pamphlet ?",
      "answer": "Can we kill that Bill",
      "answer_stringIds": [
        "string_142",
        "string_143",
        "string_144",
        "string_145",
        "string_146"
      ]
    }
  ]
}