{
  "num": "autog_0338-7259_1971_num_16_1",
  "article": "autog_0338-7259_1971_num_16_1_1014",
  "page_name": "FMSH_PB188a_16-17_054",
  "questions": [
    {
      "id_qa": "FMSH_PB188a_16-17_054_qa1_v3",
      "id_block": "block_1",
      "question": "Qu'est ce qui entraîne une « rationalisation » de la main-d'œuvre ?",
      "answer": "les concentrations industrielles",
      "answer_stringIds": [
        "string_172",
        "string_173",
        "string_174"
      ]
    },
    {
      "id_qa": "FMSH_PB188a_16-17_054_qa6_v3",
      "id_block": "block_1",
      "question": "Qui tolèrent de plus en plus mal la rupture entre l'application de connaissances technologiques complexes dans les tâches qui leur sont confiées ?",
      "answer": "Travailleurs et techniciens",
      "answer_stringIds": [
        "string_113",
        "string_114",
        "string_115"
      ]
    },
    {
      "id_qa": "FMSH_PB188a_16-17_054_qa7_v3",
      "id_block": "block_1",
      "question": "Dans quelles tâches les travailleurs et techniciens tolèrent-ils la rupture ?",
      "answer": "qui leur",
      "answer_stringIds": [
        "string_134",
        "string_135"
      ]
    },
    {
      "id_qa": "FMSH_PB188a_16-17_054_qa11_v3",
      "id_block": "block_1",
      "question": "A quoi sont liés les problèmes de l'aliénation ?",
      "answer": "la situation politique anglaise",
      "answer_stringIds": [
        "string_44",
        "string_45",
        "string_46",
        "string_47"
      ]
    }
  ]
}