{
  "num": "autog_0338-7259_1971_num_16_1",
  "article": "autog_0338-7259_1971_num_16_1_1014",
  "page_name": "FMSH_PB188a_16-17_067",
  "questions": [
    {
      "id_qa": "FMSH_PB188a_16-17_067_qa13_v3",
      "id_block": "block_1",
      "question": "Que veut dire cette déclaration d'un député conservateur ?",
      "answer": "un compliment",
      "answer_stringIds": [
        "string_11",
        "string_12"
      ]
    },
    {
      "id_qa": "FMSH_PB188a_16-17_067_qa9_v3",
      "id_block": "block_2",
      "question": "Depuis quand les permanents et dirigeants syndicaux ont-ils adhéré au mouvement ?",
      "answer": "Depuis les premières mesures de politique industrielle réactionnaire du gouvernement travailliste",
      "answer_stringIds": [
        "string_67",
        "string_68",
        "string_69",
        "string_70",
        "string_71",
        "string_72",
        "string_73",
        "string_74",
        "string_75",
        "string_76",
        "string_77",
        "string_78"
      ]
    },
    {
      "id_qa": "FMSH_PB188a_16-17_067_qa11_v3",
      "id_block": "block_2",
      "question": "Pourquoi les permanents et dirigeants syndicaux ont-ils adhéré au mouvement ?",
      "answer": "pour préserver les libertés syndicales",
      "answer_stringIds": [
        "string_107",
        "string_108",
        "string_109",
        "string_110",
        "string_111"
      ]
    },
    {
      "id_qa": "FMSH_PB188a_16-17_067_qa4_v3",
      "id_block": "block_3",
      "question": "Comment peut-on qualifier certaines personnalités ?",
      "answer": "militantes",
      "answer_stringIds": [
        "string_227"
      ]
    }
  ]
}