{
  "num": "autog_0249-2563_1980_num_13_4",
  "article": "autog_0249-2563_1980_num_13_4_1395",
  "page_name": "autog_0249-2563_1980_num_13_4_T1_0468_0000",
  "questions": [
    "Peut-on réellement parler d'une alternative entre une informatique autogestionnaire et centralisatrice, ou encore conviviale et jacobine ?",
    "Quel rôle peut jouer l'État-nation dans la consolidation de son pouvoir sur une telle technologie ?",
    "Sont-elles vraiment conviviales, autogestionnaires ou communautaires les informatiques décentralisées ou privatives ?",
    "Est-il suffisant d'argumenter que l'informatique centralisée est du domaine des communications de masse, alors que l'informatique décentralisée relève des communications interpersonnelles ou de groupe ?",
    "Peut-on confondre la communication face à face et la communication par interface ?",
    "Comment interpréter les expressions : « utilisation conversationnelle des ordinateurs », « programmation en mode conversationnel », « possibilité de dialogue », etc. ?",
    "Comment assimiler le dialogue avec l'autre dans une interaction directe et le dialogue médiatisé par la machine ?",
    "Quel est le privilège de relation dans le travail entre l'homme et la machine ?",
    "Doit-on aussi attendre que le temps libre, l'éducation ou la vie quotidienne subissent le même sort ?",
    "Doit-on attendre que le progrès technique remplace les cerveaux par des machines intelligentes ?",
    "Comment l'homme programmé ne sera-t-il pas loin de la créativité ?",
    "Comment l'informatique décentralisée entraînera-t-elle une «technicisation» des rapports sociaux et renforcera-t-elle l'individualisme ?",
    "Comment pouvons-nous être confrontés à un grand nombre de moyens de communication et rester des étrangers les uns aux autres ?",
    "Comment pouvons-nous croire qu'une technologie de l'information nous donnera encore quelque chose à nous dire, un sens à partager ?",
    "Comment notre isolement sera-t-il proportionnel à la densité des réseaux informatiques ?"
  ]
}