{
  "num": "autog_0249-2563_1980_num_13_4",
  "article": "autog_0249-2563_1980_num_13_4_1395",
  "page_name": "autog_0249-2563_1980_num_13_4_T1_0472_0000",
  "questions": [
    "Quels mouvements sont perçus comme une rupture avec la vision utilitaire et peuvent apparaître comme des mouvements contre le progrès ?",
    "En ce qui concerne l'autogestion, comment elle est-elle perçue comme une concession à des valeurs passéistes ?",
    "Quels slogans productivistes sont-ils, à gauche comme à droite, et comment l'autogestion et l'écologie sont-elles associées à ces slogans ?",
    "Quel est le lien supposé entre la liberté individuelle et le niveau de vie et comment cela affecte la perception de l'autogestion et de l'écologie ?",
    "Quels auteurs sont cités dans la bibliographie pour aborder les questions de l'autogestion et de l'écologie ?",
    "Quels sont les pièges productivistes et quels sont les défis technologiques en matière d'autogestion ?"
  ]
}