{
  "num": "autog_0005-0970_1966_num_1_1",
  "article": "autog_0005-0970_1966_num_1_1_885",
  "page_name": "FMSH_PB188a_00001_031",
  "questions": [
    {
      "id_qa": "FMSH_PB188a_00001_031_qa22_v3",
      "id_block": "block_1",
      "question": "Quelle est la seule forme de conseils d'usine qu'elle admette ?",
      "answer": "son existence aux conventions collectives",
      "answer_stringIds": [
        "string_37",
        "string_38",
        "string_39",
        "string_40",
        "string_41"
      ]
    },
    {
      "id_qa": "FMSH_PB188a_00001_031_qa11_v3",
      "id_block": "block_3",
      "question": "Qu'est-ce qui est donné aux patrons par le droit de propriété ?",
      "answer": "La force",
      "answer_stringIds": [
        "string_186",
        "string_187"
      ]
    },
    {
      "id_qa": "FMSH_PB188a_00001_031_qa12_v3",
      "id_block": "block_3",
      "question": "Qui exerce le droit de propriété ?",
      "answer": "patrons",
      "answer_stringIds": [
        "string_190"
      ]
    },
    {
      "id_qa": "FMSH_PB188a_00001_031_qa15_v3",
      "id_block": "block_3",
      "question": "Qui est contraint de sacrifier le contrôle ouvrier ?",
      "answer": "les syndicats",
      "answer_stringIds": [
        "string_159",
        "string_160",
        "string_161"
      ]
    },
    {
      "id_qa": "FMSH_PB188a_00001_031_qa17_v3",
      "id_block": "block_3",
      "question": "Qu'est-ce que les syndicats sont contraints de sacrifier ?",
      "answer": "le « contrôle ouvrier",
      "answer_stringIds": [
        "string_181",
        "string_182",
        "string_183",
        "string_184"
      ]
    },
    {
      "id_qa": "FMSH_PB188a_00001_031_qa38_v3",
      "id_block": "block_3",
      "question": "Qu'est ce qui a été balayé à la première offensive du capital ?",
      "answer": "la plupart des conseils",
      "answer_stringIds": [
        "string_238",
        "string_239",
        "string_240",
        "string_241"
      ]
    },
    {
      "id_qa": "FMSH_PB188a_00001_031_qa3_v3",
      "id_block": "block_4",
      "question": "Par qui les conseils ont-ils été supprimés ?",
      "answer": "du National Board of Labour",
      "answer_stringIds": [
        "string_305",
        "string_306",
        "string_307",
        "string_308",
        "string_309"
      ]
    },
    {
      "id_qa": "FMSH_PB188a_00001_031_qa24_v3",
      "id_block": "block_4",
      "question": "En quelle année les ouvriers sont-ils représentés dans des conseils d'usine aux Etats-Unis ?",
      "answer": "En 1924",
      "answer_stringIds": [
        "string_374",
        "string_375"
      ]
    },
    {
      "id_qa": "FMSH_PB188a_00001_031_qa25_v3",
      "id_block": "block_4",
      "question": "Quand les conseils d'usine ont-ils été créés aux Etats-Unis ?",
      "answer": "En 1924",
      "answer_stringIds": [
        "string_374",
        "string_375"
      ]
    },
    {
      "id_qa": "FMSH_PB188a_00001_031_qa26_v3",
      "id_block": "block_4",
      "question": "Qui finance les conseils d'usine ?",
      "answer": "par le patronat",
      "answer_stringIds": [
        "string_389",
        "string_390",
        "string_391"
      ]
    },
    {
      "id_qa": "FMSH_PB188a_00001_031_qa27_v3",
      "id_block": "block_4",
      "question": "Combien y a t-il d'ouvriers aux Etats-Unis en 1924 ?",
      "answer": "1.777.000 ouvriers",
      "answer_stringIds": [
        "string_380",
        "string_381"
      ]
    },
    {
      "id_qa": "FMSH_PB188a_00001_031_qa28_v3",
      "id_block": "block_4",
      "question": "Où étaient représentés les conseils d'usine ?",
      "answer": "aux Etats-Unis",
      "answer_stringIds": [
        "string_285",
        "string_286"
      ]
    },
    {
      "id_qa": "FMSH_PB188a_00001_031_qa29_v3",
      "id_block": "block_4",
      "question": "En quelle année les ouvriers sont-ils représentés dans des conseils d'usine ?",
      "answer": "En 1924",
      "answer_stringIds": [
        "string_374",
        "string_375"
      ]
    },
    {
      "id_qa": "FMSH_PB188a_00001_031_qa1_v3",
      "id_block": "block_6",
      "question": "Qui établit les conseils d'usine ?",
      "answer": "par le patronat",
      "answer_stringIds": [
        "string_389",
        "string_390",
        "string_391"
      ]
    }
  ]
}