{
  "num": "autog_0005-0970_1966_num_1_1",
  "article": "autog_0005-0970_1966_num_1_1_885",
  "page_name": "FMSH_PB188a_00001_058",
  "questions": [
    {
      "id_qa": "FMSH_PB188a_00001_058_qa10_v3",
      "id_block": "block_1",
      "question": "Dans d'autres pays, quelle voie pourrait se heurter à la résistance d'un appareil administratif trop cristallisé ?",
      "answer": "cette voie vers les conseils ouvriers",
      "answer_stringIds": [
        "string_12",
        "string_13",
        "string_14",
        "string_15",
        "string_16",
        "string_17"
      ]
    },
    {
      "id_qa": "FMSH_PB188a_00001_058_qa12_v3",
      "id_block": "block_1",
      "question": "A quoi pourrait se heurter la voie vers les conseils ouvriers ?",
      "answer": "un appareil administratif et bureaucratique",
      "answer_stringIds": [
        "string_24",
        "string_25",
        "string_26",
        "string_27",
        "string_28"
      ]
    },
    {
      "id_qa": "FMSH_PB188a_00001_058_qa13_v3",
      "id_block": "block_1",
      "question": "A qui appartient une grande partie de ses pouvoirs ?",
      "answer": "conseils ouvriers",
      "answer_stringIds": [
        "string_16",
        "string_17"
      ]
    },
    {
      "id_qa": "FMSH_PB188a_00001_058_qa14_v3",
      "id_block": "block_1",
      "question": "Que doit transmettre le gouvernement politique issu de la révolution sociale ?",
      "answer": "une grande partie de ses pouvoirs",
      "answer_stringIds": [
        "string_111",
        "string_112",
        "string_113",
        "string_114",
        "string_115",
        "string_116"
      ]
    },
    {
      "id_qa": "FMSH_PB188a_00001_058_qa30_v3",
      "id_block": "block_1",
      "question": "Qu'est-ce qui pourrait paraître à un Etat issu de la révolution sociale ?",
      "answer": "Leurs revendications",
      "answer_stringIds": [
        "string_49",
        "string_50"
      ]
    },
    {
      "id_qa": "FMSH_PB188a_00001_058_qa0_v3",
      "id_block": "block_4",
      "question": "Qu'est-ce qui est attribué au directeur d'en haut ?",
      "answer": "le pouvoir",
      "answer_stringIds": [
        "string_185",
        "string_186"
      ]
    },
    {
      "id_qa": "FMSH_PB188a_00001_058_qa8_v3",
      "id_block": "block_4",
      "question": "Quel est le pouvoir politique de l'URSS ?",
      "answer": "virtualités",
      "answer_stringIds": [
        "string_305"
      ]
    },
    {
      "id_qa": "FMSH_PB188a_00001_058_qa24_v3",
      "id_block": "block_4",
      "question": "Quel droit les ouvriers ont-ils exercé ?",
      "answer": "le droit de critique",
      "answer_stringIds": [
        "string_206",
        "string_207",
        "string_208",
        "string_209"
      ]
    },
    {
      "id_qa": "FMSH_PB188a_00001_058_qa25_v3",
      "id_block": "block_4",
      "question": "Qui a le droit de critique ?",
      "answer": "les ouvriers",
      "answer_stringIds": [
        "string_193",
        "string_194"
      ]
    },
    {
      "id_qa": "FMSH_PB188a_00001_058_qa6_v3",
      "id_block": "block_5",
      "question": "Comment l'administration est-elle forcée de faire face aux plaintes ?",
      "answer": "en tenir compte",
      "answer_stringIds": [
        "string_362",
        "string_363",
        "string_364"
      ]
    },
    {
      "id_qa": "FMSH_PB188a_00001_058_qa7_v3",
      "id_block": "block_5",
      "question": "Qu'est-ce qui est souvent efficace ?",
      "answer": "Les plaintes",
      "answer_stringIds": [
        "string_349",
        "string_350"
      ]
    },
    {
      "id_qa": "FMSH_PB188a_00001_058_qa19_v3",
      "id_block": "block_6",
      "question": "Qui a pour seule fonction d'expliquer les décisions de la direction ?",
      "answer": "ouvriers",
      "answer_stringIds": [
        "string_17"
      ]
    },
    {
      "id_qa": "FMSH_PB188a_00001_058_qa21_v3",
      "id_block": "block_6",
      "question": "Qu'est ce qui caractérise les comités ouvriers ?",
      "answer": "aucune compétence revendicatrice",
      "answer_stringIds": [
        "string_385",
        "string_386",
        "string_387"
      ]
    },
    {
      "id_qa": "FMSH_PB188a_00001_058_qa32_v3",
      "id_block": "block_6",
      "question": "Dans quelles usines les Comités Ouvriers ont-ils été introduits ?",
      "answer": "dans les usines de grande envergure",
      "answer_stringIds": [
        "string_375",
        "string_376",
        "string_377",
        "string_378",
        "string_379",
        "string_380"
      ]
    },
    {
      "id_qa": "FMSH_PB188a_00001_058_qa33_v3",
      "id_block": "block_6",
      "question": "Qu'est ce qui a été introduit dans les usines de grande envergure ?",
      "answer": "Des « Comités Ouvriers",
      "answer_stringIds": [
        "string_367",
        "string_368",
        "string_369",
        "string_370"
      ]
    },
    {
      "id_qa": "FMSH_PB188a_00001_058_qa2_v3",
      "id_block": "block_7",
      "question": "Que pourraient faire les mesures de déconcentration et de décentralisation locales de l'industrie lourde ?",
      "answer": "travailler à leur tour en faveur de la résurrection des conseils ouvriers",
      "answer_stringIds": [
        "string_469",
        "string_470",
        "string_471",
        "string_472",
        "string_473",
        "string_474",
        "string_475",
        "string_476",
        "string_477",
        "string_478",
        "string_479",
        "string_480"
      ]
    }
  ]
}