{
  "num": "autog_0005-0970_1966_num_1_1",
  "article": "autog_0005-0970_1966_num_1_1_885",
  "page_name": "FMSH_PB188a_00001_036",
  "questions": [
    {
      "id_qa": "FMSH_PB188a_00001_036_qa47_v3",
      "id_block": "block_1",
      "question": "Qu'est-ce que le droit social ?",
      "answer": "une « monstruosité juridique",
      "answer_stringIds": [
        "string_25",
        "string_26",
        "string_27",
        "string_28"
      ]
    },
    {
      "id_qa": "FMSH_PB188a_00001_036_qa48_v3",
      "id_block": "block_1",
      "question": "Par quoi l'idée du droit social est-elle imposée ?",
      "answer": "les réalités de la vie actuelle du droït",
      "answer_stringIds": [
        "string_14",
        "string_15",
        "string_16",
        "string_17",
        "string_18",
        "string_19",
        "string_20",
        "string_21"
      ]
    },
    {
      "id_qa": "FMSH_PB188a_00001_036_qa35_v3",
      "id_block": "block_2",
      "question": "Quel est le fondement indispensable des doctrines modernes du droit ouvrier et du droit international ?",
      "answer": "les acquisitions du mouvement en faveur du droit positif extra-législatif et libre",
      "answer_stringIds": [
        "string_31",
        "string_32",
        "string_33",
        "string_34",
        "string_35",
        "string_36",
        "string_37",
        "string_38",
        "string_39",
        "string_40",
        "string_41",
        "string_42"
      ]
    },
    {
      "id_qa": "FMSH_PB188a_00001_036_qa11_v3",
      "id_block": "block_3",
      "question": "Qu'est-ce qui vient concurrencer le droit formel ?",
      "answer": "droit spontané et intuitif",
      "answer_stringIds": [
        "string_101",
        "string_102",
        "string_103",
        "string_104"
      ]
    },
    {
      "id_qa": "FMSH_PB188a_00001_036_qa13_v3",
      "id_block": "block_3",
      "question": "Quel droit vient concurrencer le droit spontané et intuitif ?",
      "answer": "le droit formel",
      "answer_stringIds": [
        "string_108",
        "string_109",
        "string_110"
      ]
    },
    {
      "id_qa": "FMSH_PB188a_00001_036_qa17_v3",
      "id_block": "block_3",
      "question": "Par quoi est constaté le droit formel des corps extra-étatiques ?",
      "answer": "par une multiplicité de procédés techniques autres que la loi",
      "answer_stringIds": [
        "string_127",
        "string_128",
        "string_129",
        "string_130",
        "string_131",
        "string_132",
        "string_133",
        "string_134",
        "string_135",
        "string_136",
        "string_137"
      ]
    },
    {
      "id_qa": "FMSH_PB188a_00001_036_qa36_v3",
      "id_block": "block_4",
      "question": "Que soulignent les théoriciens du droit social ?",
      "answer": "le dynamisme essentiel de ce droit",
      "answer_stringIds": [
        "string_195",
        "string_196",
        "string_197",
        "string_198",
        "string_199",
        "string_200"
      ]
    },
    {
      "id_qa": "FMSH_PB188a_00001_036_qa37_v3",
      "id_block": "block_4",
      "question": "De quoi se libère le droit social ?",
      "answer": "de la tutelle du droit étatique",
      "answer_stringIds": [
        "string_180",
        "string_181",
        "string_182",
        "string_183",
        "string_184",
        "string_185"
      ]
    },
    {
      "id_qa": "FMSH_PB188a_00001_036_qa38_v3",
      "id_block": "block_4",
      "question": "A quoi oppose le dynamisme essentiel de ce droit ?",
      "answer": "au statisme relatif du droit individuel",
      "answer_stringIds": [
        "string_203",
        "string_204",
        "string_205",
        "string_206",
        "string_207",
        "string_208"
      ]
    },
    {
      "id_qa": "FMSH_PB188a_00001_036_qa39_v3",
      "id_block": "block_4",
      "question": "Qui a souligné le dynamisme essentiel de ce droit ?",
      "answer": "les théoriciens du droit social",
      "answer_stringIds": [
        "string_188",
        "string_189",
        "string_190",
        "string_191",
        "string_192"
      ]
    },
    {
      "id_qa": "FMSH_PB188a_00001_036_qa40_v3",
      "id_block": "block_4",
      "question": "Qu'est-ce que le droit vivant ?",
      "answer": "du droit social",
      "answer_stringIds": [
        "string_7",
        "string_8",
        "string_9"
      ]
    },
    {
      "id_qa": "FMSH_PB188a_00001_036_qa30_v3",
      "id_block": "block_5",
      "question": "Combien de personnes recherchent aujourd'hui le droit extra-législatif vivant ?",
      "answer": "tant de juristes",
      "answer_stringIds": [
        "string_250",
        "string_251",
        "string_252"
      ]
    },
    {
      "id_qa": "FMSH_PB188a_00001_036_qa32_v3",
      "id_block": "block_5",
      "question": "Quelles sont les deux branches essentielles du droit extra-législatif vivant ?",
      "answer": "le droit international et le droit ouvrier",
      "answer_stringIds": [
        "string_227",
        "string_228",
        "string_229",
        "string_230",
        "string_231",
        "string_232",
        "string_233",
        "string_234"
      ]
    },
    {
      "id_qa": "FMSH_PB188a_00001_036_qa4_v3",
      "id_block": "block_6",
      "question": "Qu'est ce qui a occupé ce livre ?",
      "answer": "les problèmes qui nous",
      "answer_stringIds": [
        "string_261",
        "string_262",
        "string_263",
        "string_264"
      ]
    },
    {
      "id_qa": "FMSH_PB188a_00001_036_qa7_v3",
      "id_block": "block_6",
      "question": "Qu'est ce qui fait éclater leurs cadres ?",
      "answer": "leur logique",
      "answer_stringIds": [
        "string_273",
        "string_274"
      ]
    },
    {
      "id_qa": "FMSH_PB188a_00001_036_qa46_v3",
      "id_block": "block_6",
      "question": "Qu'est-ce qui est parfois plus nécessaire que de décrire les problèmes ?",
      "answer": "la portée",
      "answer_stringIds": [
        "string_305",
        "string_306"
      ]
    },
    {
      "id_qa": "FMSH_PB188a_00001_036_qa43_v3",
      "id_block": "block_6",
      "question": "Qu'est ce qui est parfois plus nécessaire que d'apporter des solutions arrêtées ?",
      "answer": "les problèmes",
      "answer_stringIds": [
        "string_261",
        "string_262"
      ]
    },
    {
      "id_qa": "FMSH_PB188a_00001_036_qa0_v3",
      "id_block": "block_7",
      "question": "Qu'est-ce qu'un mouvement de fait ?",
      "answer": "voir un impétueux mouvement",
      "answer_stringIds": [
        "string_381",
        "string_382",
        "string_383",
        "string_384"
      ]
    }
  ]
}