{
  "num": "autog_0005-0970_1966_num_1_1",
  "article": "autog_0005-0970_1966_num_1_1_885",
  "page_name": "FMSH_PB188a_00001_034",
  "questions": [
    {
      "id_qa": "FMSH_PB188a_00001_034_qa20_v3",
      "id_block": "block_1",
      "question": "Qu'est ce qui rend inutiles les conseils d'usine ?",
      "answer": "pouvoir",
      "answer_stringIds": [
        "string_3"
      ]
    },
    {
      "id_qa": "FMSH_PB188a_00001_034_qa23_v3",
      "id_block": "block_1",
      "question": "Qu'est-ce qui rend inutiles les conseils d'usine ?",
      "answer": "pouvoir",
      "answer_stringIds": [
        "string_3"
      ]
    },
    {
      "id_qa": "FMSH_PB188a_00001_034_qa6_v3",
      "id_block": "block_2",
      "question": "Qui prend part à la direction de l'entreprise ?",
      "answer": "les travailleurs",
      "answer_stringIds": [
        "string_71",
        "string_72",
        "string_73"
      ]
    },
    {
      "id_qa": "FMSH_PB188a_00001_034_qa7_v3",
      "id_block": "block_2",
      "question": "Qui prend part à la direction économique et commerciale de l'entreprise ?",
      "answer": "les travailleurs",
      "answer_stringIds": [
        "string_71",
        "string_72",
        "string_73"
      ]
    },
    {
      "id_qa": "FMSH_PB188a_00001_034_qa8_v3",
      "id_block": "block_2",
      "question": "Qui participe à la direction économique et commerciale de l'entreprise ?",
      "answer": "les travailleurs",
      "answer_stringIds": [
        "string_71",
        "string_72",
        "string_73"
      ]
    },
    {
      "id_qa": "FMSH_PB188a_00001_034_qa9_v3",
      "id_block": "block_2",
      "question": "Dans quelles entreprises les conseils d'usine sont-ils mis en place ?",
      "answer": "certaines entreprises",
      "answer_stringIds": [
        "string_126",
        "string_127"
      ]
    },
    {
      "id_qa": "FMSH_PB188a_00001_034_qa13_v3",
      "id_block": "block_3",
      "question": "Qui sont les membres des conseils d'usine ?",
      "answer": "des représentants",
      "answer_stringIds": [
        "string_300",
        "string_301"
      ]
    },
    {
      "id_qa": "FMSH_PB188a_00001_034_qa25_v3",
      "id_block": "block_3",
      "question": "Qu'est-ce que la cogestion et contrôle ouvrier en France ?",
      "answer": "Cette espèce de participation",
      "answer_stringIds": [
        "string_325",
        "string_326",
        "string_327",
        "string_328"
      ]
    },
    {
      "id_qa": "FMSH_PB188a_00001_034_qa2_v3",
      "id_block": "block_4",
      "question": "Quelle est la base juridique de toute l'institution ?",
      "answer": "le droit social",
      "answer_stringIds": [
        "string_407",
        "string_408",
        "string_409"
      ]
    },
    {
      "id_qa": "FMSH_PB188a_00001_034_qa5_v3",
      "id_block": "block_4",
      "question": "Comment se manifeste le droit social dans la troisième forme ?",
      "answer": "avec une netteté et une pureté exceptionnelles",
      "answer_stringIds": [
        "string_419",
        "string_420",
        "string_421",
        "string_422",
        "string_423",
        "string_424",
        "string_425"
      ]
    },
    {
      "id_qa": "FMSH_PB188a_00001_034_qa15_v3",
      "id_block": "block_5",
      "question": "A quoi viennent s'ajouter les deux premières formes de participation ?",
      "answer": "des problèmes",
      "answer_stringIds": [
        "string_456",
        "string_457"
      ]
    },
    {
      "id_qa": "FMSH_PB188a_00001_034_qa16_v3",
      "id_block": "block_5",
      "question": "A quoi viennent les deux premières formes de participation ?",
      "answer": "des problèmes concernant le fonctionnement extérieur du groupe",
      "answer_stringIds": [
        "string_456",
        "string_457",
        "string_458",
        "string_459",
        "string_460",
        "string_461",
        "string_462",
        "string_463",
        "string_464"
      ]
    },
    {
      "id_qa": "FMSH_PB188a_00001_034_qa18_v3",
      "id_block": "block_5",
      "question": "Quel est l'ordre particulier de la participation ?",
      "answer": "droit objectif",
      "answer_stringIds": [
        "string_435",
        "string_436"
      ]
    },
    {
      "id_qa": "FMSH_PB188a_00001_034_qa28_v3",
      "id_block": "block_5",
      "question": "Qu'est-ce que le droit inorganisé de la com ?",
      "answer": "recours au rapport entre le droit inorganisé de la com",
      "answer_stringIds": [
        "string_471",
        "string_472",
        "string_473",
        "string_474",
        "string_475",
        "string_476",
        "string_477",
        "string_478",
        "string_479",
        "string_480"
      ]
    }
  ]
}