{
  "num": "autog_0249-2563_1980_num_13_2",
  "article": "autog_0249-2563_1980_num_13_2_1385",
  "page_name": "autog_0249-2563_1980_num_13_2_T1_0381_0000",
  "questions": [
    "Quels sont les besoins qui justifient la connexion des projets alternatifs et quels sont les difficultés rencontrées dans ce processus ?",
    "Comment la femme est-elle représentée dans la croissance du mouvement féministe, ses objectifs et l'une de ses manifestations les plus significatives : les maisons pour femmes ?",
    "Quels sont les différents expériences présentées dans le dossier \"Contre-information et créativité collective\" et quels sont leurs objectifs ?",
    "Comment sont classées les initiatives citées par Otmar Seul et quels sont leurs perspectives ?",
    "Quels sont les succès récents des candidats \"verts\" et multicolores et quels sont les enjeux de leur représentation dans le domaine de la gestion politique ?"
  ]
}