{
  "num": "autog_0338-7259_1971_num_16_1",
  "article": "autog_0338-7259_1971_num_16_1_1938",
  "page_name": "FMSH_PB188a_16-17_004",
  "questions": [
    "Quels auteurs sont cités dans ce numéro des Comptes rendus ?",
    "Quels sont les titres des articles consacrés à Hispano Suiza, Trotsky, Meister, Garaudy, Revel, Mandel et Mintz ?",
    "Dans quels librairies peut-on trouver le prochain numéro des Comptes rendus ?",
    "Quels sont les thèmes abordés dans le prochain numéro des Comptes rendus ?",
    "Quels sont les dépositaires parisiens des Comptes rendus ?",
    "Quel est le titre de l'article de Lefort ?",
    "Quel est le titre de la bibliographie sur l'autogestion ?",
    "Quel est le but du prochain numéro des Comptes rendus ?"
  ]
}