{
  "num": "autog_0249-2563_1980_num_13_2",
  "article": "autog_0249-2563_1980_num_13_2_1384_t1_0377_0000_2",
  "page_name": "autog_0249-2563_1980_num_13_2_T1_0378_0000",
  "questions": [
    "Quels sont les éléments qui inspirent le bonheur d'expression dans la Grande Théorie ?",
    "Comment les pensées longuement maturées se détachent-elles en formules efficaces ?",
    "Quels sont les «renversements dialectiques» que Marx aimait ?",
    "Quels sont les adieux au prolétariat et quels sont les raisons justifiant ces adieux ?",
    "Quel est le rôle du Parti dans la théorie du prolétariat selon Marx et Engels ?",
    "Comment les théoriciens ont-ils perçu les ouvriers historiquement ?",
    "Quels sont les brefs éclairs où les ouvriers ont déçu les théoriciens ?",
    "Quels sont les utopies qui ont engendré le totalitarisme historiquement ?",
    "Comment la société universellement bonne vise la totalité et quels sont les risques associés à ce projet ?",
    "Comment la tension permanente entre l'Etat contraignant et nécessaire et la société civile peut-elle être concevue ?"
  ]
}