{
  "num": "autog_0338-7259_1972_num_18_1",
  "article": "autog_0338-7259_1972_num_18_1_1033",
  "page_name": "FMSH_PB188a_18-19_085",
  "questions": [
    {
      "id_qa": "FMSH_PB188a_18-19_085_qa1_v3",
      "id_block": "block_2",
      "question": "Qui présente le programme ?",
      "answer": "Diego Abad de Santillän",
      "answer_stringIds": [
        "string_18",
        "string_19",
        "string_20",
        "string_21"
      ]
    },
    {
      "id_qa": "FMSH_PB188a_18-19_085_qa3_v3",
      "id_block": "block_3",
      "question": "Qu'est-ce que le Conseil national de l'économie socialisée ?",
      "answer": "un organe central de planification",
      "answer_stringIds": [
        "string_157",
        "string_158",
        "string_159",
        "string_160",
        "string_161"
      ]
    },
    {
      "id_qa": "FMSH_PB188a_18-19_085_qa5_v3",
      "id_block": "block_3",
      "question": "Quels sont les deux axes essentiels de l'organisation fédérative ?",
      "answer": "les industries et les régions",
      "answer_stringIds": [
        "string_129",
        "string_130",
        "string_131",
        "string_132",
        "string_133"
      ]
    },
    {
      "id_qa": "FMSH_PB188a_18-19_085_qa6_v3",
      "id_block": "block_3",
      "question": "Que doit devenir le Conseil national de l'économie socialisée ?",
      "answer": "devenir un organe central de planification",
      "answer_stringIds": [
        "string_156",
        "string_157",
        "string_158",
        "string_159",
        "string_160",
        "string_161"
      ]
    },
    {
      "id_qa": "FMSH_PB188a_18-19_085_qa7_v3",
      "id_block": "block_3",
      "question": "A quoi aboutit le développement de l'idée ?",
      "answer": "une organisation fédérative",
      "answer_stringIds": [
        "string_120",
        "string_121",
        "string_122"
      ]
    },
    {
      "id_qa": "FMSH_PB188a_18-19_085_qa8_v3",
      "id_block": "block_3",
      "question": "Qu'est ce qui aboutit chez Abad de Santilln à une organisation fédérative ?",
      "answer": "Le développement de cette idée",
      "answer_stringIds": [
        "string_109",
        "string_110",
        "string_111",
        "string_112",
        "string_113"
      ]
    },
    {
      "id_qa": "FMSH_PB188a_18-19_085_qa11_v3",
      "id_block": "block_4",
      "question": "Quand a eu lieu le premier numéro de Tiempos Nuevos ?",
      "answer": "le 5 mai 1934",
      "answer_stringIds": [
        "string_172",
        "string_173",
        "string_174",
        "string_175"
      ]
    }
  ]
}