{
  "num": "autog_0338-7259_1972_num_18_1",
  "article": "autog_0338-7259_1972_num_18_1_1033",
  "page_name": "FMSH_PB188a_18-19_097",
  "questions": [
    {
      "id_qa": "FMSH_PB188a_18-19_097_qa0_v3",
      "id_block": "block_1",
      "question": "Sous quel système les possibilités techniques sont elles pleinement utilisées ?",
      "answer": "sous le capitalisme",
      "answer_stringIds": [
        "string_18",
        "string_19",
        "string_20"
      ]
    },
    {
      "id_qa": "FMSH_PB188a_18-19_097_qa2_v3",
      "id_block": "block_1",
      "question": "A quoi doivent s'adapter les formes d'organisation de la socialisation ?",
      "answer": "aux nécessités techniques du système de production",
      "answer_stringIds": [
        "string_41",
        "string_42",
        "string_43",
        "string_44",
        "string_45",
        "string_46",
        "string_47"
      ]
    },
    {
      "id_qa": "FMSH_PB188a_18-19_097_qa13_v3",
      "id_block": "block_3",
      "question": "Qui nomme le conseil d'usine ?",
      "answer": "le personnel",
      "answer_stringIds": [
        "string_253",
        "string_254"
      ]
    }
  ]
}