{
  "num": "autog_0005-0970_1968_num_7_1",
  "article": "autog_0005-0970_1968_num_7_1_935",
  "page_name": "FMSH_PB188a_00007_051",
  "questions": [
    {
      "id_qa": "FMSH_PB188a_00007_051_qa10_v3",
      "id_block": "block_11",
      "question": "Qui est tenu de s'exprimer au sujet de toute Suggestion ou demande d'explication ?",
      "answer": "Celui",
      "answer_stringIds": [
        "string_206"
      ]
    },
    {
      "id_qa": "FMSH_PB188a_00007_051_qa0_v3",
      "id_block": "block_13",
      "question": "Dans quel document l'autogestion des travailleurs ne jouit-elle que de droits ?",
      "answer": "dans les statuts",
      "answer_stringIds": [
        "string_253",
        "string_254",
        "string_255"
      ]
    },
    {
      "id_qa": "FMSH_PB188a_00007_051_qa1_v3",
      "id_block": "block_13",
      "question": "Quels sont les droits de l'autogestion des travailleurs ?",
      "answer": "des droits mentionnés dans les statuts",
      "answer_stringIds": [
        "string_250",
        "string_251",
        "string_252",
        "string_253",
        "string_254",
        "string_255"
      ]
    },
    {
      "id_qa": "FMSH_PB188a_00007_051_qa3_v3",
      "id_block": "block_7",
      "question": "Qui a le droit d'élire et de révoquer l'usine autogérée ?",
      "answer": "ses représentants",
      "answer_stringIds": [
        "string_100",
        "string_101"
      ]
    }
  ]
}