{
  "num": "autog_0338-7259_1978_num_40_1",
  "article": "autog_0338-7259_1978_num_40_1_1282",
  "page_name": "FMSH_PB188a_00040_104",
  "questions": [
    {
      "id_qa": "FMSH_PB188a_00040_104_qa6_v3",
      "id_block": "block_1",
      "question": "Qu'est ce qui constitue une forme de contestation de la centration productiviste ?",
      "answer": "principes",
      "answer_stringIds": [
        "string_63"
      ]
    },
    {
      "id_qa": "FMSH_PB188a_00040_104_qa7_v3",
      "id_block": "block_1",
      "question": "Qu'est-ce qui équivaut à une contestation de principes apparemment éprouvés ?",
      "answer": "Le refus de cette centration productiviste et étatiste",
      "answer_stringIds": [
        "string_40",
        "string_41",
        "string_42",
        "string_43",
        "string_44",
        "string_45",
        "string_46",
        "string_47",
        "string_48"
      ]
    },
    {
      "id_qa": "FMSH_PB188a_00040_104_qa10_v3",
      "id_block": "block_2",
      "question": "Quel est le point de départ d'une telle hiérarchie ?",
      "answer": "les sociétés primitives",
      "answer_stringIds": [
        "string_197",
        "string_198",
        "string_199"
      ]
    },
    {
      "id_qa": "FMSH_PB188a_00040_104_qa18_v3",
      "id_block": "block_2",
      "question": "Quel est le continuum ?",
      "answer": "Les sociétés humaines",
      "answer_stringIds": [
        "string_167",
        "string_168",
        "string_169"
      ]
    },
    {
      "id_qa": "FMSH_PB188a_00040_104_qa19_v3",
      "id_block": "block_2",
      "question": "Qu'est ce qui se rangent dans un continuum ?",
      "answer": "Les sociétés humaines",
      "answer_stringIds": [
        "string_167",
        "string_168",
        "string_169"
      ]
    },
    {
      "id_qa": "FMSH_PB188a_00040_104_qa17_v3",
      "id_block": "block_3",
      "question": "Qu'est-ce que la solitude relative de Clastres ?",
      "answer": "résistances",
      "answer_stringIds": [
        "string_284"
      ]
    },
    {
      "id_qa": "FMSH_PB188a_00040_104_qa0_v3",
      "id_block": "block_4",
      "question": "Quelle est la tendance la mieux implantée actuellement en France ?",
      "answer": "de l'anthropologie marxiste",
      "answer_stringIds": [
        "string_393"
      ]
    },
    {
      "id_qa": "FMSH_PB188a_00040_104_qa1_v3",
      "id_block": "block_4",
      "question": "Qui est à l'origine de ses critiques contre la tendance la mieux implantée en France ?",
      "answer": "le courage de Clastres",
      "answer_stringIds": [
        "string_331",
        "string_332",
        "string_333",
        "string_334"
      ]
    },
    {
      "id_qa": "FMSH_PB188a_00040_104_qa5_v3",
      "id_block": "block_4",
      "question": "Où est-ce que l'anthropologie marxiste s'est développée ?",
      "answer": "en France",
      "answer_stringIds": [
        "string_349",
        "string_350"
      ]
    },
    {
      "id_qa": "FMSH_PB188a_00040_104_qa21_v3",
      "id_block": "block_4",
      "question": "Qui est à l'origine de cette harmonie ?",
      "answer": "les adeptes de ce courant",
      "answer_stringIds": [
        "string_365",
        "string_366",
        "string_367",
        "string_368",
        "string_369"
      ]
    },
    {
      "id_qa": "FMSH_PB188a_00040_104_qa22_v3",
      "id_block": "block_4",
      "question": "Qu'est ce qui oppose les scientifiques ?",
      "answer": "des désaccords",
      "answer_stringIds": [
        "string_377",
        "string_378"
      ]
    }
  ]
}