{
  "num": "autog_0249-2563_1982_num_15_11",
  "article": "autog_0249-2563_1982_num_15_11_1514",
  "page_name": "autog_0249-2563_1982_num_15_11_T1_0042_0000",
  "questions": [
    "Quels sont les principaux éléments de la société civile selon Tocqueville ?",
    "Comment Tocqueville caractérise-t-il les associations américaines ?",
    "Quel est le rôle des églises dans la société civile américaine selon Tocqueville ?",
    "Comment Tocqueville explique-t-il l'importance de l'égalité dans la société civile américaine ?",
    "Quel est l'impact de l'égalité sur la démocratie américaine selon Tocqueville ?",
    "Comment Tocqueville décrit-il les institutions locales en Amérique ?",
    "Quel est le rôle des institutions locales dans la société civile américaine selon Tocqueville ?",
    "Comment Tocqueville compare les institutions locales américaines aux institutions centrales européennes ?",
    "Quel est l'impact des institutions locales sur la démocratie américaine selon Tocqueville ?",
    "Comment Tocqueville explique-t-il l'importance de l'individualisme dans la société civile américaine ?",
    "Quel est l'impact de l'individualisme sur la démocratie américaine selon Tocqueville ?",
    "Comment Tocqueville décrit-il les relations entre les citoyens dans la société civile américaine ?",
    "Quel est l'impact des relations entre les citoyens sur la démocratie américaine selon Tocqueville ?",
    "Comment Tocqueville caractérise-t-il les institutions de police et de justice en Amérique ?",
    "Quel est le rôle des institutions de police et de justice dans la société civile américaine selon Tocqueville ?",
    "Comment Tocqueville compare les institutions de police et de justice américaines aux institutions européennes ?",
    "Quel est l'impact des institutions de police et de justice sur la démocratie américaine selon Tocqueville ?",
    "Comment Tocqueville décrit-il les relations entre les autorités et les citoyens dans?"
  ]
}