{
  "num": "autog_0249-2563_1981_num_14_7",
  "article": "autog_0249-2563_1981_num_14_7_1460",
  "page_name": "autog_0249-2563_1981_num_14_7_T1_0381_0000",
  "questions": [
    "Quel livre de René Lourau est-il question ici et quels sont ses principaux thèmes ?",
    "Quels sont les différents types d'intellectuels évoqués dans le texte ?",
    "Qu'est-ce qu'un intellectuel impliqué et comment il se différencie des autres catégories sociales ?",
    "Quel est le statut de l'intellectuel dans l'institution et comment il s'interroge sur sa place dans la division du travail ?",
    "Qu'est le pouvoir de classe que détient l'intellectuel et comment il peut échapper en partie aux déterminismes qui le contrôlent ?",
    "En quoi l'intellectuel impliqué peut-il agir en révélateur des rapports institutionnels et introduire une critique radicale ?",
    "Quels sont les références aux sources secondaires mentionnées dans le texte ?"
  ]
}