{
  "num": "autog_0249-2563_1980_num_13_4",
  "article": "autog_0249-2563_1980_num_13_4_1391",
  "page_name": "autog_0249-2563_1980_num_13_4_T1_0442_0000",
  "questions": [
    {
      "id_qa": "autog_0249-2563_1980_num_13_4_T1_0442_0000_qa4_v3",
      "id_block": "block_11",
      "question": "Qu'est ce qui se décroche pendant une longue période ?",
      "answer": "La monnaie surévaluée",
      "answer_stringIds": [
        "string_76",
        "string_77",
        "string_78"
      ]
    },
    {
      "id_qa": "autog_0249-2563_1980_num_13_4_T1_0442_0000_qa5_v3",
      "id_block": "block_11",
      "question": "Qu'est ce qui est surévalué pendant une longue période ?",
      "answer": "La monnaie",
      "answer_stringIds": [
        "string_76",
        "string_77"
      ]
    },
    {
      "id_qa": "autog_0249-2563_1980_num_13_4_T1_0442_0000_qa7_v3",
      "id_block": "block_11",
      "question": "Quel est le taux de change du dollar américain en 1973 ?",
      "answer": "à 43,38 soles",
      "answer_stringIds": [
        "string_94",
        "string_95",
        "string_96"
      ]
    },
    {
      "id_qa": "autog_0249-2563_1980_num_13_4_T1_0442_0000_qa8_v3",
      "id_block": "block_11",
      "question": "Qu'est ce qui reste à 43,38 soles pour un dollar américain ?",
      "answer": "le taux de change",
      "answer_stringIds": [
        "string_89",
        "string_90",
        "string_91",
        "string_92"
      ]
    },
    {
      "id_qa": "autog_0249-2563_1980_num_13_4_T1_0442_0000_qa11_v3",
      "id_block": "block_12",
      "question": "Quelle est la valeur du taux de change en 1977 ?",
      "answer": "à 130 soles pour un dollar",
      "answer_stringIds": [
        "string_112",
        "string_113",
        "string_114",
        "string_115",
        "string_116",
        "string_117"
      ]
    },
    {
      "id_qa": "autog_0249-2563_1980_num_13_4_T1_0442_0000_qa21_v3",
      "id_block": "block_13",
      "question": "Quelle est la proportion de chômeurs par rapport à 1977 ?",
      "answer": "de 25 %",
      "answer_stringIds": [
        "string_175",
        "string_176",
        "string_177"
      ]
    },
    {
      "id_qa": "autog_0249-2563_1980_num_13_4_T1_0442_0000_qa0_v3",
      "id_block": "block_14",
      "question": "Qui a poussé à son extrême la politique de substitution d'importations annoncée par l'administration de Belaunde ?",
      "answer": "le Gouvernement péruvien",
      "answer_stringIds": [
        "string_249",
        "string_250",
        "string_251"
      ]
    },
    {
      "id_qa": "autog_0249-2563_1980_num_13_4_T1_0442_0000_qa15_v3",
      "id_block": "block_6",
      "question": "A partir de quand l'inflation augmente-t-elle ?",
      "answer": "de 1975",
      "answer_stringIds": [
        "string_46",
        "string_47"
      ]
    }
  ]
}