{
  "num": "autog_0338-7259_1979_num_43_1",
  "article": "autog_0338-7259_1979_num_43_1_1297",
  "page_name": "FMSH_PB188a_00043_060",
  "questions": [
    "Quels changements sociaux radicaux ont eu lieu en Roumanie après la guerre ?",
    "En quelles étapes successives ces changements se sont-ils produits ?",
    "Comment ces changements ont-ils affecté la vie sociale active en Roumanie ?",
    "Quel rôle les structures et les institutions politiques, économiques et sociales ont-elles joué dans ces changements ?",
    "Comment les formes représentatives et celles qui assurent la participation directe des citoyens à la direction sociale se sont-elles adaptées aux conditions roumaines ?",
    "Qu'est le rapport dialectique entre ces deux types de participation ?",
    "Qu'est le concept de «participation d'appartenance» et comment il représente la spécificité de la démocratie socialiste roumaine ?",
    "Quels sont les préoccupations et les résultats des recherches sociologiques roumaines dans le domaine de la fonctionnalité et des performances des systèmes de participation et d'autogestion ?",
    "Quels sont les aspects internationaux de la problématique de la participation et de l'autogestion sociale ?",
    "Comment les droits fondamentaux de l'homme s'affirment dans le domaine de la vie sociale, de l'exercice du droit au travail et de la rémunération d'après le travail, de gestion de la propriété sur les moyens de production, de participation effective aux décisions essentielles qui envisagent le destin de la communauté nationale et internationale ?"
  ]
}