{
  "num": "autog_0005-0970_1967_num_4_1",
  "article": "autog_0005-0970_1967_num_4_1_912",
  "page_name": "FMSH_PB188a_00004_144",
  "questions": [
    {
      "id_qa": "FMSH_PB188a_00004_144_qa34_v3",
      "id_block": "block_1",
      "question": "Qu'est-ce qui est considéré comme un crime ?",
      "answer": "leur non-participation à la gestion",
      "answer_stringIds": [
        "string_50",
        "string_51",
        "string_52",
        "string_53",
        "string_54"
      ]
    },
    {
      "id_qa": "FMSH_PB188a_00004_144_qa35_v3",
      "id_block": "block_1",
      "question": "Qu'est-ce que les administrateurs, ouvriers ou spécialistes ?",
      "answer": "travailler et administrer",
      "answer_stringIds": [
        "string_45",
        "string_46",
        "string_47"
      ]
    },
    {
      "id_qa": "FMSH_PB188a_00004_144_qa36_v3",
      "id_block": "block_1",
      "question": "Que doit être considéré la non-participation à la gestion ?",
      "answer": "un crime",
      "answer_stringIds": [
        "string_58",
        "string_59"
      ]
    },
    {
      "id_qa": "FMSH_PB188a_00004_144_qa40_v3",
      "id_block": "block_1",
      "question": "Qu'est-ce que la domination de classe ?",
      "answer": "une expérience",
      "answer_stringIds": [
        "string_84",
        "string_85"
      ]
    },
    {
      "id_qa": "FMSH_PB188a_00004_144_qa41_v3",
      "id_block": "block_1",
      "question": "Qu'est-ce que la bourgeoisie savait faire ?",
      "answer": "maintenir sa domination de classe",
      "answer_stringIds": [
        "string_77",
        "string_78",
        "string_79",
        "string_80",
        "string_81"
      ]
    },
    {
      "id_qa": "FMSH_PB188a_00004_144_qa2_v3",
      "id_block": "block_2",
      "question": "Qui a résisté aux révolutions précédentes ?",
      "answer": "les ouvriers",
      "answer_stringIds": [
        "string_112",
        "string_113"
      ]
    },
    {
      "id_qa": "FMSH_PB188a_00004_144_qa5_v3",
      "id_block": "block_2",
      "question": "Qui n'a pas su tenir par une dictature ferme ?",
      "answer": "les ouvriers",
      "answer_stringIds": [
        "string_112",
        "string_113"
      ]
    },
    {
      "id_qa": "FMSH_PB188a_00004_144_qa6_v3",
      "id_block": "block_2",
      "question": "Qui ne comprenait pas que la dictature, la violence, la contrainte n'étaient pas suffisantes pour tenir ?",
      "answer": "les ouvriers",
      "answer_stringIds": [
        "string_112",
        "string_113"
      ]
    },
    {
      "id_qa": "FMSH_PB188a_00004_144_qa7_v3",
      "id_block": "block_2",
      "question": "Qu'est ce qui a péri ?",
      "answer": "Les révolutions précédentes",
      "answer_stringIds": [
        "string_105",
        "string_106",
        "string_107"
      ]
    },
    {
      "id_qa": "FMSH_PB188a_00004_144_qa10_v3",
      "id_block": "block_2",
      "question": "Qui ne comprend pas que la dictature, la violence, la contrainte ne suffisaient pas pour tenir ?",
      "answer": "les ouvriers",
      "answer_stringIds": [
        "string_112",
        "string_113"
      ]
    },
    {
      "id_qa": "FMSH_PB188a_00004_144_qa25_v3",
      "id_block": "block_2",
      "question": "Qui s'oppose au bourgeois ?",
      "answer": "les ouvriers",
      "answer_stringIds": [
        "string_112",
        "string_113"
      ]
    },
    {
      "id_qa": "FMSH_PB188a_00004_144_qa26_v3",
      "id_block": "block_2",
      "question": "Quand les ouvriers se mettent-ils à administrer ?",
      "answer": "les ouvriers qui se mettent pour la première fois à administrer",
      "answer_stringIds": [
        "string_162",
        "string_163",
        "string_164",
        "string_165",
        "string_166",
        "string_167",
        "string_168",
        "string_169",
        "string_170",
        "string_171",
        "string_172"
      ]
    },
    {
      "id_qa": "FMSH_PB188a_00004_144_qa27_v3",
      "id_block": "block_2",
      "question": "Qu'est-ce que les ouvriers ne font encore qu'approcher ?",
      "answer": "du communisme",
      "answer_stringIds": [
        "string_202",
        "string_203"
      ]
    },
    {
      "id_qa": "FMSH_PB188a_00004_144_qa46_v3",
      "id_block": "block_2",
      "question": "De quoi le communisme est-il issu ?",
      "answer": "du capitalisme",
      "answer_stringIds": [
        "string_149",
        "string_150"
      ]
    },
    {
      "id_qa": "FMSH_PB188a_00004_144_qa48_v3",
      "id_block": "block_2",
      "question": "Qu'est-ce que le communisme ?",
      "answer": "le communisme nait du capitalisme",
      "answer_stringIds": [
        "string_243",
        "string_244",
        "string_245",
        "string_246",
        "string_247"
      ]
    },
    {
      "id_qa": "FMSH_PB188a_00004_144_qa51_v3",
      "id_block": "block_2",
      "question": "Qu'est ce qui serait du domaine de la fantaisie ?",
      "answer": "le communisme",
      "answer_stringIds": [
        "string_208",
        "string_209"
      ]
    },
    {
      "id_qa": "FMSH_PB188a_00004_144_qa0_v3",
      "id_block": "block_3",
      "question": "Quel pouvoir a été institué par eile ?",
      "answer": "Le pouvoir soviétique",
      "answer_stringIds": [
        "string_314",
        "string_315",
        "string_316"
      ]
    },
    {
      "id_qa": "FMSH_PB188a_00004_144_qa53_v3",
      "id_block": "block_3",
      "question": "Qu'est ce qui ne pourra pas être construit sans ces représentants ?",
      "answer": "le communisme",
      "answer_stringIds": [
        "string_208",
        "string_209"
      ]
    },
    {
      "id_qa": "FMSH_PB188a_00004_144_qa54_v3",
      "id_block": "block_3",
      "question": "Qu'est ce qui ne pourra pas être réalisé sans ces représentants ?",
      "answer": "bâtir le communisme",
      "answer_stringIds": [
        "string_207",
        "string_208",
        "string_209"
      ]
    },
    {
      "id_qa": "FMSH_PB188a_00004_144_qa11_v3",
      "id_block": "block_7",
      "question": "A qui sont destinées les entreprises de l'Etat?",
      "answer": "ouvriers",
      "answer_stringIds": [
        "string_33"
      ]
    }
  ]
}