{
  "num": "autog_0005-0970_1967_num_4_1",
  "article": "autog_0005-0970_1967_num_4_1_912",
  "page_name": "FMSH_PB188a_00004_145",
  "questions": [
    {
      "id_qa": "FMSH_PB188a_00004_145_qa34_v3",
      "id_block": "block_1",
      "question": "Quel est le but de la lutte contre le capital ?",
      "answer": "les intérêts de classe du prolétariat",
      "answer_stringIds": [
        "string_18",
        "string_19",
        "string_20",
        "string_21",
        "string_22",
        "string_23"
      ]
    },
    {
      "id_qa": "FMSH_PB188a_00004_145_qa15_v3",
      "id_block": "block_2",
      "question": "Qu'est-ce que les syndicats ont le devoir absolu ?",
      "answer": "les intérêts des travailleurs",
      "answer_stringIds": [
        "string_95",
        "string_96",
        "string_97",
        "string_98"
      ]
    },
    {
      "id_qa": "FMSH_PB188a_00004_145_qa16_v3",
      "id_block": "block_2",
      "question": "Qui défend les intérêts des travailleurs ?",
      "answer": "les syndicats",
      "answer_stringIds": [
        "string_87",
        "string_88"
      ]
    },
    {
      "id_qa": "FMSH_PB188a_00004_145_qa17_v3",
      "id_block": "block_2",
      "question": "Quel type d'entreprise a le devoir absolu de défendre les intérêts des travailleurs ?",
      "answer": "les entreprises socialisées",
      "answer_stringIds": [
        "string_84",
        "string_85",
        "string_86"
      ]
    },
    {
      "id_qa": "FMSH_PB188a_00004_145_qa18_v3",
      "id_block": "block_2",
      "question": "Qu'est-ce que les syndicats ont le devoir absolu de redresser ?",
      "answer": "les erreurs et les excès des organismes économiques",
      "answer_stringIds": [
        "string_113",
        "string_114",
        "string_115",
        "string_116",
        "string_117",
        "string_118",
        "string_119",
        "string_120"
      ]
    },
    {
      "id_qa": "FMSH_PB188a_00004_145_qa19_v3",
      "id_block": "block_2",
      "question": "Qui a le devoir absolu de défendre les intérêts des travailleurs ?",
      "answer": "les syndicats",
      "answer_stringIds": [
        "string_87",
        "string_88"
      ]
    },
    {
      "id_qa": "FMSH_PB188a_00004_145_qa35_v3",
      "id_block": "block_3",
      "question": "Qui exerce le pouvoir ?",
      "answer": "la classe",
      "answer_stringIds": [
        "string_160",
        "string_161"
      ]
    },
    {
      "id_qa": "FMSH_PB188a_00004_145_qa40_v3",
      "id_block": "block_4",
      "question": "Qu'exige le succès de la Russie ?",
      "answer": "le plein pouvoir",
      "answer_stringIds": [
        "string_383",
        "string_384",
        "string_385"
      ]
    },
    {
      "id_qa": "FMSH_PB188a_00004_145_qa31_v3",
      "id_block": "block_6",
      "question": "Qui ne doit pas participer à l'organisation socialiste de l'industrie ?",
      "answer": "les syndicats",
      "answer_stringIds": [
        "string_87",
        "string_88"
      ]
    }
  ]
}