{
  "num": "autog_0005-0970_1967_num_4_1",
  "article": "autog_0005-0970_1967_num_4_1_912",
  "page_name": "FMSH_PB188a_00004_133",
  "questions": [
    {
      "id_qa": "FMSH_PB188a_00004_133_qa21_v3",
      "id_block": "block_10",
      "question": "Qui sont déjà expropriés ?",
      "answer": "les capitalistes",
      "answer_stringIds": [
        "string_170",
        "string_171"
      ]
    },
    {
      "id_qa": "FMSH_PB188a_00004_133_qa22_v3",
      "id_block": "block_11",
      "question": "Qu'est ce que nous n'avons pas encore créé ?",
      "answer": "des conditions qui mettraient à notre disposition les spécialistes bourgeois",
      "answer_stringIds": [
        "string_507",
        "string_508",
        "string_509",
        "string_510",
        "string_511",
        "string_512",
        "string_513",
        "string_514",
        "string_515",
        "string_516"
      ]
    },
    {
      "id_qa": "FMSH_PB188a_00004_133_qa24_v3",
      "id_block": "block_11",
      "question": "Que mettraient les spécialistes bourgeois ?",
      "answer": "à notre disposition",
      "answer_stringIds": [
        "string_511",
        "string_512",
        "string_513"
      ]
    },
    {
      "id_qa": "FMSH_PB188a_00004_133_qa8_v3",
      "id_block": "block_2",
      "question": "Quelle est la caractéristique du régime capitaliste ?",
      "answer": "la démocratie",
      "answer_stringIds": [
        "string_90",
        "string_91"
      ]
    },
    {
      "id_qa": "FMSH_PB188a_00004_133_qa33_v3",
      "id_block": "block_2",
      "question": "Qui sont corrompus par l'ambiance capitaliste ?",
      "answer": "les fonctionnaires",
      "answer_stringIds": [
        "string_127",
        "string_128"
      ]
    },
    {
      "id_qa": "FMSH_PB188a_00004_133_qa26_v3",
      "id_block": "block_3",
      "question": "Qui n'a pas été exproprié ?",
      "answer": "les capitalistes",
      "answer_stringIds": [
        "string_170",
        "string_171"
      ]
    },
    {
      "id_qa": "FMSH_PB188a_00004_133_qa19_v3",
      "id_block": "block_5",
      "question": "Quand a été écrit \"Les tâches immédiates du pouvoir des soviets\" ?",
      "answer": "en marsavril 1918",
      "answer_stringIds": [
        "string_208",
        "string_209",
        "string_210",
        "string_211"
      ]
    },
    {
      "id_qa": "FMSH_PB188a_00004_133_qa20_v3",
      "id_block": "block_5",
      "question": "Qu'écrit T. 27, pp. 243-287 ?",
      "answer": "« Les tâches immédiates du pouvoir des soviets",
      "answer_stringIds": [
        "string_198",
        "string_199",
        "string_200",
        "string_201",
        "string_202",
        "string_203",
        "string_204",
        "string_205"
      ]
    },
    {
      "id_qa": "FMSH_PB188a_00004_133_qa2_v3",
      "id_block": "block_7",
      "question": "Qu'est-ce que la lutte contre la bourgeoisie ?",
      "answer": "à une tâche beaucoup plus complexe et plus ardue : créer des conditions dans lesquelles la bourgeoisie ne puisse ni exister",
      "answer_stringIds": [
        "string_278",
        "string_279",
        "string_280",
        "string_281",
        "string_282",
        "string_283",
        "string_284",
        "string_285",
        "string_286",
        "string_287",
        "string_288",
        "string_289",
        "string_290",
        "string_291",
        "string_292",
        "string_293",
        "string_294",
        "string_295",
        "string_296",
        "string_297",
        "string_298",
        "string_299",
        "string_300"
      ]
    },
    {
      "id_qa": "FMSH_PB188a_00004_133_qa36_v3",
      "id_block": "block_8",
      "question": "Qu'est-ce qui permet de contrôler les produits ?",
      "answer": "le recensement et le contrôle",
      "answer_stringIds": [
        "string_334",
        "string_335",
        "string_336",
        "string_337",
        "string_338"
      ]
    },
    {
      "id_qa": "FMSH_PB188a_00004_133_qa28_v3",
      "id_block": "block_9",
      "question": "Quand faut-il arrêter l'offensive ?",
      "answer": "aujourd'hui",
      "answer_stringIds": [
        "string_433",
        "string_434"
      ]
    }
  ]
}