{
  "num": "autog_0005-0970_1967_num_4_1",
  "article": "autog_0005-0970_1967_num_4_1_912",
  "page_name": "FMSH_PB188a_00004_146",
  "questions": [
    {
      "id_qa": "FMSH_PB188a_00004_146_qa7_v3",
      "id_block": "block_2",
      "question": "Quel est le droit des syndicats ?",
      "answer": "Le droit de décider",
      "answer_stringIds": [
        "string_66",
        "string_67",
        "string_68",
        "string_69"
      ]
    },
    {
      "id_qa": "FMSH_PB188a_00004_146_qa9_v3",
      "id_block": "block_2",
      "question": "Qui décide de la sélection des candidats ?",
      "answer": "Les syndicats",
      "answer_stringIds": [
        "string_36",
        "string_37"
      ]
    },
    {
      "id_qa": "FMSH_PB188a_00004_146_qa10_v3",
      "id_block": "block_2",
      "question": "A quels organismes les syndicats prennent-ils part ?",
      "answer": "tous les organismes économiques et administrations",
      "answer_stringIds": [
        "string_44",
        "string_45",
        "string_46",
        "string_47",
        "string_48",
        "string_49",
        "string_50"
      ]
    },
    {
      "id_qa": "FMSH_PB188a_00004_146_qa24_v3",
      "id_block": "block_3",
      "question": "Qui est capable de s'acquitter de cette tâche ?",
      "answer": "tous les ouvriers et paysans",
      "answer_stringIds": [
        "string_131",
        "string_132",
        "string_133",
        "string_134",
        "string_135"
      ]
    },
    {
      "id_qa": "FMSH_PB188a_00004_146_qa26_v3",
      "id_block": "block_3",
      "question": "Qu'est ce qui est important pour les syndicats ?",
      "answer": "des administrateurs",
      "answer_stringIds": [
        "string_114",
        "string_115"
      ]
    },
    {
      "id_qa": "FMSH_PB188a_00004_146_qa27_v3",
      "id_block": "block_3",
      "question": "Quelles sont les tâches les plus importantes des syndicats ?",
      "answer": "promouvoir et à former des administrateurs parmi les ouvriers et en général parmi les masses laborieuses",
      "answer_stringIds": [
        "string_110",
        "string_111",
        "string_112",
        "string_113",
        "string_114",
        "string_115",
        "string_116",
        "string_117",
        "string_118",
        "string_119",
        "string_120",
        "string_121",
        "string_122",
        "string_123",
        "string_124",
        "string_125"
      ]
    },
    {
      "id_qa": "FMSH_PB188a_00004_146_qa11_v3",
      "id_block": "block_4",
      "question": "Qui initie les ouvriers et les paysans à l'oeuvre de construction de l'économie nationale ?",
      "answer": "les syndicats",
      "answer_stringIds": [
        "string_161",
        "string_162"
      ]
    },
    {
      "id_qa": "FMSH_PB188a_00004_146_qa21_v3",
      "id_block": "block_4",
      "question": "A quoi les syndicats prennent-ils part ?",
      "answer": "la régiementation de la production capitaliste privée",
      "answer_stringIds": [
        "string_249",
        "string_250",
        "string_251",
        "string_252",
        "string_253",
        "string_254",
        "string_255"
      ]
    },
    {
      "id_qa": "FMSH_PB188a_00004_146_qa23_v3",
      "id_block": "block_4",
      "question": "Quelle fonction les syndicats exercent-ils dans les entreprises privées ?",
      "answer": "aucune fonction de contrôle sur la production",
      "answer_stringIds": [
        "string_229",
        "string_230",
        "string_231",
        "string_232",
        "string_233",
        "string_234",
        "string_235"
      ]
    },
    {
      "id_qa": "FMSH_PB188a_00004_146_qa1_v3",
      "id_block": "block_6",
      "question": "Qui doit apprendre à gérer l'économie nationale ?",
      "answer": "tous les travailleurs",
      "answer_stringIds": [
        "string_513",
        "string_514",
        "string_515",
        "string_516"
      ]
    },
    {
      "id_qa": "FMSH_PB188a_00004_146_qa3_v3",
      "id_block": "block_6",
      "question": "Quel est le métier des travailleurs ?",
      "answer": "ouvriers et",
      "answer_stringIds": [
        "string_118",
        "string_119"
      ]
    },
    {
      "id_qa": "FMSH_PB188a_00004_146_qa33_v3",
      "id_block": "block_6",
      "question": "Par qui doit être élaborée cette liste des principales fonctions des syndicats ?",
      "answer": "les organismes compétents des syndicats et du pouvoir des Soviets",
      "answer_stringIds": [
        "string_423",
        "string_424",
        "string_425",
        "string_426",
        "string_427",
        "string_428",
        "string_429",
        "string_430",
        "string_431",
        "string_432"
      ]
    },
    {
      "id_qa": "FMSH_PB188a_00004_146_qa34_v3",
      "id_block": "block_6",
      "question": "Qui est responsable de la liste des principales fonctions des syndicats dans la construction de l'économie socialiste ?",
      "answer": "les organismes compétents des syndicats et du pouvoir des Soviets",
      "answer_stringIds": [
        "string_423",
        "string_424",
        "string_425",
        "string_426",
        "string_427",
        "string_428",
        "string_429",
        "string_430",
        "string_431",
        "string_432"
      ]
    }
  ]
}