{
  "num": "autog_0249-2563_1982_num_15_8",
  "article": "autog_0249-2563_1982_num_15_8_1472",
  "page_name": "autog_0249-2563_1982_num_15_8_T1_0063_0000",
  "questions": [
    {
      "id_qa": "autog_0249-2563_1982_num_15_8_T1_0063_0000_qa0_v3",
      "id_block": "block_4",
      "question": "Qu'est ce qui tente de pénétrer certains domaines ?",
      "answer": "les politiques",
      "answer_stringIds": [
        "string_44",
        "string_45"
      ]
    },
    {
      "id_qa": "autog_0249-2563_1982_num_15_8_T1_0063_0000_qa1_v3",
      "id_block": "block_4",
      "question": "Dans quels domaines les politiques tentent-elles de pénétrer ?",
      "answer": "certains",
      "answer_stringIds": [
        "string_50"
      ]
    },
    {
      "id_qa": "autog_0249-2563_1982_num_15_8_T1_0063_0000_qa2_v3",
      "id_block": "block_4",
      "question": "Qu'est-ce qui tente de pénétrer certains domaines ?",
      "answer": "les politiques",
      "answer_stringIds": [
        "string_44",
        "string_45"
      ]
    },
    {
      "id_qa": "autog_0249-2563_1982_num_15_8_T1_0063_0000_qa6_v3",
      "id_block": "block_5",
      "question": "Dans quelle société les activités autonomes sont-elles développées ?",
      "answer": "dans les sociétés industrialisées",
      "answer_stringIds": [
        "string_80",
        "string_81",
        "string_82",
        "string_83"
      ]
    },
    {
      "id_qa": "autog_0249-2563_1982_num_15_8_T1_0063_0000_qa8_v3",
      "id_block": "block_6",
      "question": "Sur quoi pèse l'économie plus autogestionnaire ?",
      "answer": "les structures",
      "answer_stringIds": [
        "string_132",
        "string_133"
      ]
    },
    {
      "id_qa": "autog_0249-2563_1982_num_15_8_T1_0063_0000_qa9_v3",
      "id_block": "block_6",
      "question": "Qu'est ce qui constitue la base du développement d'une économie plus autogestionnaire ?",
      "answer": "les activités",
      "answer_stringIds": [
        "string_101",
        "string_102"
      ]
    },
    {
      "id_qa": "autog_0249-2563_1982_num_15_8_T1_0063_0000_qa10_v3",
      "id_block": "block_6",
      "question": "Par quoi sont dominées les structures d'une économie plus autogestionnaire ?",
      "answer": "les forces du marché et de",
      "answer_stringIds": [
        "string_136",
        "string_137",
        "string_138",
        "string_139",
        "string_140",
        "string_141"
      ]
    },
    {
      "id_qa": "autog_0249-2563_1982_num_15_8_T1_0063_0000_qa13_v3",
      "id_block": "block_7",
      "question": "Quand a eu lieu les débats sur l'Autogestion ?",
      "answer": "le 30 mai 1980",
      "answer_stringIds": [
        "string_156",
        "string_157",
        "string_158",
        "string_159"
      ]
    }
  ]
}