{
  "num": "autog_0338-7259_1974_num_28_1",
  "article": "autog_0338-7259_1974_num_28_1_1194",
  "page_name": "FMSH_PB188a_28-29_116",
  "questions": [
    {
      "id_qa": "FMSH_PB188a_28-29_116_qa0_v3",
      "id_block": "block_1",
      "question": "Qui a écrit le Manifeste communiste ?",
      "answer": "Marx et Engels",
      "answer_stringIds": [
        "string_50",
        "string_51",
        "string_52"
      ]
    },
    {
      "id_qa": "FMSH_PB188a_28-29_116_qa3_v3",
      "id_block": "block_1",
      "question": "Qu'est ce qui a démontré que la classe ouvrière ne peut pas simplement prendre possession de la machine d'Etat telle quelle et l'utiliser pour ses propres fins ?",
      "answer": "La Commune",
      "answer_stringIds": [
        "string_93",
        "string_94"
      ]
    },
    {
      "id_qa": "FMSH_PB188a_28-29_116_qa4_v3",
      "id_block": "block_1",
      "question": "Qui est capable de prendre possession de la machine d'Etat telle quelle et l'utiliser pour ses propres fins ?",
      "answer": "la classe ouvrière",
      "answer_stringIds": [
        "string_101",
        "string_102",
        "string_103"
      ]
    },
    {
      "id_qa": "FMSH_PB188a_28-29_116_qa5_v3",
      "id_block": "block_1",
      "question": "A qui Marx et Engels donnent-ils pour tâche ?",
      "answer": "au prolétariat",
      "answer_stringIds": [
        "string_62",
        "string_63"
      ]
    },
    {
      "id_qa": "FMSH_PB188a_28-29_116_qa6_v3",
      "id_block": "block_1",
      "question": "A quoi Marx et Engels s'accordent-ils dans le Manifeste communiste ?",
      "answer": "pour tâche",
      "answer_stringIds": [
        "string_60",
        "string_61"
      ]
    },
    {
      "id_qa": "FMSH_PB188a_28-29_116_qa7_v3",
      "id_block": "block_1",
      "question": "Dans quel ouvrage Marx et Engels ont-ils écrit leur programme ?",
      "answer": "dans le Manifeste communiste",
      "answer_stringIds": [
        "string_53",
        "string_54",
        "string_55",
        "string_56",
        "string_57"
      ]
    },
    {
      "id_qa": "FMSH_PB188a_28-29_116_qa14_v3",
      "id_block": "block_1",
      "question": "Dans quel ouvrage Marx et Engels ont-ils écrit leur programme de 1848 ?",
      "answer": "dans le Manifeste communiste",
      "answer_stringIds": [
        "string_53",
        "string_54",
        "string_55",
        "string_56",
        "string_57"
      ]
    },
    {
      "id_qa": "FMSH_PB188a_28-29_116_qa16_v3",
      "id_block": "block_1",
      "question": "Qui a assigné à la révolution prolétarienne la tâche de \"briser\" Ja machine d'Etat ?",
      "answer": "Marx",
      "answer_stringIds": [
        "string_50"
      ]
    },
    {
      "id_qa": "FMSH_PB188a_28-29_116_qa18_v3",
      "id_block": "block_1",
      "question": "Qui a assigné à la révolution prolétarienne la tâche de «briser» Ja machine d'Etat ?",
      "answer": "Marx",
      "answer_stringIds": [
        "string_50"
      ]
    },
    {
      "id_qa": "FMSH_PB188a_28-29_116_qa19_v3",
      "id_block": "block_1",
      "question": "A quoi Lénine a-t-il assigné la tâche de \"briser\" Ja machine d'Etat ?",
      "answer": "à la révolution prolétarienne",
      "answer_stringIds": [
        "string_236",
        "string_237",
        "string_238",
        "string_239"
      ]
    },
    {
      "id_qa": "FMSH_PB188a_28-29_116_qa20_v3",
      "id_block": "block_1",
      "question": "Qui affirme que dès 1852 Marx a assigné à la révolution prolétarienne la tâche de «briser» Ja machine d'Etat ?",
      "answer": "Lénine",
      "answer_stringIds": [
        "string_168"
      ]
    },
    {
      "id_qa": "FMSH_PB188a_28-29_116_qa21_v3",
      "id_block": "block_1",
      "question": "Quand Lénine a-t-il assigné à la révolution prolétarienne la tâche de \"briser\" Ja machine d'Etat ?",
      "answer": "dès 1852",
      "answer_stringIds": [
        "string_231",
        "string_232"
      ]
    },
    {
      "id_qa": "FMSH_PB188a_28-29_116_qa22_v3",
      "id_block": "block_1",
      "question": "Qui conclut que l'Etat n'est ni libre, ni populaire ?",
      "answer": "Lénine",
      "answer_stringIds": [
        "string_168"
      ]
    },
    {
      "id_qa": "FMSH_PB188a_28-29_116_qa25_v3",
      "id_block": "block_1",
      "question": "Qui peut mater les exploiteurs ?",
      "answer": "le peuple",
      "answer_stringIds": [
        "string_264",
        "string_265"
      ]
    },
    {
      "id_qa": "FMSH_PB188a_28-29_116_qa28_v3",
      "id_block": "block_1",
      "question": "Quand l'Etat doit-il commencer à dépérir ?",
      "answer": "Après la prise de pouvoir",
      "answer_stringIds": [
        "string_249",
        "string_250",
        "string_251",
        "string_252",
        "string_253"
      ]
    },
    {
      "id_qa": "FMSH_PB188a_28-29_116_qa33_v3",
      "id_block": "block_1",
      "question": "Qui a écrit Sfatlichkeit und Anarchie ?",
      "answer": "Marx",
      "answer_stringIds": [
        "string_50"
      ]
    },
    {
      "id_qa": "FMSH_PB188a_28-29_116_qa34_v3",
      "id_block": "block_1",
      "question": "Par quoi faut-il remplacer l'Etat capitaliste ?",
      "answer": "par un « Etat démocratique",
      "answer_stringIds": [
        "string_20",
        "string_21",
        "string_22",
        "string_23",
        "string_24",
        "string_25"
      ]
    },
    {
      "id_qa": "FMSH_PB188a_28-29_116_qa37_v3",
      "id_block": "block_1",
      "question": "Qu'est-ce que l'Etat ?",
      "answer": "une société de classe",
      "answer_stringIds": [
        "string_201",
        "string_202",
        "string_203",
        "string_204"
      ]
    },
    {
      "id_qa": "FMSH_PB188a_28-29_116_qa30_v3",
      "id_block": "block_5",
      "question": "Qui a écrit les Pages de Karl Marx ?",
      "answer": "par Rubel",
      "answer_stringIds": [
        "string_315",
        "string_316"
      ]
    },
    {
      "id_qa": "FMSH_PB188a_28-29_116_qa31_v3",
      "id_block": "block_6",
      "question": "Qu'est ce qui est souligné par Lénine ?",
      "answer": "les mots en italique",
      "answer_stringIds": [
        "string_332",
        "string_333",
        "string_334",
        "string_335"
      ]
    },
    {
      "id_qa": "FMSH_PB188a_28-29_116_qa32_v3",
      "id_block": "block_6",
      "question": "Qui a écrit les mots en italique ?",
      "answer": "par Lénine",
      "answer_stringIds": [
        "string_338",
        "string_339"
      ]
    }
  ]
}