{
  "num": "autog_0338-7259_1974_num_28_1",
  "article": "autog_0338-7259_1974_num_28_1_1194",
  "page_name": "FMSH_PB188a_28-29_107",
  "questions": [
    {
      "id_qa": "FMSH_PB188a_28-29_107_qa1_v3",
      "id_block": "block_1",
      "question": "Sur quel principe les structures du Parti sont elles fondées ?",
      "answer": "sur le principe du centralisme « démocratique » de Lénine",
      "answer_stringIds": [
        "string_96",
        "string_97",
        "string_98",
        "string_99",
        "string_100",
        "string_101",
        "string_102",
        "string_103",
        "string_104",
        "string_105"
      ]
    },
    {
      "id_qa": "FMSH_PB188a_28-29_107_qa2_v3",
      "id_block": "block_1",
      "question": "A quoi tient l'équation entre socialisme et démocratie ?",
      "answer": "au passé révolu",
      "answer_stringIds": [
        "string_168",
        "string_169",
        "string_170"
      ]
    },
    {
      "id_qa": "FMSH_PB188a_28-29_107_qa17_v3",
      "id_block": "block_1",
      "question": "Sur quoi repose le despotisme centralisé ?",
      "answer": "sur les fautes d'",
      "answer_stringIds": [
        "string_15",
        "string_16",
        "string_17",
        "string_18"
      ]
    },
    {
      "id_qa": "FMSH_PB188a_28-29_107_qa8_v3",
      "id_block": "block_2",
      "question": "Où est-ce que l'intervention de travailleurs est explicitement mentionnée ?",
      "answer": "dans les",
      "answer_stringIds": [
        "string_273",
        "string_274"
      ]
    },
    {
      "id_qa": "FMSH_PB188a_28-29_107_qa9_v3",
      "id_block": "block_2",
      "question": "Qu'est-ce que l'intervention de travailleurs ?",
      "answer": "cette « intervention de travailleurs",
      "answer_stringIds": [
        "string_263",
        "string_264",
        "string_265",
        "string_266",
        "string_267"
      ]
    },
    {
      "id_qa": "FMSH_PB188a_28-29_107_qa18_v3",
      "id_block": "block_4",
      "question": "Qu'est ce qui n'a rien c \" marxiste\" ?",
      "answer": "des dirigeants",
      "answer_stringIds": [
        "string_359",
        "string_360"
      ]
    }
  ]
}