{
  "num": "autog_0338-7259_1970_num_11_1",
  "article": "autog_0338-7259_1970_num_11_1_959",
  "page_name": "FMSH_PB188a_11-12_022",
  "questions": [
    {
      "id_qa": "FMSH_PB188a_11-12_022_qa20_v3",
      "id_block": "block_3",
      "question": "Qu'autorise l'Union Soviétique à construire ?",
      "answer": "bâtir la première hypothèse centrale provisoire",
      "answer_stringIds": [
        "string_32",
        "string_33",
        "string_34",
        "string_35",
        "string_36",
        "string_37"
      ]
    },
    {
      "id_qa": "FMSH_PB188a_11-12_022_qa12_v3",
      "id_block": "block_4",
      "question": "Quelle est la nationalité de l'Union Soviétique ?",
      "answer": "occuper la Tchécoslovaquie",
      "answer_stringIds": [
        "string_105",
        "string_106",
        "string_107"
      ]
    },
    {
      "id_qa": "FMSH_PB188a_11-12_022_qa13_v3",
      "id_block": "block_4",
      "question": "A qui l'Union Soviétique a-t-elle laissé les mains libres ?",
      "answer": "les Etats-Unis",
      "answer_stringIds": [
        "string_120",
        "string_121"
      ]
    },
    {
      "id_qa": "FMSH_PB188a_11-12_022_qa16_v3",
      "id_block": "block_4",
      "question": "Qu'est-ce que les Etats-Unis ont laissé préalablement à l'Union Soviétique ?",
      "answer": "les « mains libres",
      "answer_stringIds": [
        "string_126",
        "string_127",
        "string_128",
        "string_129"
      ]
    },
    {
      "id_qa": "FMSH_PB188a_11-12_022_qa5_v3",
      "id_block": "block_5",
      "question": "Qui a accepté le nouveau modèle économique tchécoslovaque ?",
      "answer": "les Etats-Unis",
      "answer_stringIds": [
        "string_120",
        "string_121"
      ]
    },
    {
      "id_qa": "FMSH_PB188a_11-12_022_qa9_v3",
      "id_block": "block_6",
      "question": "Quel est le danger pour le parti communiste soviétique ?",
      "answer": "sa valeur réelle",
      "answer_stringIds": [
        "string_188",
        "string_189",
        "string_190"
      ]
    }
  ]
}