{
  "num": "autog_0338-7259_1970_num_11_1",
  "article": "autog_0338-7259_1970_num_11_1_959",
  "page_name": "FMSH_PB188a_11-12_007",
  "questions": [
    {
      "id_qa": "FMSH_PB188a_11-12_007_qa22_v3",
      "id_block": "block_10",
      "question": "Quelle était la part de l'industrie dans le revenu national en 1965 ?",
      "answer": "à 64,8 %",
      "answer_stringIds": [
        "string_270",
        "string_271",
        "string_272"
      ]
    },
    {
      "id_qa": "FMSH_PB188a_11-12_007_qa16_v3",
      "id_block": "block_3",
      "question": "Sur quoi repose le potentiel économique ?",
      "answer": "une base socialiste",
      "answer_stringIds": [
        "string_62",
        "string_63",
        "string_64"
      ]
    },
    {
      "id_qa": "FMSH_PB188a_11-12_007_qa17_v3",
      "id_block": "block_3",
      "question": "Qu'est ce qui est très développé ?",
      "answer": "un potentiel économique",
      "answer_stringIds": [
        "string_52",
        "string_53",
        "string_54"
      ]
    },
    {
      "id_qa": "FMSH_PB188a_11-12_007_qa9_v3",
      "id_block": "block_4",
      "question": "Qu'est-ce qui représente une valeur sociale ?",
      "answer": "la démocratie",
      "answer_stringIds": [
        "string_71",
        "string_72"
      ]
    },
    {
      "id_qa": "FMSH_PB188a_11-12_007_qa10_v3",
      "id_block": "block_4",
      "question": "Qu'est-ce que la démocratie ?",
      "answer": "une valeur sociale « système bureaucratiquecentraliste de gestion économique et sociale",
      "answer_stringIds": [
        "string_79",
        "string_80",
        "string_81",
        "string_82",
        "string_83",
        "string_84",
        "string_85",
        "string_86",
        "string_87",
        "string_88",
        "string_89",
        "string_90"
      ]
    },
    {
      "id_qa": "FMSH_PB188a_11-12_007_qa13_v3",
      "id_block": "block_5",
      "question": "Quel est le niveau de développement des pays économiquement avancés ?",
      "answer": "après sa restructuration politique et économique",
      "answer_stringIds": [
        "string_125",
        "string_126",
        "string_127",
        "string_128",
        "string_129",
        "string_130",
        "string_131"
      ]
    },
    {
      "id_qa": "FMSH_PB188a_11-12_007_qa15_v3",
      "id_block": "block_6",
      "question": "Qui témoigne d'un haut niveau d'éducation et de qualification ?",
      "answer": "les travailleurs",
      "answer_stringIds": [
        "string_144",
        "string_145"
      ]
    },
    {
      "id_qa": "FMSH_PB188a_11-12_007_qa7_v3",
      "id_block": "block_7",
      "question": "Qu'est ce qui est facile de rendre factice ?",
      "answer": "une participation limitée",
      "answer_stringIds": [
        "string_166",
        "string_167",
        "string_168",
        "string_169"
      ]
    },
    {
      "id_qa": "FMSH_PB188a_11-12_007_qa23_v3",
      "id_block": "block_9",
      "question": "Que suppose l'établissement des conseils de travailleurs sur le plan strictement économique ?",
      "answer": "une décentralisation",
      "answer_stringIds": [
        "string_251",
        "string_252"
      ]
    }
  ]
}