{
  "num": "autog_0338-7259_1970_num_11_1",
  "article": "autog_0338-7259_1970_num_11_1_959",
  "page_name": "FMSH_PB188a_11-12_012",
  "questions": [
    {
      "id_qa": "FMSH_PB188a_11-12_012_qa5_v3",
      "id_block": "block_1",
      "question": "Qu'est-ce que le conseil devait régler en priorité dans certaines entreprises traditionnelles ?",
      "answer": "les questions de salaires",
      "answer_stringIds": [
        "string_44",
        "string_45",
        "string_46",
        "string_47"
      ]
    },
    {
      "id_qa": "FMSH_PB188a_11-12_012_qa6_v3",
      "id_block": "block_1",
      "question": "Qui pense que le conseil devait régler en priorité les questions salariales ?",
      "answer": "les ouvriers",
      "answer_stringIds": [
        "string_34",
        "string_35"
      ]
    },
    {
      "id_qa": "FMSH_PB188a_11-12_012_qa7_v3",
      "id_block": "block_1",
      "question": "Qu'est ce qui devait régler en priorité les questions de salaires ?",
      "answer": "le conseil",
      "answer_stringIds": [
        "string_38",
        "string_39"
      ]
    },
    {
      "id_qa": "FMSH_PB188a_11-12_012_qa9_v3",
      "id_block": "block_1",
      "question": "Qu'est-ce que le conseil devait régler dans certaines entreprises traditionnelles ?",
      "answer": "régler en priorité les questions de salaires",
      "answer_stringIds": [
        "string_41",
        "string_42",
        "string_43",
        "string_44",
        "string_45",
        "string_46",
        "string_47"
      ]
    },
    {
      "id_qa": "FMSH_PB188a_11-12_012_qa10_v3",
      "id_block": "block_1",
      "question": "Qu'est ce que les ouvriers considéraient en priorité dans certaines entreprises traditionnelles ?",
      "answer": "le conseil",
      "answer_stringIds": [
        "string_38",
        "string_39"
      ]
    },
    {
      "id_qa": "FMSH_PB188a_11-12_012_qa11_v3",
      "id_block": "block_1",
      "question": "Qui a étudié l'entreprise de constructions mécaniques ?",
      "answer": "par O. Sediäéek",
      "answer_stringIds": [
        "string_31",
        "string_32",
        "string_33"
      ]
    },
    {
      "id_qa": "FMSH_PB188a_11-12_012_qa2_v3",
      "id_block": "block_10",
      "question": "Qui s'occupe de la défense des travailleurs en tant que salariés ?",
      "answer": "les syndicats",
      "answer_stringIds": [
        "string_161",
        "string_162"
      ]
    },
    {
      "id_qa": "FMSH_PB188a_11-12_012_qa4_v3",
      "id_block": "block_10",
      "question": "Quel était le but des syndicats en tant que salariés ?",
      "answer": "la défense des travailleurs",
      "answer_stringIds": [
        "string_169",
        "string_170",
        "string_171",
        "string_172"
      ]
    },
    {
      "id_qa": "FMSH_PB188a_11-12_012_qa13_v3",
      "id_block": "block_11",
      "question": "Qu'est-ce qui a permis d'établir qu'un certain nombre de choses étaient fausses ?",
      "answer": "Un sondage",
      "answer_stringIds": [
        "string_221",
        "string_222"
      ]
    },
    {
      "id_qa": "FMSH_PB188a_11-12_012_qa1_v3",
      "id_block": "block_13",
      "question": "Qui dirige l'Institut de Sondage d'Opinion Publique de l'Académie des Sciences ?",
      "answer": "par D. Slejska",
      "answer_stringIds": [
        "string_273",
        "string_274",
        "string_275"
      ]
    },
    {
      "id_qa": "FMSH_PB188a_11-12_012_qa15_v3",
      "id_block": "block_4",
      "question": "Sur quoi portent les revendications des cadres dirigeants ?",
      "answer": "les salaires",
      "answer_stringIds": [
        "string_61",
        "string_62"
      ]
    }
  ]
}