{
  "num": "autog_0338-7259_1970_num_11_1",
  "article": "autog_0338-7259_1970_num_11_1_959",
  "page_name": "FMSH_PB188a_11-12_020",
  "questions": [
    {
      "id_qa": "FMSH_PB188a_11-12_020_qa6_v3",
      "id_block": "block_10",
      "question": "Quel pays conserve son caractère actuel ?",
      "answer": "Varsovie",
      "answer_stringIds": [
        "string_140"
      ]
    },
    {
      "id_qa": "FMSH_PB188a_11-12_020_qa7_v3",
      "id_block": "block_13",
      "question": "Quelle est la position de chaque Etat membre ?",
      "answer": "en dehors des",
      "answer_stringIds": [
        "string_176",
        "string_177",
        "string_178"
      ]
    },
    {
      "id_qa": "FMSH_PB188a_11-12_020_qa13_v3",
      "id_block": "block_7",
      "question": "Quelle est la proportion de personnes qui ne savent pas lire ?",
      "answer": "3,7 %",
      "answer_stringIds": [
        "string_109",
        "string_110"
      ]
    },
    {
      "id_qa": "FMSH_PB188a_11-12_020_qa1_v3",
      "id_block": "block_8",
      "question": "Qui a la possibilité d'opter pour la politique étrangère ?",
      "answer": "nos peuples",
      "answer_stringIds": [
        "string_115",
        "string_116"
      ]
    },
    {
      "id_qa": "FMSH_PB188a_11-12_020_qa3_v3",
      "id_block": "block_8",
      "question": "Qui décide de la politique étrangère ?",
      "answer": "nos peuples",
      "answer_stringIds": [
        "string_115",
        "string_116"
      ]
    }
  ]
}