{
  "num": "autog_0338-7259_1976_num_33_1",
  "article": "autog_0338-7259_1976_num_33_1_1158",
  "page_name": "FMSH_PB188a_33-34_090",
  "questions": [
    {
      "id_qa": "FMSH_PB188a_33-34_090_qa0_v3",
      "id_block": "block_1",
      "question": "Qui a réalisé les courtes monographies d'entreprises en coopérative ?",
      "answer": "par Maria Dumage et Jean-Pierre Haget",
      "answer_stringIds": [
        "string_18",
        "string_19",
        "string_20",
        "string_21",
        "string_22",
        "string_23"
      ]
    },
    {
      "id_qa": "FMSH_PB188a_33-34_090_qa7_v3",
      "id_block": "block_4",
      "question": "De quoi est composé le revenu des petits propriétaires ?",
      "answer": "du produit de leurs terres",
      "answer_stringIds": [
        "string_87",
        "string_88",
        "string_89",
        "string_90",
        "string_91"
      ]
    },
    {
      "id_qa": "FMSH_PB188a_33-34_090_qa21_v3",
      "id_block": "block_4",
      "question": "Où se situe cette coopérative ?",
      "answer": "à 120 km au nord de Lisbonne près de Novas Terres",
      "answer_stringIds": [
        "string_47",
        "string_48",
        "string_49",
        "string_50",
        "string_51",
        "string_52",
        "string_53",
        "string_54",
        "string_55",
        "string_56",
        "string_57"
      ]
    },
    {
      "id_qa": "FMSH_PB188a_33-34_090_qa22_v3",
      "id_block": "block_4",
      "question": "Combien d'habitants travaillent aux chemins de fer ?",
      "answer": "100",
      "answer_stringIds": [
        "string_110"
      ]
    },
    {
      "id_qa": "FMSH_PB188a_33-34_090_qa23_v3",
      "id_block": "block_4",
      "question": "Dans quel secteur travaille 100 habitants ?",
      "answer": "aux chemins de fer",
      "answer_stringIds": [
        "string_112",
        "string_113",
        "string_114",
        "string_115"
      ]
    },
    {
      "id_qa": "FMSH_PB188a_33-34_090_qa28_v3",
      "id_block": "block_4",
      "question": "Où est-ce que l'industrie textile est prédominante ?",
      "answer": "dans le nord du pays",
      "answer_stringIds": [
        "string_137",
        "string_138",
        "string_139",
        "string_140",
        "string_141"
      ]
    },
    {
      "id_qa": "FMSH_PB188a_33-34_090_qa35_v3",
      "id_block": "block_4",
      "question": "Combien d'habitants travaillent aux chemins ?",
      "answer": "De nombreux habitants",
      "answer_stringIds": [
        "string_92",
        "string_93",
        "string_94"
      ]
    },
    {
      "id_qa": "FMSH_PB188a_33-34_090_qa13_v3",
      "id_block": "block_5",
      "question": "Qu'est ce qui est occupé par la coopérative communale d'Argeas ?",
      "answer": "quelques maisons",
      "answer_stringIds": [
        "string_271",
        "string_272"
      ]
    },
    {
      "id_qa": "FMSH_PB188a_33-34_090_qa24_v3",
      "id_block": "block_5",
      "question": "Qui a pris l'initiative de créer cette coopérative ?",
      "answer": "par 2 camarades",
      "answer_stringIds": [
        "string_168",
        "string_169",
        "string_170",
        "string_171"
      ]
    },
    {
      "id_qa": "FMSH_PB188a_33-34_090_qa25_v3",
      "id_block": "block_5",
      "question": "Quelle est l'initiative prise par 2 camarades à leur sortie de prison ?",
      "answer": "cette coopérative",
      "answer_stringIds": [
        "string_163",
        "string_164"
      ]
    },
    {
      "id_qa": "FMSH_PB188a_33-34_090_qa30_v3",
      "id_block": "block_5",
      "question": "Comment s'appelle la coopérative dans le sud ?",
      "answer": "cette coopérative",
      "answer_stringIds": [
        "string_163",
        "string_164"
      ]
    },
    {
      "id_qa": "FMSH_PB188a_33-34_090_qa31_v3",
      "id_block": "block_5",
      "question": "Où s'est produite la coopérative ?",
      "answer": "dans le sud",
      "answer_stringIds": [
        "string_207",
        "string_208",
        "string_209"
      ]
    }
  ]
}