{
  "num": "autog_0249-2563_1982_num_15_11",
  "article": "autog_0249-2563_1982_num_15_11_1513",
  "page_name": "autog_0249-2563_1982_num_15_11_T1_0037_0000",
  "questions": [
    "Quels intérêts présente-t-on envers les solutions sociales selon l'auteur ?",
    "Quand ont été construits les trois pavillons rectangulaires autour de la grande cour vitrée ?",
    "Quel a été le premier pavillon réalisé et quand ?",
    "Quand a été édifié le pavillon central ?",
    "Quand a été construite l'aile droite ?",
    "Quel a été le résultat de l'augmentation de la population familistérienne ?",
    "Quel a été la clé de voûte de l'œuvre de Godin ?",
    "Pourquoi ont les réalisations de Godin été une réussite durant plus d'un siècle ?",
    "Quels détails de la vie du Palais Social et de sa reconversion par les marchands de biens posent des problèmes similaires aux groupes d'habitat autogérés actuels ?",
    "Comment se comportaient les anciens habitants du Palais Social en matière d'accueil et d'ouverture de leurs portes ?",
    "Comment les habitants modifiaient-ils leurs logements ?",
    "Comment les lois actuelles sur la copropriété influent-elles sur la mobilité des logements ?",
    "Comment les habitants vivaient-ils avant 1970 ?",
    "Comment les appartements sont-ils distribués aujourd'hui ?",
    "Comment les lois actuelles sur la copropriété contribuent-elles à résoudre les problèmes actuels liés à l'élongation et à l'inconscience du lien social ?"
  ]
}