{
  "num": "autog_0249-2563_1982_num_15_11",
  "article": "autog_0249-2563_1982_num_15_11_1513",
  "page_name": "autog_0249-2563_1982_num_15_11_T1_0012_0000",
  "questions": [
    "Quels événements historiques ont conduit aux réflexions sur les formulations communautaires au XIXe siècle ?",
    "Quels sont les principaux représentants des utopies communautaires du XIXe siècle en Écosse et en France ?",
    "Quel est le but de la création d'une commune autonome selon Proudhon ?",
    "Quels sont les objectifs défendus par Godin et les familistériens dans leur projet communautaire ?",
    "Quels sont les principes qui ont guidé la fondation de la commune de l'usine AMO à Moscou ?",
    "Comment les réalisations communautaires de la Révolution russe ont-elles évolué au fil du temps ?",
    "Quels liens y a-t-il entre les expériences communautaires du XIXe siècle et celles de la Révolution russe ?",
    "Quels sont les similitudes entre le Familistère de Guise et certains habitats communautaires comme l'Alma-Gare à Roubaix ?",
    "En quoi les réalisations communautaires de la Révolution russe sont-elles différentes des utopies communautaires du XIXe siècle ?"
  ]
}