{
  "num": "autog_0249-2563_1982_num_15_11",
  "article": "autog_0249-2563_1982_num_15_11_1513",
  "page_name": "autog_0249-2563_1982_num_15_11_T1_0036_0000",
  "questions": [
    "Quand et pourquoi commence-t-il la construction du Familistère après les échecs phalanstériens ?",
    "Quels aspects pratiques, inventivité et faculté particulière utilise-t-il pour déceler et convoquer les talents des compagnons des différents arts ?",
    "Comment caractérise-t-on le spiritualisme de Godin ?",
    "Quels courants rencontre-t-il en rencontrant le christianisme social ?",
    "Comment s'insurge-t-il au nom de l'hygiène et du principe moral d'association ?",
    "Qu'est le but de la construction du Palais Social ?",
    "Comment considère-t-il qu'il peut consacrer sa vie au bien-être de la classe ouvrière ?",
    "Quels idées cherche-t-il chez Fourier ?",
    "Comment caractérise-t-on le fouriérisme ?",
    "Comment sont difficiles à suivre les parcours de la théorie fouriérisme à la pratique ?",
    "Comment échappe-t-il à la pensée réductrice qui lit toute son œuvre en fonction du Familistère après sa mort ?",
    "Quel est le point d'équilibre atteint par le Familistère et comment se dessinent les limites historiques de sa formule ?"
  ]
}