{
  "num": "autog_0249-2563_1982_num_15_11",
  "article": "autog_0249-2563_1982_num_15_11_1513",
  "page_name": "autog_0249-2563_1982_num_15_11_T1_0025_0000",
  "questions": [
    "Quels types de relations sociales communautaires sont décrits dans le texte ?",
    "Comment la prédominance de l'une ou l'autre tendance influence les groupes ?",
    "Quels sont les objectifs poursuivis par Godin dans la réalisation du Familistère ?",
    "Qu'est-ce que Godin entend par « donner aux ouvriers les Equivalents de la Richesse » ?",
    "Comment le Familistère fonctionne-t-il comme « laboratoire social » ?",
    "Quel est le deuxième but poursuivi par Godin dans la réalisation du Familistère ?",
    "Comment les Castors décrivent-ils leur objectif dans la construction et la vie communautaire ?",
    "Quels sont les trois objectifs des Castors dans la construction et la vie communautaire ?",
    "Comment les Castors revendiquent-ils une autre politique de l'habitat ?",
    "Comment Godin est-il décrit dans le texte ?",
    "Comment les auteurs décrivent-ils les origines du Familistère de Guise ?",
    "Comment les Castors sont-ils décrits dans le texte ?"
  ]
}