{
  "num": "autog_0249-2563_1982_num_15_11",
  "article": "autog_0249-2563_1982_num_15_11_1513",
  "page_name": "autog_0249-2563_1982_num_15_11_T1_0010_0000",
  "questions": [
    "Quel est le rôle de A. Burguière dans l'étude des communautés taisibles ?",
    "Pourquoi les communautés taisibles apparaissent-elles dans l'histoire ?",
    "Quand apparaissent-elles historiquement ?",
    "Dans quelles provinces françaises on retrouve ces communautés au XIIe siècle ?",
    "Quel était l'objectif des Coutumes en matière de communautés taisibles ?",
    "Quand est rédigée l'Ordonnance de Moulins et quels sont ses dispositions concernant les communautés taisibles ?",
    "Comment les communautés taisibles sont-elles perçues au XVIIIe siècle ?",
    "Pourquoi les communautés taisibles survivent-elles malgré l'environnement politique ?"
  ]
}