{
  "num": "autog_0249-2563_1982_num_15_11",
  "article": "autog_0249-2563_1982_num_15_11_1513",
  "page_name": "autog_0249-2563_1982_num_15_11_T1_0020_0000",
  "questions": [
    "Quels habitants sont concernés par l'expression régulière dans les communes?",
    "Quels sont les communes existant dans la ville interdites par l'Édit de 1675 ?",
    "Quel droit particulier souligne l'auteur G. Coquille concernant le privé et le public ?",
    "Quels sont les autres aspects de la vie communautaire qui ont été l'objet de mesures restrictives ?",
    "Quels pouvoirs ont été accrus des intendants ?",
    "Comment décrit Tocqueville l'administration en France à son époque ?",
    "Quels types de corps indépendants a-t-il noté Tocqueville comme faisant peur au pouvoir central ?",
    "Quels types d'associations libres a-t-il noté Tocqueville comme étant laissées subsister ?",
    "Quels pouvoirs intermédiaires a-t-il noté Tocqueville comme étant détruits par le pouvoir central ?",
    "Quel projet de loi a été proposé en 1970 concernant la décentralisation ?"
  ]
}