{
  "num": "autog_0338-7259_1974_num_26_1",
  "article": "autog_0338-7259_1974_num_26_1_1105",
  "page_name": "FMSH_PB188a_26-27_011",
  "questions": [
    "Quels sont les personnes impliquées dans cette situation politique et historique ?",
    "Dans quelle situation se trouvent ces personnes ?",
    "Qu'est-ce qu'elles cherchent à prendre en main ?",
    "Comment expriment ces personnes leur volonté d'autonomie ?",
    "Quels types de soutien demandent-elles aux organisations syndicales ?",
    "Qu'est l'origine de la volonté de ne pas être manipulé par des appareils protecteurs ?",
    "Qu'est l'implication de l'autogestion des luttes sur leur contenu et leurs buts ?",
    "Quels buts affirment les Comités unitaires de base italiens ?",
    "Comment Pietro Bellasi explique ce tournant historique des revendications dans les pays industriels développés ?",
    "Qu'est la distinction de Max Weber que Pietro Bellasi utilise pour expliquer ce tournant historique ?",
    "Comment cette distinction intervient-elle dans l'explication de Pietro Bellasi ?",
    "Quel est le lien entre les revendications sur les buts de la lutte et la nécessaire transformation de la technologie de production ?"
  ]
}