{
  "num": "autog_0338-7259_1974_num_26_1",
  "article": "autog_0338-7259_1974_num_26_1_1105",
  "page_name": "FMSH_PB188a_26-27_008",
  "questions": [
    "Quand a-t-on pu observer des actions telles que celle de Lip, selon Yvon Bourdet ?",
    "Quels événements historiques sont-ils considérés comme caractéristiques d'un même « moment historique » par les historiens ?",
    "Quel rôle géographique jouent ces luttes dans la compréhension profonde ?",
    "Comment les mouvements d'action directe des dernières années sont-ils liés aux expériences des deux dernières guerres mondiales ?",
    "Quels phénomènes négatifs ont résulté de la résistance ouvrière à l'hétérogestion scientifique ?",
    "Quels changements dans l'organisation du processus de production ne peuvent être compris sans référence aux formes nouvelles de conflits ?",
    "Comment les formes nouvelles proposées par les sociologues de la direction ne résultent-elles pas de changements technologiques ?",
    "Comment les revendications de la classe ouvrière sont-elles manifestées ?",
    "Quels changements technologiques sont-ils à l'origine des formes nouvelles proposées par les sociologues de la direction ?"
  ]
}