{
  "num": "autog_0249-2563_1982_num_16_12",
  "article": "autog_0249-2563_1982_num_16_12_1534",
  "page_name": "autog_0249-2563_1982_num_16_12_T1_0098_0000",
  "questions": [
    "Quel est le point de vue psychologique selon lequel la nécessité fondamentale du rapport d'autorité est vitale pour le comportement humain ?",
    "Quel est l'avis de J. Ardoino sur la tentative radicale et brute d'autogestion pédagogique ?",
    "Quel est le modèle du pouvoir immanent au projet autogestionnaire selon J. Ardoino ?",
    "Comment Ardoino perçoit le pouvoir institutionnel selon Hameline ?",
    "Quel est l'idée de J. Ardoino sur la naissance du pouvoir autogestionnaire ?",
    "Comment Ardoino pense que le pouvoir institutionnel ne peut être aboli ?",
    "Quel est le rôle de l'intention éducative dans la culture du rapport affectif d'autorité selon Ardoino ?",
    "Comment Ardoino distingue le pouvoir institutionnel des autres niveaux de manifestation de ce pouvoir ?",
    "Quel est l'idée de J. Ardoino sur la subversion d'un niveau de manifestation du pouvoir institutionnel ?",
    "Comment Ardoino pense que le pouvoir autogestionnaire doit être aménagé, modelé et relativisé ?",
    "Quel est le statut de l'autogestion selon Ardoino ?",
    "Comment Ardoino perçoit le pouvoir institutionnel selon Lobrot ?",
    "Quel est l'idée de Lobrot sur l'isomorphisme des différents niveaux de manifestation du pouvoir institutionnel ?",
    "Comment Ardoino critique l'idée de Lobrot sur l'isomorphisme des différents nevels de manifestation du pouvoir institutionnel ?",
    "Comment Ardoino pense que le pouvoir autogestionnaire peut coexister avec le pouvoir institutionnel ?",
    "Quel est le rôle de l'articulation dialectique dans la naissance du pouvoir autogestionnaire selon Ardoino ?"
  ]
}