{
  "num": "autog_0338-7259_1976_num_35_1",
  "article": "autog_0338-7259_1976_num_35_1_1176",
  "page_name": "FMSH_PB188a_35-36_042",
  "questions": [
    "Quel est le sujet de l'attention légitime qui touche à Rosa Luxemburg ?",
    "Pourquoi la théorie de l'accumulation du capital de Rosa Luxemburg ne conserve-t-elle plus qu'un intérêt historique ?",
    "Quel est le rôle de l'auteur Yvon Bourdet dans ce contexte ?",
    "Quel est le point de vue d'Ernest Mandel sur les erreurs de Kautsky ?",
    "Qu'est-ce qui est nouveau par rapport à Marx chez Rosa Luxemburg ?",
    "Qu'est-ce qui est la pierre angulaire de la théorie de l'Accumulation du capital selon Rosa Luxemburg ?",
    "Qu'est-ce que Mandel tente de justifier en faveur de Rosa Luxemburg ?",
    "Quels sont les titres des études importantes sur Rosa Luxemburg mentionnées dans le texte ?",
    "Quels sont les titres des biographies de Rosa Luxemburg mentionnées dans le texte ?"
  ]
}