{
  "num": "autog_0338-7259_1976_num_35_1",
  "article": "autog_0338-7259_1976_num_35_1_1176",
  "page_name": "FMSH_PB188a_35-36_068",
  "questions": [
    "Quel est l'auteur de la lettre extraite du texte ?",
    "Rosa Luxemburg considère quels aspects des masses sont importants pour les dirigeants ?",
    "Quel est la tâche extraordinaire que Rosa Luxemburg demande aux dirigeants envers les masses ?",
    "Comment Rosa Luxemburg décrit le rôle du dirigeant face aux masses ?",
    "Quels outils utilise-t-elle pour décrire le rôle du dirigeant ?",
    "Qu'implique la comparaison du dirigeant à un navigateur ?",
    "Quels aspects des masses Rosa Luxemburg considère comme instables ou momentanés ?",
    "Quels aspects des masses Rosa Luxemburg considère comme permanents ou constants ?",
    "Comment Rosa Luxemburg décrit les lois de l'évolution des masses ?",
    "Quel est le rôle de l'historien dans la maturation de l'histoire selon Rosa Luxemburg ?"
  ]
}