{
  "num": "autog_0338-7259_1976_num_35_1",
  "article": "autog_0338-7259_1976_num_35_1_1176",
  "page_name": "FMSH_PB188a_35-36_059",
  "questions": [
    "Quel rôle considère Rosa Luxemburg pour le prolétariat dans la prise du pouvoir politique de l'État ?",
    "Quels éléments de la société capitaliste Rosa Luxemburg souhaite abolir ?",
    "Comment Rosa Luxemburg caractérise la classe bourgeoise ?",
    "Quel type de violence considère Rosa Luxemburg nécessaire pour instaurer le socialisme ?",
    "Quel est l'opinion de Rosa Luxemburg sur l'idée d'instaurer le socialisme par décret parlementaire ?",
    "Quels groupes sont accusés de terrorisme par Rosa Luxemburg ?",
    "Quel est le lien entre la « guerre civile » et la lutte de classe selon Rosa Luxemburg ?",
    "Comment justifie Rosa Luxemburg l'accusation de terrorisme contre les bourgeois ?",
    "Quels groupes sont qualifiés d'« anarchiques » par Rosa Luxemburg ?",
    "Quels arguments utilise Rosa Luxemburg pour renvoyer l'accusation de terrorisme contre les bourgeois ?"
  ]
}