{
  "num": "autog_0338-7259_1971_num_16_1",
  "article": "autog_0338-7259_1971_num_16_1_1023_t1_0181_0000_1",
  "page_name": "FMSH_PB188a_16-17_187",
  "questions": [
    "Quels sont les causes du déclin des structures syndicales traditionnelles selon les auteurs ?",
    "Quels sont les échecs du Parti Communiste selon les auteurs et pour quels raisons ?",
    "Quel rôle joue la bureaucratie dans ces échecs ?",
    "Quel est le rôle de l'opposition dans les grandes organisations de masse ?",
    "Qu'est-ce que les auteurs entendent par «un secteur d'opposition extérieur» ?",
    "Qu'est la nécessité d'élaborer une théorie de l'action selon les auteurs ?",
    "Quels sont les formes d'organisation actuelles et quelles sont leurs limites selon les auteurs ?",
    "Qu'est la notion d'animateur politique selon les auteurs et comment elle diffère de celle de chef ou de cadre ?",
    "Quel est la conception défendue par Claude Lefort et comment elle diffère de celle des auteurs ?"
  ]
}