{
  "num": "autog_0338-7259_1972_num_18_1",
  "article": "autog_0338-7259_1972_num_18_1_1030",
  "page_name": "FMSH_PB188a_18-19_078",
  "questions": [
    "Quels organes de gestion sont mentionnés dans le texte ?",
    "Quels sont les tâches attribuées à l'organisation politique anarchiste ?",
    "Quelles thèses sont défendues par le mouvement anarcho-syndicaliste espagnol ?",
    "Quel rôle est assigné au syndicat selon Besnard ?",
    "Quels sont les idées des frères Cohn-Bendit après Mai 68 ?",
    "Qu'estime Lénine du mouvement spontané de la masse ?",
    "Quel rôle doit jouer la minorité consciente selon Lénine ?",
    "Quels intérêts économiques doivent être absents des individus de cette minorité ?",
    "Quel type de personnes doivent faire partie de cette minorité ?",
    "Quel type de recherche est préférée par les auteurs ?",
    "Quel événement est laissé de côté pour être abordé plus tard ?"
  ]
}