{
  "num": "autog_0005-0970_1969_num_8_1",
  "article": "autog_0005-0970_1969_num_8_1_1833",
  "page_name": "FMSH_PB188a_00008_175",
  "questions": [
    "Quels sont les différents points abordés dans l'étude historique des tentatives d'autogestion ?",
    "Quels sont les critiques pratiques des causes d'échec de l'autogestion et comment est-ce que le système d'autogestion a été perverti en corporatisme ?",
    "Quels sont les conditions de possibilité de l'autogestion dans la société industrielle développée ?",
    "Comment l'autogestion universitaire est-elle décrite comme un mouvement avant-gardiste ?",
    "Quels textes ont été utilisés pour préparer l'étude des divers points et comment ont-ils été traduits et diffusés ?",
    "Quels textes ont été retenus pour l'étude et quels sont leurs auteurs ?",
    "Comment ont été organisées les séances d'étude et les réunions du soir ?"
  ]
}