{
  "num": "autog_0249-2563_1982_num_15_8",
  "article": "autog_0249-2563_1982_num_15_8_1470",
  "page_name": "autog_0249-2563_1982_num_15_8_T1_0051_0000",
  "questions": [
    {
      "id_qa": "autog_0249-2563_1982_num_15_8_T1_0051_0000_qa5_v3",
      "id_block": "block_0",
      "question": "Qu'est ce qui est offert aux pouvoirs publics ?",
      "answer": "la marge de",
      "answer_stringIds": [
        "string_144",
        "string_145",
        "string_146"
      ]
    },
    {
      "id_qa": "autog_0249-2563_1982_num_15_8_T1_0051_0000_qa6_v3",
      "id_block": "block_0",
      "question": "Qu'attend-on de la marge de main d'œuvre qui m'est offerte ?",
      "answer": "pouvoirs publics une aide à la marginalisation",
      "answer_stringIds": [
        "string_157",
        "string_158",
        "string_159",
        "string_160",
        "string_161",
        "string_162",
        "string_163",
        "string_164"
      ]
    },
    {
      "id_qa": "autog_0249-2563_1982_num_15_8_T1_0051_0000_qa3_v3",
      "id_block": "block_1",
      "question": "Comment sont les critères d'attribution des emplois ?",
      "answer": "plus flous",
      "answer_stringIds": [
        "string_213",
        "string_214"
      ]
    },
    {
      "id_qa": "autog_0249-2563_1982_num_15_8_T1_0051_0000_qa11_v3",
      "id_block": "block_1",
      "question": "Quel est l'objectif de l'association ?",
      "answer": "un plus grand nombre de néo-entrepreneurs",
      "answer_stringIds": [
        "string_199",
        "string_200",
        "string_201",
        "string_202",
        "string_203",
        "string_204"
      ]
    },
    {
      "id_qa": "autog_0249-2563_1982_num_15_8_T1_0051_0000_qa16_v3",
      "id_block": "block_3",
      "question": "Quel est le capital du Nerzwerk Selbthilfe ?",
      "answer": "le capital de près de 8 000 membres cotisants",
      "answer_stringIds": [
        "string_331",
        "string_332",
        "string_333",
        "string_334",
        "string_335",
        "string_336",
        "string_337",
        "string_338",
        "string_339"
      ]
    }
  ]
}