{
  "num": "autog_0338-7259_1973_num_22_1",
  "article": "autog_0338-7259_1973_num_22_1_1089",
  "page_name": "FMSH_PB188a_22-23_164",
  "questions": [
    "Qu'analyse de l'État avaient Marx et Engels fournie, et comment l'a développée Lénine ?",
    "Qu'implique le morcellement de la propriété étatique et la négation du rôle dirigeant de l'État socialiste selon Enver Hoxha ?",
    "Pouvait-on réellement mettre fin à la bourgeoisie capitaliste, à son armée, à sa police, à sa justice, à ses prisons, à son idéologie en instaurant une société décentralisée sans structures verticales et sans moyens étatiques ?",
    "Peut-on considérer que la classe ouvrière est la seule classe à pouvoir pousser le processus révolutionnaire jusqu'au bout ?",
    "Qu'implique l'opposition organisée, délibérée et non spontanée et anarchique contre les intentions, manœuvres et tentatives de restauration de l'ancien système pour le socialisme ?",
    "Qu'avait à dire Lénine sur le développement vers le communisme et la démocratie directe ?",
    "Qu'exprimait le quotidien central du Parti du Travail d'Albanie, Zeri i Popullit, dans un article du 7 février 1965, sur le développement vers le communisme et la dictature du prolétariat ?"
  ]
}