{
  "num": "autog_0338-7259_1974_num_26_1",
  "article": "autog_0338-7259_1974_num_26_1_1107",
  "page_name": "FMSH_PB188a_26-27_024",
  "questions": [
    {
      "id_qa": "FMSH_PB188a_26-27_024_qa0_v3",
      "id_block": "block_1",
      "question": "Dans quelle ville la Bourse du travail a-t-elle été attaquée ?",
      "answer": "Turin",
      "answer_stringIds": [
        "string_51"
      ]
    },
    {
      "id_qa": "FMSH_PB188a_26-27_024_qa2_v3",
      "id_block": "block_1",
      "question": "Dans quelle ville la Bourse du travail a-t-elle été détruite ?",
      "answer": "Turin",
      "answer_stringIds": [
        "string_51"
      ]
    },
    {
      "id_qa": "FMSH_PB188a_26-27_024_qa11_v3",
      "id_block": "block_1",
      "question": "Quand la Bourse du travail de Turin a-t-elle été détruite ?",
      "answer": "en 1917",
      "answer_stringIds": [
        "string_49",
        "string_50"
      ]
    },
    {
      "id_qa": "FMSH_PB188a_26-27_024_qa30_v3",
      "id_block": "block_1",
      "question": "Qui étaient mis hors la loi pendant la guerre ?",
      "answer": "les organisations syndicales et politiques",
      "answer_stringIds": [
        "string_33",
        "string_34",
        "string_35",
        "string_36",
        "string_37"
      ]
    },
    {
      "id_qa": "FMSH_PB188a_26-27_024_qa34_v3",
      "id_block": "block_1",
      "question": "Où les organisations syndicales et politiques étaient elles mises ?",
      "answer": "hors la loi",
      "answer_stringIds": [
        "string_40",
        "string_41",
        "string_42"
      ]
    },
    {
      "id_qa": "FMSH_PB188a_26-27_024_qa23_v3",
      "id_block": "block_2",
      "question": "Quelle ville devint la capitale du mouvement rénovateur ?",
      "answer": "Turin",
      "answer_stringIds": [
        "string_51"
      ]
    },
    {
      "id_qa": "FMSH_PB188a_26-27_024_qa24_v3",
      "id_block": "block_2",
      "question": "Quelle était la capitale de Turin ?",
      "answer": "la « Mecque",
      "answer_stringIds": [
        "string_144",
        "string_145",
        "string_146"
      ]
    },
    {
      "id_qa": "FMSH_PB188a_26-27_024_qa35_v3",
      "id_block": "block_2",
      "question": "Que provoqua la révolution russe en Europe ?",
      "answer": "partout des remous profonds",
      "answer_stringIds": [
        "string_126",
        "string_127",
        "string_128",
        "string_129"
      ]
    },
    {
      "id_qa": "FMSH_PB188a_26-27_024_qa37_v3",
      "id_block": "block_2",
      "question": "Où la révolution russe déborda-t-elle ?",
      "answer": "en Europe",
      "answer_stringIds": [
        "string_118",
        "string_119"
      ]
    },
    {
      "id_qa": "FMSH_PB188a_26-27_024_qa39_v3",
      "id_block": "block_2",
      "question": "Qu'est ce qui déborda en Europe comme un flot de lave provoquant partout des remous profonds ?",
      "answer": "La révolution russe",
      "answer_stringIds": [
        "string_114",
        "string_115",
        "string_116"
      ]
    },
    {
      "id_qa": "FMSH_PB188a_26-27_024_qa26_v3",
      "id_block": "block_3",
      "question": "Quelle est la plus grande ville industrielle d'Europe ?",
      "answer": "Turin",
      "answer_stringIds": [
        "string_51"
      ]
    },
    {
      "id_qa": "FMSH_PB188a_26-27_024_qa27_v3",
      "id_block": "block_3",
      "question": "Qu'est ce qui suivait l'Université ?",
      "answer": "le mouvement des usines",
      "answer_stringIds": [
        "string_193",
        "string_194",
        "string_195",
        "string_196"
      ]
    },
    {
      "id_qa": "FMSH_PB188a_26-27_024_qa29_v3",
      "id_block": "block_3",
      "question": "Quelle est la conséquence de la révolution Italienne ?",
      "answer": "la même poussée du socialisme international",
      "answer_stringIds": [
        "string_252",
        "string_253",
        "string_254",
        "string_255",
        "string_256",
        "string_257",
        "string_258"
      ]
    },
    {
      "id_qa": "FMSH_PB188a_26-27_024_qa40_v3",
      "id_block": "block_3",
      "question": "Qui est le seul théoricien qui a enrichi le marxisme ?",
      "answer": "Antonio Gramsci",
      "answer_stringIds": [
        "string_197",
        "string_198"
      ]
    }
  ]
}