{
  "num": "autog_0338-7259_1974_num_26_1",
  "article": "autog_0338-7259_1974_num_26_1_1107",
  "page_name": "FMSH_PB188a_26-27_023",
  "questions": [
    {
      "id_qa": "FMSH_PB188a_26-27_023_qa11_v3",
      "id_block": "block_1",
      "question": "Qu'est-ce que le fait seul que l'on revienne à chercher ?",
      "answer": "une issue au chaos du monde contemporain",
      "answer_stringIds": [
        "string_28",
        "string_29",
        "string_30",
        "string_31",
        "string_32",
        "string_33",
        "string_34"
      ]
    },
    {
      "id_qa": "FMSH_PB188a_26-27_023_qa12_v3",
      "id_block": "block_2",
      "question": "Quel est le mérite du mouvement italien des Conseils d'usine ?",
      "answer": "une forme nationale",
      "answer_stringIds": [
        "string_99",
        "string_100",
        "string_101"
      ]
    },
    {
      "id_qa": "FMSH_PB188a_26-27_023_qa13_v3",
      "id_block": "block_2",
      "question": "D'où vient le mouvement italien des Conseils d'usine ?",
      "answer": "son inspiration de la Révolution russe",
      "answer_stringIds": [
        "string_88",
        "string_89",
        "string_90",
        "string_91",
        "string_92",
        "string_93"
      ]
    },
    {
      "id_qa": "FMSH_PB188a_26-27_023_qa14_v3",
      "id_block": "block_2",
      "question": "De quel pays est inspiré le mouvement italien des Conseils d'usine ?",
      "answer": "avoir tiré son inspiration de la Révolution russe",
      "answer_stringIds": [
        "string_86",
        "string_87",
        "string_88",
        "string_89",
        "string_90",
        "string_91",
        "string_92",
        "string_93"
      ]
    },
    {
      "id_qa": "FMSH_PB188a_26-27_023_qa3_v3",
      "id_block": "block_4",
      "question": "Dans quel organisme les syndicats et les organisations ouvrières étaient-ils représentés ?",
      "answer": "dans les Comités de mobilisation",
      "answer_stringIds": [
        "string_185",
        "string_186",
        "string_187",
        "string_188",
        "string_189"
      ]
    },
    {
      "id_qa": "FMSH_PB188a_26-27_023_qa6_v3",
      "id_block": "block_4",
      "question": "Comment s'appelait l'organisme représentatif des masses ?",
      "answer": "la « Commission intérieure",
      "answer_stringIds": [
        "string_136",
        "string_137",
        "string_138",
        "string_139"
      ]
    }
  ]
}