{
  "num": "autog_0249-2563_1983_num_16_14",
  "article": "autog_0249-2563_1983_num_16_14_1557",
  "page_name": "autog_0249-2563_1983_num_16_14_T1_0049_0000",
  "questions": [
    {
      "id_qa": "autog_0249-2563_1983_num_16_14_T1_0049_0000_qa12_v3",
      "id_block": "block_4",
      "question": "Où se trouvent les personnes qui doivent travailler ?",
      "answer": "dans leur commission",
      "answer_stringIds": [
        "string_159",
        "string_160",
        "string_161"
      ]
    },
    {
      "id_qa": "autog_0249-2563_1983_num_16_14_T1_0049_0000_qa2_v3",
      "id_block": "block_5",
      "question": "Qu'est ce qui doit être rédigé à chaque séance ?",
      "answer": "un procès-verbal",
      "answer_stringIds": [
        "string_197",
        "string_198"
      ]
    },
    {
      "id_qa": "autog_0249-2563_1983_num_16_14_T1_0049_0000_qa7_v3",
      "id_block": "block_5",
      "question": "Qu'est-ce qui doit aider les leaders de chaque commission ?",
      "answer": "faire des choix",
      "answer_stringIds": [
        "string_183",
        "string_184",
        "string_185"
      ]
    },
    {
      "id_qa": "autog_0249-2563_1983_num_16_14_T1_0049_0000_qa8_v3",
      "id_block": "block_5",
      "question": "Qu'est ce qui doit aider les leaders de chaque commission ?",
      "answer": "des choix",
      "answer_stringIds": [
        "string_184",
        "string_185"
      ]
    },
    {
      "id_qa": "autog_0249-2563_1983_num_16_14_T1_0049_0000_qa21_v3",
      "id_block": "block_6",
      "question": "Qu'est ce qui fait l'objet d'une réunion de synthèse ?",
      "answer": "Le travail des commissions",
      "answer_stringIds": [
        "string_204",
        "string_205",
        "string_206",
        "string_207"
      ]
    },
    {
      "id_qa": "autog_0249-2563_1983_num_16_14_T1_0049_0000_qa32_v3",
      "id_block": "block_7",
      "question": "Quel est le métier d'un animateur tous terrains ?",
      "answer": "organisation",
      "answer_stringIds": [
        "string_259"
      ]
    },
    {
      "id_qa": "autog_0249-2563_1983_num_16_14_T1_0049_0000_qa13_v3",
      "id_block": "block_8",
      "question": "Qu'est ce qui donne une idée des principales réactions des salariés ?",
      "answer": "quelques",
      "answer_stringIds": [
        "string_365"
      ]
    },
    {
      "id_qa": "autog_0249-2563_1983_num_16_14_T1_0049_0000_qa15_v3",
      "id_block": "block_8",
      "question": "Qu'est-ce qui a été mis en place dans une entreprise chimique de Paris ?",
      "answer": "à la mise en place de cercles de qualité",
      "answer_stringIds": [
        "string_345",
        "string_346",
        "string_347",
        "string_348",
        "string_349",
        "string_350",
        "string_351",
        "string_352",
        "string_353"
      ]
    },
    {
      "id_qa": "autog_0249-2563_1983_num_16_14_T1_0049_0000_qa30_v3",
      "id_block": "block_8",
      "question": "Qu'est ce qui s'est développé au cours de trois périodes ?",
      "answer": "mon activité professionnelle",
      "answer_stringIds": [
        "string_297",
        "string_298",
        "string_299"
      ]
    }
  ]
}