{
  "num": "autog_0338-7259_1970_num_11_1",
  "article": "autog_0338-7259_1970_num_11_1_961",
  "page_name": "FMSH_PB188a_11-12_069",
  "questions": [
    {
      "id_qa": "FMSH_PB188a_11-12_069_qa10_v3",
      "id_block": "block_4",
      "question": "A quoi sert le système économique selon E. Heinmann ?",
      "answer": "aux besoins économiques",
      "answer_stringIds": [
        "string_281",
        "string_282",
        "string_283"
      ]
    },
    {
      "id_qa": "FMSH_PB188a_11-12_069_qa14_v3",
      "id_block": "block_4",
      "question": "Qui est à l'origine de la distinction entre l'économie politique et la liberté ?",
      "answer": "Marx",
      "answer_stringIds": [
        "string_314"
      ]
    },
    {
      "id_qa": "FMSH_PB188a_11-12_069_qa15_v3",
      "id_block": "block_4",
      "question": "Qui est l'auteur de l'économie du temps de Marx ?",
      "answer": "R .Richta",
      "answer_stringIds": [
        "string_356",
        "string_357"
      ]
    }
  ]
}