{
  "num": "autog_0338-7259_1970_num_11_1",
  "article": "autog_0338-7259_1970_num_11_1_961",
  "page_name": "FMSH_PB188a_11-12_057",
  "questions": [
    {
      "id_qa": "FMSH_PB188a_11-12_057_qa8_v3",
      "id_block": "block_1",
      "question": "Qui agit par l'intermédiaire de l'institution ?",
      "answer": "des hommes qualifiés",
      "answer_stringIds": [
        "string_21",
        "string_22",
        "string_23"
      ]
    },
    {
      "id_qa": "FMSH_PB188a_11-12_057_qa13_v3",
      "id_block": "block_3",
      "question": "Que signifie l'autogestion en tant qu'autorégulation de la famille humaine ?",
      "answer": "une autorégulation",
      "answer_stringIds": [
        "string_153",
        "string_154"
      ]
    }
  ]
}