{
  "num": "autog_0338-7259_1970_num_11_1",
  "article": "autog_0338-7259_1970_num_11_1_961",
  "page_name": "FMSH_PB188a_11-12_071",
  "questions": [
    {
      "id_qa": "FMSH_PB188a_11-12_071_qa0_v3",
      "id_block": "block_2",
      "question": "Qu'est-ce qui est trop étroitement lié aux paramètres de la société de consommation de masse ?",
      "answer": "Cette autogestion des consommateurs",
      "answer_stringIds": [
        "string_55",
        "string_56",
        "string_57",
        "string_58"
      ]
    },
    {
      "id_qa": "FMSH_PB188a_11-12_071_qa1_v3",
      "id_block": "block_2",
      "question": "A quoi est trop étroitement liée cette autogestion des consommateurs ?",
      "answer": "paramètres de la société de consommation de masse",
      "answer_stringIds": [
        "string_68",
        "string_69",
        "string_70",
        "string_71",
        "string_72",
        "string_73",
        "string_74",
        "string_75"
      ]
    },
    {
      "id_qa": "FMSH_PB188a_11-12_071_qa2_v3",
      "id_block": "block_2",
      "question": "De quoi est constitué l'ensemble de l'autogestion ?",
      "answer": "des communes de production",
      "answer_stringIds": [
        "string_98",
        "string_99",
        "string_100",
        "string_101"
      ]
    },
    {
      "id_qa": "FMSH_PB188a_11-12_071_qa3_v3",
      "id_block": "block_2",
      "question": "Que doit réunir l'autogestion future ?",
      "answer": "les points de vue de production et de consommation",
      "answer_stringIds": [
        "string_81",
        "string_82",
        "string_83",
        "string_84",
        "string_85",
        "string_86",
        "string_87",
        "string_88",
        "string_89"
      ]
    }
  ]
}