{
  "num": "autog_0249-2563_1984_num_17_16",
  "article": "autog_0249-2563_1984_num_17_16_1597",
  "page_name": "autog_0249-2563_1984_num_17_16_T1_0081_0000",
  "questions": [
    {
      "id_qa": "autog_0249-2563_1984_num_17_16_T1_0081_0000_qa5_v3",
      "id_block": "block_0",
      "question": "Quel est le territoire d'action de la commission ?",
      "answer": "les 5 500 ha",
      "answer_stringIds": [
        "string_87",
        "string_88",
        "string_89",
        "string_90"
      ]
    },
    {
      "id_qa": "autog_0249-2563_1984_num_17_16_T1_0081_0000_qa6_v3",
      "id_block": "block_0",
      "question": "A qui le ministère de l'Agriculture a-t-il donné 5 500 ha ?",
      "answer": "la SAFER",
      "answer_stringIds": [
        "string_73",
        "string_74"
      ]
    },
    {
      "id_qa": "autog_0249-2563_1984_num_17_16_T1_0081_0000_qa9_v3",
      "id_block": "block_0",
      "question": "Qu'est ce qui n'a pas de statut juridique ?",
      "answer": "la structure",
      "answer_stringIds": [
        "string_46",
        "string_47"
      ]
    },
    {
      "id_qa": "autog_0249-2563_1984_num_17_16_T1_0081_0000_qa23_v3",
      "id_block": "block_1",
      "question": "Quelle est la propriété de la SAFER ?",
      "answer": "les terres",
      "answer_stringIds": [
        "string_181",
        "string_182"
      ]
    },
    {
      "id_qa": "autog_0249-2563_1984_num_17_16_T1_0081_0000_qa17_v3",
      "id_block": "block_2",
      "question": "Comment s'appelle la société civile créée par l'expropriation ?",
      "answer": "une « société civile foncière des terres du Larzac",
      "answer_stringIds": [
        "string_423",
        "string_424",
        "string_425",
        "string_426",
        "string_427",
        "string_428",
        "string_429",
        "string_430",
        "string_431"
      ]
    },
    {
      "id_qa": "autog_0249-2563_1984_num_17_16_T1_0081_0000_qa0_v3",
      "id_block": "block_4",
      "question": "Qui peut se retourner contre l'Etat ?",
      "answer": "les propriétaires",
      "answer_stringIds": [
        "string_519",
        "string_520"
      ]
    }
  ]
}