{
  "num": "autog_0005-0970_1969_num_8_1",
  "article": "autog_0005-0970_1969_num_8_1_944",
  "page_name": "FMSH_PB188a_00008_007",
  "questions": [
    {
      "id_qa": "FMSH_PB188a_00008_007_qa15_v3",
      "id_block": "block_1",
      "question": "Quel pouvoir conserve le contrôle des mécanismes ainsi libérés ?",
      "answer": "le pouvoir politique",
      "answer_stringIds": [
        "string_78",
        "string_79",
        "string_80"
      ]
    },
    {
      "id_qa": "FMSH_PB188a_00008_007_qa17_v3",
      "id_block": "block_1",
      "question": "Que conserve le pouvoir politique ?",
      "answer": "le contrôle des mécanismes ainsi libérés",
      "answer_stringIds": [
        "string_82",
        "string_83",
        "string_84",
        "string_85",
        "string_86",
        "string_87"
      ]
    },
    {
      "id_qa": "FMSH_PB188a_00008_007_qa18_v3",
      "id_block": "block_1",
      "question": "Qu'est ce qui risque de rester lettre morte en-deçà d'un certain seuil d'industrialisation ?",
      "answer": "Les meilleurs plans et programmes",
      "answer_stringIds": [
        "string_13",
        "string_14",
        "string_15",
        "string_16",
        "string_17"
      ]
    },
    {
      "id_qa": "FMSH_PB188a_00008_007_qa21_v3",
      "id_block": "block_1",
      "question": "Qu'est ce qui risque fort de rester lettre morte en-deçà d'un certain seuil d'industrialisation ?",
      "answer": "Les meilleurs plans et programmes",
      "answer_stringIds": [
        "string_13",
        "string_14",
        "string_15",
        "string_16",
        "string_17"
      ]
    },
    {
      "id_qa": "FMSH_PB188a_00008_007_qa3_v3",
      "id_block": "block_2",
      "question": "Qui pense que Pautogestion se substitue graduellement à l'administration étatique ?",
      "answer": "Les théoriciens yougoslaves",
      "answer_stringIds": [
        "string_222",
        "string_223",
        "string_224"
      ]
    },
    {
      "id_qa": "FMSH_PB188a_00008_007_qa4_v3",
      "id_block": "block_2",
      "question": "Qu'est ce qui se substitue graduellement à l'administration étatique ?",
      "answer": "Pautogestion",
      "answer_stringIds": [
        "string_131"
      ]
    },
    {
      "id_qa": "FMSH_PB188a_00008_007_qa7_v3",
      "id_block": "block_2",
      "question": "Qu'est-ce qui est assumé par PEtat ?",
      "answer": "cette nésessité",
      "answer_stringIds": [
        "string_179",
        "string_180"
      ]
    },
    {
      "id_qa": "FMSH_PB188a_00008_007_qa8_v3",
      "id_block": "block_2",
      "question": "Qui est responsable de la néessité dans les pays socialistes ?",
      "answer": "PEtat",
      "answer_stringIds": [
        "string_184"
      ]
    },
    {
      "id_qa": "FMSH_PB188a_00008_007_qa11_v3",
      "id_block": "block_2",
      "question": "Qui se réclame de la \" libre entreprise\" ?",
      "answer": "Pon",
      "answer_stringIds": [
        "string_202"
      ]
    },
    {
      "id_qa": "FMSH_PB188a_00008_007_qa14_v3",
      "id_block": "block_2",
      "question": "Qu'est ce qui est en perpétuel renouvellement ?",
      "answer": "un organisme",
      "answer_stringIds": [
        "string_256",
        "string_257"
      ]
    },
    {
      "id_qa": "FMSH_PB188a_00008_007_qa23_v3",
      "id_block": "block_2",
      "question": "Quel organisme serait en mesure d'imprimer à la politique économique un sens authentiquement socialiste ?",
      "answer": "un tel organisme",
      "answer_stringIds": [
        "string_274",
        "string_275",
        "string_276"
      ]
    },
    {
      "id_qa": "FMSH_PB188a_00008_007_qa24_v3",
      "id_block": "block_2",
      "question": "Qu'est ce qui permettrait d'imprimer à la politique économique un sens authentiquement socialiste ?",
      "answer": "un tel organisme",
      "answer_stringIds": [
        "string_274",
        "string_275",
        "string_276"
      ]
    },
    {
      "id_qa": "FMSH_PB188a_00008_007_qa0_v3",
      "id_block": "block_3",
      "question": "Qu'est ce qui a de quoi séduire ?",
      "answer": "La thèse",
      "answer_stringIds": [
        "string_310",
        "string_311"
      ]
    }
  ]
}