{
  "num": "autog_0249-2563_1980_num_13_1",
  "article": "autog_0249-2563_1980_num_13_1_1341",
  "page_name": "autog_0249-2563_1980_num_13_1_T1_0027_0000",
  "questions": [
    "Cette négation de la négation permet-elle de nous libérer de réversibilités et de spirales infinies ?",
    "Quels itinéraires différents l'avant-gardisme impose-t-il à l'analyse ?",
    "Est-il absurde de considérer un négatif comme une nouvelle positivité pour combattre le positif et l'institué ?",
    "Quels travaux pratiques effectue l'avant-gardisme sous le signe de l'autogestion ?",
    "Comment se détruit l'avant-gardisme au contact des contradictions insolubles soulevées par l'expérience autogestionnaire ?",
    "Est-ce que l'arme absolue était qu'un pistolet en plastique ?",
    "Est-la dialectique toujours paralytique et le négatif l'éternel absent ?",
    "L'institutionnalisation est-elle une force tellurique, l'équivalent de la glaciation ou de la dérive des continents ?",
    "Dans le mode de production capitaliste, monopoliste ou étatique, l'avant-gardisme s'est-il toujours fondé dans une organisation d'Etat ou s'est-il nié dans la mode, la culture et le marché culturel ?",
    "Est-l'autogestion, en tant que projet de critique et de transformation des rapports sociaux à tous les niveaux de la vie quotidienne, un nouveau simulacre du négatif ?",
    "En quelles circonstances l'autogestion n'est-elle pas un simulacre du négatif ?"
  ]
}