{
  "num": "autog_0249-2563_1984_num_17_15",
  "article": "autog_0249-2563_1984_num_17_15_1576",
  "page_name": "autog_0249-2563_1984_num_17_15_T1_0040_0000",
  "questions": [
    {
      "id_qa": "autog_0249-2563_1984_num_17_15_T1_0040_0000_qa0_v3",
      "id_block": "block_0",
      "question": "Qu'est ce qui pourrait donner un sens à la victoire du 10 mai ?",
      "answer": "un large mouvement de luttes",
      "answer_stringIds": [
        "string_60",
        "string_61",
        "string_62",
        "string_63",
        "string_64"
      ]
    },
    {
      "id_qa": "autog_0249-2563_1984_num_17_15_T1_0040_0000_qa14_v3",
      "id_block": "block_0",
      "question": "Qu'est-ce qui doit s'exprimer dès maintenant ?",
      "answer": "les aspirations autogestionnaires",
      "answer_stringIds": [
        "string_182",
        "string_183",
        "string_184"
      ]
    },
    {
      "id_qa": "autog_0249-2563_1984_num_17_15_T1_0040_0000_qa15_v3",
      "id_block": "block_0",
      "question": "Par quoi doivent s'exprimer les aspirations autogestionnaires dès maintenant ?",
      "answer": "par un organe politique",
      "answer_stringIds": [
        "string_188",
        "string_189",
        "string_190",
        "string_191"
      ]
    },
    {
      "id_qa": "autog_0249-2563_1984_num_17_15_T1_0040_0000_qa20_v3",
      "id_block": "block_0",
      "question": "Sur quoi s'appuie le bulletin anarchiste Contrepouvoir ?",
      "answer": "sur les luttes que les travailleurs peuvent mener en brisant le carcan des directions politiques et syndicales",
      "answer_stringIds": [
        "string_131",
        "string_132",
        "string_133",
        "string_134",
        "string_135",
        "string_136",
        "string_137",
        "string_138",
        "string_139",
        "string_140",
        "string_141",
        "string_142",
        "string_143",
        "string_144",
        "string_145",
        "string_146",
        "string_147"
      ]
    },
    {
      "id_qa": "autog_0249-2563_1984_num_17_15_T1_0040_0000_qa21_v3",
      "id_block": "block_0",
      "question": "Sur quoi repose la marche vers l'autogestion ?",
      "answer": "les travailleurs",
      "answer_stringIds": [
        "string_135",
        "string_136"
      ]
    },
    {
      "id_qa": "autog_0249-2563_1984_num_17_15_T1_0040_0000_qa23_v3",
      "id_block": "block_0",
      "question": "Dans quel journal est écrit le texte \"pour l'autogestion\" ?",
      "answer": "dans le bulletin anarchiste Contrepouvoir",
      "answer_stringIds": [
        "string_100",
        "string_101",
        "string_102",
        "string_103",
        "string_104",
        "string_105"
      ]
    },
    {
      "id_qa": "autog_0249-2563_1984_num_17_15_T1_0040_0000_qa29_v3",
      "id_block": "block_0",
      "question": "Qui a formé des listes \"alternatives et autogestionnaires\" ?",
      "answer": "quelques militants associatifs et écologistes",
      "answer_stringIds": [
        "string_14",
        "string_15",
        "string_16",
        "string_17",
        "string_18"
      ]
    },
    {
      "id_qa": "autog_0249-2563_1984_num_17_15_T1_0040_0000_qa30_v3",
      "id_block": "block_0",
      "question": "Avec qui la CFDT a-t-elle formé des listes alternatives et autogestionnaires ?",
      "answer": "quelques militants associatifs et écologistes",
      "answer_stringIds": [
        "string_14",
        "string_15",
        "string_16",
        "string_17",
        "string_18"
      ]
    },
    {
      "id_qa": "autog_0249-2563_1984_num_17_15_T1_0040_0000_qa12_v3",
      "id_block": "block_1",
      "question": "Par qui sont déclamées les formules incantatoires des autogestionnaires ?",
      "answer": "des militants",
      "answer_stringIds": [
        "string_265",
        "string_266"
      ]
    },
    {
      "id_qa": "autog_0249-2563_1984_num_17_15_T1_0040_0000_qa25_v3",
      "id_block": "block_1",
      "question": "Qui parle de l'autogestion ?",
      "answer": "D. Mothé",
      "answer_stringIds": [
        "string_304",
        "string_305"
      ]
    }
  ]
}