{
  "num": "autog_0249-2563_1984_num_17_15",
  "article": "autog_0249-2563_1984_num_17_15_1576",
  "page_name": "autog_0249-2563_1984_num_17_15_T1_0049_0000",
  "questions": [
    {
      "id_qa": "autog_0249-2563_1984_num_17_15_T1_0049_0000_qa3_v3",
      "id_block": "block_0",
      "question": "A quoi les autogestionnaires sont-ils conduits d'un côté ?",
      "answer": "leurs critiques",
      "answer_stringIds": [
        "string_37",
        "string_38"
      ]
    },
    {
      "id_qa": "autog_0249-2563_1984_num_17_15_T1_0049_0000_qa5_v3",
      "id_block": "block_0",
      "question": "Qui est à l'origine du processus de dissociation mentale et politique ?",
      "answer": "les autogestionnaires",
      "answer_stringIds": [
        "string_29",
        "string_30"
      ]
    },
    {
      "id_qa": "autog_0249-2563_1984_num_17_15_T1_0049_0000_qa2_v3",
      "id_block": "block_1",
      "question": "Qui a cherché à s'arracher et à se détacher ?",
      "answer": "les autogestionnaires",
      "answer_stringIds": [
        "string_29",
        "string_30"
      ]
    },
    {
      "id_qa": "autog_0249-2563_1984_num_17_15_T1_0049_0000_qa10_v3",
      "id_block": "block_2",
      "question": "Qui est de plus en plus coincé ?",
      "answer": "les autogestionnaires",
      "answer_stringIds": [
        "string_29",
        "string_30"
      ]
    },
    {
      "id_qa": "autog_0249-2563_1984_num_17_15_T1_0049_0000_qa11_v3",
      "id_block": "block_2",
      "question": "Quelle est l'origine de la pensée politique autogestionnaire ?",
      "answer": "la gauche",
      "answer_stringIds": [
        "string_105",
        "string_106"
      ]
    },
    {
      "id_qa": "autog_0249-2563_1984_num_17_15_T1_0049_0000_qa12_v3",
      "id_block": "block_2",
      "question": "Qu'est-ce qui empêche les autogestionnaires de se développer ?",
      "answer": "cet enfermement mental et politique qui aliène leur liberté de critique",
      "answer_stringIds": [
        "string_262",
        "string_263",
        "string_264",
        "string_265",
        "string_266",
        "string_267",
        "string_268",
        "string_269",
        "string_270",
        "string_271",
        "string_272"
      ]
    }
  ]
}