{
  "num": "autog_0249-2563_1984_num_17_15",
  "article": "autog_0249-2563_1984_num_17_15_1576",
  "page_name": "autog_0249-2563_1984_num_17_15_T1_0048_0000",
  "questions": [
    {
      "id_qa": "autog_0249-2563_1984_num_17_15_T1_0048_0000_qa3_v3",
      "id_block": "block_0",
      "question": "Où se cache la vraie droite ?",
      "answer": "derrière",
      "answer_stringIds": [
        "string_79"
      ]
    },
    {
      "id_qa": "autog_0249-2563_1984_num_17_15_T1_0048_0000_qa4_v3",
      "id_block": "block_0",
      "question": "Qu'est-ce qui est critique et multidimensionnelle ?",
      "answer": "ce changement",
      "answer_stringIds": [
        "string_4",
        "string_5"
      ]
    },
    {
      "id_qa": "autog_0249-2563_1984_num_17_15_T1_0048_0000_qa14_v3",
      "id_block": "block_2",
      "question": "Qui décrit le complexe indissoluble de réalisme et de somnambulisme ?",
      "answer": "par Edgar Morin",
      "answer_stringIds": [
        "string_335",
        "string_336",
        "string_337"
      ]
    },
    {
      "id_qa": "autog_0249-2563_1984_num_17_15_T1_0048_0000_qa18_v3",
      "id_block": "block_2",
      "question": "Qui parle de la gauche divine ?",
      "answer": "Jean Baudrillard",
      "answer_stringIds": [
        "string_354",
        "string_355"
      ]
    },
    {
      "id_qa": "autog_0249-2563_1984_num_17_15_T1_0048_0000_qa25_v3",
      "id_block": "block_2",
      "question": "Quelle est l'urgence pour les autogestionnaires ?",
      "answer": "une posture critique et utopique",
      "answer_stringIds": [
        "string_222",
        "string_223",
        "string_224",
        "string_225",
        "string_226"
      ]
    },
    {
      "id_qa": "autog_0249-2563_1984_num_17_15_T1_0048_0000_qa27_v3",
      "id_block": "block_2",
      "question": "Par quoi sont hypnotisés les autogestionnaires ?",
      "answer": "ses leurres",
      "answer_stringIds": [
        "string_240",
        "string_241"
      ]
    },
    {
      "id_qa": "autog_0249-2563_1984_num_17_15_T1_0048_0000_qa28_v3",
      "id_block": "block_2",
      "question": "De quoi se déduit l'urgence qu'il y a pour les autogestionnaires ?",
      "answer": "la réflexion politique des autogestionnaires",
      "answer_stringIds": [
        "string_199",
        "string_200",
        "string_201",
        "string_202",
        "string_203"
      ]
    }
  ]
}