{
  "num": "autog_0249-2563_1981_num_14_7",
  "article": "autog_0249-2563_1981_num_14_7_1449",
  "page_name": "autog_0249-2563_1981_num_14_7_T1_0306_0000",
  "questions": [
    "Quels jardins d'enfants sont mentionnés dans le texte ?",
    "Quels mouvements populaires de libération sont cités en Afrique ?",
    "Quels partis politiques de gauche sont mentionnés en Europe de l'ouest ?",
    "Quand a été détruit politiquically le Parlement de Stormont ?",
    "Quels pays sont membres directement ou non de la CEE ?",
    "Comment la communauté agricole a-t-elle été bénéficiaire de l'adhésion à la CEE ?",
    "Quel problème des impôts est émergent parmi les travailleurs urbains ?",
    "Quel est le pourcentage de population la plus jeune en comparaison des autres pays européens ?",
    "Quel changement radical s'est opéré dans le marché mondial à la suite de la crise de l'énergie en 1974 ?",
    "Quels hommes et femmes sont issus des zones de combat et des ghettos du nord et ont assuré la jonction avec les jeunes chômeurs ou ouvriers déqualifiés ?",
    "Comment ces hommes et femmes sont-ils en position de force ?",
    "Quand et par qui a-t-il été remarqué que la guerre ne se gagnerait pas militairement mais politiquement ?",
    "Qui est Gerry Adams ?",
    "Quel rôle Gerry Adams a-t-il joué lors du congrès de janvier 1980 ?"
  ]
}