{
  "num": "autog_0249-2563_1981_num_14_7",
  "article": "autog_0249-2563_1981_num_14_7_1449",
  "page_name": "autog_0249-2563_1981_num_14_7_T1_0300_0000",
  "questions": [
    "Quel est le but déclaré de la guerre pour les Irlandais républicains ?",
    "Quel rôle jouait-on noter que les Anglais ont tenté de faire croire faussesment que l'IRA était anti-internationaliste ?",
    "Quand a-t-il eu lieu le soulèvement de Pâques à Dublin qui a marqué la naissance de l'IRA ?",
    "Quels sont les deux composantes qui ont formé l'IRA ?",
    "Qui était le jeune poète-président Padraig Pearse et qu'il a-t-il déclaré dans sa proclamation d'indépendance ?",
    "Quel était le rôle de James Connolly dans le mouvement républicain irlandais ?",
    "Quel était le programme économique et social du mouvement républicain irlandais ?",
    "Comment James Connolly a-t-il envisagé la prise du pouvoir en Irlande ?",
    "Quel était l'influence de la pensée syndicaliste nord-américaine sur James Connolly ?"
  ]
}