{
  "num": "autog_0338-7259_1972_num_20_1",
  "article": "autog_0338-7259_1972_num_20_1_1064",
  "page_name": "FMSH_PB188a_20-21_071",
  "questions": [
    {
      "id_qa": "FMSH_PB188a_20-21_071_qa26_v3",
      "id_block": "block_1",
      "question": "Qui abandonne la représentation sociale en laquelle ils se reconnaissent ?",
      "answer": "les nouveaux fondateurs",
      "answer_stringIds": [
        "string_3",
        "string_4",
        "string_5"
      ]
    },
    {
      "id_qa": "FMSH_PB188a_20-21_071_qa11_v3",
      "id_block": "block_2",
      "question": "Que suppose la thèse de Fourier ?",
      "answer": "nul irréductible",
      "answer_stringIds": [
        "string_33",
        "string_34"
      ]
    },
    {
      "id_qa": "FMSH_PB188a_20-21_071_qa12_v3",
      "id_block": "block_2",
      "question": "Qui pense qu'il n'y a rien au-delà du principe de plaisir ?",
      "answer": "La thèse de Fourier",
      "answer_stringIds": [
        "string_16",
        "string_17",
        "string_18",
        "string_19"
      ]
    },
    {
      "id_qa": "FMSH_PB188a_20-21_071_qa13_v3",
      "id_block": "block_2",
      "question": "Quelle est la thèse de Fourier ?",
      "answer": "rien au-delà",
      "answer_stringIds": [
        "string_24",
        "string_25"
      ]
    },
    {
      "id_qa": "FMSH_PB188a_20-21_071_qa28_v3",
      "id_block": "block_2",
      "question": "Qu'est-ce que souhaiter de Churchill ?",
      "answer": "il ait raison",
      "answer_stringIds": [
        "string_38",
        "string_39",
        "string_40"
      ]
    },
    {
      "id_qa": "FMSH_PB188a_20-21_071_qa29_v3",
      "id_block": "block_2",
      "question": "Qu'est-ce qui est souhaité par l'auteur ?",
      "answer": "raison",
      "answer_stringIds": [
        "string_40"
      ]
    },
    {
      "id_qa": "FMSH_PB188a_20-21_071_qa4_v3",
      "id_block": "block_4",
      "question": "Qui est l'auteur de l'utopie ?",
      "answer": "Lehouck",
      "answer_stringIds": [
        "string_42"
      ]
    },
    {
      "id_qa": "FMSH_PB188a_20-21_071_qa0_v3",
      "id_block": "block_5",
      "question": "Qui a fait un petit ?",
      "answer": "Staline",
      "answer_stringIds": [
        "string_193"
      ]
    },
    {
      "id_qa": "FMSH_PB188a_20-21_071_qa19_v3",
      "id_block": "block_5",
      "question": "Qu'apporte la Commune au Manifeste du parti communiste ?",
      "answer": "la vague correction",
      "answer_stringIds": [
        "string_90",
        "string_91",
        "string_92"
      ]
    },
    {
      "id_qa": "FMSH_PB188a_20-21_071_qa20_v3",
      "id_block": "block_5",
      "question": "Pour quelle raison Lénine esquinte-t-il le concept de demi-Etat ?",
      "answer": "pour arriver à en tirer une contradiction aussi tragiquement burlesque que la précédente",
      "answer_stringIds": [
        "string_154",
        "string_155",
        "string_156",
        "string_157",
        "string_158",
        "string_159",
        "string_160",
        "string_161",
        "string_162",
        "string_163",
        "string_164",
        "string_165",
        "string_166",
        "string_167"
      ]
    },
    {
      "id_qa": "FMSH_PB188a_20-21_071_qa21_v3",
      "id_block": "block_5",
      "question": "Pour quelle raison l'écariate Lénine esquinte-t-il le concept de demi-Etat ?",
      "answer": "pour arriver à en tirer une",
      "answer_stringIds": [
        "string_154",
        "string_155",
        "string_156",
        "string_157",
        "string_158",
        "string_159"
      ]
    },
    {
      "id_qa": "FMSH_PB188a_20-21_071_qa24_v3",
      "id_block": "block_5",
      "question": "Comment l'écariate Lénine esquinte-t-il le concept de demi-Etat ?",
      "answer": "à en tirer une contradiction aussi tragiquement burlesque",
      "answer_stringIds": [
        "string_156",
        "string_157",
        "string_158",
        "string_159",
        "string_160",
        "string_161",
        "string_162",
        "string_163",
        "string_164"
      ]
    },
    {
      "id_qa": "FMSH_PB188a_20-21_071_qa7_v3",
      "id_block": "block_6",
      "question": "Qu'est ce qui produit une large part des travailleurs manuels ?",
      "answer": "des objets parfaitement inutiles",
      "answer_stringIds": [
        "string_261",
        "string_262",
        "string_263",
        "string_264",
        "string_265"
      ]
    },
    {
      "id_qa": "FMSH_PB188a_20-21_071_qa9_v3",
      "id_block": "block_6",
      "question": "Qu'est ce qui condamne la séparation urbanisée ?",
      "answer": "la spontanéité économique des masses",
      "answer_stringIds": [
        "string_234",
        "string_235",
        "string_236",
        "string_237",
        "string_238"
      ]
    }
  ]
}