{
  "num": "autog_0338-7259_1973_num_22_1",
  "article": "autog_0338-7259_1973_num_22_1_1082",
  "page_name": "FMSH_PB188a_22-23_103",
  "questions": [
    "Quelle était la situation politique de la bourgeoisie lorsqu'elle est montée au pouvoir ?",
    "Pourquoi la bourgeoisie a-t-elle besoin de l'État pour exercer son pouvoir ?",
    "Quel est le rôle de l'État dans le système de classe et d'exploitation ?",
    "Comment le pouvoir politique et économique du prolétariat se distingue-t-il de celui de la bourgeoisie ?",
    "Quel est le rôle de l'autogestion dans le mouvement ouvrier révolutionnaire ?",
    "En quelles formes organisationnelles le prolétariat est-il organisé actuellement ?",
    "Quels intérêts définis résultent de la fonction dans le processus de production ?",
    "Quels sont les syndicats et quels sont leurs caractères actuels ?",
    "Comment les syndicats peuvent-ils contribuer à l'autogestion générale ?",
    "En quelles oppositions l'autogestion peut-elle s'organiser ?"
  ]
}