{
  "num": "autog_0338-7259_1973_num_22_1",
  "article": "autog_0338-7259_1973_num_22_1_1082",
  "page_name": "FMSH_PB188a_22-23_105",
  "questions": [
    "Quels sont les fédérations industrielles mentionnées dans le texte ?",
    "Comment le syndicalisme révolutionnaire est-il lié à la marche de l'économie ?",
    "En quels termes le texte décrit l'origine du syndicalisme révolutionnaire ?",
    "Quels sont les objectifs du syndicalisme révolutionnaire ?",
    "Comment le syndicalisme révolutionnaire se distingue-t-il de la théorisation de l'autogestion ?",
    "Quel est le rôle de l'Alliance syndicaliste dans le syndicalisme révolutionnaire ?"
  ]
}