{
  "num": "autog_0249-2563_1980_num_13_2",
  "article": "autog_0249-2563_1980_num_13_2_1857",
  "page_name": "autog_0249-2563_1980_num_13_2_T1_0251_0000",
  "questions": [
    "Quels types de personnes participent-elles au processus de travail collectif dans le Werkkreis ?",
    "Comment est mené le travail de préparation, de mise au point et de sélection des textes ?",
    "Quels types d'aide concretes sont apportées aux personnes qui n'ont pas une pratique d'écriture réelle ?",
    "Quels sont les objectifs principaux de la production de textes dans le Werkkreis ?",
    "Quels sont les lieux où se déroulent les lectures publiques organisées par le Werkkreis ?",
    "Comment le travail de diffusion est-il lié à la recherche de nouvelles formes de distribution ?",
    "Quel est le but de la formation nouvelle proposée par le Werkkreis aux collaborateurs ?",
    "Comment la collaboration entre non intellectuels et intellectuels est-elle décrite dans le texte ?",
    "Comment le Werkkreis est-il décrit comme une forme de littérature et d'écriture ?",
    "Quels sont les objectifs principaux de l'abolition de la séparation entre travail manuel et travail intellectuel et entre le politique et l'esthétique ?",
    "Comment le Werkkreis est-il décrit comme une tentative pour établir des nouveaux rapports entre penser et vivre ?",
    "Comment le Werkkreis est-il décrit comme une tentative pour s'exercer à de nouveaux comportements entre hommes et femmes ?",
    "Quels sont les domaines politiques et intellectuels où la question et l'existence des structures masculines sont problematisées ?"
  ]
}