{
  "num": "autog_0338-7259_1973_num_24_1",
  "article": "autog_0338-7259_1973_num_24_1_1824",
  "page_name": "FMSH_PB188a_24-25_020",
  "questions": [
    "Quels événements ont inspiré le groupe Solidarity ?",
    "Quels textes critiquant les sociétés bureaucratiques ont été publiés par le groupe Solidarity ?",
    "Quel livre de Kollontaï a été réédité par le groupe Solidarity ?",
    "Quels aspects des luttes révolutionnaires ont été abordés dans les publications du groupe Solidarity ?",
    "Quels textes importants ont été publiés par la revue Socialisme ou Barbarie ?",
    "Quels sont les positions critiques de Solidarity envers les pays de l'Est et la bureaucratie ?",
    "Quels sont les idées sur l'organisation et les rapports entre l'organisation et les masses selon Solidarity ?",
    "Quel est le concept de socialisme défendu par Solidarity ?",
    "Quels sont les critiques de Solidarity envers les conceptions marxistes traditionnelles sur la crise de la société capitaliste et la politique révolutionnaire ?",
    "Quel texte de Solidarity aborde le lien entre la répression sexuelle et la politique ?",
    "Quel groupe publie le journal Correspondance Ourvrières et reproduit fréquemment des articles de Solidarity ?"
  ]
}