{
  "num": "autog_0338-7259_1971_num_15_1",
  "article": "autog_0338-7259_1971_num_15_1_1007_t1_0183_0000_1",
  "page_name": "FMSH_PB188a_00015_185",
  "questions": [
    {
      "id_qa": "FMSH_PB188a_00015_185_qa1_v3",
      "id_block": "block_2",
      "question": "Quelle est la conséquence de l'absence d'autogestion ?",
      "answer": "rien conclure scientifiquement",
      "answer_stringIds": [
        "string_141",
        "string_142",
        "string_143"
      ]
    },
    {
      "id_qa": "FMSH_PB188a_00015_185_qa2_v3",
      "id_block": "block_2",
      "question": "Comment peut-on qualifier l'absence d'autogestion ?",
      "answer": "scientifiquement",
      "answer_stringIds": [
        "string_143"
      ]
    },
    {
      "id_qa": "FMSH_PB188a_00015_185_qa12_v3",
      "id_block": "block_2",
      "question": "Qui a écrit le livre \"autogestion industrielle\" ?",
      "answer": "le livre de Monique Laks",
      "answer_stringIds": [
        "string_90",
        "string_91",
        "string_92",
        "string_93",
        "string_94"
      ]
    },
    {
      "id_qa": "FMSH_PB188a_00015_185_qa4_v3",
      "id_block": "block_3",
      "question": "Qu'est-ce que l'auteur a voulu suivre ?",
      "answer": "à la fois un ordre systématique et un ordre historique",
      "answer_stringIds": [
        "string_157",
        "string_158",
        "string_159",
        "string_160",
        "string_161",
        "string_162",
        "string_163",
        "string_164",
        "string_165",
        "string_166"
      ]
    },
    {
      "id_qa": "FMSH_PB188a_00015_185_qa8_v3",
      "id_block": "block_3",
      "question": "Qu'est ce qui aurait pu réduire sinon supprimer le choix entre l'un ou l'autre des deux plans possibles ?",
      "answer": "un certain nombre de renvois et même de répétitions",
      "answer_stringIds": [
        "string_170",
        "string_171",
        "string_172",
        "string_173",
        "string_174",
        "string_175",
        "string_176",
        "string_177",
        "string_178"
      ]
    }
  ]
}