{
  "num": "autog_0338-7259_1971_num_15_1",
  "article": "autog_0338-7259_1971_num_15_1_1007_t1_0183_0000_1",
  "page_name": "FMSH_PB188a_00015_193",
  "questions": [
    {
      "id_qa": "FMSH_PB188a_00015_193_qa2_v3",
      "id_block": "block_1",
      "question": "Qui s'est enfermée par sa conception parcellaire de l'autogestion ?",
      "answer": "Monique Laks",
      "answer_stringIds": [
        "string_31",
        "string_32",
        "string_33"
      ]
    },
    {
      "id_qa": "FMSH_PB188a_00015_193_qa4_v3",
      "id_block": "block_1",
      "question": "Qu'est ce qui prouve que l'autogestion est impossible dans un pays en voie de développement ?",
      "answer": "sa remarquable analyse empirique de la pseudo-autogestion",
      "answer_stringIds": [
        "string_79",
        "string_80",
        "string_81",
        "string_82",
        "string_83",
        "string_84",
        "string_85"
      ]
    }
  ]
}