{
  "num": "autog_0338-7259_1971_num_15_1",
  "article": "autog_0338-7259_1971_num_15_1_1007_t1_0183_0000_1",
  "page_name": "FMSH_PB188a_00015_186",
  "questions": [
    {
      "id_qa": "FMSH_PB188a_00015_186_qa13_v3",
      "id_block": "block_1",
      "question": "Quand les entreprises ont-elles été remises en marche ?",
      "answer": "après le départ des européens",
      "answer_stringIds": [
        "string_27",
        "string_28",
        "string_29",
        "string_30",
        "string_31"
      ]
    },
    {
      "id_qa": "FMSH_PB188a_00015_186_qa14_v3",
      "id_block": "block_1",
      "question": "Qui a, un temps, toléré et contrôlé l'apparence ?",
      "answer": "le pouvoir politique central",
      "answer_stringIds": [
        "string_53",
        "string_54",
        "string_55",
        "string_56"
      ]
    },
    {
      "id_qa": "FMSH_PB188a_00015_186_qa15_v3",
      "id_block": "block_1",
      "question": "Qui est l'auteur de l'étude sur l'autogestion ?",
      "answer": "Monique Laks",
      "answer_stringIds": [
        "string_48",
        "string_49"
      ]
    },
    {
      "id_qa": "FMSH_PB188a_00015_186_qa16_v3",
      "id_block": "block_1",
      "question": "Qui a toléré et contrôlé l'apparence de l'autogestion ?",
      "answer": "le pouvoir politique central",
      "answer_stringIds": [
        "string_53",
        "string_54",
        "string_55",
        "string_56"
      ]
    },
    {
      "id_qa": "FMSH_PB188a_00015_186_qa17_v3",
      "id_block": "block_1",
      "question": "Qu'est ce qui a été remis en marche après le départ des européens ?",
      "answer": "les entreprises",
      "answer_stringIds": [
        "string_20",
        "string_21"
      ]
    },
    {
      "id_qa": "FMSH_PB188a_00015_186_qa28_v3",
      "id_block": "block_1",
      "question": "Qu'est ce qui n'a pas fonctionné ?",
      "answer": "un système",
      "answer_stringIds": [
        "string_7",
        "string_8"
      ]
    },
    {
      "id_qa": "FMSH_PB188a_00015_186_qa1_v3",
      "id_block": "block_2",
      "question": "Qui était en autogestion ?",
      "answer": "les ouvriers",
      "answer_stringIds": [
        "string_323",
        "string_324"
      ]
    },
    {
      "id_qa": "FMSH_PB188a_00015_186_qa26_v3",
      "id_block": "block_4",
      "question": "Qui a écrit la thèse inédite ?",
      "answer": "par Serge Koulitchizky",
      "answer_stringIds": [
        "string_339",
        "string_340",
        "string_341"
      ]
    },
    {
      "id_qa": "FMSH_PB188a_00015_186_qa27_v3",
      "id_block": "block_4",
      "question": "Qu'est-ce qui a été publié par Serge Koulitchizky ?",
      "answer": "les tableaux",
      "answer_stringIds": [
        "string_332",
        "string_333"
      ]
    },
    {
      "id_qa": "FMSH_PB188a_00015_186_qa22_v3",
      "id_block": "block_5",
      "question": "Sous quelle rubrique est inscrit le tiers des entreprises autogérées ?",
      "answer": "sous la rubrique « métallurgie",
      "answer_stringIds": [
        "string_384",
        "string_385",
        "string_386",
        "string_387",
        "string_388"
      ]
    },
    {
      "id_qa": "FMSH_PB188a_00015_186_qa23_v3",
      "id_block": "block_5",
      "question": "Combien d'ouvriers compte le tiers des entreprises autogérées ?",
      "answer": "moins de dix ouvriers",
      "answer_stringIds": [
        "string_372",
        "string_373",
        "string_374",
        "string_375",
        "string_376"
      ]
    }
  ]
}