{
  "num": "autog_0249-2563_1980_num_13_1",
  "article": "autog_0249-2563_1980_num_13_1_1342",
  "page_name": "autog_0249-2563_1980_num_13_1_T1_0039_0000",
  "questions": [
    {
      "id_qa": "autog_0249-2563_1980_num_13_1_T1_0039_0000_qa1_v3",
      "id_block": "block_1",
      "question": "Qui est suffisamment nombreux pour ne pas manquer ce nouveau rendez-vous ?",
      "answer": "Les militants politiques",
      "answer_stringIds": [
        "string_14",
        "string_15",
        "string_16"
      ]
    },
    {
      "id_qa": "autog_0249-2563_1980_num_13_1_T1_0039_0000_qa3_v3",
      "id_block": "block_1",
      "question": "Qu'est ce qui transforme les Etats policiers ?",
      "answer": "nos régimes",
      "answer_stringIds": [
        "string_78",
        "string_79"
      ]
    }
  ]
}