{
  "num": "autog_0249-2563_1981_num_14_7",
  "article": "autog_0249-2563_1981_num_14_7_1453",
  "page_name": "autog_0249-2563_1981_num_14_7_T1_0344_0000",
  "questions": [
    "Quel rôle joue l'Algérien A. Ben Bella dans le contexte de la tension grandissante entre l'Occident et le Kremlin ?",
    "Quels sont les préoccupations réelles de Ben Bella en matière de développement de l'Afrique ?",
    "Quels critères utilise-t-il pour proposer des solutions propres à l'Afrique ?",
    "Quels sont les principaux défis urgents que rencontre le continent africain ?",
    "Comment Ben Bella perçoit-il la place de l'autogestion dans le développement économique et culturel de l'Afrique ?",
    "Quel est le rôle qu'il attribue au socialisme fondé sur l'autogestion dans le monde ?",
    "Dans quels pays se situe selon lui le combat de Ben Bella ?",
    "Quel est son espoir pour les relations entre le Tiers monde et les pays avancés ?",
    "Quel jugement fait-il sur la victoire des socialistes en France ?",
    "Quels engagements pratiques attend-il de la France envers le Tiers monde ?"
  ]
}