{
  "num": "autog_0338-7259_1972_num_18_1",
  "article": "autog_0338-7259_1972_num_18_1_1051",
  "page_name": "FMSH_PB188a_18-19_261",
  "questions": [
    "Quel est le contexte historique dans lequel apparaît la Makhnovchtchina ?",
    "Quels sont les adversaires de la Makhnovchtchina dans ce contexte ?",
    "Quels sont les idées libérales qui ont été assimilées par les forces de la Makhnovchtchina ?",
    "Quel est le rôle de la Makhnovchtchina dans la vie des masses paysannes ?",
    "Quel est le chemin suivi par la Makhnovchtchina et quels sont ses objectifs ?",
    "Quel est le but final de la Makhnovchtchina en matière de vie sociale ?",
    "Comment la Makhnovchtchina s'unit-elle au prolétariat des villes ?",
    "De quelle base sociale la Makhnovchtchina est-elle issue ?",
    "Quel est le rôle de la Makhnovchtchina dans le triomphe de la Révolution sociale ?"
  ]
}