{
  "num": "autog_0338-7259_1979_num_43_1",
  "article": "autog_0338-7259_1979_num_43_1_1292",
  "page_name": "FMSH_PB188a_00043_006",
  "questions": [
    {
      "id_qa": "FMSH_PB188a_00043_006_qa2_v3",
      "id_block": "block_2",
      "question": "Quelles sont les rubriques habituelles de la revue ?",
      "answer": "comptes",
      "answer_stringIds": [
        "string_93"
      ]
    },
    {
      "id_qa": "FMSH_PB188a_00043_006_qa3_v3",
      "id_block": "block_2",
      "question": "Qu'est-ce qu'un volume \"d'actes de la conférence\"?",
      "answer": "un numéro de revue",
      "answer_stringIds": [
        "string_82",
        "string_83",
        "string_84",
        "string_85"
      ]
    },
    {
      "id_qa": "FMSH_PB188a_00043_006_qa9_v3",
      "id_block": "block_3",
      "question": "Quel régime se caractérise par la participation d'appartenance ?",
      "answer": "le régime roumain",
      "answer_stringIds": [
        "string_265",
        "string_266",
        "string_267"
      ]
    }
  ]
}