{
  "num": "autog_0249-2563_1980_num_13_2",
  "article": "autog_0249-2563_1980_num_13_2_1369",
  "page_name": "autog_0249-2563_1980_num_13_2_T1_0291_0000",
  "questions": [
    "Quel rôle attribue le texte à Gustav Heinemann dans l'histoire allemande?",
    "Quels aspects de la culture politique allemande, selon le texte, ont été mis en question par le mouvement étudiant?",
    "Quel est le lien entre la culture politique imposée par l'Etat-C.D.U. et le refus de l'histoire?",
    "Quel est le symbole de la tradition progressiste allemande que Heinemann évoque dans son discours?",
    "Quel est le consensus social en Allemagne décrit par Ralf Dahrendorf?",
    "Quels dangers voit-il dans ce consensus?",
    "Quels partis politiques est-il question de dans le texte?",
    "Quel livre a écrit le secrétaire général de la G.E.w.?",
    "Quel est le titre du livre de ce dernier?",
    "Où a-t-il présenté sa communication?",
    "Quel est le titre de la communication?",
    "Quand a-t-il eu lieu le symposium « Pouvoir et savoir »?"
  ]
}