{
  "num": "autog_0249-2563_1980_num_13_2",
  "article": "autog_0249-2563_1980_num_13_2_1369",
  "page_name": "autog_0249-2563_1980_num_13_2_T1_0290_0000",
  "questions": [
    "Quel discours est-il question dans ce paragraphe ?",
    "Quel rôle joue Alfred Grosser dans ce discours ?",
    "Quel type de démocratie privilégie-t-il ?",
    "Quels sont les mécanismes constitutionnels mentionnés ?",
    "Quels sont les libertés menacées ?",
    "Quel est le but de la classe politique réactionnaire ?",
    "Quel est le point de vue de l'opinion publique française sur les Allemands ?",
    "Quels sont les formes de culture libertaire retrouvées par la gauche allemande ?",
    "Dans quel domaine est-il question de rupture significative ?",
    "Quel comparaison est faite entre le sectarisme gauchiste et les méthodes d'intimidation ou de répression fascistes ?",
    "Quel rôle joue Helmut Schelsky dans ce contexte ?",
    "Quel est l'idéologie qu'il représente ?",
    "Quel lien est-il fait entre la Loi Fondamentale et la culture politique libérale ?"
  ]
}