{
  "num": "autog_0338-7259_1979_num_43_1",
  "article": "autog_0338-7259_1979_num_43_1_1292",
  "page_name": "FMSH_PB188a_00043_006",
  "questions": [
    "Quels auteurs sont mentionnés dans le texte et quels droits d'auteur doivent être respectés pour reproduire leurs travaux ?",
    "Quel est le rôle de la publication de ces contributions dans le domaine de la recherche scientifique sur l'autogestion ?",
    "Quel est la nature de ce numéro de revue, et quels sont les rubriques habituelles qu'il conserve ?",
    "Quel texte est qualifié de «document» et qu'en apprend-on grâce à sa publication ?",
    "Comment les autorités roumaines sont-elles intéressées par l'autogestion ?",
    "Quel est le caractère de la démocratie roumaine selon Petru Panzaru ?",
    "Quels types de participation politique existent selon Petru Panzaru dans les démocraties occidentales ?",
    "Quel est la fonction possible de ce discours sur l'autogestion dans la «république socialiste» de Roumanie ?",
    "Quel est la signification de l'expression «hommage du vice à la vertu» dans ce contexte ?"
  ]
}