{
  "num": "autog_0249-2563_1980_num_13_4",
  "article": "autog_0249-2563_1980_num_13_4_1396",
  "page_name": "autog_0249-2563_1980_num_13_4_T1_0479_0000",
  "questions": [
    "Quel rassemblement est-il question ici ?",
    "Quel sentiment prédomine parmi la foule ?",
    "Quels groupes sont présents et quels sont leurs actions ?",
    "Quels événements ont perturbé la tranquillité de la majorité ?",
    "Quels événements sont décisifs pour le mouvement anti-nucléaire dans les mois à venir ?",
    "Quel rôle joue le pouvoir dans la construction de nouvelles centrales nucléaires ?",
    "Quel rôle joue la radio et la télévision dans la diffusion de l'information sur le rassemblement ?",
    "Quels sont les enjeux financiers pour les organisateurs et pour le mouvement anti-nucléaire ?",
    "Quels pays apportent une importante mobilisation nationale ?",
    "Quel rôle jouent les groupuscules gauchistes dans le rassemblement ?",
    "Quel lien y a-t-il entre la construction de centrales nucléaires et l'économie ?"
  ]
}