{
  "num": "autog_0338-7259_1972_num_18_1",
  "article": "autog_0338-7259_1972_num_18_1_1047",
  "page_name": "FMSH_PB188a_18-19_241",
  "questions": [
    {
      "id_qa": "FMSH_PB188a_18-19_241_qa1_v3",
      "id_block": "block_1",
      "question": "Qu'est ce qui a été saboté dans la production ?",
      "answer": "des couches intellectuelles",
      "answer_stringIds": [
        "string_6",
        "string_7",
        "string_8"
      ]
    },
    {
      "id_qa": "FMSH_PB188a_18-19_241_qa2_v3",
      "id_block": "block_1",
      "question": "Qu'exigeaient les cadets et les libéraux ?",
      "answer": "une résistance armée",
      "answer_stringIds": [
        "string_61",
        "string_62",
        "string_63"
      ]
    },
    {
      "id_qa": "FMSH_PB188a_18-19_241_qa4_v3",
      "id_block": "block_1",
      "question": "Dans quelle industrie sont incrustées les couches intellectuelles inféodées à elle ?",
      "answer": "dans la production",
      "answer_stringIds": [
        "string_14",
        "string_15",
        "string_16"
      ]
    },
    {
      "id_qa": "FMSH_PB188a_18-19_241_qa8_v3",
      "id_block": "block_1",
      "question": "Qui étaient les partisans de l'ancien régime ?",
      "answer": "par les cadets et les libéraux qui",
      "answer_stringIds": [
        "string_51",
        "string_52",
        "string_53",
        "string_54",
        "string_55",
        "string_56",
        "string_57"
      ]
    },
    {
      "id_qa": "FMSH_PB188a_18-19_241_qa9_v3",
      "id_block": "block_1",
      "question": "Qu'est-ce qui a provoqué la meute des partisans du régime ?",
      "answer": "les interventions étrangères",
      "answer_stringIds": [
        "string_28",
        "string_29",
        "string_30",
        "string_31"
      ]
    },
    {
      "id_qa": "FMSH_PB188a_18-19_241_qa31_v3",
      "id_block": "block_1",
      "question": "Qu'est ce qui traina en longueur ?",
      "answer": "La lutte",
      "answer_stringIds": [
        "string_64",
        "string_65"
      ]
    },
    {
      "id_qa": "FMSH_PB188a_18-19_241_qa23_v3",
      "id_block": "block_2",
      "question": "Pour quelle raison l'industrie pouvait-elle travailler ?",
      "answer": "pour la satisfaction des besoins vitaux",
      "answer_stringIds": [
        "string_153",
        "string_154",
        "string_155",
        "string_156",
        "string_157",
        "string_158"
      ]
    },
    {
      "id_qa": "FMSH_PB188a_18-19_241_qa33_v3",
      "id_block": "block_2",
      "question": "Qu'exige la lutte contre la débâcle de l'industrie ?",
      "answer": "des efforts immenses",
      "answer_stringIds": [
        "string_97",
        "string_98",
        "string_99"
      ]
    },
    {
      "id_qa": "FMSH_PB188a_18-19_241_qa10_v3",
      "id_block": "block_3",
      "question": "Qui devait passer immédiatement à la fabrication maximale d'outils indispensables à l'économie agraire ?",
      "answer": "les ouvriers",
      "answer_stringIds": [
        "string_165",
        "string_166"
      ]
    },
    {
      "id_qa": "FMSH_PB188a_18-19_241_qa13_v3",
      "id_block": "block_4",
      "question": "Qui a montré que les ouvriers étaient leurs alliés naturels ?",
      "answer": "aux paysans",
      "answer_stringIds": [
        "string_264",
        "string_265"
      ]
    },
    {
      "id_qa": "FMSH_PB188a_18-19_241_qa24_v3",
      "id_block": "block_4",
      "question": "Qu'est ce qui aurait aidé à retenir et à renforcer les liens qui s'étaient créés ?",
      "answer": "dans la lutte commune contre la réaction",
      "answer_stringIds": [
        "string_254",
        "string_255",
        "string_256",
        "string_257",
        "string_258",
        "string_259",
        "string_260"
      ]
    }
  ]
}