{
  "num": "autog_0338-7259_1976_num_33_1",
  "article": "autog_0338-7259_1976_num_33_1_1162",
  "page_name": "FMSH_PB188a_33-34_126",
  "questions": [
    {
      "id_qa": "FMSH_PB188a_33-34_126_qa1_v3",
      "id_block": "block_1",
      "question": "Quand a eu lieu les transformations du monde moderne ?",
      "answer": "dès avant la première guerre mondiale",
      "answer_stringIds": [
        "string_216",
        "string_217",
        "string_218",
        "string_219",
        "string_220",
        "string_221"
      ]
    },
    {
      "id_qa": "FMSH_PB188a_33-34_126_qa2_v3",
      "id_block": "block_1",
      "question": "Qu'est ce qui suivrait la publication continue ?",
      "answer": "les transformations",
      "answer_stringIds": [
        "string_110",
        "string_111"
      ]
    },
    {
      "id_qa": "FMSH_PB188a_33-34_126_qa3_v3",
      "id_block": "block_1",
      "question": "Qu'est-ce que le bulletin continu ?",
      "answer": "une publication continue",
      "answer_stringIds": [
        "string_152",
        "string_153",
        "string_154"
      ]
    },
    {
      "id_qa": "FMSH_PB188a_33-34_126_qa5_v3",
      "id_block": "block_1",
      "question": "Qu'est ce qui suivrait les transformations de la vie quotidienne ?",
      "answer": "une espèce de bulletin continu",
      "answer_stringIds": [
        "string_155",
        "string_156",
        "string_157",
        "string_158",
        "string_159"
      ]
    },
    {
      "id_qa": "FMSH_PB188a_33-34_126_qa23_v3",
      "id_block": "block_1",
      "question": "Qu'est-ce qui est à l'origine des révolutions paysannes ?",
      "answer": "les réformes agraires",
      "answer_stringIds": [
        "string_77",
        "string_78",
        "string_79"
      ]
    },
    {
      "id_qa": "FMSH_PB188a_33-34_126_qa6_v3",
      "id_block": "block_2",
      "question": "Qu'est ce qui est subjectif ?",
      "answer": "le changement",
      "answer_stringIds": [
        "string_278",
        "string_279"
      ]
    },
    {
      "id_qa": "FMSH_PB188a_33-34_126_qa10_v3",
      "id_block": "block_3",
      "question": "Quels sont les deux continents qui sont en train de se former ?",
      "answer": "Le mondial et le planétaire",
      "answer_stringIds": [
        "string_310",
        "string_311",
        "string_312",
        "string_313",
        "string_314"
      ]
    },
    {
      "id_qa": "FMSH_PB188a_33-34_126_qa11_v3",
      "id_block": "block_3",
      "question": "Où est-ce que le mondial et le planétaire se forment ?",
      "answer": "à Phorizon",
      "answer_stringIds": [
        "string_334",
        "string_335"
      ]
    },
    {
      "id_qa": "FMSH_PB188a_33-34_126_qa14_v3",
      "id_block": "block_3",
      "question": "Quelle est l'idée directrice à l'heure actuelle ?",
      "answer": "une expérience mondiale",
      "answer_stringIds": [
        "string_307",
        "string_308",
        "string_309"
      ]
    },
    {
      "id_qa": "FMSH_PB188a_33-34_126_qa18_v3",
      "id_block": "block_3",
      "question": "Qui est à l'origine de cette situation difficile ?",
      "answer": "J'",
      "answer_stringIds": [
        "string_285"
      ]
    }
  ]
}