{
  "num": "autog_0338-7259_1976_num_33_1",
  "article": "autog_0338-7259_1976_num_33_1_1162",
  "page_name": "FMSH_PB188a_33-34_119",
  "questions": [
    {
      "id_qa": "FMSH_PB188a_33-34_119_qa9_v3",
      "id_block": "block_1",
      "question": "A quoi sert le marxisme ?",
      "answer": "à la publicité",
      "answer_stringIds": [
        "string_74",
        "string_75",
        "string_76"
      ]
    },
    {
      "id_qa": "FMSH_PB188a_33-34_119_qa10_v3",
      "id_block": "block_1",
      "question": "Où Lénine est-il mort ?",
      "answer": "dans son mausolée",
      "answer_stringIds": [
        "string_60",
        "string_61",
        "string_62"
      ]
    },
    {
      "id_qa": "FMSH_PB188a_33-34_119_qa24_v3",
      "id_block": "block_1",
      "question": "Comment est transformé le marxisme en idéologie ?",
      "answer": "en son contraire",
      "answer_stringIds": [
        "string_31",
        "string_32",
        "string_33",
        "string_34"
      ]
    },
    {
      "id_qa": "FMSH_PB188a_33-34_119_qa25_v3",
      "id_block": "block_1",
      "question": "Qu'est ce qui est mort en Russie ?",
      "answer": "le marxisme",
      "answer_stringIds": [
        "string_23",
        "string_24"
      ]
    },
    {
      "id_qa": "FMSH_PB188a_33-34_119_qa4_v3",
      "id_block": "block_2",
      "question": "Qu'est-ce que Le Capital ?",
      "answer": "une œuvre",
      "answer_stringIds": [
        "string_165",
        "string_166"
      ]
    },
    {
      "id_qa": "FMSH_PB188a_33-34_119_qa8_v3",
      "id_block": "block_2",
      "question": "Sur quoi la pensée de Lénine a-t-elle développé ?",
      "answer": "des concepts sur le plan théorique",
      "answer_stringIds": [
        "string_146",
        "string_147",
        "string_148",
        "string_149",
        "string_150",
        "string_151"
      ]
    },
    {
      "id_qa": "FMSH_PB188a_33-34_119_qa30_v3",
      "id_block": "block_2",
      "question": "Qu'est-ce qui se décline comme les êtres de la nature ?",
      "answer": "une société",
      "answer_stringIds": [
        "string_226",
        "string_227"
      ]
    },
    {
      "id_qa": "FMSH_PB188a_33-34_119_qa31_v3",
      "id_block": "block_2",
      "question": "Qu'est ce qui naît, grandit, mrit ?",
      "answer": "une société",
      "answer_stringIds": [
        "string_226",
        "string_227"
      ]
    },
    {
      "id_qa": "FMSH_PB188a_33-34_119_qa33_v3",
      "id_block": "block_2",
      "question": "Qu'est-ce qui naît, grandit, mrit ?",
      "answer": "une société",
      "answer_stringIds": [
        "string_226",
        "string_227"
      ]
    },
    {
      "id_qa": "FMSH_PB188a_33-34_119_qa0_v3",
      "id_block": "block_3",
      "question": "Qui ne voyait pas les choses comme ça ?",
      "answer": "Lénine",
      "answer_stringIds": [
        "string_59"
      ]
    },
    {
      "id_qa": "FMSH_PB188a_33-34_119_qa1_v3",
      "id_block": "block_3",
      "question": "Qu'est ce que Lénine ne voyait pas ?",
      "answer": "du tout les choses comme ça",
      "answer_stringIds": [
        "string_353",
        "string_354",
        "string_355",
        "string_356",
        "string_357",
        "string_358"
      ]
    },
    {
      "id_qa": "FMSH_PB188a_33-34_119_qa18_v3",
      "id_block": "block_3",
      "question": "Qu'est-ce que la grande dérive ?",
      "answer": "la révolution",
      "answer_stringIds": [
        "string_334",
        "string_335"
      ]
    },
    {
      "id_qa": "FMSH_PB188a_33-34_119_qa20_v3",
      "id_block": "block_3",
      "question": "Dans quel pays la révolution quitte-t-elle les pays industriels ?",
      "answer": "à prédominance paysanne",
      "answer_stringIds": [
        "string_346",
        "string_347",
        "string_348"
      ]
    },
    {
      "id_qa": "FMSH_PB188a_33-34_119_qa34_v3",
      "id_block": "block_3",
      "question": "Qu'est-ce que le léninisme ?",
      "answer": "une stratégie politique",
      "answer_stringIds": [
        "string_286",
        "string_287",
        "string_288",
        "string_289"
      ]
    },
    {
      "id_qa": "FMSH_PB188a_33-34_119_qa35_v3",
      "id_block": "block_3",
      "question": "Qui est à l'origine du léninisme ?",
      "answer": "Lénine",
      "answer_stringIds": [
        "string_59"
      ]
    }
  ]
}