{
  "num": "autog_0338-7259_1977_num_37_1",
  "article": "autog_0338-7259_1977_num_37_1_1213",
  "page_name": "FMSH_PB188a_37-38_019",
  "questions": [
    "Quels sont les auteurs du questionnaire mentionné au début du texte ?",
    "Pourquoi Yvon Bourdet ne répondrait-il pas point par point au questionnaire ?",
    "Qu'est ce que Yvon Bourdet souhaite contribuer à éclairer sur la revue ?",
    "Quels événements ont ouvert un espace pour la fondation de la revue ?",
    "Qui a initié le projet de fondation de la revue ?",
    "Quel rôle a joué l'intérêt suscité par l'expérience yougoslave dans la fondation de la revue ?",
    "Quels groupes ont poursuivi la critique de régimes communistes en France après la Seconde Guerre mondiale ?",
    "Quels groupes ont été inspirés de libertaire dans leur critique des régimes communistes en France après la Seconde Guerre mondiale ?"
  ]
}