{
  "num": "autog_0338-7259_1977_num_37_1",
  "article": "autog_0338-7259_1977_num_37_1_1213",
  "page_name": "FMSH_PB188a_37-38_024",
  "questions": [
    "Quel est le rôle exact de la subvention du CNRS dans les dépenses de la revue en question ?",
    "Qui détient le pouvoir de décision dans la publication de la revue ?",
    "Quel est le problème de la fréquence des signatures dans la revue et comment s'y est-il abordé par les Situationnistes ?",
    "Comment la rotation des tâches a-t-elle affecté la publication de la revue Autogestion et Socialisme ?",
    "Quels sont les raisons pour lesquelles certains membres du comité de rédaction ne proposaient rien ou ne participaient pas régulièrement aux réunions ?",
    "Pourquoi certains membres du comité de rédaction se sentaient plus motivés que d'autres ?",
    "Quel est le rôle de Michel Raptis dans la publication de la revue et comment il a tenté de rétablir un équilibre ?"
  ]
}