{
  "num": "autog_0338-7259_1977_num_37_1",
  "article": "autog_0338-7259_1977_num_37_1_1213",
  "page_name": "FMSH_PB188a_37-38_022",
  "questions": [
    "Quels sont les conditions qui permettent à la critique de préparer la critique des armes ?",
    "Comment les personnes opprimées peuvent-elles se persuader que leurs peines sont injustes et évitables ?",
    "Quel est le statut affectif de la référence aux grands philosophes ?",
    "Quel est le risque de stérilité ou d'étouffement de l'idée jetée ?",
    "Quel est le vice grave engendré par l'esprit de recherche universitaire ?",
    "Comment l'esprit de recherche scientifique s'oppose au dogmatisme ?",
    "Quel est le besoin pour agir et militer avec entrain ?",
    "Quel est le prix à payer pour avoir le courage de combattre les autres ?",
    "Quel est le rôle de la vergogne dans l'intolérance jactante de groupes ou d'individus ?",
    "Quels sont les principes du comité de rédaction en matière de dialogue et de critiques ?",
    "Dans quelle lumière la critique devrait-elle être faite ?"
  ]
}