{
  "num": "autog_0338-7259_1978_num_40_1",
  "article": "autog_0338-7259_1978_num_40_1_1286_t1_0129_0000_3",
  "page_name": "FMSH_PB188a_00040_130",
  "questions": [
    "Quels thèmes sont étudiés dans l'autogestionnaire et comment ils déploient la problématique autogestionnaire?",
    "En quoi la quotidienneté est-elle un enjeu majeur des luttes ?",
    "Quels types de luttes sont mentionnées dans le texte ?",
    "Qu'est l'écologie selon M. Bosquet et comment elle diffère de l'écologisme ?",
    "Quels choix sont proposés par M. Bosquet pour une nouvelle culture écologiste et autogestionnaire ?",
    "Qu'est l'autorégulation décentralisée et comment elle diffère de l'hétérorégulation centrale ?",
    "Comment la société différentialiste permettrait-elle de réaliser l'infinie diversité des capacités, désirs et goûts personnels ?",
    "Quels textes de A. Gorz sont-ils invités à lire pour en savoir plus sur l'autogestion et la critique de la division du travail ?"
  ]
}