{
  "num": "autog_0338-7259_1978_num_40_1",
  "article": "autog_0338-7259_1978_num_40_1_1277",
  "page_name": "FMSH_PB188a_00040_077",
  "questions": [
    {
      "id_qa": "FMSH_PB188a_00040_077_qa0_v3",
      "id_block": "block_2",
      "question": "Quel est l'effet important de l'autogestion ?",
      "answer": "de détruire la hiérarchie",
      "answer_stringIds": [
        "string_64",
        "string_65",
        "string_66",
        "string_67"
      ]
    },
    {
      "id_qa": "FMSH_PB188a_00040_077_qa38_v3",
      "id_block": "block_2",
      "question": "Qu'est-ce que l'autogestion ?",
      "answer": "la hiérarchie",
      "answer_stringIds": [
        "string_66",
        "string_67"
      ]
    },
    {
      "id_qa": "FMSH_PB188a_00040_077_qa2_v3",
      "id_block": "block_2",
      "question": "Qu'est ce qui implique l'autogestion ?",
      "answer": "La réciprocité",
      "answer_stringIds": [
        "string_110",
        "string_111"
      ]
    },
    {
      "id_qa": "FMSH_PB188a_00040_077_qa3_v3",
      "id_block": "block_2",
      "question": "Qu'est-ce qu'il y a dans un don ?",
      "answer": "autogestion",
      "answer_stringIds": [
        "string_61"
      ]
    },
    {
      "id_qa": "FMSH_PB188a_00040_077_qa5_v3",
      "id_block": "block_2",
      "question": "Qu'est ce que l'autogestion ?",
      "answer": "un don",
      "answer_stringIds": [
        "string_162",
        "string_163"
      ]
    },
    {
      "id_qa": "FMSH_PB188a_00040_077_qa36_v3",
      "id_block": "block_2",
      "question": "Qu'est ce qui est une façon de prendre ?",
      "answer": "la hiérarchie",
      "answer_stringIds": [
        "string_66",
        "string_67"
      ]
    },
    {
      "id_qa": "FMSH_PB188a_00040_077_qa37_v3",
      "id_block": "block_2",
      "question": "Qu'est-ce que la hiérarchie imposée ?",
      "answer": "la hiérarchie imposée est une façon de prendre",
      "answer_stringIds": [
        "string_71",
        "string_72",
        "string_73",
        "string_74",
        "string_75",
        "string_76",
        "string_77",
        "string_78"
      ]
    },
    {
      "id_qa": "FMSH_PB188a_00040_077_qa43_v3",
      "id_block": "block_2",
      "question": "Qui a étudié le salariat ?",
      "answer": "par Marx",
      "answer_stringIds": [
        "string_108",
        "string_109"
      ]
    },
    {
      "id_qa": "FMSH_PB188a_00040_077_qa44_v3",
      "id_block": "block_2",
      "question": "Qu'est-ce qui supprime la hiérarchie ?",
      "answer": "La réciprocité",
      "answer_stringIds": [
        "string_110",
        "string_111"
      ]
    },
    {
      "id_qa": "FMSH_PB188a_00040_077_qa35_v3",
      "id_block": "block_3",
      "question": "Qu'est ce que nous entendons par autogestion généralisée ?",
      "answer": "tout ce que vous avez dit de la réciprocité",
      "answer_stringIds": [
        "string_204",
        "string_205",
        "string_206",
        "string_207",
        "string_208",
        "string_209",
        "string_210",
        "string_211",
        "string_212"
      ]
    },
    {
      "id_qa": "FMSH_PB188a_00040_077_qa18_v3",
      "id_block": "block_4",
      "question": "Qu'appelle-t-on l'autogestion ?",
      "answer": "réciprocité générale",
      "answer_stringIds": [
        "string_224",
        "string_225"
      ]
    },
    {
      "id_qa": "FMSH_PB188a_00040_077_qa24_v3",
      "id_block": "block_5",
      "question": "Qu'est ce qui suppose l'autogestion généralisée ?",
      "answer": "ce mécanisme de la réciprocité",
      "answer_stringIds": [
        "string_266",
        "string_267",
        "string_268",
        "string_269",
        "string_270"
      ]
    },
    {
      "id_qa": "FMSH_PB188a_00040_077_qa27_v3",
      "id_block": "block_6",
      "question": "Pour qui le patron schyzophrène volerait-il les ouvriers ?",
      "answer": "pour donner aux consommateurs",
      "answer_stringIds": [
        "string_348",
        "string_349",
        "string_350",
        "string_351"
      ]
    },
    {
      "id_qa": "FMSH_PB188a_00040_077_qa40_v3",
      "id_block": "block_6",
      "question": "Qu'est-ce que l'autogestion généralisée ?",
      "answer": "la réciprocité",
      "answer_stringIds": [
        "string_3",
        "string_4"
      ]
    }
  ]
}