{
  "num": "autog_0249-2563_1980_num_13_4",
  "article": "autog_0249-2563_1980_num_13_4_1400",
  "page_name": "autog_0249-2563_1980_num_13_4_T1_0494_0000",
  "questions": [
    {
      "id_qa": "autog_0249-2563_1980_num_13_4_T1_0494_0000_qa3_v3",
      "id_block": "block_0",
      "question": "Qu'est-ce qui décide de partir ?",
      "answer": "un travailleur",
      "answer_stringIds": [
        "string_0",
        "string_1"
      ]
    },
    {
      "id_qa": "autog_0249-2563_1980_num_13_4_T1_0494_0000_qa4_v3",
      "id_block": "block_0",
      "question": "Quel est le choix du travailleur ?",
      "answer": "choisir de partir",
      "answer_stringIds": [
        "string_3",
        "string_4",
        "string_5"
      ]
    },
    {
      "id_qa": "autog_0249-2563_1980_num_13_4_T1_0494_0000_qa5_v3",
      "id_block": "block_0",
      "question": "Qu'est-ce que le travailleur ne trouve plus ?",
      "answer": "le travail répondant à ses aspirations",
      "answer_stringIds": [
        "string_20",
        "string_21",
        "string_22",
        "string_23",
        "string_24",
        "string_25"
      ]
    },
    {
      "id_qa": "autog_0249-2563_1980_num_13_4_T1_0494_0000_qa6_v3",
      "id_block": "block_0",
      "question": "Qui peut choisir de partir ?",
      "answer": "un travailleur",
      "answer_stringIds": [
        "string_0",
        "string_1"
      ]
    },
    {
      "id_qa": "autog_0249-2563_1980_num_13_4_T1_0494_0000_qa7_v3",
      "id_block": "block_0",
      "question": "Qu'est ce qui ne correspond plus à ses aspirations ?",
      "answer": "le travail",
      "answer_stringIds": [
        "string_20",
        "string_21"
      ]
    },
    {
      "id_qa": "autog_0249-2563_1980_num_13_4_T1_0494_0000_qa8_v3",
      "id_block": "block_0",
      "question": "Qu'est-ce que choisir un travailleur ?",
      "answer": "de partir",
      "answer_stringIds": [
        "string_4",
        "string_5"
      ]
    },
    {
      "id_qa": "autog_0249-2563_1980_num_13_4_T1_0494_0000_qa11_v3",
      "id_block": "block_2",
      "question": "Où les trois repas de la journée sont-ils pris en commun ?",
      "answer": "dans une grande salle",
      "answer_stringIds": [
        "string_79",
        "string_80",
        "string_81",
        "string_82"
      ]
    },
    {
      "id_qa": "autog_0249-2563_1980_num_13_4_T1_0494_0000_qa13_v3",
      "id_block": "block_2",
      "question": "Où sont pris les trois repas de la journée ?",
      "answer": "dans une grande salle",
      "answer_stringIds": [
        "string_79",
        "string_80",
        "string_81",
        "string_82"
      ]
    },
    {
      "id_qa": "autog_0249-2563_1980_num_13_4_T1_0494_0000_qa36_v3",
      "id_block": "block_2",
      "question": "A quelle heure les parents allaient-ils à l'école ?",
      "answer": "entre 16 et 20 heures",
      "answer_stringIds": [
        "string_140",
        "string_141",
        "string_142",
        "string_143",
        "string_144"
      ]
    },
    {
      "id_qa": "autog_0249-2563_1980_num_13_4_T1_0494_0000_qa37_v3",
      "id_block": "block_2",
      "question": "Qui allait à l'école entre 16 et 20 heures ?",
      "answer": "leurs parents",
      "answer_stringIds": [
        "string_138",
        "string_139"
      ]
    },
    {
      "id_qa": "autog_0249-2563_1980_num_13_4_T1_0494_0000_qa38_v3",
      "id_block": "block_2",
      "question": "Que prenaient les parents à l'école ?",
      "answer": "leurs repas",
      "answer_stringIds": [
        "string_133",
        "string_134"
      ]
    },
    {
      "id_qa": "autog_0249-2563_1980_num_13_4_T1_0494_0000_qa42_v3",
      "id_block": "block_2",
      "question": "Qui vivait en commun jusqu'à une date très récente ?",
      "answer": "les enfants",
      "answer_stringIds": [
        "string_114",
        "string_115"
      ]
    },
    {
      "id_qa": "autog_0249-2563_1980_num_13_4_T1_0494_0000_qa43_v3",
      "id_block": "block_2",
      "question": "Qu'est ce qui a pour but essentiel de libérer la femme des tâches matérielles liées à l'éducation des enfants ?",
      "answer": "Ce mode de vie",
      "answer_stringIds": [
        "string_145",
        "string_146",
        "string_147",
        "string_148"
      ]
    },
    {
      "id_qa": "autog_0249-2563_1980_num_13_4_T1_0494_0000_qa44_v3",
      "id_block": "block_2",
      "question": "Quel est le but essentiel de ce mode de vie ?",
      "answer": "la femme",
      "answer_stringIds": [
        "string_35",
        "string_36"
      ]
    },
    {
      "id_qa": "autog_0249-2563_1980_num_13_4_T1_0494_0000_qa33_v3",
      "id_block": "block_3",
      "question": "Qu'est ce qui a changé dans les kibboutzim ?",
      "answer": "cette façon de faire",
      "answer_stringIds": [
        "string_167",
        "string_168",
        "string_169",
        "string_170"
      ]
    },
    {
      "id_qa": "autog_0249-2563_1980_num_13_4_T1_0494_0000_qa24_v3",
      "id_block": "block_4",
      "question": "Qu'a décidé les kibboutzim du Mapam ?",
      "answer": "continuer la vie collective des enfants",
      "answer_stringIds": [
        "string_205",
        "string_206",
        "string_207",
        "string_208",
        "string_209",
        "string_210",
        "string_211"
      ]
    },
    {
      "id_qa": "autog_0249-2563_1980_num_13_4_T1_0494_0000_qa25_v3",
      "id_block": "block_4",
      "question": "Qui est le serviteur des kibboutzim ?",
      "answer": "la femme",
      "answer_stringIds": [
        "string_35",
        "string_36"
      ]
    },
    {
      "id_qa": "autog_0249-2563_1980_num_13_4_T1_0494_0000_qa26_v3",
      "id_block": "block_4",
      "question": "Qui a décidé de continuer la vie collective des enfants ?",
      "answer": "les kibboutzim du Mapam",
      "answer_stringIds": [
        "string_197",
        "string_198",
        "string_199",
        "string_200"
      ]
    },
    {
      "id_qa": "autog_0249-2563_1980_num_13_4_T1_0494_0000_qa27_v3",
      "id_block": "block_4",
      "question": "Qu'est-ce que la femme ne se replie sur elle-même ?",
      "answer": "en redevienne le serviteur",
      "answer_stringIds": [
        "string_231",
        "string_232",
        "string_233",
        "string_234",
        "string_235"
      ]
    },
    {
      "id_qa": "autog_0249-2563_1980_num_13_4_T1_0494_0000_qa2_v3",
      "id_block": "block_7",
      "question": "Qu'est ce qui prouve la compatibilité entre socialisme et abondance ?",
      "answer": "Tout cela",
      "answer_stringIds": [
        "string_441",
        "string_442"
      ]
    }
  ]
}