{
  "num": "autog_0249-2563_1980_num_13_4",
  "article": "autog_0249-2563_1980_num_13_4_1400",
  "page_name": "autog_0249-2563_1980_num_13_4_T1_0497_0000",
  "questions": [
    {
      "id_qa": "autog_0249-2563_1980_num_13_4_T1_0497_0000_qa6_v3",
      "id_block": "block_0",
      "question": "Où doit se rendre la coordination entre kibboutzim ?",
      "answer": "à la ville",
      "answer_stringIds": [
        "string_7",
        "string_8",
        "string_9"
      ]
    },
    {
      "id_qa": "autog_0249-2563_1980_num_13_4_T1_0497_0000_qa1_v3",
      "id_block": "block_3",
      "question": "Qu'est-ce que les femmes ne prennent jamais aux assemblées générales ?",
      "answer": "la parole",
      "answer_stringIds": [
        "string_144",
        "string_145"
      ]
    },
    {
      "id_qa": "autog_0249-2563_1980_num_13_4_T1_0497_0000_qa12_v3",
      "id_block": "block_3",
      "question": "Quelles sont les principales commissions à caractère social ?",
      "answer": "celles",
      "answer_stringIds": [
        "string_178"
      ]
    },
    {
      "id_qa": "autog_0249-2563_1980_num_13_4_T1_0497_0000_qa21_v3",
      "id_block": "block_4",
      "question": "Qu'est ce qui est inférieur à la moyenne pour les femmes ?",
      "answer": "leur participation",
      "answer_stringIds": [
        "string_225",
        "string_226"
      ]
    },
    {
      "id_qa": "autog_0249-2563_1980_num_13_4_T1_0497_0000_qa30_v3",
      "id_block": "block_5",
      "question": "Qui est à l'origine de l'abandon du kibboutz ?",
      "answer": "les jeunes",
      "answer_stringIds": [
        "string_279",
        "string_280"
      ]
    },
    {
      "id_qa": "autog_0249-2563_1980_num_13_4_T1_0497_0000_qa15_v3",
      "id_block": "block_6",
      "question": "Quelle est l'utilité des travaux d'artisanat pour les kibboutzim ?",
      "answer": "passer plus facilement à une semi-retraite adaptée à leur âge",
      "answer_stringIds": [
        "string_350",
        "string_351",
        "string_352",
        "string_353",
        "string_354",
        "string_355",
        "string_356",
        "string_357",
        "string_358",
        "string_359"
      ]
    },
    {
      "id_qa": "autog_0249-2563_1980_num_13_4_T1_0497_0000_qa16_v3",
      "id_block": "block_6",
      "question": "Quel type de retraite permet aux kibboutzim de passer plus facilement à la retraite ?",
      "answer": "une semi-retraite",
      "answer_stringIds": [
        "string_354",
        "string_355"
      ]
    },
    {
      "id_qa": "autog_0249-2563_1980_num_13_4_T1_0497_0000_qa24_v3",
      "id_block": "block_6",
      "question": "Qu'observe-t-on chez les vieux ?",
      "answer": "ils se désintéressent peu à peu de la gestion",
      "answer_stringIds": [
        "string_298",
        "string_299",
        "string_300",
        "string_301",
        "string_302",
        "string_303",
        "string_304",
        "string_305",
        "string_306"
      ]
    },
    {
      "id_qa": "autog_0249-2563_1980_num_13_4_T1_0497_0000_qa25_v3",
      "id_block": "block_6",
      "question": "De quoi les vieux se désintéressent peu à peu ?",
      "answer": "la gestion",
      "answer_stringIds": [
        "string_305",
        "string_306"
      ]
    },
    {
      "id_qa": "autog_0249-2563_1980_num_13_4_T1_0497_0000_qa27_v3",
      "id_block": "block_8",
      "question": "A quoi a été soumise l'économie israélienne avec le gouvernement Bégin ?",
      "answer": "pire des libéralismes",
      "answer_stringIds": [
        "string_425",
        "string_426",
        "string_427"
      ]
    },
    {
      "id_qa": "autog_0249-2563_1980_num_13_4_T1_0497_0000_qa28_v3",
      "id_block": "block_8",
      "question": "Quel est le pire des libéralismes ?",
      "answer": "celui qui",
      "answer_stringIds": [
        "string_428",
        "string_429"
      ]
    },
    {
      "id_qa": "autog_0249-2563_1980_num_13_4_T1_0497_0000_qa29_v3",
      "id_block": "block_8",
      "question": "Qu'est ce qui a emporté l'économie israélienne ?",
      "answer": "La loi du marché",
      "answer_stringIds": [
        "string_403",
        "string_404",
        "string_405",
        "string_406"
      ]
    }
  ]
}