{
  "num": "autog_0338-7259_1974_num_26_1",
  "article": "autog_0338-7259_1974_num_26_1_1115",
  "page_name": "FMSH_PB188a_26-27_163",
  "questions": [
    "Quels sont les aspects clés de l'auto-organisation sociale au niveau mental de la lutte anti-capitaliste ?",
    "Quel est le rôle du rapport antagoniste entre le prolétaire et le patron dans cette situation ?",
    "Quels sont les ennemis principaux pour le prolétaire dans cette situation ?",
    "Quels sont les grandes expériences politiques permises par cette situation ?",
    "Quels sont les obstacles à l'expansion et la réalisation pleine de ces expériences ?",
    "Quels sont les perspectives de développement positif pour ces expériences ?",
    "Comment les organisations de masse peuvent-elles grouper non seulement les divers secteurs ouvriers, mais surtout les chômeurs et les non-chômeurs ?"
  ]
}