{
  "num": "autog_0338-7259_1974_num_26_1",
  "article": "autog_0338-7259_1974_num_26_1_1115",
  "page_name": "FMSH_PB188a_26-27_155",
  "questions": [
    "Quels facteurs empêchent la lutte sociale au niveau de l'usine de s'unifier avec la lutte sociale plus large au-delà ?",
    "Quels secteurs de production sont-ils difficiles à homogénéiser et pourquoi ?",
    "Quels groupes sociaux marginalisés sont-ils freinés dans leur unification au sein du prolétariat ?",
    "Comment la différenciation permanente des activités au sein du prolétariat empêche l'homogénéisation et l'unification spontanée de ce dernier ?",
    "Quel facteur fondamental doit être pris en compte dans une stratégie révolutionnaire ?",
    "Comment les exigences immédiates des travailleurs de l'agriculture et de l'industrie, des chômeurs et des non-chômeurs peuvent-elles être utilisées pour favoriser l'unification prolétarienne ?",
    "Quels thèmes sont les plus prometteurs pour favoriser l'unification prolétarienne ?"
  ]
}