{
  "num": "autog_0338-7259_1974_num_26_1",
  "article": "autog_0338-7259_1974_num_26_1_1115",
  "page_name": "FMSH_PB188a_26-27_150",
  "questions": [
    "Quel rôle jouent les organismes de masse dans les luttes de la période 1968-1969 en Italie ?",
    "Quels types d'organisations sont recherchées par la classe ouvrière et ses alliés pour répondre aux exigences de l'époque ?",
    "En quoi consiste l'impossibilité de séparer les luttes sectorielles des objectifs politiques dans le capitalisme actuel ?",
    "Quels mouvements ont révélé cette impossibilité ?",
    "Quels sont les objectifs politiques complexes des problèmes de la condition ouvrière dans la société bourgeoise ?",
    "Comment les mouvements revendicatifs doivent-ils être interprétés ?",
    "Quels sont les expériences d'autogestion des luttes et les types de mobilisation des couches prolétaires et populaires analysées dans cette perspective ?",
    "Comment l'analyse des organismes dans une perspective sociale permet-elle de dégager la source première des structures de pouvoir et de l'unification de la classe ouvrière et des masses populaires ?",
    "Quel saut qualitatif a réussi la classe ouvrière italienne à franchir à partir de 1968 ?",
    "Comment l'analyse des luttes ouvrières d'avantgarde (Fiat, Pirelli, Montedison et Porto Marghera, Alfa Romeo, etc.) contribue-t-elle à comprendre les structures de pouvoir et l'unification de la classe ouvrière et des masses populaires ?"
  ]
}