{
  "num": "autog_0249-2563_1984_num_17_16",
  "article": "autog_0249-2563_1984_num_17_16_1598",
  "page_name": "autog_0249-2563_1984_num_17_16_T1_0086_0000",
  "questions": [
    "Quels objectifs visaient les politiques économiques et sociales en matière de sécurité du revenu des paysans selon les orientations des années 1960-1980 ?",
    "En quelles années s'est déroulée la dernière phase forte de croissance de l'économie et de l'agriculture, et quels événements ont marqué cette période ?",
    "Quels slogans ont été utilisés pendant les luttes paysannes des années 1968-1974 ?",
    "Quels sont les aspirations légitimes que devait faire droit une politique nouvelle en matière de revenu paysan et de contrôle équitable de la destination des terres ?",
    "Quels textes ont été publiés par le PS et la CNSTP en 1981 en matière de politiques agricoles ?",
    "Quels événements ont marqué les luttes paysannes des années 1968-1974, en particulier en matière de prix des produits agricoles ?",
    "Quels partis politiques, organisations paysannes et mouvements sont impliqués dans le débat sur l'interprétation des orientations des années 1960-1980 en matière de politiques agricoles ?",
    "Quels sont les rapports sociaux actuels de la société envers l'agriculture et les paysans ?",
    "Quels sont les objectifs de parité que l'on voulait atteindre dans les années 1960, et comment l'a la modernisation affectée cette parité ?",
    "Quels sont les garanties obtenues par les salariés et comment les paysans constatent-ils qu'ils ne les ont pas obtenus ?"
  ]
}