{
  "num": "autog_0249-2563_1984_num_17_16",
  "article": "autog_0249-2563_1984_num_17_16_1598",
  "page_name": "autog_0249-2563_1984_num_17_16_T1_0085_0000",
  "questions": [
    "Quel est le contexte historique dans lequel Gilles Allaire écrit cet article ?",
    "Quels sont les promesses faites aux agriculteurs selon Allaire ?",
    "Comment les promesses faites aux agriculteurs diffèrent-elles des promessions faites aux mineurs et aux sidérurgistes lorrains ?",
    "Quel est le rôle des intermédiaires dans cette période ?",
    "Quel est le sort des spéculateurs ?",
    "Quel est le rôle de la paysannerie dans l'État-providence ?",
    "Quel est le rôle de la gauche paysanne dans cette période ?",
    "Quels sont les principaux mots d'ordre du projet social alternatif de la gauche paysanne ?",
    "Dans quels documents on trouve des informations supplémentaires sur les orientations de la gauche en matière d'agriculture en 1981 ?",
    "Quels analyses de l'action gouvernementale et législative sur cette période on trouve dans la revue Nouvelles Campagnes ?"
  ]
}