{
  "num": "autog_0338-7259_1971_num_15_1",
  "article": "autog_0338-7259_1971_num_15_1_1001",
  "page_name": "FMSH_PB188a_00015_116",
  "questions": [
    {
      "id_qa": "FMSH_PB188a_00015_116_qa6_v3",
      "id_block": "block_4",
      "question": "Où a lieu l'insurrection de la 18th of March?",
      "answer": "at London",
      "answer_stringIds": [
        "string_127",
        "string_128"
      ]
    },
    {
      "id_qa": "FMSH_PB188a_00015_116_qa14_v3",
      "id_block": "block_5",
      "question": "Qui est Sir, obediently ?",
      "answer": "I",
      "answer_stringIds": [
        "string_256"
      ]
    }
  ]
}