{
  "num": "autog_0338-7259_1971_num_15_1",
  "article": "autog_0338-7259_1971_num_15_1_1001",
  "page_name": "FMSH_PB188a_00015_108",
  "questions": [
    {
      "id_qa": "FMSH_PB188a_00015_108_qa0_v3",
      "id_block": "block_1",
      "question": "Quelle révolution est encore à faire dans les Etats qui ont supprimé les capitalistes privés ?",
      "answer": "la révolution des rapports de production",
      "answer_stringIds": [
        "string_15",
        "string_16",
        "string_17",
        "string_18",
        "string_19",
        "string_20"
      ]
    },
    {
      "id_qa": "FMSH_PB188a_00015_108_qa1_v3",
      "id_block": "block_1",
      "question": "Dans quel pays la révolution des rapports de production est elle encore à faire ?",
      "answer": "les Etats",
      "answer_stringIds": [
        "string_26",
        "string_27"
      ]
    },
    {
      "id_qa": "FMSH_PB188a_00015_108_qa2_v3",
      "id_block": "block_1",
      "question": "Qui a supprimé la révolution des rapports de production ?",
      "answer": "les capitalistes privés",
      "answer_stringIds": [
        "string_31",
        "string_32",
        "string_33"
      ]
    },
    {
      "id_qa": "FMSH_PB188a_00015_108_qa5_v3",
      "id_block": "block_1",
      "question": "Qui est à l'origine du débat sur le mouvement coopératif ?",
      "answer": "Marx",
      "answer_stringIds": [
        "string_35"
      ]
    },
    {
      "id_qa": "FMSH_PB188a_00015_108_qa7_v3",
      "id_block": "block_1",
      "question": "Qu'est-ce que la coopérative de consommation ?",
      "answer": "la coopérative de production",
      "answer_stringIds": [
        "string_273",
        "string_274",
        "string_275",
        "string_276"
      ]
    },
    {
      "id_qa": "FMSH_PB188a_00015_108_qa8_v3",
      "id_block": "block_1",
      "question": "Qui se trompait en déduisant que cette suppression serait décisive ?",
      "answer": "Marx",
      "answer_stringIds": [
        "string_35"
      ]
    },
    {
      "id_qa": "FMSH_PB188a_00015_108_qa9_v3",
      "id_block": "block_1",
      "question": "Qu'est-ce qu'une nouvelle organisation des travailleurs associés ?",
      "answer": "une société sans classe",
      "answer_stringIds": [
        "string_91",
        "string_92",
        "string_93",
        "string_94"
      ]
    },
    {
      "id_qa": "FMSH_PB188a_00015_108_qa10_v3",
      "id_block": "block_1",
      "question": "Qu'est-ce que cette suppression serait décisive ?",
      "answer": "au travail salarié",
      "answer_stringIds": [
        "string_61",
        "string_62",
        "string_63"
      ]
    },
    {
      "id_qa": "FMSH_PB188a_00015_108_qa11_v3",
      "id_block": "block_1",
      "question": "Qui pensait que cette suppression serait décisive et mettrait fin au travail salarié ?",
      "answer": "Marx",
      "answer_stringIds": [
        "string_35"
      ]
    },
    {
      "id_qa": "FMSH_PB188a_00015_108_qa12_v3",
      "id_block": "block_1",
      "question": "Qu'est ce qu'il voulait faire avec la suppression du travail salarié ?",
      "answer": "une nouvelle organisation des travailleurs associés",
      "answer_stringIds": [
        "string_83",
        "string_84",
        "string_85",
        "string_86",
        "string_87",
        "string_88"
      ]
    },
    {
      "id_qa": "FMSH_PB188a_00015_108_qa13_v3",
      "id_block": "block_1",
      "question": "Qui a pris parti nettement dans une des controverses les plus brûlantes encore aujourd'hui ?",
      "answer": "Marx",
      "answer_stringIds": [
        "string_35"
      ]
    }
  ]
}