{
  "num": "autog_0338-7259_1971_num_15_1",
  "article": "autog_0338-7259_1971_num_15_1_1001",
  "page_name": "FMSH_PB188a_00015_112",
  "questions": [
    {
      "id_qa": "FMSH_PB188a_00015_112_qa26_v3",
      "id_block": "block_1",
      "question": "Qu'est-ce qui permettrait de favoriser la croissance économique ?",
      "answer": "la favoriser avec des moyens nationaux",
      "answer_stringIds": [
        "string_6",
        "string_7",
        "string_8",
        "string_9",
        "string_10",
        "string_11",
        "string_12"
      ]
    },
    {
      "id_qa": "FMSH_PB188a_00015_112_qa20_v3",
      "id_block": "block_2",
      "question": "Quel système est impuissant à transformer par lui-même la société capitaliste ?",
      "answer": "Le système coopératif restreint",
      "answer_stringIds": [
        "string_63",
        "string_64",
        "string_65",
        "string_66"
      ]
    },
    {
      "id_qa": "FMSH_PB188a_00015_112_qa23_v3",
      "id_block": "block_2",
      "question": "Quelle est la conséquence de la destruction de l'Etat ?",
      "answer": "la mise en autogestion de la production",
      "answer_stringIds": [
        "string_21",
        "string_22",
        "string_23",
        "string_24",
        "string_25",
        "string_26",
        "string_27"
      ]
    },
    {
      "id_qa": "FMSH_PB188a_00015_112_qa24_v3",
      "id_block": "block_2",
      "question": "En quoi consiste la production sociale ?",
      "answer": "en un large et harmonieux système de travail coopératif",
      "answer_stringIds": [
        "string_91",
        "string_92",
        "string_93",
        "string_94",
        "string_95",
        "string_96",
        "string_97",
        "string_98",
        "string_99",
        "string_100"
      ]
    },
    {
      "id_qa": "FMSH_PB188a_00015_112_qa1_v3",
      "id_block": "block_3",
      "question": "Qu'est ce qui doit être un leurre et un piège ?",
      "answer": "la production coopérative",
      "answer_stringIds": [
        "string_218",
        "string_219",
        "string_220",
        "string_221"
      ]
    },
    {
      "id_qa": "FMSH_PB188a_00015_112_qa3_v3",
      "id_block": "block_3",
      "question": "Qu'est ce qui doit être réglé par l'ensemble des associations coopératives ?",
      "answer": "régler la production nationale",
      "answer_stringIds": [
        "string_246",
        "string_247",
        "string_248",
        "string_249"
      ]
    },
    {
      "id_qa": "FMSH_PB188a_00015_112_qa5_v3",
      "id_block": "block_3",
      "question": "Quel système doit être écarté de la production coopérative ?",
      "answer": "le système capitaliste",
      "answer_stringIds": [
        "string_236",
        "string_237",
        "string_238"
      ]
    },
    {
      "id_qa": "FMSH_PB188a_00015_112_qa6_v3",
      "id_block": "block_3",
      "question": "Que doit régler l'ensemble des associations coopératives ?",
      "answer": "la production nationale",
      "answer_stringIds": [
        "string_247",
        "string_248",
        "string_249"
      ]
    },
    {
      "id_qa": "FMSH_PB188a_00015_112_qa14_v3",
      "id_block": "block_3",
      "question": "Qu'est-ce que la Commune ?",
      "answer": "faire de la propriété individuelle une réalité",
      "answer_stringIds": [
        "string_171",
        "string_172",
        "string_173",
        "string_174",
        "string_175",
        "string_176",
        "string_177"
      ]
    },
    {
      "id_qa": "FMSH_PB188a_00015_112_qa13_v3",
      "id_block": "block_3",
      "question": "Qui a écrit \"La Commune\" ?",
      "answer": "Marx",
      "answer_stringIds": [
        "string_153"
      ]
    },
    {
      "id_qa": "FMSH_PB188a_00015_112_qa16_v3",
      "id_block": "block_3",
      "question": "Qu'est ce que la Commune ?",
      "answer": "une réalité",
      "answer_stringIds": [
        "string_176",
        "string_177"
      ]
    },
    {
      "id_qa": "FMSH_PB188a_00015_112_qa21_v3",
      "id_block": "block_3",
      "question": "Qu'est ce qui permet aux changements de la société ?",
      "answer": "des forces",
      "answer_stringIds": [
        "string_114",
        "string_115"
      ]
    },
    {
      "id_qa": "FMSH_PB188a_00015_112_qa22_v3",
      "id_block": "block_3",
      "question": "Qu'est ce qui ne sera jamais obtenu sans l'emploi des forces organisées ?",
      "answer": "Ces changements",
      "answer_stringIds": [
        "string_106",
        "string_107"
      ]
    },
    {
      "id_qa": "FMSH_PB188a_00015_112_qa7_v3",
      "id_block": "block_6",
      "question": "Qu'est-ce que les forces organisées ?",
      "answer": "la violence",
      "answer_stringIds": [
        "string_271",
        "string_272"
      ]
    }
  ]
}