{
  "num": "autog_0338-7259_1978_num_40_1",
  "article": "autog_0338-7259_1978_num_40_1_1271",
  "page_name": "FMSH_PB188a_00040_025",
  "questions": [
    "Quels groupes sociaux considèrent-ils capables de détruire l'ordre établi et de reconstruire une autre?",
    "Est-il possible que les prises de conscience des groupes minoritaires soient compatibles avec une nouvelle conscience mondialiste?",
    "Qu'en pensez-vous du mouvement international « Alternative à la psychiatrie » et de mouvements similaires en matière d'internationalisation?",
    "Quel type de nouvelle internationalisme est-il en train de naître?",
    "Quels sont les mouvements « nationalitaires » en gestation?",
    "Quels sont les rencontres internationales mentionnées (de Bologne, de Kalkar, de Berlin, de Francfort)?",
    "Qu'est votre position sur la nécessité d'un compromis ou de la subversion du pouvoir d'Etat?",
    "Qui peut faire face au pouvoir d'Etat et qui va autogérer?",
    "Quel rôle jouent-ils dans la perspective d'une issue positive?",
    "Qu'est votre vision de l'État dans le socialisme?",
    "Qu'est votre vision de l'autogestion dans le socialisme?"
  ]
}