{
  "num": "autog_0338-7259_1970_num_13_1",
  "article": "autog_0338-7259_1970_num_13_1_972",
  "page_name": "FMSH_PB188a_13-14_011",
  "questions": [
    {
      "id_qa": "FMSH_PB188a_13-14_011_qa8_v3",
      "id_block": "block_2",
      "question": "Qu'est-ce que l'autogestion ?",
      "answer": "un mot — trop rapide de la théorie politique",
      "answer_stringIds": [
        "string_96",
        "string_97",
        "string_98",
        "string_99",
        "string_100",
        "string_102",
        "string_103",
        "string_104",
        "string_105"
      ]
    },
    {
      "id_qa": "FMSH_PB188a_13-14_011_qa16_v3",
      "id_block": "block_2",
      "question": "Qui a écrit les écrits de Lénine, de Trotsky et de Gramsci ?",
      "answer": "Rosa Luxemburg",
      "answer_stringIds": [
        "string_192",
        "string_193"
      ]
    },
    {
      "id_qa": "FMSH_PB188a_13-14_011_qa10_v3",
      "id_block": "block_3",
      "question": "Qui a traduit Pannekoek et les conseils ouvriers ?",
      "answer": "par Serge Bricianer",
      "answer_stringIds": [
        "string_266",
        "string_267",
        "string_268"
      ]
    },
    {
      "id_qa": "FMSH_PB188a_13-14_011_qa13_v3",
      "id_block": "block_3",
      "question": "Qui a écrit Pannekoek et les conseils ouvriers ?",
      "answer": "par Serge Bricianer",
      "answer_stringIds": [
        "string_266",
        "string_267",
        "string_268"
      ]
    }
  ]
}