{
  "num": "autog_0249-2563_1982_num_15_8",
  "article": "autog_0249-2563_1982_num_15_8_1485",
  "page_name": "autog_0249-2563_1982_num_15_8_T1_0194_0000",
  "questions": [
    "Quel sens prend-on par \"l'auto-détermination par les travailleurs des conditions de travail\" ?",
    "Quel est le rôle de la production socialisée dans l'autonomie des travailleurs ?",
    "Est-ce que le travail autonome est toujours autonome ?",
    "Quel est le caractère de ce travail autonome dans la société paysanne-artisanale ?",
    "Qu'est-ce qui rend gratifiant les activités autonomes aujourd'hui ?",
    "Comment les îlots autonomes constituent-ils des modèles culturels et sociétaux alternatifs dans une société dominée par la grande production marchande ?",
    "Comment l'État peut-il être conformisant sans être centralisateur ?",
    "Quel est le rôle de l'État dans la réglementation des conditions de travail dans une société où l'autonomie des travailleurs est valorisée ?"
  ]
}