{
  "num": "autog_0005-0970_1969_num_9_1",
  "article": "autog_0005-0970_1969_num_9_1_952",
  "page_name": "FMSH_PB188a_09-10_020",
  "questions": [
    {
      "id_qa": "FMSH_PB188a_09-10_020_qa6_v3",
      "id_block": "block_1",
      "question": "Où est-ce qu'on estime à 120 leur nombre en 1969 ?",
      "answer": "en Tchécoslovaquie",
      "answer_stringIds": [
        "string_13",
        "string_14"
      ]
    },
    {
      "id_qa": "FMSH_PB188a_09-10_020_qa19_v3",
      "id_block": "block_2",
      "question": "Qui a rempli le questionnaire ?",
      "answer": "conseils",
      "answer_stringIds": [
        "string_51"
      ]
    },
    {
      "id_qa": "FMSH_PB188a_09-10_020_qa21_v3",
      "id_block": "block_3",
      "question": "Qui a élu les conseils ouvriers ?",
      "answer": "des entreprises",
      "answer_stringIds": [
        "string_141",
        "string_142",
        "string_143"
      ]
    }
  ]
}