{
  "num": "autog_0005-0970_1969_num_9_1",
  "article": "autog_0005-0970_1969_num_9_1_952",
  "page_name": "FMSH_PB188a_09-10_005",
  "questions": [
    {
      "id_qa": "FMSH_PB188a_09-10_005_qa0_v3",
      "id_block": "block_2",
      "question": "Qu'est ce qui s'est passé en Tchécoslovaquie en 1968 ?",
      "answer": "le mouvement social",
      "answer_stringIds": [
        "string_13",
        "string_14",
        "string_15"
      ]
    },
    {
      "id_qa": "FMSH_PB188a_09-10_005_qa1_v3",
      "id_block": "block_2",
      "question": "Où s'est déroulé le mouvement social ?",
      "answer": "en Tchécoslovaquie",
      "answer_stringIds": [
        "string_19",
        "string_20"
      ]
    },
    {
      "id_qa": "FMSH_PB188a_09-10_005_qa3_v3",
      "id_block": "block_2",
      "question": "Qui analyse le mouvement social en Tchécoslovaquie en 1968 ?",
      "answer": "Ceux",
      "answer_stringIds": [
        "string_10"
      ]
    },
    {
      "id_qa": "FMSH_PB188a_09-10_005_qa4_v3",
      "id_block": "block_2",
      "question": "Quand a eu lieu le mouvement social en Tchécoslovaquie ?",
      "answer": "en 1968",
      "answer_stringIds": [
        "string_21",
        "string_22"
      ]
    },
    {
      "id_qa": "FMSH_PB188a_09-10_005_qa6_v3",
      "id_block": "block_3",
      "question": "Qu'est ce qui caractérise le socialisme de conception burreaucratique ?",
      "answer": "la crise des rapports sociaux",
      "answer_stringIds": [
        "string_81",
        "string_82",
        "string_83",
        "string_84",
        "string_85"
      ]
    },
    {
      "id_qa": "FMSH_PB188a_09-10_005_qa8_v3",
      "id_block": "block_3",
      "question": "Qu'est-ce qui caractérise le socialisme de conception burreaucratique ?",
      "answer": "la crise des rapports sociaux",
      "answer_stringIds": [
        "string_81",
        "string_82",
        "string_83",
        "string_84",
        "string_85"
      ]
    },
    {
      "id_qa": "FMSH_PB188a_09-10_005_qa15_v3",
      "id_block": "block_4",
      "question": "Qu'est ce que nous nous proposons d'élucider ?",
      "answer": "le sens de ce mouvement",
      "answer_stringIds": [
        "string_146",
        "string_147",
        "string_148",
        "string_149",
        "string_150"
      ]
    }
  ]
}