{
  "num": "autog_0005-0970_1969_num_9_1",
  "article": "autog_0005-0970_1969_num_9_1_952",
  "page_name": "FMSH_PB188a_09-10_016",
  "questions": [
    {
      "id_qa": "FMSH_PB188a_09-10_016_qa12_v3",
      "id_block": "block_1",
      "question": "Qui a jamais assumé cette fonction ?",
      "answer": "les comités du Parti",
      "answer_stringIds": [
        "string_126",
        "string_127",
        "string_128",
        "string_129"
      ]
    },
    {
      "id_qa": "FMSH_PB188a_09-10_016_qa15_v3",
      "id_block": "block_1",
      "question": "Qui a établi les listes des candidats ?",
      "answer": "les Comités du Parti",
      "answer_stringIds": [
        "string_103",
        "string_104",
        "string_105",
        "string_106"
      ]
    },
    {
      "id_qa": "FMSH_PB188a_09-10_016_qa7_v3",
      "id_block": "block_2",
      "question": "Qu'est ce qui était organisé par la commission électorale ?",
      "answer": "les élections",
      "answer_stringIds": [
        "string_165",
        "string_166"
      ]
    },
    {
      "id_qa": "FMSH_PB188a_09-10_016_qa8_v3",
      "id_block": "block_2",
      "question": "Par qui les élections ont-elles été organisées ?",
      "answer": "par la commission électorale",
      "answer_stringIds": [
        "string_169",
        "string_170",
        "string_171",
        "string_172"
      ]
    },
    {
      "id_qa": "FMSH_PB188a_09-10_016_qa4_v3",
      "id_block": "block_3",
      "question": "Qu'est ce qui est décrit dans le tableau 2 ?",
      "answer": "les organes qui proposaient les candidats des différentes circonscriptions électorales",
      "answer_stringIds": [
        "string_215",
        "string_216",
        "string_217",
        "string_218",
        "string_219",
        "string_220",
        "string_221",
        "string_222",
        "string_223",
        "string_224"
      ]
    }
  ]
}