{
  "num": "autog_0005-0970_1969_num_9_1",
  "article": "autog_0005-0970_1969_num_9_1_952",
  "page_name": "FMSH_PB188a_09-10_032",
  "questions": [
    {
      "id_qa": "FMSH_PB188a_09-10_032_qa7_v3",
      "id_block": "block_1",
      "question": "Quels sont les éléments les plus importants des conseils ouvriers ?",
      "answer": "les éléments anarchistes et anticommunistes",
      "answer_stringIds": [
        "string_29",
        "string_30",
        "string_31",
        "string_32",
        "string_33"
      ]
    },
    {
      "id_qa": "FMSH_PB188a_09-10_032_qa12_v3",
      "id_block": "block_1",
      "question": "Quelle est la conséquence de la création des conseils ouvriers ?",
      "answer": "le danger que les éléments anarchistes et anticommunistes viendront successivement occuper les postes ies plus importants des conseils",
      "answer_stringIds": [
        "string_26",
        "string_27",
        "string_28",
        "string_29",
        "string_30",
        "string_31",
        "string_32",
        "string_33",
        "string_34",
        "string_35",
        "string_36",
        "string_37",
        "string_38",
        "string_39",
        "string_40",
        "string_41",
        "string_42",
        "string_43"
      ]
    },
    {
      "id_qa": "FMSH_PB188a_09-10_032_qa18_v3",
      "id_block": "block_2",
      "question": "A quoi était liée l'existence d'un système de gestion politique ?",
      "answer": "lancien système de gestion politique et économique",
      "answer_stringIds": [
        "string_101",
        "string_102",
        "string_103",
        "string_104",
        "string_105",
        "string_106",
        "string_107"
      ]
    },
    {
      "id_qa": "FMSH_PB188a_09-10_032_qa15_v3",
      "id_block": "block_3",
      "question": "Quel est le rôle historique de la classe ouvrière ?",
      "answer": "le peuple",
      "answer_stringIds": [
        "string_220",
        "string_221"
      ]
    },
    {
      "id_qa": "FMSH_PB188a_09-10_032_qa19_v3",
      "id_block": "block_4",
      "question": "Qui a diffusé un document ronéotypé ?",
      "answer": "les éléments conservateurs extrémistes",
      "answer_stringIds": [
        "string_278",
        "string_279",
        "string_280",
        "string_281",
        "string_282"
      ]
    },
    {
      "id_qa": "FMSH_PB188a_09-10_032_qa20_v3",
      "id_block": "block_4",
      "question": "Qu'est-ce qui a été diffusé par les éléments conservateurs extrémistes ?",
      "answer": "un document ronéotypé",
      "answer_stringIds": [
        "string_273",
        "string_274",
        "string_275"
      ]
    },
    {
      "id_qa": "FMSH_PB188a_09-10_032_qa24_v3",
      "id_block": "block_4",
      "question": "Qui a présenté le projet au présidium ?",
      "answer": "deux de ses membres",
      "answer_stringIds": [
        "string_313",
        "string_314",
        "string_315",
        "string_316"
      ]
    },
    {
      "id_qa": "FMSH_PB188a_09-10_032_qa25_v3",
      "id_block": "block_4",
      "question": "Quand a été présenté ce projet au présidium ?",
      "answer": "au cours de la nuit fatale du 20 au 21 août 1968",
      "answer_stringIds": [
        "string_317",
        "string_318",
        "string_319",
        "string_320",
        "string_321",
        "string_322",
        "string_323",
        "string_324",
        "string_325",
        "string_326",
        "string_327",
        "string_328"
      ]
    }
  ]
}