{
  "num": "autog_0005-0970_1969_num_9_1",
  "article": "autog_0005-0970_1969_num_9_1_952",
  "page_name": "FMSH_PB188a_09-10_031",
  "questions": [
    {
      "id_qa": "FMSH_PB188a_09-10_031_qa22_v3",
      "id_block": "block_1",
      "question": "Dans quel type d'instances a été étudié la proportion de membres ayant reçu la même éducation ?",
      "answer": "dans les conseils ouvriers",
      "answer_stringIds": [
        "string_63",
        "string_64",
        "string_65",
        "string_66"
      ]
    },
    {
      "id_qa": "FMSH_PB188a_09-10_031_qa2_v3",
      "id_block": "block_2",
      "question": "Quel est le métier des diplômés de l'enseignement supérieur ?",
      "answer": "les conseils ouvriers",
      "answer_stringIds": [
        "string_64",
        "string_65",
        "string_66"
      ]
    },
    {
      "id_qa": "FMSH_PB188a_09-10_031_qa11_v3",
      "id_block": "block_2",
      "question": "Qu'est-ce que les conseils ouvriers ?",
      "answer": "cet instrument appelé à briser le système de gestiort non qualifiée",
      "answer_stringIds": [
        "string_267",
        "string_268",
        "string_269",
        "string_270",
        "string_271",
        "string_272",
        "string_273",
        "string_274",
        "string_275",
        "string_276",
        "string_277"
      ]
    },
    {
      "id_qa": "FMSH_PB188a_09-10_031_qa19_v3",
      "id_block": "block_3",
      "question": "De quoi les représentants du système envisagent-ils le rôle éventuel des conseils ?",
      "answer": "de cette façon",
      "answer_stringIds": [
        "string_286",
        "string_287",
        "string_288"
      ]
    },
    {
      "id_qa": "FMSH_PB188a_09-10_031_qa21_v3",
      "id_block": "block_3",
      "question": "Qui envisagent de cette façon le rôle éventuel des conseils ?",
      "answer": "les représentants mêmes de ce système",
      "answer_stringIds": [
        "string_279",
        "string_280",
        "string_281",
        "string_282",
        "string_283",
        "string_284"
      ]
    }
  ]
}