{
  "num": "autog_0005-0970_1967_num_4_1",
  "article": "autog_0005-0970_1967_num_4_1_916_t1_0179_0000_1",
  "page_name": "FMSH_PB188a_00004_182",
  "questions": [
    "Quels chefs bolcheviks ont dirigé les luttes de rues des masses en février ?",
    "Qu'avait-il écrit Staline un mois après l'insurrection de février ?",
    "Qu'appelait Lenine ce gouvernement provisoire et pourquoi ne devait-on pas lui apporter de soutien ?",
    "Comment se battait Lenine pour le redressement du parti ?",
    "Qu'avait-il dit Trotsky à propos de la lutte entre Lenine et le menchevisme ?",
    "Qu'avait-il déclaré Volodarski au sujet de la paix de Brest-Litovsk ?",
    "Qu'avait-il dit Sverdlov à l'Assemblée constituante à propos de la révolution d'Octobre ?",
    "Comment sacrifiait la révolution d'Octobre au profit de la révolution européenne ?",
    "Qu'exprimait le Manifeste de l'Internationale Communiste aux prolétaires du monde entier ?",
    "Comment étaient opposés l'ordre soviétique et le communisme aux états capitalistes bourgeois ?"
  ]
}