{
  "num": "autog_0005-0970_1967_num_4_1",
  "article": "autog_0005-0970_1967_num_4_1_916_t1_0179_0000_1",
  "page_name": "FMSH_PB188a_00004_185",
  "questions": [
    "Quand a-t-on l'impression de disposer de tout ce qui est nécessaire pour construire une société socialiste intégrale ?",
    "Quel perspective est abandonnée ici ?",
    "Quelles lois de l'histoire et de la lutte des classes sont-elles plus fortes que toutes les déformations théoriques ?",
    "Quand domine-t-elle encore le monde, la société bourgeoise ?",
    "Quels sont les « paroles des bolcheviks » et quelles sont leurs fins pour l'humanité ?",
    "Quel livre rappelle Yves Sartan ?",
    "Quels auteurs sont cités dans le document ?",
    "Quels sont les titres des livres cités et quel est leur format ?",
    "Quel est le prix de chaque livre et quelle est la devise utilisée ?",
    "Où se trouve la maison des éditeurs ?",
    "Quel est le numéro de téléphone des éditeurs ?"
  ]
}