{
  "num": "autog_0249-2563_1982_num_16_12",
  "article": "autog_0249-2563_1982_num_16_12_1533",
  "page_name": "autog_0249-2563_1982_num_16_12_T1_0092_0000",
  "questions": [
    "Quel rôle joue l'autogestion dans l'histoire institutionnelle selon l'auteur ?",
    "Quels sont les caractéristiques nécessaires pour qu'une expérience d'autogestion soit considérée comme telle ?",
    "Qu'est-ce que l'auteur entend par une expérience d'autogestion simulée ?",
    "Pourquoi l'auteur considère que l'autogestion pédagogique est une simulation ?",
    "Quels sont les contraintes qui empêchent l'autogestion pédagogique de devenir une réalité historique ?",
    "L'auteur parle d'une idéologie de l'autogestion en pédagogie institutionnelle depuis quelle période ?",
    "Quel est l'utilité actuelle de l'autogestion pédagogique selon l'auteur ?"
  ]
}