{
  "num": "autog_0005-0970_1968_num_7_1",
  "article": "autog_0005-0970_1968_num_7_1_942_t1_0176_0000_2",
  "page_name": "FMSH_PB188a_00007_180",
  "questions": [
    {
      "id_qa": "FMSH_PB188a_00007_180_qa23_v3",
      "id_block": "block_1",
      "question": "Qui est l'auteur de l'analyse de la rue ?",
      "answer": "Sartre",
      "answer_stringIds": [
        "string_86"
      ]
    },
    {
      "id_qa": "FMSH_PB188a_00007_180_qa10_v3",
      "id_block": "block_2",
      "question": "Que doivent faire les ouvriers pour s'engager dans le combat ?",
      "answer": "au préalable serrer",
      "answer_stringIds": [
        "string_196",
        "string_197",
        "string_198"
      ]
    },
    {
      "id_qa": "FMSH_PB188a_00007_180_qa11_v3",
      "id_block": "block_2",
      "question": "A qui les fils de bourgeois et de petits-bourgeois doivent ils s'engager dans le combat ?",
      "answer": "aux ouvriers",
      "answer_stringIds": [
        "string_187",
        "string_188"
      ]
    },
    {
      "id_qa": "FMSH_PB188a_00007_180_qa12_v3",
      "id_block": "block_2",
      "question": "A qui les fils de bourgeois et de petits-bourgeois doivent-ils s'engager ?",
      "answer": "aux ouvriers",
      "answer_stringIds": [
        "string_187",
        "string_188"
      ]
    },
    {
      "id_qa": "FMSH_PB188a_00007_180_qa13_v3",
      "id_block": "block_2",
      "question": "A qui les fils de bourgeois et de petits-bourgeois doivent-ils s'engager dans le combat ?",
      "answer": "aux ouvriers",
      "answer_stringIds": [
        "string_187",
        "string_188"
      ]
    },
    {
      "id_qa": "FMSH_PB188a_00007_180_qa14_v3",
      "id_block": "block_2",
      "question": "A qui appartient la conscience de classe ?",
      "answer": "aux ouvriers",
      "answer_stringIds": [
        "string_187",
        "string_188"
      ]
    },
    {
      "id_qa": "FMSH_PB188a_00007_180_qa15_v3",
      "id_block": "block_2",
      "question": "Qu'est ce qui doit être renforcé pour les ouvriers ?",
      "answer": "leurs appartenances",
      "answer_stringIds": [
        "string_202",
        "string_203"
      ]
    },
    {
      "id_qa": "FMSH_PB188a_00007_180_qa36_v3",
      "id_block": "block_2",
      "question": "Qu'est-ce qui demeure dans le mouvement de mai ?",
      "answer": "une chose",
      "answer_stringIds": [
        "string_258",
        "string_259"
      ]
    },
    {
      "id_qa": "FMSH_PB188a_00007_180_qa1_v3",
      "id_block": "block_3",
      "question": "Qui s'arrange pour maintenir à l'écart la question de la foi en un dieu sauveur ?",
      "answer": "les chrétiens",
      "answer_stringIds": [
        "string_319",
        "string_320"
      ]
    },
    {
      "id_qa": "FMSH_PB188a_00007_180_qa3_v3",
      "id_block": "block_3",
      "question": "Qu'est-ce qui est mis à l'écart par les chrétiens ?",
      "answer": "la question de la foi en un dieu sauveur",
      "answer_stringIds": [
        "string_345",
        "string_346",
        "string_347",
        "string_348",
        "string_349",
        "string_350",
        "string_351",
        "string_352",
        "string_353"
      ]
    },
    {
      "id_qa": "FMSH_PB188a_00007_180_qa9_v3",
      "id_block": "block_4",
      "question": "A quoi ressemble le chrétien révolutionnaire ?",
      "answer": "à un jeune marxiste révolutionnaire",
      "answer_stringIds": [
        "string_379",
        "string_380",
        "string_381",
        "string_382",
        "string_383"
      ]
    },
    {
      "id_qa": "FMSH_PB188a_00007_180_qa32_v3",
      "id_block": "block_4",
      "question": "Qu'est ce qui caractérise les conservatoires des similitudes ?",
      "answer": "par la bureaucratie",
      "answer_stringIds": [
        "string_448",
        "string_449",
        "string_450"
      ]
    }
  ]
}