{
  "num": "autog_0338-7259_1971_num_15_1",
  "article": "autog_0338-7259_1971_num_15_1_1006",
  "page_name": "FMSH_PB188a_00015_146",
  "questions": [
    "Quelle organisation internationale prépare-t-elle pour lancer un appel en vue du regroupement de toutes les forces se réclamant de l'Autogestion révolutionnaire ?",
    "Quelle tendance de la Quatrième Internationale est-elle en question ?",
    "Quand la tendance en question a-t-elle explicitement réclamé l'Autogestion et le socialisme démocratique basé sur l'Autogestion dans sa plate-forme programmatique ?",
    "Quels types d'institutions sont concernées par cette conception de l'Autogestion révolutionnaire ?",
    "Comment les notions de démocratie représentative, Conseils, Syndicats, Partis et État acquièrent-elles un contenu nouveau dans cette conception ?",
    "Comment l'Autogestion est-elle considérée dans cette conception ?",
    "Quel sens est donné à l'Autogestion révolutionnaire envisagée comme long processus historique ?",
    "Comment l'Autogestion est-elle considérée comme contenu réel du socialisme dans cette conception ?",
    "Comment l'Autogestion est-elle considérée comme ligne mobilisatrice des travailleurs dans cette conception ?",
    "Quels sont les organes de cette tendance en France ?"
  ]
}