{
  "num": "autog_0249-2563_1984_num_17_15",
  "article": "autog_0249-2563_1984_num_17_15_1580",
  "page_name": "autog_0249-2563_1984_num_17_15_T1_0080_0000",
  "questions": [
    {
      "id_qa": "autog_0249-2563_1984_num_17_15_T1_0080_0000_qa25_v3",
      "id_block": "block_0",
      "question": "Qu'est ce qui a été payé au moins de leur poste ?",
      "answer": "cette inclination coupable",
      "answer_stringIds": [
        "string_36",
        "string_37",
        "string_38"
      ]
    },
    {
      "id_qa": "autog_0249-2563_1984_num_17_15_T1_0080_0000_qa1_v3",
      "id_block": "block_3",
      "question": "Qu'est-ce qui empêchait les conseils de continuer leur activité ?",
      "answer": "toutes les fonctions qui leur étaient légalement échues",
      "answer_stringIds": [
        "string_180",
        "string_181",
        "string_182",
        "string_183",
        "string_184",
        "string_185",
        "string_186",
        "string_187"
      ]
    },
    {
      "id_qa": "autog_0249-2563_1984_num_17_15_T1_0080_0000_qa2_v3",
      "id_block": "block_3",
      "question": "Qu'est-ce qui empêchait les conseils de se dissoudre ?",
      "answer": "remplir",
      "answer_stringIds": [
        "string_179"
      ]
    },
    {
      "id_qa": "autog_0249-2563_1984_num_17_15_T1_0080_0000_qa6_v3",
      "id_block": "block_3",
      "question": "Que prenaient les conseils une fois réactivés ?",
      "answer": "la décision de se dissoudre ou bien de suspendre leur activité",
      "answer_stringIds": [
        "string_156",
        "string_157",
        "string_158",
        "string_159",
        "string_160",
        "string_161",
        "string_162",
        "string_163",
        "string_164",
        "string_165",
        "string_166",
        "string_167"
      ]
    },
    {
      "id_qa": "autog_0249-2563_1984_num_17_15_T1_0080_0000_qa9_v3",
      "id_block": "block_3",
      "question": "Qu'est-ce qui a été décidé par les conseils ?",
      "answer": "leur activité",
      "answer_stringIds": [
        "string_166",
        "string_167"
      ]
    },
    {
      "id_qa": "autog_0249-2563_1984_num_17_15_T1_0080_0000_qa16_v3",
      "id_block": "block_3",
      "question": "Qui démissionne de l'ancien conseil en 1981 ?",
      "answer": "une importante fraction des membres",
      "answer_stringIds": [
        "string_191",
        "string_192",
        "string_193",
        "string_194",
        "string_195"
      ]
    },
    {
      "id_qa": "autog_0249-2563_1984_num_17_15_T1_0080_0000_qa19_v3",
      "id_block": "block_3",
      "question": "Par qui les membres du conseil démissionnent-ils en 1981 ?",
      "answer": "le pouvoir",
      "answer_stringIds": [
        "string_210",
        "string_211"
      ]
    },
    {
      "id_qa": "autog_0249-2563_1984_num_17_15_T1_0080_0000_qa24_v3",
      "id_block": "block_4",
      "question": "Qui ressent le besoin d'une institution qui défende les travailleurs ?",
      "answer": "les ouvriers",
      "answer_stringIds": [
        "string_236",
        "string_237"
      ]
    },
    {
      "id_qa": "autog_0249-2563_1984_num_17_15_T1_0080_0000_qa27_v3",
      "id_block": "block_6",
      "question": "Qu'est-ce qui est refusé par la répression politique ?",
      "answer": "des responsabilités",
      "answer_stringIds": [
        "string_290",
        "string_291"
      ]
    },
    {
      "id_qa": "autog_0249-2563_1984_num_17_15_T1_0080_0000_qa10_v3",
      "id_block": "block_7",
      "question": "Comment était caricatural l'autogestion ?",
      "answer": "comme un « devoir » des travailleurs",
      "answer_stringIds": [
        "string_391",
        "string_392",
        "string_393",
        "string_394",
        "string_395",
        "string_396",
        "string_397"
      ]
    },
    {
      "id_qa": "autog_0249-2563_1984_num_17_15_T1_0080_0000_qa21_v3",
      "id_block": "block_7",
      "question": "Par qui l'organe d'autogestion pouvait-il être élu ?",
      "answer": "par un nombre quelconque de membres du personnel",
      "answer_stringIds": [
        "string_370",
        "string_371",
        "string_372",
        "string_373",
        "string_374",
        "string_375",
        "string_376",
        "string_377"
      ]
    }
  ]
}