{
  "num": "autog_0005-0970_1967_num_2_1",
  "article": "autog_0005-0970_1967_num_2_1_907_t1_0145_0000_1",
  "page_name": "FMSH_PB188a_00002_148",
  "questions": [
    "Quel événement a engendré l'émergence de la sociologie et de la demande févrile de retour vers elle ?",
    "Quel caractère mythique possède le conseil ouvrier ?",
    "En quoi consiste la critique de la démocratie formelle selon Adler ?",
    "Quels grands principes de la démocratie occidentale est-il question de dans le texte ?",
    "Comment l'idéologie bourgeoise traite-t-elle les « grands principes » de la démocratie ?",
    "Comment l'idéologie parlementaire bourgeoise perçoit-elle la représentation de la volonté générale ?",
    "Quel rôle joue la campagne électorale dans la constitution de l'image idéale de la représentation de la volonté générale ?",
    "Comment la lutte pour le pouvoir transpose-t-elle les réalités de la lutte des classes ?",
    "En quoi consiste l'arrangement du concept de représentation à l'époque de l'établissement du régime représentatif ?",
    "Quels événements fournissent une confirmation de cette transformation du concept de représentation en France ?",
    "Quels événements inédits permettraient d'élaborer une théorie de la culture manquante dans la théorie marxiste et marxiste en Autriche ?"
  ]
}