{
  "num": "autog_0338-7259_1977_num_37_1",
  "article": "autog_0338-7259_1977_num_37_1_1245_t1_0189_0000_1",
  "page_name": "FMSH_PB188a_37-38_192",
  "questions": [
    "Quels sont les normes édictées par qui selon le texte ?",
    "Pourquoi le gouvernement et le Parlement sont-ils considérés comme déconsidérant l'autogestion dans l'opinion publique ?",
    "Qui sont les acteurs réels et historiques de l'autogestion selon le texte ?",
    "Qu'est-ce qui différencie l'autogestion de la gestion démocratique prônée par le P.C.F. selon l'auteur ?",
    "Quels sont les aspects positifs des réflexions de l'auteur sur l'autogestion ?",
    "Quels sont les points critiqués par le texte sur l'analyse de l'auteur sur l'autogestion ?",
    "Qu'est-ce que l'auteur entend par la suppression du salariat ?",
    "Comment l'auteur perçoit-il le salariat ?",
    "Pourquoi l'auteur ne discute-t-il pas du débat entre autogestion et gestion démocratique ?"
  ]
}