{
  "num": "autog_0005-0970_1968_num_5_1",
  "article": "autog_0005-0970_1968_num_5_1_1970",
  "page_name": "FMSH_PB188a_05-06_037",
  "questions": [
    {
      "id_qa": "FMSH_PB188a_05-06_037_qa33_v3",
      "id_block": "block_1",
      "question": "Qu'est-ce que mettre la charrue avant les bœufs ?",
      "answer": "des revendications",
      "answer_stringIds": [
        "string_14",
        "string_15"
      ]
    },
    {
      "id_qa": "FMSH_PB188a_05-06_037_qa34_v3",
      "id_block": "block_1",
      "question": "Qu'est-ce qui met des revendications avant les bœufs ?",
      "answer": "la charrue",
      "answer_stringIds": [
        "string_19",
        "string_20"
      ]
    },
    {
      "id_qa": "FMSH_PB188a_05-06_037_qa36_v3",
      "id_block": "block_1",
      "question": "Qu'est-ce que viser l'idéal ?",
      "answer": "voir réaliser",
      "answer_stringIds": [
        "string_10",
        "string_11"
      ]
    },
    {
      "id_qa": "FMSH_PB188a_05-06_037_qa1_v3",
      "id_block": "block_3",
      "question": "Qu'est ce qui s'occupe d'élaborer un type idéal d'Université autogérée ?",
      "answer": "une commission",
      "answer_stringIds": [
        "string_65",
        "string_66"
      ]
    },
    {
      "id_qa": "FMSH_PB188a_05-06_037_qa4_v3",
      "id_block": "block_3",
      "question": "Que risque une expérience d'autogestion sans un mouvement ?",
      "answer": "dégénérer",
      "answer_stringIds": [
        "string_428"
      ]
    },
    {
      "id_qa": "FMSH_PB188a_05-06_037_qa9_v3",
      "id_block": "block_3",
      "question": "Qu'est ce qui doit réunir tous ses participants ?",
      "answer": "Ce mouvement",
      "answer_stringIds": [
        "string_132",
        "string_133"
      ]
    },
    {
      "id_qa": "FMSH_PB188a_05-06_037_qa10_v3",
      "id_block": "block_3",
      "question": "Qui a dit que ce mouvement doit être autogéré ?",
      "answer": "Médam",
      "answer_stringIds": [
        "string_183"
      ]
    },
    {
      "id_qa": "FMSH_PB188a_05-06_037_qa16_v3",
      "id_block": "block_3",
      "question": "Quelle est la caractéristique d'une université critique autogérée par les professeurs et les étudiants ?",
      "answer": "un mouvement autogestionnaire",
      "answer_stringIds": [
        "string_371",
        "string_372",
        "string_373"
      ]
    },
    {
      "id_qa": "FMSH_PB188a_05-06_037_qa18_v3",
      "id_block": "block_3",
      "question": "Que revendiquerait le mouvement autogestionnaire ?",
      "answer": "des crédits pour le fonctionnement de ces universités critiques",
      "answer_stringIds": [
        "string_376",
        "string_377",
        "string_378",
        "string_379",
        "string_380",
        "string_381",
        "string_382",
        "string_383",
        "string_384",
        "string_385"
      ]
    },
    {
      "id_qa": "FMSH_PB188a_05-06_037_qa26_v3",
      "id_block": "block_3",
      "question": "Quelles entreprises seraient regroupées dans un mouvement plus vaste ?",
      "answer": "autres entreprises",
      "answer_stringIds": [
        "string_396",
        "string_397",
        "string_398"
      ]
    },
    {
      "id_qa": "FMSH_PB188a_05-06_037_qa30_v3",
      "id_block": "block_3",
      "question": "Qu'est-ce qui est faisable dans l'immédiat ?",
      "answer": "un mouvement",
      "answer_stringIds": [
        "string_123",
        "string_124"
      ]
    },
    {
      "id_qa": "FMSH_PB188a_05-06_037_qa38_v3",
      "id_block": "block_3",
      "question": "Quelle était la perspective de l'organisme ?",
      "answer": "une université populaire",
      "answer_stringIds": [
        "string_260",
        "string_261",
        "string_262"
      ]
    },
    {
      "id_qa": "FMSH_PB188a_05-06_037_qa39_v3",
      "id_block": "block_3",
      "question": "Quelle était la perspective de devenir une université populaire ?",
      "answer": "un organisme",
      "answer_stringIds": [
        "string_253",
        "string_254"
      ]
    },
    {
      "id_qa": "FMSH_PB188a_05-06_037_qa23_v3",
      "id_block": "block_4",
      "question": "Qu'est ce que nous avons voulu faire ?",
      "answer": "ce mouvement",
      "answer_stringIds": [
        "string_60",
        "string_61"
      ]
    },
    {
      "id_qa": "FMSH_PB188a_05-06_037_qa24_v3",
      "id_block": "block_4",
      "question": "Qu'est ce qui est à créer ?",
      "answer": "ce mouvement",
      "answer_stringIds": [
        "string_60",
        "string_61"
      ]
    }
  ]
}