{
  "num": "autog_0005-0970_1968_num_5_1",
  "article": "autog_0005-0970_1968_num_5_1_1970",
  "page_name": "FMSH_PB188a_05-06_046",
  "questions": [
    {
      "id_qa": "FMSH_PB188a_05-06_046_qa56_v3",
      "id_block": "block_1",
      "question": "Quel était le point d'ancrage précis du mouvement ?",
      "answer": "à mobiliser toute une partie des étudiants révolutionnaires",
      "answer_stringIds": [
        "string_108",
        "string_109",
        "string_110",
        "string_111",
        "string_112",
        "string_113",
        "string_114",
        "string_115"
      ]
    },
    {
      "id_qa": "FMSH_PB188a_05-06_046_qa27_v3",
      "id_block": "block_2",
      "question": "Qui a peur d'eux ?",
      "answer": "les autres étudiants",
      "answer_stringIds": [
        "string_129",
        "string_130",
        "string_131"
      ]
    },
    {
      "id_qa": "FMSH_PB188a_05-06_046_qa31_v3",
      "id_block": "block_2",
      "question": "Qu'est ce que l'université officielle continuera à délivrer ?",
      "answer": "les diplômes",
      "answer_stringIds": [
        "string_140",
        "string_141"
      ]
    },
    {
      "id_qa": "FMSH_PB188a_05-06_046_qa68_v3",
      "id_block": "block_2",
      "question": "Qu'est ce qui n'est pas intégré dans le reste ?",
      "answer": "les diplômes",
      "answer_stringIds": [
        "string_140",
        "string_141"
      ]
    },
    {
      "id_qa": "FMSH_PB188a_05-06_046_qa70_v3",
      "id_block": "block_2",
      "question": "Où est-ce que les diplômes délivrés par votre secteur autogéré sont intégrés ?",
      "answer": "dans le reste",
      "answer_stringIds": [
        "string_156",
        "string_157",
        "string_158"
      ]
    },
    {
      "id_qa": "FMSH_PB188a_05-06_046_qa8_v3",
      "id_block": "block_3",
      "question": "Qu'utilise-t-on au sein de l'université ?",
      "answer": "ce pouvoir",
      "answer_stringIds": [
        "string_213",
        "string_214"
      ]
    },
    {
      "id_qa": "FMSH_PB188a_05-06_046_qa44_v3",
      "id_block": "block_3",
      "question": "Quelle est la valeur des diplômes ?",
      "answer": "une valeur équivalente",
      "answer_stringIds": [
        "string_174",
        "string_175",
        "string_176"
      ]
    },
    {
      "id_qa": "FMSH_PB188a_05-06_046_qa45_v3",
      "id_block": "block_3",
      "question": "Qu'est ce qui a une valeur équivalente ?",
      "answer": "les diplômes",
      "answer_stringIds": [
        "string_140",
        "string_141"
      ]
    },
    {
      "id_qa": "FMSH_PB188a_05-06_046_qa46_v3",
      "id_block": "block_3",
      "question": "Qu'est-ce que la position révolutionnaire ?",
      "answer": "les diplômes aient une valeur équivalente",
      "answer_stringIds": [
        "string_171",
        "string_172",
        "string_173",
        "string_174",
        "string_175",
        "string_176"
      ]
    },
    {
      "id_qa": "FMSH_PB188a_05-06_046_qa67_v3",
      "id_block": "block_3",
      "question": "Qu'est-ce que les catalyseurs ont ?",
      "answer": "un pouvoir indubitable de catalyse",
      "answer_stringIds": [
        "string_204",
        "string_205",
        "string_206",
        "string_207",
        "string_208"
      ]
    },
    {
      "id_qa": "FMSH_PB188a_05-06_046_qa22_v3",
      "id_block": "block_4",
      "question": "Dans quel secteur s'inscriraient les étudiants révolutionnaires ?",
      "answer": "dans ce secteur autogéré et critique",
      "answer_stringIds": [
        "string_291",
        "string_292",
        "string_293",
        "string_294",
        "string_295",
        "string_296"
      ]
    },
    {
      "id_qa": "FMSH_PB188a_05-06_046_qa28_v3",
      "id_block": "block_5",
      "question": "Qu'est ce qui n'aurait aucune valeur ?",
      "answer": "les diplômes délivrés",
      "answer_stringIds": [
        "string_145",
        "string_146",
        "string_147"
      ]
    },
    {
      "id_qa": "FMSH_PB188a_05-06_046_qa29_v3",
      "id_block": "block_5",
      "question": "Quelle est la valeur des diplômes délivrés ?",
      "answer": "aucune valeur",
      "answer_stringIds": [
        "string_305",
        "string_306"
      ]
    },
    {
      "id_qa": "FMSH_PB188a_05-06_046_qa54_v3",
      "id_block": "block_5",
      "question": "Où se situe le secteur d'université critique et autogérée ?",
      "answer": "dans cette société",
      "answer_stringIds": [
        "string_375",
        "string_376",
        "string_377"
      ]
    },
    {
      "id_qa": "FMSH_PB188a_05-06_046_qa1_v3",
      "id_block": "block_6",
      "question": "Pour quelle raison a besoin de ces diplômes ?",
      "answer": "pour modifier cette société",
      "answer_stringIds": [
        "string_388",
        "string_389",
        "string_390",
        "string_391"
      ]
    },
    {
      "id_qa": "FMSH_PB188a_05-06_046_qa2_v3",
      "id_block": "block_6",
      "question": "Qu'est ce qui permet de modifier la société ?",
      "answer": "besoin de ces diplômes",
      "answer_stringIds": [
        "string_359",
        "string_360",
        "string_361",
        "string_362"
      ]
    },
    {
      "id_qa": "FMSH_PB188a_05-06_046_qa40_v3",
      "id_block": "block_7",
      "question": "Qu'est ce qui arrive à certains individus ?",
      "answer": "une formation autodidacte",
      "answer_stringIds": [
        "string_456",
        "string_457",
        "string_458"
      ]
    },
    {
      "id_qa": "FMSH_PB188a_05-06_046_qa19_v3",
      "id_block": "block_8",
      "question": "Qu'est ce qui ne passerait pas sur le plan collectif ?",
      "answer": "la même chose",
      "answer_stringIds": [
        "string_487",
        "string_488",
        "string_489"
      ]
    }
  ]
}