{
  "num": "autog_0249-2563_1981_num_14_6",
  "article": "autog_0249-2563_1981_num_14_6_1428",
  "page_name": "autog_0249-2563_1981_num_14_6_T1_0188_0000",
  "questions": [
    {
      "id_qa": "autog_0249-2563_1981_num_14_6_T1_0188_0000_qa29_v3",
      "id_block": "block_0",
      "question": "Qu'est ce qui est fixé sur la Pologne ?",
      "answer": "Les yeux",
      "answer_stringIds": [
        "string_1",
        "string_2"
      ]
    },
    {
      "id_qa": "autog_0249-2563_1981_num_14_6_T1_0188_0000_qa2_v3",
      "id_block": "block_1",
      "question": "Qu'est-ce que l'amélioration des libertés après la mort de Tito ?",
      "answer": "une possibilité",
      "answer_stringIds": [
        "string_34",
        "string_35"
      ]
    },
    {
      "id_qa": "autog_0249-2563_1981_num_14_6_T1_0188_0000_qa27_v3",
      "id_block": "block_2",
      "question": "Quel est le souhait de Tito ?",
      "answer": "une libéralisation",
      "answer_stringIds": [
        "string_72",
        "string_73"
      ]
    },
    {
      "id_qa": "autog_0249-2563_1981_num_14_6_T1_0188_0000_qa28_v3",
      "id_block": "block_2",
      "question": "Qu'est-ce que ce serait un souhait ?",
      "answer": "une opinion personnelle",
      "answer_stringIds": [
        "string_63",
        "string_64",
        "string_65"
      ]
    },
    {
      "id_qa": "autog_0249-2563_1981_num_14_6_T1_0188_0000_qa8_v3",
      "id_block": "block_3",
      "question": "Qu'est ce qui augmente l'insatisfaction de la classe ouvrière ?",
      "answer": "la crise économique très sévère",
      "answer_stringIds": [
        "string_264",
        "string_265",
        "string_266",
        "string_267",
        "string_268"
      ]
    },
    {
      "id_qa": "autog_0249-2563_1981_num_14_6_T1_0188_0000_qa15_v3",
      "id_block": "block_3",
      "question": "Qu'est-ce que l'élite dirigeante va essayer d'affirmer ?",
      "answer": "un consensus",
      "answer_stringIds": [
        "string_180",
        "string_181"
      ]
    },
    {
      "id_qa": "autog_0249-2563_1981_num_14_6_T1_0188_0000_qa17_v3",
      "id_block": "block_3",
      "question": "Qu'est-ce que l'élite dirigeante va essayer de définir ?",
      "answer": "la situation",
      "answer_stringIds": [
        "string_184",
        "string_185"
      ]
    },
    {
      "id_qa": "autog_0249-2563_1981_num_14_6_T1_0188_0000_qa18_v3",
      "id_block": "block_3",
      "question": "Qu'est-ce que les détenteurs du pouvoir pourraient consentir à ce moment-là ?",
      "answer": "une libéralisation",
      "answer_stringIds": [
        "string_72",
        "string_73"
      ]
    },
    {
      "id_qa": "autog_0249-2563_1981_num_14_6_T1_0188_0000_qa20_v3",
      "id_block": "block_3",
      "question": "Qui pourrait consentir une libéralisation ?",
      "answer": "les détenteurs du pouvoir",
      "answer_stringIds": [
        "string_317",
        "string_318",
        "string_319",
        "string_320"
      ]
    },
    {
      "id_qa": "autog_0249-2563_1981_num_14_6_T1_0188_0000_qa21_v3",
      "id_block": "block_3",
      "question": "Que pourraient faire les détenteurs du pouvoir à ce moment-là ?",
      "answer": "consentir une libéralisation",
      "answer_stringIds": [
        "string_330",
        "string_331",
        "string_332"
      ]
    },
    {
      "id_qa": "autog_0249-2563_1981_num_14_6_T1_0188_0000_qa30_v3",
      "id_block": "block_3",
      "question": "Qu'est ce qui se dégrade dans la classe ouvrière ?",
      "answer": "les conditions de vie",
      "answer_stringIds": [
        "string_308",
        "string_309",
        "string_310",
        "string_311"
      ]
    },
    {
      "id_qa": "autog_0249-2563_1981_num_14_6_T1_0188_0000_qa31_v3",
      "id_block": "block_3",
      "question": "De quoi est composée la classe ouvrière ?",
      "answer": "de ceux qui n'",
      "answer_stringIds": [
        "string_291",
        "string_292",
        "string_293",
        "string_294"
      ]
    }
  ]
}