{
  "num": "autog_0338-7259_1970_num_11_1",
  "article": "autog_0338-7259_1970_num_11_1_1935",
  "page_name": "FMSH_PB188a_11-12_003",
  "questions": [
    "Quels auteurs sont cités dans ce sommaire en relation avec l'autogestion tchécoslovaque ?",
    "Quels sont les titres des contributions de Joseph et Vladimir FISERA, Jan HYSEK, Dr Zdeñek VALENTA, Stanislav PLIVA, Frantisék DVORAK, Dr Zbyhek MARES, Stanislav DVORAK et Oto SEDLACEK ?",
    "Quel est le contenu de la contribution de Jan HYSEK sur la gestion professionnelle et la démocratie dans une entreprise industrielle ?",
    "Quels sont les problèmes de la démocratie directe discutés par Dr Zdeñek VALENTA ?",
    "Quels sont les commentaires de Stanislav PLIVA sur les statuts provisoires des conseils ouvriers ?",
    "Quel est le sujet de la contribution de Frantisék DVORAK sur les fonctionnaires des syndicats et des dirigeants économiques ?",
    "Quels sont les possibilités et perspectives des conseils ouvriers selon Dr Zbyhek MARES ?",
    "Qu'attendent les ouvriers et les contremaîtres des conseils ouvriers selon Oto SEDLACEK ?",
    "Qu'est la contribution de H. Schimmerling sur la démocratie interne dans les coopératives agricoles ?",
    "Pourquoi est-il écrit « Pourquoi des conseils ouvriers en Tchécoslovaquie Pourquoi pas » dans le sommaire ?",
    "Quels sont les chroniques de l'autogestion selon Pierre Naville ?"
  ]
}