{
  "num": "autog_0249-2563_1983_num_16_14",
  "article": "autog_0249-2563_1983_num_16_14_1566_t1_0112_0000_1",
  "page_name": "autog_0249-2563_1983_num_16_14_T1_0112_0000",
  "questions": [
    "Quel est le climat exceptionnellement doux que les Québécois décrivent à la fin de l'hiver de cette année ?",
    "Qu'est-ce qui s'est passé entre le gouvernement Péquiste et les enseignants pendant six semaines ?",
    "Quel était le motif de la grève des enseignants et quels résultats ont été obtenus ?",
    "Comment peut-on caractériser l'état actuel du Parti québécois ?",
    "Qu'est-ce qui est à l'origine du mal-être des jeunes québécois ?",
    "Qu'en dit le livre d'Hervé Fischer sur l'identité québécoise ?",
    "En quoi les Français immigrés des années 70 sont-ils impliqués dans les pratiques sociales et culturelles alternatives au Québec ?"
  ]
}