{
  "num": "autog_0249-2563_1980_num_13_2",
  "article": "autog_0249-2563_1980_num_13_2_1374",
  "page_name": "autog_0249-2563_1980_num_13_2_T1_0327_0000",
  "questions": [
    "Quelles sont les différences politiques des Länder en République fédérale?",
    "Quel est le rôle de la C.S.t. dans le gouvernement de la Bavière?",
    "Quels sont les partis traditionnellement dominants dans les grandes villes du nord et du sud?",
    "Qu'est-ce que la « Südschiene » et les « Nordlichter »?",
    "Comment ces divergences ne correspondent-elles pas au clivage Paris/province ou politique centralisée/régionalisation?",
    "Quels sont les facteurs qui ont contribué à la naissance des mouvements régionalistes en R.F.A.?",
    "Quels sont les buts des mouvements régionalistes en R.F.A.?",
    "Quel est l'attitude des sociétés capitalistes envers l'autonomie régionale?",
    "Comment la mobilité absolue de la force de travail et la création d'un marché universel influencent l'autonomie régionale?",
    "Quels sont les frais supplémentaires créés par le respect des traditions et des langues particulières?",
    "Comment un système centralisé avec une politique efficace dans les domaines économique, financier, etc. influence l'autonomie régionale?"
  ]
}