{
  "num": "autog_0338-7259_1973_num_22_1",
  "article": "autog_0338-7259_1973_num_22_1_1078",
  "page_name": "FMSH_PB188a_22-23_018",
  "questions": [
    {
      "id_qa": "FMSH_PB188a_22-23_018_qa14_v3",
      "id_block": "block_1",
      "question": "Que veut faire le socialisme autogéré ?",
      "answer": "faire progresser une plus grande unification de la société",
      "answer_stringIds": [
        "string_33",
        "string_34",
        "string_35",
        "string_36",
        "string_37",
        "string_38",
        "string_39",
        "string_40",
        "string_41"
      ]
    },
    {
      "id_qa": "FMSH_PB188a_22-23_018_qa1_v3",
      "id_block": "block_2",
      "question": "Sur quoi repose la planification démocratique ?",
      "answer": "des unités",
      "answer_stringIds": [
        "string_242",
        "string_243"
      ]
    },
    {
      "id_qa": "FMSH_PB188a_22-23_018_qa2_v3",
      "id_block": "block_2",
      "question": "Qu'est ce qui ne peut avoir de sens que si elle s'appuie sur des unités autogérées au niveau de l'entreprise, du quartier, etc.",
      "answer": "La planification démocratique",
      "answer_stringIds": [
        "string_227",
        "string_228",
        "string_229"
      ]
    },
    {
      "id_qa": "FMSH_PB188a_22-23_018_qa22_v3",
      "id_block": "block_2",
      "question": "Quelle est la réalité théorique du socialisme ?",
      "answer": "société",
      "answer_stringIds": [
        "string_27"
      ]
    },
    {
      "id_qa": "FMSH_PB188a_22-23_018_qa5_v3",
      "id_block": "block_5",
      "question": "Qu'est ce qui ne concerne que les rapports économiques ?",
      "answer": "La question du marché",
      "answer_stringIds": [
        "string_290",
        "string_291",
        "string_292",
        "string_293"
      ]
    }
  ]
}