{
  "num": "autog_0338-7259_1973_num_22_1",
  "article": "autog_0338-7259_1973_num_22_1_1078",
  "page_name": "FMSH_PB188a_22-23_031",
  "questions": [
    {
      "id_qa": "FMSH_PB188a_22-23_031_qa7_v3",
      "id_block": "block_2",
      "question": "Qu'est ce qui est aujourd'hui possible et nécessaire ?",
      "answer": "Cette autogestion",
      "answer_stringIds": [
        "string_25",
        "string_26"
      ]
    },
    {
      "id_qa": "FMSH_PB188a_22-23_031_qa10_v3",
      "id_block": "block_4",
      "question": "Qu'est-ce que la propriété sociale ?",
      "answer": "le fondement économique du capitalisme",
      "answer_stringIds": [
        "string_58",
        "string_59",
        "string_60",
        "string_61",
        "string_62"
      ]
    },
    {
      "id_qa": "FMSH_PB188a_22-23_031_qa11_v3",
      "id_block": "block_4",
      "question": "Quel est le fondement économique du capitalisme ?",
      "answer": "la propriété sociale",
      "answer_stringIds": [
        "string_51",
        "string_52",
        "string_53"
      ]
    },
    {
      "id_qa": "FMSH_PB188a_22-23_031_qa4_v3",
      "id_block": "block_6",
      "question": "Qu'est-ce que la gestion d'une économie complexe ?",
      "answer": "problèmes",
      "answer_stringIds": [
        "string_100"
      ]
    },
    {
      "id_qa": "FMSH_PB188a_22-23_031_qa8_v3",
      "id_block": "block_7",
      "question": "Quel est le but de l'autogestion ?",
      "answer": "la vie quotidienne",
      "answer_stringIds": [
        "string_132",
        "string_133",
        "string_134"
      ]
    }
  ]
}