{
  "num": "autog_0338-7259_1971_num_16_1",
  "article": "autog_0338-7259_1971_num_16_1_1013",
  "page_name": "FMSH_PB188a_16-17_043",
  "questions": [
    "Quels revendications transitoires devraient-elles mettre en place les syndicats entre leurs revendications actuelles et le programme de la révolution sociale ?",
    "En quelles conditions Trotsky a-t-il vécu à la fin de sa vie au Mexique ?",
    "Quelle était la position de la « bourgeoisie nationale » au Mexique à l'époque ?",
    "Comment Trotsky a-t-il qualifié le pouvoir étatique particulier au Mexique ?",
    "Quels types d'économie peuvent émerger de tels pouvoirs ?",
    "Quand et sur quels secteurs industriels le gouvernement mexicain a-t-il procédé à l'expropriation ?",
    "Quel rôle devraient les syndicats jouer dans la gestion de l'industrie nationalisée ?",
    "Quels dangers pouvait Trotsky voir dans la collaboration des hauts dirigeants syndicaux avec l'appareil du capitalisme d'État ?"
  ]
}