{
  "num": "autog_0338-7259_1973_num_22_1",
  "article": "autog_0338-7259_1973_num_22_1_1089",
  "page_name": "FMSH_PB188a_22-23_159",
  "questions": [
    {
      "id_qa": "FMSH_PB188a_22-23_159_qa16_v3",
      "id_block": "block_1",
      "question": "Qu'est-ce qui était réservé à l'exploitation privée ?",
      "answer": "petites propriétés",
      "answer_stringIds": [
        "string_70",
        "string_71"
      ]
    },
    {
      "id_qa": "FMSH_PB188a_22-23_159_qa17_v3",
      "id_block": "block_1",
      "question": "A quoi a été remplacée l'autogestion ?",
      "answer": "La coopération",
      "answer_stringIds": [
        "string_51",
        "string_52"
      ]
    },
    {
      "id_qa": "FMSH_PB188a_22-23_159_qa19_v3",
      "id_block": "block_1",
      "question": "Quand a été publiée la Charte de la révolution agraire ?",
      "answer": "le 8 novembre 1971",
      "answer_stringIds": [
        "string_21",
        "string_22",
        "string_23",
        "string_24"
      ]
    },
    {
      "id_qa": "FMSH_PB188a_22-23_159_qa9_v3",
      "id_block": "block_2",
      "question": "Qui dénonça les défauts apparus dans le cadre de l'autogestion ?",
      "answer": "Houari Boumedienne",
      "answer_stringIds": [
        "string_240",
        "string_241"
      ]
    },
    {
      "id_qa": "FMSH_PB188a_22-23_159_qa11_v3",
      "id_block": "block_2",
      "question": "Qu'a apporté l'expérience autogestionnaire en 1962 ?",
      "answer": "les résultats escomptés",
      "answer_stringIds": [
        "string_143",
        "string_144",
        "string_145",
        "string_146"
      ]
    },
    {
      "id_qa": "FMSH_PB188a_22-23_159_qa14_v3",
      "id_block": "block_2",
      "question": "Qu'est ce qui doit compter avec l'écrasant héritage laissé par le colonialisme ?",
      "answer": "un peuple",
      "answer_stringIds": [
        "string_118",
        "string_119"
      ]
    },
    {
      "id_qa": "FMSH_PB188a_22-23_159_qa8_v3",
      "id_block": "block_3",
      "question": "Dans quel domaine le Plan de décentralisation a-t-il été réalisé ?",
      "answer": "certains domaines",
      "answer_stringIds": [
        "string_313",
        "string_314"
      ]
    }
  ]
}