{
  "num": "autog_0338-7259_1973_num_22_1",
  "article": "autog_0338-7259_1973_num_22_1_1089",
  "page_name": "FMSH_PB188a_22-23_153",
  "questions": [
    {
      "id_qa": "FMSH_PB188a_22-23_153_qa15_v3",
      "id_block": "block_1",
      "question": "Qu'est-ce qui est destiné à se fâner après les élections ?",
      "answer": "ces fleurs",
      "answer_stringIds": [
        "string_26",
        "string_27"
      ]
    },
    {
      "id_qa": "FMSH_PB188a_22-23_153_qa17_v3",
      "id_block": "block_1",
      "question": "Dans quel ouvrage est cité cette curieuse juxtaposition ?",
      "answer": "dans le Programme",
      "answer_stringIds": [
        "string_41",
        "string_42",
        "string_43"
      ]
    },
    {
      "id_qa": "FMSH_PB188a_22-23_153_qa3_v3",
      "id_block": "block_2",
      "question": "Qu'indiquera la structure de l'entreprise ?",
      "answer": "la possibilité",
      "answer_stringIds": [
        "string_67",
        "string_68"
      ]
    },
    {
      "id_qa": "FMSH_PB188a_22-23_153_qa4_v3",
      "id_block": "block_2",
      "question": "Qui est responsable de la gestion démocratique de l'entreprise ?",
      "answer": "les syndicats",
      "answer_stringIds": [
        "string_126",
        "string_127",
        "string_128"
      ]
    },
    {
      "id_qa": "FMSH_PB188a_22-23_153_qa11_v3",
      "id_block": "block_3",
      "question": "Quels secteurs sont concernés par cette mesure ?",
      "answer": "les secteurs public et nationalisé",
      "answer_stringIds": [
        "string_146",
        "string_147",
        "string_148",
        "string_149",
        "string_150",
        "string_151"
      ]
    },
    {
      "id_qa": "FMSH_PB188a_22-23_153_qa20_v3",
      "id_block": "block_4",
      "question": "Qui a raison de cette autogestion à la polonaise ?",
      "answer": "le citoyen Joyeux",
      "answer_stringIds": [
        "string_179",
        "string_180",
        "string_181"
      ]
    },
    {
      "id_qa": "FMSH_PB188a_22-23_153_qa24_v3",
      "id_block": "block_4",
      "question": "Qui a raison de cette autogestion des frères jumeaux PS ?",
      "answer": "le citoyen Joyeux",
      "answer_stringIds": [
        "string_179",
        "string_180",
        "string_181"
      ]
    },
    {
      "id_qa": "FMSH_PB188a_22-23_153_qa19_v3",
      "id_block": "block_5",
      "question": "Quelle est la première critique de l'autogestion ?",
      "answer": "une notion extrémement confuse",
      "answer_stringIds": [
        "string_233",
        "string_234",
        "string_235",
        "string_236"
      ]
    },
    {
      "id_qa": "FMSH_PB188a_22-23_153_qa5_v3",
      "id_block": "block_7",
      "question": "Quel est le but de l'autogestion ?",
      "answer": "plus loin",
      "answer_stringIds": [
        "string_265",
        "string_266"
      ]
    },
    {
      "id_qa": "FMSH_PB188a_22-23_153_qa6_v3",
      "id_block": "block_7",
      "question": "Comment sont qualifiés aujourd'hui les militants de l'autogestion ?",
      "answer": "comme sincères",
      "answer_stringIds": [
        "string_290",
        "string_291"
      ]
    },
    {
      "id_qa": "FMSH_PB188a_22-23_153_qa7_v3",
      "id_block": "block_7",
      "question": "Qui parle de l'autogestion ?",
      "answer": "tout le monde",
      "answer_stringIds": [
        "string_271",
        "string_272",
        "string_273"
      ]
    },
    {
      "id_qa": "FMSH_PB188a_22-23_153_qa8_v3",
      "id_block": "block_7",
      "question": "De quand date la majorité des militants se réclamant de l'autogestion ?",
      "answer": "aujourd'hui",
      "answer_stringIds": [
        "string_287"
      ]
    }
  ]
}