{
  "num": "autog_0338-7259_1973_num_22_1",
  "article": "autog_0338-7259_1973_num_22_1_1089",
  "page_name": "FMSH_PB188a_22-23_154",
  "questions": [
    {
      "id_qa": "FMSH_PB188a_22-23_154_qa17_v3",
      "id_block": "block_1",
      "question": "Qui souffre des graves déviations opportunistes ?",
      "answer": "une partie du mouvement ouvrier",
      "answer_stringIds": [
        "string_30",
        "string_31",
        "string_32",
        "string_33",
        "string_34",
        "string_35"
      ]
    },
    {
      "id_qa": "FMSH_PB188a_22-23_154_qa20_v3",
      "id_block": "block_1",
      "question": "Qu'est ce qui a créé le mouvement ouvrier ?",
      "answer": "par le vide idéologique et théorique consécutif",
      "answer_stringIds": [
        "string_16",
        "string_17",
        "string_18",
        "string_19",
        "string_20",
        "string_21",
        "string_22"
      ]
    },
    {
      "id_qa": "FMSH_PB188a_22-23_154_qa22_v3",
      "id_block": "block_2",
      "question": "Qui pose des questions sur l'autogestion ?",
      "answer": "Joyeux lui-même",
      "answer_stringIds": [
        "string_59",
        "string_60"
      ]
    },
    {
      "id_qa": "FMSH_PB188a_22-23_154_qa11_v3",
      "id_block": "block_4",
      "question": "Quel est l'instrument principal de la domination de classe ?",
      "answer": "PEtat",
      "answer_stringIds": [
        "string_131"
      ]
    },
    {
      "id_qa": "FMSH_PB188a_22-23_154_qa23_v3",
      "id_block": "block_4",
      "question": "Qui est aliénée par le régime capitaliste ?",
      "answer": "La classe ouvrière",
      "answer_stringIds": [
        "string_88",
        "string_89",
        "string_90"
      ]
    },
    {
      "id_qa": "FMSH_PB188a_22-23_154_qa27_v3",
      "id_block": "block_4",
      "question": "Qui est à l'origine de cette fausse vertu ?",
      "answer": "par Lénine",
      "answer_stringIds": [
        "string_194",
        "string_195"
      ]
    },
    {
      "id_qa": "FMSH_PB188a_22-23_154_qa0_v3",
      "id_block": "block_5",
      "question": "Qu'est ce qui est libéré de toutes ses contraintes et structures de classe ?",
      "answer": "La production",
      "answer_stringIds": [
        "string_216",
        "string_217"
      ]
    },
    {
      "id_qa": "FMSH_PB188a_22-23_154_qa2_v3",
      "id_block": "block_5",
      "question": "Qu'est-ce que la production ?",
      "answer": "une gestion directe",
      "answer_stringIds": [
        "string_228",
        "string_229",
        "string_230"
      ]
    },
    {
      "id_qa": "FMSH_PB188a_22-23_154_qa5_v3",
      "id_block": "block_5",
      "question": "De quoi est libérée la production ?",
      "answer": "toutes ses contraintes et structures de classe",
      "answer_stringIds": [
        "string_220",
        "string_221",
        "string_222",
        "string_223",
        "string_224",
        "string_225",
        "string_226"
      ]
    },
    {
      "id_qa": "FMSH_PB188a_22-23_154_qa6_v3",
      "id_block": "block_5",
      "question": "En quoi consiste la libre volonté des travailleurs ?",
      "answer": "en libres unités autogestionnaires",
      "answer_stringIds": [
        "string_279",
        "string_280",
        "string_281",
        "string_282",
        "string_283"
      ]
    },
    {
      "id_qa": "FMSH_PB188a_22-23_154_qa7_v3",
      "id_block": "block_5",
      "question": "Qu'est-ce que la gestion directe, organisée spontanément à la base ?",
      "answer": "La production",
      "answer_stringIds": [
        "string_216",
        "string_217"
      ]
    },
    {
      "id_qa": "FMSH_PB188a_22-23_154_qa24_v3",
      "id_block": "block_5",
      "question": "Qu'est-ce qui permettrait de supprimer la révolution ?",
      "answer": "le capitalisme",
      "answer_stringIds": [
        "string_208",
        "string_209"
      ]
    },
    {
      "id_qa": "FMSH_PB188a_22-23_154_qa25_v3",
      "id_block": "block_5",
      "question": "Que permettrait la révolution après la révolution ?",
      "answer": "supprimer le capitalisme",
      "answer_stringIds": [
        "string_207",
        "string_208",
        "string_209"
      ]
    },
    {
      "id_qa": "FMSH_PB188a_22-23_154_qa26_v3",
      "id_block": "block_5",
      "question": "Qu'est ce qui permettrait de supprimer le capitalisme ?",
      "answer": "la révolution",
      "answer_stringIds": [
        "string_203",
        "string_204"
      ]
    }
  ]
}