{
  "num": "autog_0338-7259_1973_num_22_1",
  "article": "autog_0338-7259_1973_num_22_1_1089",
  "page_name": "FMSH_PB188a_22-23_156",
  "questions": [
    {
      "id_qa": "FMSH_PB188a_22-23_156_qa8_v3",
      "id_block": "block_1",
      "question": "A quoi répond la méthode de nombreux partisans de l'autogestion ?",
      "answer": "à de telles exigences",
      "answer_stringIds": [
        "string_91",
        "string_92",
        "string_93",
        "string_94"
      ]
    },
    {
      "id_qa": "FMSH_PB188a_22-23_156_qa12_v3",
      "id_block": "block_1",
      "question": "Qui est à l'origine de la critique de l'autogestion ?",
      "answer": "ses partisans",
      "answer_stringIds": [
        "string_34",
        "string_35"
      ]
    },
    {
      "id_qa": "FMSH_PB188a_22-23_156_qa20_v3",
      "id_block": "block_1",
      "question": "A qui se pose la question décisive ?",
      "answer": "aux peuples opprimés",
      "answer_stringIds": [
        "string_9",
        "string_10",
        "string_11"
      ]
    },
    {
      "id_qa": "FMSH_PB188a_22-23_156_qa0_v3",
      "id_block": "block_5",
      "question": "Qu'est-ce qui permet de visiter la Yougoslavie ?",
      "answer": "des stations touristiques",
      "answer_stringIds": [
        "string_119",
        "string_120",
        "string_121"
      ]
    },
    {
      "id_qa": "FMSH_PB188a_22-23_156_qa23_v3",
      "id_block": "block_6",
      "question": "Qui a préconisé l'autogestion ?",
      "answer": "la Ligue des communistes de Tito",
      "answer_stringIds": [
        "string_144",
        "string_145",
        "string_146",
        "string_147",
        "string_148",
        "string_149"
      ]
    },
    {
      "id_qa": "FMSH_PB188a_22-23_156_qa24_v3",
      "id_block": "block_6",
      "question": "Qui a mis en place l'autogestion ?",
      "answer": "la Ligue des communistes de Tito",
      "answer_stringIds": [
        "string_144",
        "string_145",
        "string_146",
        "string_147",
        "string_148",
        "string_149"
      ]
    },
    {
      "id_qa": "FMSH_PB188a_22-23_156_qa14_v3",
      "id_block": "block_7",
      "question": "Par quoi ne veut pas alourdir notre propos ?",
      "answer": "par de fastidieuses statistiques",
      "answer_stringIds": [
        "string_164",
        "string_165",
        "string_166",
        "string_167"
      ]
    },
    {
      "id_qa": "FMSH_PB188a_22-23_156_qa16_v3",
      "id_block": "block_7",
      "question": "Qu'est ce que nous pourrions avancer ?",
      "answer": "quelques éléments",
      "answer_stringIds": [
        "string_154",
        "string_155"
      ]
    },
    {
      "id_qa": "FMSH_PB188a_22-23_156_qa25_v3",
      "id_block": "block_8",
      "question": "Qu'est ce qui caractérise les rapports entre ceux qui détiennent quelque responsabilité et la masse des travailleurs ?",
      "answer": "Bureaucratisme et autoritarisme",
      "answer_stringIds": [
        "string_199",
        "string_200",
        "string_201"
      ]
    },
    {
      "id_qa": "FMSH_PB188a_22-23_156_qa27_v3",
      "id_block": "block_8",
      "question": "Qui est à l'origine du Bureaucratisme et autoritarisme ?",
      "answer": "ceux qui",
      "answer_stringIds": [
        "string_207",
        "string_208"
      ]
    },
    {
      "id_qa": "FMSH_PB188a_22-23_156_qa28_v3",
      "id_block": "block_8",
      "question": "Qu'est ce qui caractérise le Bureaucratisme et autoritarisme ?",
      "answer": "les rapports entre ceux qui détiennent quelque responsabilité et la masse des travailleurs",
      "answer_stringIds": [
        "string_203",
        "string_204",
        "string_205",
        "string_206",
        "string_207",
        "string_208",
        "string_209",
        "string_210",
        "string_211",
        "string_212",
        "string_213",
        "string_214",
        "string_215",
        "string_216"
      ]
    }
  ]
}