{
  "num": "autog_0249-2563_1981_num_14_6",
  "article": "autog_0249-2563_1981_num_14_6_1441",
  "page_name": "FMSH_PB188a_NS_00006_122",
  "questions": [
    "Quels sont les aspects artistiques qui rencontrent une indifférence publique et une médiocrité des consommations et des aspirations culturelles en Yougoslavie, de la même manière qu'en pays capitalistes ?",
    "Quels sont les horizons culturels de masse en Yougoslavie ?",
    "Pourquoi il n'est pas nécessaire de se déplacer loin à l'étranger pour comprendre les conditions d'accueil des nouvelles pratiques artistiques ?",
    "Quels traitements sont observés pour les déviants en Yougoslavie ?",
    "Comment les mouvements de femmes se heurtent-ils au scepticisme et à la rudesse gentille dans les organisations qui incarnent le pouvoir dans la société du « socialisme réel » ?",
    "Dans quelles conditions se trouvent les revues et groupes d'intellectuels yougoslaves d'opposition ?",
    "Pourquoi il est inutile de privilégier l'étude de la répression yougoslave par rapport à celle des autres pays de l'Est ?",
    "Quelles structures d'accueil peuvent être préparées pour les universitaires dissidents yougoslaves en Occident ?"
  ]
}