{
  "num": "autog_0249-2563_1981_num_14_6",
  "article": "autog_0249-2563_1981_num_14_6_1441",
  "page_name": "FMSH_PB188a_NS_00006_123",
  "questions": [
    "Quels sont les raisons pour lesquelles les auteurs souhaitent être plus utiles à la cause de l'autogestion ?",
    "Quels événements ont permis de mettre en évidence les phénomènes décrits dans le texte ?",
    "Quels domaines a-t-on pensé que l'autogestion pouvait s'étendre ?",
    "Comment les Yougoslaves réagissent-ils à l'idée de l'autogestion dans des domaines autres que l'entreprise ?",
    "Quels sont les espoirs et les proclamations qui ont été faites quant à l'extension de l'autogestion ?",
    "Quels sont les dangers potentiels de la reprise en main dans les entreprises minées par la récession ?",
    "Quels sont les facteurs possibles qui pourraient entraîner une reprise en main dans les institutions et la vie quotidienne ?",
    "Quels sont les républicas les plus riches et les plus puissantes ?",
    "Quels sont les militaires qui pourraient être impliqués dans une reprise en main ?"
  ]
}