{
  "num": "autog_0338-7259_1973_num_24_1",
  "article": "autog_0338-7259_1973_num_24_1_1103",
  "page_name": "FMSH_PB188a_24-25_041",
  "questions": [
    "Quel événement historique est décrit dans l'introduction du texte ?",
    "Quel rôle joue la classe ouvrière dans la prise du pouvoir décrite ?",
    "Quel type de document est-ce ?",
    "Quels événements de la Guerre civile sont mentionnés ?",
    "Pourquoi les auteurs ont-ils choisi de mettre en évidence les luttes intérieures du Parti plutôt que les actions de ceux qui n'ont jamais rejoint le Parti ?",
    "Quels sont les raisons possibles pour lesquelles des millions d'hommes n'ont pas rejoint le Parti ?",
    "Quels sont les objectifs de la classe ouvrière lorsqu'elle prend le pouvoir ?",
    "Quels sont les obstacles rencontrés par les membres du Parti dans leur politique ?",
    "Quels sont les systèmes d'idées qui empêchaient les protagonistes historiques de comprendre le sens réel de ce qui arrivait ?"
  ]
}