{
  "num": "autog_0338-7259_1973_num_24_1",
  "article": "autog_0338-7259_1973_num_24_1_1103",
  "page_name": "FMSH_PB188a_24-25_097",
  "questions": [
    "Quand est-ce que Maximov a déclaré être les « meilleurs marxistes » ?",
    "Quels groupes politiques Maximov considérait-il être moins proches de la classe ouvrière que les Comités d'usine ?",
    "Qu'est-ce que Maximov pensait des Comités d'usine avant la révolution ?",
    "Quelles fonctions avaient les Comités d'usine avant la révolution selon Maximov ?",
    "Quelles fonctions devaient les Comités d'usine avoir selon Maximov après la révolution ?",
    "Quel rôle jouait Maximov dans les événements de 1918 ?",
    "Quels événements ont conduit Maximov à être arrêté en 1921 ?",
    "Quels journaux anarcho-syndicalistes a-t-il dirigé ?",
    "Où a-t-il vécu à la fin de sa vie ?",
    "Quels travaux sur l'anarchisme et la terreur bolchevik a-t-il écrits ?"
  ]
}