{
  "num": "autog_0338-7259_1973_num_24_1",
  "article": "autog_0338-7259_1973_num_24_1_1103",
  "page_name": "FMSH_PB188a_24-25_183",
  "questions": [
    "Quels principes défendait-on à Cronstadt selon les insurgés ?",
    "Qu'était la vision des insurgés de leur rôle dans la Révolution d'Octobre ?",
    "Qu'est-ce que les insurgés entendaient par « troisième révolution » ?",
    "Qu'est-ce que Trotsky accusait l'Opposition Ouvrière de faire ?",
    "Qu'est le « droit d'ainesse historique révolutionnaire du Parti » selon Trotsky ?",
    "Comment Trotsky justifiait la dictature du Parti ?",
    "Quel était le conflit entre le Parti et la démocratie ouvrière selon Trotsky ?",
    "Quel était le rôle des délégués au Congrès dans l'attaque militaire contre Cronstadt ?",
    "Quel était le contenu de l'appel radiophonique du Comité Révolutionnaire Provisoire au prolétarien mondial ?",
    "Quand eut-il lieu l'appel radiophonique du Comité Révolutionnaire Provisoire au prolétarien mondial ?",
    "Quand eut-il lieu l'appel radiophonique des insurgés de Cronstadt ?",
    "Quels documents contiennent ces appels radiophoniques ?"
  ]
}