{
  "num": "autog_0338-7259_1973_num_24_1",
  "article": "autog_0338-7259_1973_num_24_1_1103",
  "page_name": "FMSH_PB188a_24-25_116",
  "questions": [
    "Quel est le rôle de la source matérielle dans la production du socialisme selon les bolcheviks ?",
    "Quel type de unité de volonté est nécessaire pour le succès d'un travail organisé sur le modèle de l'industrie mécanique ?",
    "Comment peut-on assurer une rigoureuse unité de volonté ?",
    "Quel est le rôle de l'obéissance sans réserve dans la révolution selon les bolcheviks ?",
    "Quels journaux anarchistes ont été supprimés par le pouvoir ?",
    "Dans quelle mesure la dictature de quelques individus devrait-elle être étendue au Parti lui-même selon Préobajenski ?",
    "Quels textes de Lénine sont cités dans le document ?",
    "Dans quels numéros de Kommounist a été publié l'article de Préobajenski ?"
  ]
}