{
  "num": "autog_0338-7259_1973_num_24_1",
  "article": "autog_0338-7259_1973_num_24_1_1103",
  "page_name": "FMSH_PB188a_24-25_137",
  "questions": [
    "Quels syndicats sont concernés par cette décision de la République Soviétique ?",
    "Quels organes centraux et locaux de l'administration industrielle participent déjà les syndicats ?",
    "Quel est le but de la concentration effective des syndicats dans leurs propres mains de l'administration de l'économie ?",
    "Quels sont les arguments des « conservateurs » du Parti contre cette décision ?",
    "Quels sont les arguments des bolcheviks qui ont voté pour l'incorporation des Comités d'usine dans la structure syndicale ?",
    "Quel rôle jouent les syndicats dans la lutte contre la bureaucratisation de l'appareil économique ?",
    "Quel est l'opinion de Riazanov sur le rôle des syndicats dans l'administration de la production ?",
    "Quel est la description de Deutscher du «point 5» et comment les dirigeants bolcheviks justifient sa suppression ?"
  ]
}