{
  "num": "autog_0338-7259_1973_num_24_1",
  "article": "autog_0338-7259_1973_num_24_1_1103",
  "page_name": "FMSH_PB188a_24-25_134",
  "questions": [
    "Quel est l'opinion de Chirkin sur l'élection des représentants des syndicats au Conseil Central et aux pouvoirs locaux ?",
    "Quel est l'opposition de Perkin aux nouveaux règlements concernant la ratification des représentants des syndicats par le Commissariat du travail ?",
    "Quel est le droit du pouvoir d'Etat envers les représentants des syndicats selon Perkin ?",
    "Comment les syndicats sont-ils contrôlés par l'Etat selon le texte ?",
    "Quel est le rôle de la bureaucratie naissante dans le déplacement du pouvoir ?",
    "Quel est le lien entre le Parti et les agents de l'Etat dans le contrôle des syndicats ?",
    "Quel est le statut légal des élections des représentants des syndicats selon le texte ?",
    "Quel est l'attitude de la classe ouvrière envers la représentation de ses intérêts par le pouvoir d'Etat selon le texte ?",
    "Quel est le rôle de la volonté de la classe ouvrière dans la désignation de ses représentants selon le texte ?",
    "Quel est le résultat de l'annulation des élections et la remplacement des élus par d'autres individus selon Chirkin ?",
    "Quel est le motif de l'annulation des élections selon le texte ?",
    "Quel est le rôle de l'autorité dans la confirmation des élections selon Perkin ?",
    "Quel est le résultat de la confirmation ou non des élections par l'autorité selon Perkin ?",
    "Quel est le résultat de la situation pour les représentants des syndicats selon le texte ?",
    "Quel est le résultat de la situation pour la classe ouvrière selon le texte ?",
    "Quel est le résultat de la situation pour le Parti selon le texte ?",
    "Quel est le résultat de la situation pour les agents de l'Etat selon le texte ?",
    "Quel est le résultat?"
  ]
}