{
  "num": "autog_0338-7259_1973_num_24_1",
  "article": "autog_0338-7259_1973_num_24_1_1103",
  "page_name": "FMSH_PB188a_24-25_136",
  "questions": [
    "Quels événements marquent cette période de l'histoire bolchevique en 1918 ?",
    "Quel rôle jouent les syndicats dans la structure du pouvoir bolchevik à cette époque ?",
    "Quel était le résultat de la violation des décrets du Comité exécutif par les syndicats ?",
    "Quels événements menaçaient Moscou et Pétrograd à la fin de cette année ?",
    "Quel était le contexte politique lors du Huitième Congrès du Parti ?",
    "Quel était le point de vue des critiques de gauche sur les tendances centralistes du Parti ?",
    "Quels changements ont été apportés au programme économique du Parti à cette époque ?",
    "Quels événements ont précédé la période de stabilité relative en Ukraine et dans la Région de la Volga ?",
    "Quels documents historiques sont cités dans le texte pour enrichir notre compréhension de cette période ?"
  ]
}