{
  "num": "autog_0338-7259_1973_num_24_1",
  "article": "autog_0338-7259_1973_num_24_1_1103",
  "page_name": "FMSH_PB188a_24-25_033",
  "questions": [
    "Quels sont les conditions de vie qui ont été perturbées dans la production ?",
    "Quel rôle avait initialement la bourgeoisie dans ce bouleversement social total ?",
    "Qu'allait la bourgeoisie perdre si la gestion ouvrière l'emportait ?",
    "Comment la bourgeoisie a-t-elle réagî à la perspective de la révolution ?",
    "Quel rôle ont joué les leaders de la Révolution dans ce contexte ?",
    "Quel était le sort de ceux qui se sont attachés à la bourgeoisie expropriée ?",
    "Comment ont ces personnes pu pénétrer dans la « forteresse révolutionnaire » ?",
    "Comment les personnes les plus compétentes techniquement de la classe expropriée ont-elles repris des positions dominantes dans les rapports de production ?",
    "Quels étaient les tendances hostiles de la « gauche » envers le Mouvement des Comités d'Usines ?",
    "Quels groupes étaient les mencheviks ?"
  ]
}