{
  "num": "autog_0338-7259_1973_num_24_1",
  "article": "autog_0338-7259_1973_num_24_1_1103",
  "page_name": "FMSH_PB188a_24-25_037",
  "questions": [
    "Qu'implique le terme « surpris » dans ce contexte historique ?",
    "Quelles conceptions des rapports entre travailleurs et révolutionnaires sont ici évoquées ?",
    "En quelles occasions la séparation entre les bolcheviks et les masses s'est manifestée en 1917 ?",
    "Quels sont les « erreurs » du Parti que l'on devrait se demander comment elles ont pu se produire ?",
    "Comment les dirigeants du Parti se trouvaient-ils dans une situation qui les éloignait des liens étroits avec le mouvement ouvrier réel ?",
    "Qu'implique la phrase « Un vrai agitateur, écrivait Lénine, qui montre quelque talent, ou du moins promet d'en avoir, ne doit pas travailler à l'usine, nous devons considérer qu'il doit vivre du soutien du Parti. et passer dans la clandestinité » ?",
    "Comment les cadres bolcheviks d'origine ouvrière ont-ils perdu leur contact réel avec leur classe ?",
    "Est-il admis que le renversement militaire du gouvernement provisoire était possible en Juillet ?",
    "Où peut-on trouver la citation de Lénine mentionnée dans le texte ?"
  ]
}