{
  "num": "autog_0338-7259_1973_num_24_1",
  "article": "autog_0338-7259_1973_num_24_1_1103",
  "page_name": "FMSH_PB188a_24-25_111",
  "questions": [
    "Quel est le but avoué de l'augmentation de la productivité au travail selon le texte ?",
    "Quels groupes de travailleurs sont menacés d'expulsion du syndicat ?",
    "Quand ont eu lieu les descentes armées de la Tchéka dans les centres anarchistes de Moscou ?",
    "Combien de morts et de blessés ont été enregistrés lors des combats entre la Tchéka et les Gardes Noirs dans le Monastère de Donskoi ?",
    "Quel est le titre et qui sont les membres de la rédaction de la revue Kommounist ?",
    "Quels aspects du travail sont critiqués dans le premier numéro de Kommounist ?",
    "Comment la politique du travail décrite dans le texte affecterait-elle l'initiative de classe, l'activité et la capacité d'organisation du prolétariat ?",
    "Quel lien est-il fait entre l'introduction de la discipline du travail et la restauration de la gestion capitaliste dans l'industrie ?",
    "Quel est le résultat attendu de l'introduction de la discipline du travail selon Kommounist ?"
  ]
}