{
  "num": "autog_0338-7259_1973_num_24_1",
  "article": "autog_0338-7259_1973_num_24_1_1103",
  "page_name": "FMSH_PB188a_24-25_024",
  "questions": [
    "Quels sont les conditions qui ont entraîné l'éclatement des controverses sur le contrôle ouvrier ?",
    "Comment évolutionne le double pouvoir économique ?",
    "Quand a-t-on commencé à défendre l'idée de la gestion ouvrière en Angleterre ?",
    "Quels sont les différents termes utilisés pour décrire le contrôle ouvrier ?",
    "Pourquoi ne devrions-nous pas considérer ces controverses comme une simple question de purisme linguistique ?",
    "Quel est notre rôle historique dans ces controverses ?",
    "Quels sont les intérêts antagonistes des différentes couches sociales dans ce combat social ?",
    "Quels sont les idées divergentes sur le contrôle et la gestion ?",
    "Comment est impliqué le mouvement révolutionnaire dans ce combat social ?",
    "Comment l'« ethos », la tradition et les conceptions organisationnelles du mouvement révolutionnaire influencent la situation ?"
  ]
}