{
  "num": "autog_0338-7259_1973_num_24_1",
  "article": "autog_0338-7259_1973_num_24_1_1103",
  "page_name": "FMSH_PB188a_24-25_029",
  "questions": [
    "Quels groupes se sont opposés aux changements qui ont lieu durant la Révolution russe ?",
    "Quels sont les premiers à réagir face aux oppositions et pourquoi ?",
    "Quels sont les résistances psychologiques des militants et quels sont les phénomènes plus profonds qu'ils rencontrent ?",
    "Quels sont les principaux problèmes que la classe ouvrière a dû affronter durant la Révolution russe ?",
    "En quelles manières la révolution russe a-t-elle modifié les rapports de propriété ?",
    "A-t-elle été capable de transformer les rapports de production de manière révolutionnaire ?",
    "A-t-elle cherché à détruire la structure d'autorité des rapports de production ?",
    "A-t-elle été disposée à gérer la production elle-même ou a-t-elle tendu à déléguer cette tâche à d'autres ?",
    "Quel rôle a joué l'idéologie dominante dans la Révolution russe ?",
    "Comment la classe ouvrière a-t-elle remplacé ses ennemis ?",
    "Quel parti a déclaré parler « en son nom » et comment cela s'est produit ?"
  ]
}