{
  "num": "autog_0338-7259_1973_num_24_1",
  "article": "autog_0338-7259_1973_num_24_1_1103",
  "page_name": "FMSH_PB188a_24-25_038",
  "questions": [
    "Quelle est la contradiction qui caractérise le parti bolchevik avant et après 17?",
    "Comment le parti bolchevik a-t-il pu contrôler les travailleurs qui le soutenaient?",
    "Quels types de personnes tenaient la direction du parti?",
    "Comment les militants bolcheviks pouvaient assurer la fabrication d'une presse clandestine et la diffusion de la propagande?",
    "Comment un travailleur pouvait devenir un cadre bolchevik?",
    "Quel était l'appareil du parti et qui le contrôlait?",
    "Comment les problèmes rencontrés par la révolution russe après 17 ont-ils résolu la contradiction?",
    "Quelles tentatives ont été faites au sein du parti pour résoudre cette contradiction?",
    "Comment l'idéologie bourgeoise a-t-elle influencé la conception de l'organisation et le rapport du parti avec le mouvement de masse?"
  ]
}