{
  "num": "autog_0338-7259_1973_num_24_1",
  "article": "autog_0338-7259_1973_num_24_1_1103",
  "page_name": "FMSH_PB188a_24-25_174",
  "questions": [
    "Quels promesses avaient la direction du Parti bolchevik faites aux syndicats selon les bolcheviks syndicalistes ?",
    "Comment la direction du Parti et des organes gouvernementaux ont-ils réduit l'influence de la classe ouvrière ?",
    "Quels groupes étaient les autorités économiques hostiles aux syndicats ?",
    "Quelle solution proposaient les syndicalistes bolcheviks pour la direction industrielle ?",
    "Comment devaient être réorganisés les niveaux inférieurs de l'économie selon les propositions de l'Opposition Ouvrière ?",
    "Quel était le rôle des syndicats dans la nomination des fonctionnaires administratifs ?",
    "Quel était le but de la convocation d'un Congrès Panrusse des producteurs ?",
    "Comment les Congrès Nationaux des syndicats élisaient des dirigeants dans différents secteurs de l'économie ?",
    "Quel était le rôle des Conférences syndicales locales et régionales ?",
    "Comment la direction de chaque usine était-elle confiée ?",
    "Comment les syndicalistes bolcheviks pensaient-ils créer une volonté unique pour l'organisation de l'économie et permettre aux masses de travailleurs de faire sentir leur influence ?"
  ]
}