{
  "num": "autog_0338-7259_1973_num_24_1",
  "article": "autog_0338-7259_1973_num_24_1_1103",
  "page_name": "FMSH_PB188a_24-25_150",
  "questions": [
    "Quel groupe intérieur du Parti communiste adopta une résolution en faveur du contrôle des syndicats par la fraction du Parti dans le CCPS ?",
    "Quel type d'organisation aurait été créée si cette résolution avait été adoptée ?",
    "En contradiction avec quels principes centralistes était la simple existence de ce « sous-parti » ?",
    "Quels groupes montrèrent leur préférence pour le centralisme dans ce conflit entre démocratie et centralisme ?",
    "Quel était le contenu de la résolution présentée par les « centralistes démocratiques » ?",
    "Dans quelle région du CCPS fut votée une résolution en faveur de l'autonomie des syndicalistes du Parti ?",
    "Où se tenait le Second Congrès Panrusse des Travailleurs de l'Industrie Alimentaire avec une forte influence des syndicalistes-révolutionnaires ?",
    "Quels reproches étaient formulés contre le régime bolchevik au sujet de la domination absolue et incontrôlée sur le prolétariat ?"
  ]
}