{
  "num": "autog_0338-7259_1973_num_24_1",
  "article": "autog_0338-7259_1973_num_24_1_1103",
  "page_name": "FMSH_PB188a_24-25_040",
  "questions": [
    "Quels organes créés les travailleurs russes en 1917 pour gérer la société ?",
    "Comment les Soviets sont passés entre les mains des fonctionnaires bolcheviks ?",
    "Quelle tâche a été assumée par la bureaucratie après l'échec des travailleurs russes à créer des institutions pour gérer la production et la vie sociale ?",
    "Comment le pouvoir des travailleurs ne peut pas être identifié ou assimilé au pouvoir du Parti ?",
    "Quel rôle doit-il jouer le pouvoir ouvrier selon Rosa Luxemburg ?",
    "Comment la notion de \"prise du pouvoir\" ne peut pas désigner ce que pensent ceux qui croient vivre sous un régime socialiste ?"
  ]
}