{
  "num": "autog_0338-7259_1973_num_24_1",
  "article": "autog_0338-7259_1973_num_24_1_1103",
  "page_name": "FMSH_PB188a_24-25_091",
  "questions": [
    "Quels groupes croyaient que le chemin vers le socialisme ne pouvait se faire qu'à travers l'auto-émancipation de la classe ouvrière ?",
    "Quand les Instructions générales sur le contrôle ouvrier ont-elles été publiées par les Jsvestiya ?",
    "Quel est le nom donné à ces Instructions générales plus tard ?",
    "Quels sont les quatre premiers traitements de l'Organisation du contrôle ouvrier dans les usines et de l'élection des commissions de contrôle ?",
    "Quels sont les fonctions que les commissions de contrôle doivent assumer et quelles doivent rester entre les mains des directeurs-propriétaires ?",
    "Quels sont les fonctions que les commissions de contrôle ne doivent pas assurer dans la gestion des entreprises ?",
    "Qui a le droit de donner des ordres concernant la gestion, la marche et le fonctionnement des entreprises ?",
    "Quels sont les responsabilités des commissions de contrôle en matière de gestion financière ?",
    "Comment sont traités les problèmes financiers qui peuvent survenir ?",
    "Pourquoi les commissions de contrôle ne peuvent-elles pas se charger des problèmes financiers ?",
    "Quel article est cité dans le texte pour avoir une idée de la nature des Instructions générales et du Contre-Manuel ?",
    "Comment est qualifié l'article cité dans le texte ?",
    "Quel est l'intérêt de traduire le Manuel et le Contre-Manuel ?"
  ]
}