{
  "num": "autog_0338-7259_1973_num_24_1",
  "article": "autog_0338-7259_1973_num_24_1_1103",
  "page_name": "FMSH_PB188a_24-25_123",
  "questions": [
    "Quels secteurs économiques naissent-ils en 1918 selon le texte ?",
    "Quel rôle est confié à la Vésenka pour l'administration des entreprises nationalisées ?",
    "Quels sont les entreprises concernées par le décret et quels sont leurs anciens propriétaires ?",
    "Comment se fait le transfert des entreprises individuelles à l'État ?",
    "Quel rôle accélère-t-il le processus de nationalisation ?",
    "Comment sont modifiés les rapports de propriété ?",
    "Quand commence la période du « Communisme de Guerre » ?",
    "Comment la classe ouvrière perd-elle le peu de pouvoir qu'elle avait dans la production ?"
  ]
}