{
  "num": "autog_0338-7259_1973_num_24_1",
  "article": "autog_0338-7259_1973_num_24_1_1103",
  "page_name": "FMSH_PB188a_24-25_065",
  "questions": [
    "Quelles deux sessions a eu la Conférence Démocratique en 1917 ?",
    "Qu'exigeaient les bolcheviks lors de la première réunion de la Conférence Démocratique ?",
    "Quand a-t-il écrit cela, Lenine, et sur quels sujets traitait-il ?",
    "Quels événements ont conduit Lenine à écrire ce texte ?",
    "Quels types d'entreprises ont fermé leurs portes entre mars et août 1917 ?",
    "Pourquoi les patrons utilisaient-ils le lock-out ?",
    "Qu'était le but du « contrôle ouvrier » selon Lenine ?",
    "Quel texte a été publié en octobre 1917 par Lenine et sur quels points traitait-il ?"
  ]
}