{
  "num": "autog_0338-7259_1973_num_24_1",
  "article": "autog_0338-7259_1973_num_24_1_1103",
  "page_name": "FMSH_PB188a_24-25_110",
  "questions": [
    "Quels événements ont conduit à la restauration de la peine de mort pendant les combats dans l'Armée Rouge ?",
    "Quels privilèges ont été accordés aux officiers dans l'Armée Rouge après la Révolution d'Octobre ?",
    "Quand et pour quels raisons les formes démocratiques d'organisation ont-elles été supprimées dans l'Armée Rouge ?",
    "Quel rôle les syndicats devaient jouer dans l'amélioration de la discipline au travail selon le Conseil Central des Syndicats ?",
    "Quels moyens pouvaient être utilisés par les syndicats pour accroître la productivité du travail ?",
    "Quels types de commissions devaient être créées par chaque syndicat pour améliorer la productivité ?",
    "Quels types de primes pouvaient être accordées aux travailleurs pour dépasser les normes de productivité ?",
    "Quand et pour quels raisons N. V. Krylenko a-t-il démissionné du Département de la Défense ?",
    "Quels auteurs critiquent ces aspects réactionnaires de l'Armée Rouge et à quels événements ils les relient ?"
  ]
}