{
  "num": "autog_0338-7259_1973_num_22_1",
  "article": "autog_0338-7259_1973_num_22_1_1083",
  "page_name": "FMSH_PB188a_22-23_111",
  "questions": [
    {
      "id_qa": "FMSH_PB188a_22-23_111_qa16_v3",
      "id_block": "block_1",
      "question": "Qu'est ce qui s'étagent par délégations successives ?",
      "answer": "ces comités ou conseils",
      "answer_stringIds": [
        "string_36",
        "string_37",
        "string_38",
        "string_39"
      ]
    },
    {
      "id_qa": "FMSH_PB188a_22-23_111_qa23_v3",
      "id_block": "block_1",
      "question": "Qu'est ce qui mandat les comités représentatifs ?",
      "answer": "des assemblées générales fréquentes",
      "answer_stringIds": [
        "string_109",
        "string_110",
        "string_111",
        "string_112"
      ]
    },
    {
      "id_qa": "FMSH_PB188a_22-23_111_qa24_v3",
      "id_block": "block_1",
      "question": "Qu'est ce qui mandat les assemblées générales ?",
      "answer": "les comités représentatifs",
      "answer_stringIds": [
        "string_114",
        "string_115",
        "string_116"
      ]
    },
    {
      "id_qa": "FMSH_PB188a_22-23_111_qa0_v3",
      "id_block": "block_2",
      "question": "Qu'est-ce que le travail collectif ?",
      "answer": "la solidarité même sous le régime ancien",
      "answer_stringIds": [
        "string_200",
        "string_201",
        "string_202",
        "string_203",
        "string_204",
        "string_205",
        "string_206"
      ]
    },
    {
      "id_qa": "FMSH_PB188a_22-23_111_qa3_v3",
      "id_block": "block_2",
      "question": "Qu'est-ce que le socialisme ?",
      "answer": "les rapports hiérarchiques autoritaires",
      "answer_stringIds": [
        "string_212",
        "string_213",
        "string_214",
        "string_215",
        "string_216"
      ]
    },
    {
      "id_qa": "FMSH_PB188a_22-23_111_qa21_v3",
      "id_block": "block_2",
      "question": "Qu'est-ce que la solidarité et la fraternité dans le travail ?",
      "answer": "de socialisme",
      "answer_stringIds": [
        "string_193",
        "string_194"
      ]
    },
    {
      "id_qa": "FMSH_PB188a_22-23_111_qa26_v3",
      "id_block": "block_2",
      "question": "Qu'est-ce qui est repris dans l'exécution de la décision prise collectivement ?",
      "answer": "leur pouvoir de direction du travail",
      "answer_stringIds": [
        "string_154",
        "string_155",
        "string_156",
        "string_157",
        "string_158",
        "string_159"
      ]
    },
    {
      "id_qa": "FMSH_PB188a_22-23_111_qa11_v3",
      "id_block": "block_3",
      "question": "Qui a une fonction importante dans l'élaboration du plan ?",
      "answer": "Les syndicats",
      "answer_stringIds": [
        "string_271",
        "string_272"
      ]
    },
    {
      "id_qa": "FMSH_PB188a_22-23_111_qa12_v3",
      "id_block": "block_3",
      "question": "Quelle est la fonction des syndicats dans l'élaboration du plan ?",
      "answer": "une fonction au moins aussi importante",
      "answer_stringIds": [
        "string_274",
        "string_275",
        "string_276",
        "string_277",
        "string_278",
        "string_279"
      ]
    },
    {
      "id_qa": "FMSH_PB188a_22-23_111_qa19_v3",
      "id_block": "block_3",
      "question": "Quelle est la caractéristique verticale de la profession ?",
      "answer": "une industrie déterminée,",
      "answer_stringIds": [
        "string_319"
      ]
    }
  ]
}