{
  "num": "autog_0249-2563_1984_num_17_15",
  "article": "autog_0249-2563_1984_num_17_15_1583_t1_0102_0000_2",
  "page_name": "autog_0249-2563_1984_num_17_15_T1_0102_0000",
  "questions": [
    "Quels sont les lieux et les dates des réunions mentionnées dans le texte ?",
    "Quels sont les raisons pour lesquelles les personnes se sont réunies à Solignac et à Carcassonne ?",
    "Quels sont les convergences des personnes réunies à Solignac ?",
    "Quels sont les sujets abordés lors du colloque de Carcassonne ?",
    "Quels sont les groupes sociaux représentés par les participants au colloque de Carcassonne ?",
    "Quel rôle joue-t-on dans le mouvement d'opinion qu'elles souhaitent impulser ?",
    "Quels sont les thèmes abordés lors de la discussion sur l'autogestion au colloque de Carcassonne ?",
    "Quels sont les liens possibles entre les libérations sexuelle et économique ?",
    "Est-il possible que le désir soit destructeur ?",
    "Est-il possible que le désir ne soit pas désaliénant ?",
    "Quels sont les lieux et les pratiques concernés par les alternatives à la psychiatrie ?",
    "Quel est le rôle de l'État dans la discussion sur l'autogestion ?",
    "Quels sont les enjeux sociaux et révolutionnaires de l'autogestion ?",
    "Quels sont les coûts sociaux et financiers insupportables que les personnes souhaitent mettre fin à ?",
    "Quels sont les choix et les pratiques que les personnes souhaitent mettre fin à ?",
    "Quels sont les moyens pour mettre en œuvre les actions souhaitées ?",
    "Quel est le rôle de l'humour et du bon sens dans la discussion ?",
    "Quels sont les événements récents mentionnés dans le texte ?"
  ]
}