{
  "num": "autog_0249-2563_1984_num_17_15",
  "article": "autog_0249-2563_1984_num_17_15_1584_t1_0113_0000_1",
  "page_name": "autog_0249-2563_1984_num_17_15_T1_0114_0000",
  "questions": [
    "Quel est le rôle de l'Institut CIRED dans le développement local ?",
    "Quels sont les initiatives que l'Institut écoute et prend en compte ?",
    "Quel projet est mené par Cultures au quotidien dans le quartier de la Butte-aux-Cailles ?",
    "Quels sont les objectifs du Manifeste pour la culture wallonne ?",
    "Comment le Manifeste pour la culture wallonne se distingue-t-il des régressions folklorisantes ?",
    "Quel rôle joue Bruxelles francophone dans le Manifeste ?",
    "Quels sont les conséquences escomptées de l'autonomie wallonne ?",
    "Comment le peuple wallon a-t-il souffert jusqu'à présent ?",
    "Quels sont les rapports critiqués dans le Manifeste ?",
    "Quels sont les niveaux de politique et d'action concernés par le développement local ?",
    "Quels sont les autres initiatives liées au projet de Cultures au quotidien ?",
    "Quels sont les liens entre le développement local et l'autonomie wallonne ?"
  ]
}