{
  "num": "autog_0005-0970_1968_num_5_1",
  "article": "autog_0005-0970_1968_num_5_1_928",
  "page_name": "FMSH_PB188a_05-06_191",
  "questions": [
    "Quels rêves expriment les fondateurs de la première internationale, selon le texte ?",
    "En quelles mains ont été lancées les grandes expériences sociales mentionnées dans le texte ?",
    "Quel ton prend la fondation de l'Internationale et l'intervention idéologique de Marx et Engels, selon le texte ?",
    "Qu'est-ce que Marx veut parler dans son texte et pourquoi ?",
    "Qu'est-ce que Marx pense des coopératives de production ?",
    "Quels sont les limites du travail coopératif selon Marx ?",
    "Pourquoi Marx ne croit-il pas que le travail coopératif peut alléger sensiblement la misère des ouvriers ?"
  ]
}