{
  "num": "autog_0338-7259_1971_num_15_1",
  "article": "autog_0338-7259_1971_num_15_1_1007_t1_0167_0000_1",
  "page_name": "FMSH_PB188a_00015_169",
  "questions": [
    {
      "id_qa": "FMSH_PB188a_00015_169_qa7_v3",
      "id_block": "block_1",
      "question": "Qui a écrit l'ouvrage sur l'autogestion ?",
      "answer": "Yvon Bourdet",
      "answer_stringIds": [
        "string_12",
        "string_13"
      ]
    },
    {
      "id_qa": "FMSH_PB188a_00015_169_qa0_v3",
      "id_block": "block_3",
      "question": "Qui s'intéresse à l'autogestion en tant que sociologue marxiste critique ?",
      "answer": "Yvon Bourdet",
      "answer_stringIds": [
        "string_12",
        "string_13"
      ]
    },
    {
      "id_qa": "FMSH_PB188a_00015_169_qa1_v3",
      "id_block": "block_3",
      "question": "Qui est le sociologue marxiste critique ?",
      "answer": "Yvon Bourdet",
      "answer_stringIds": [
        "string_12",
        "string_13"
      ]
    },
    {
      "id_qa": "FMSH_PB188a_00015_169_qa2_v3",
      "id_block": "block_3",
      "question": "Qui est l'auteur de la théorie de l'autogestion ?",
      "answer": "Yvon Bourdet",
      "answer_stringIds": [
        "string_12",
        "string_13"
      ]
    },
    {
      "id_qa": "FMSH_PB188a_00015_169_qa4_v3",
      "id_block": "block_3",
      "question": "Quelles idéologies se sont opposées à l'autogestion ?",
      "answer": "celles",
      "answer_stringIds": [
        "string_84"
      ]
    },
    {
      "id_qa": "FMSH_PB188a_00015_169_qa5_v3",
      "id_block": "block_3",
      "question": "Quel est le métier d'un sociologue marxiste critique ?",
      "answer": "Yvon Bourdet",
      "answer_stringIds": [
        "string_12",
        "string_13"
      ]
    },
    {
      "id_qa": "FMSH_PB188a_00015_169_qa10_v3",
      "id_block": "block_4",
      "question": "Quels sont les rapports entre Autogestion et Conseils ouvriers ?",
      "answer": "établir les rapports existant entre Autogestion et « Conseils ouvriers",
      "answer_stringIds": [
        "string_161",
        "string_162",
        "string_163",
        "string_164",
        "string_165",
        "string_166",
        "string_167",
        "string_168",
        "string_169",
        "string_170",
        "string_171"
      ]
    },
    {
      "id_qa": "FMSH_PB188a_00015_169_qa11_v3",
      "id_block": "block_4",
      "question": "Qu'est ce qui l'amène à établir entre Autogestion et Conseils ouvriers ?",
      "answer": "les rapports",
      "answer_stringIds": [
        "string_162",
        "string_163"
      ]
    },
    {
      "id_qa": "FMSH_PB188a_00015_169_qa13_v3",
      "id_block": "block_6",
      "question": "Quel est le titre du chapitre consacré à la Démocratie populaire ?",
      "answer": "à « Autogestion et Démocratie »",
      "answer_stringIds": [
        "string_216",
        "string_217",
        "string_218",
        "string_219",
        "string_220",
        "string_221"
      ]
    }
  ]
}