{
  "num": "autog_0338-7259_1974_num_28_1",
  "article": "autog_0338-7259_1974_num_28_1_1198",
  "page_name": "FMSH_PB188a_28-29_135",
  "questions": [
    "Quels types de participation sont-ils observés dans les chroniques de l'autogestion ?",
    "Quels sont les objectifs subjectifs et objectifs de l'autogestion ?",
    "Comment Daniel Mothé a-t-il ouvert le champ d'investigation de l'autogestion en matière de moyens de production ?",
    "Quel est la différence entre un outil qui ne demande aucune intervention mentale de l'ouvrier et un outil de l'artisan ?",
    "Comment l'autogestion suppose la prise en compte effective de l'intelligence collective des travailleurs ?",
    "Comment l'intelligence de l'homme est-elle affectée par l'appareillage industriel ?",
    "Comment le système taylorisé fonctionne-t-il grâce aux interventions des ouvriers ?",
    "Quel est le lien entre le bricolage et l'exercice de la créativité collective des travailleurs ?",
    "Quelles évolutions déterminantes des moyens de production sont nécessaires pour l'autogestion ?",
    "Comment l'autogestion implique des transformations radicales des instruments de production ?"
  ]
}