{
  "num": "autog_0338-7259_1974_num_28_1",
  "article": "autog_0338-7259_1974_num_28_1_1198",
  "page_name": "FMSH_PB188a_28-29_130",
  "questions": [
    "Quels sont les conséquences sur la conscience ouvrière des différentes formes d'autogestion ?",
    "Quel est le sujet de la critique dans ce passage ?",
    "Quel type de sociologie est critiqué ici ?",
    "Quel est le problème avec la méthode des enquêtes traditionnelles par sondage ?",
    "Quel est l'avantage de l'enquête mal préparée mentionnée dans le texte ?",
    "Quel est le danger de la grille des questions dans l'étude de phénomènes complexes ?",
    "Pourquoi le sondage ne peut-il pas être neutre lorsqu'il s'agit de s'interroger sur la nature et l'existence d'un phénomène supposé ?"
  ]
}