{
  "num": "autog_0338-7259_1970_num_11_1",
  "article": "autog_0338-7259_1970_num_11_1_1787",
  "page_name": "FMSH_PB188a_11-12_248",
  "questions": [
    {
      "id_qa": "FMSH_PB188a_11-12_248_qa25_v3",
      "id_block": "block_1",
      "question": "Qui a écrit l'Etat et la Révolution ?",
      "answer": "le Lénine",
      "answer_stringIds": [
        "string_9",
        "string_10"
      ]
    },
    {
      "id_qa": "FMSH_PB188a_11-12_248_qa27_v3",
      "id_block": "block_1",
      "question": "Qui a écrit l'Etat ?",
      "answer": "le Lénine",
      "answer_stringIds": [
        "string_9",
        "string_10"
      ]
    },
    {
      "id_qa": "FMSH_PB188a_11-12_248_qa6_v3",
      "id_block": "block_2",
      "question": "Quelle est la caractéristique du pouvoir de tous les appareils ?",
      "answer": "du secret",
      "answer_stringIds": [
        "string_99",
        "string_100"
      ]
    },
    {
      "id_qa": "FMSH_PB188a_11-12_248_qa34_v3",
      "id_block": "block_3",
      "question": "Que renouvelaient les moyens techniques de l'information moderne ?",
      "answer": "toutes les vieilles lignes de démarcation des possibilités et des impossibilités",
      "answer_stringIds": [
        "string_131",
        "string_132",
        "string_133",
        "string_134",
        "string_135",
        "string_136",
        "string_137",
        "string_138",
        "string_139",
        "string_140",
        "string_141"
      ]
    },
    {
      "id_qa": "FMSH_PB188a_11-12_248_qa18_v3",
      "id_block": "block_4",
      "question": "Qui conseillait de ne pas tenter l'aventure ?",
      "answer": "la sagesse",
      "answer_stringIds": [
        "string_249",
        "string_250"
      ]
    },
    {
      "id_qa": "FMSH_PB188a_11-12_248_qa20_v3",
      "id_block": "block_4",
      "question": "Qu'est ce que la sagesse conseillait de ne pas tenter ?",
      "answer": "une aventure",
      "answer_stringIds": [
        "string_246",
        "string_247"
      ]
    },
    {
      "id_qa": "FMSH_PB188a_11-12_248_qa21_v3",
      "id_block": "block_4",
      "question": "Qu'est-ce qui paraissait impossible à la sagesse ?",
      "answer": "la suppression brusque du pouvoir des minorités dirigeantes",
      "answer_stringIds": [
        "string_231",
        "string_232",
        "string_233",
        "string_234",
        "string_235",
        "string_236",
        "string_237",
        "string_238"
      ]
    },
    {
      "id_qa": "FMSH_PB188a_11-12_248_qa22_v3",
      "id_block": "block_4",
      "question": "Que conseillait la sagesse ?",
      "answer": "ne pas tenter",
      "answer_stringIds": [
        "string_253",
        "string_254",
        "string_255"
      ]
    },
    {
      "id_qa": "FMSH_PB188a_11-12_248_qa0_v3",
      "id_block": "block_5",
      "question": "Par qui est limitée la participation ?",
      "answer": "le pouvoir central",
      "answer_stringIds": [
        "string_318",
        "string_319",
        "string_320"
      ]
    },
    {
      "id_qa": "FMSH_PB188a_11-12_248_qa1_v3",
      "id_block": "block_5",
      "question": "Qu'est-ce que l'autogestion ?",
      "answer": "Une telle participation",
      "answer_stringIds": [
        "string_313",
        "string_314",
        "string_315"
      ]
    },
    {
      "id_qa": "FMSH_PB188a_11-12_248_qa7_v3",
      "id_block": "block_5",
      "question": "Qu'organise les coopératives ou les petites unités autogérées ?",
      "answer": "les voies et",
      "answer_stringIds": [
        "string_298",
        "string_299",
        "string_300"
      ]
    },
    {
      "id_qa": "FMSH_PB188a_11-12_248_qa28_v3",
      "id_block": "block_5",
      "question": "Qu'est ce qui permettait le partage, effectif et éducatif des responsabilités dans les entreprises ?",
      "answer": "la participation",
      "answer_stringIds": [
        "string_207",
        "string_208"
      ]
    },
    {
      "id_qa": "FMSH_PB188a_11-12_248_qa29_v3",
      "id_block": "block_5",
      "question": "Qu'est-ce que la participation ?",
      "answer": "un moyen immédiatement réalisable et efficace qui assurait le partage",
      "answer_stringIds": [
        "string_262",
        "string_263",
        "string_264",
        "string_265",
        "string_266",
        "string_267",
        "string_268",
        "string_269",
        "string_270",
        "string_271",
        "string_272"
      ]
    },
    {
      "id_qa": "FMSH_PB188a_11-12_248_qa11_v3",
      "id_block": "block_6",
      "question": "Dans quel système est intégré la participation ?",
      "answer": "au système de classe",
      "answer_stringIds": [
        "string_378",
        "string_379",
        "string_380",
        "string_381"
      ]
    },
    {
      "id_qa": "FMSH_PB188a_11-12_248_qa12_v3",
      "id_block": "block_6",
      "question": "A quoi s'intègre la \" participation\" ?",
      "answer": "au système de classe existant",
      "answer_stringIds": [
        "string_378",
        "string_379",
        "string_380",
        "string_381",
        "string_382"
      ]
    },
    {
      "id_qa": "FMSH_PB188a_11-12_248_qa13_v3",
      "id_block": "block_6",
      "question": "Qu'est-ce que la participation ?",
      "answer": "un os",
      "answer_stringIds": [
        "string_366",
        "string_367"
      ]
    },
    {
      "id_qa": "FMSH_PB188a_11-12_248_qa17_v3",
      "id_block": "block_6",
      "question": "A qui est destiné cette \" participation\" ?",
      "answer": "à la classe ouvrière",
      "answer_stringIds": [
        "string_371",
        "string_372",
        "string_373",
        "string_374"
      ]
    }
  ]
}