{
  "num": "autog_0338-7259_1970_num_11_1",
  "article": "autog_0338-7259_1970_num_11_1_1787",
  "page_name": "FMSH_PB188a_11-12_247",
  "questions": [
    {
      "id_qa": "FMSH_PB188a_11-12_247_qa25_v3",
      "id_block": "block_1",
      "question": "Dans quelle société se situe l'autogestion ?",
      "answer": "la société globale",
      "answer_stringIds": [
        "string_77",
        "string_78",
        "string_79"
      ]
    },
    {
      "id_qa": "FMSH_PB188a_11-12_247_qa26_v3",
      "id_block": "block_1",
      "question": "Quel est le lieu de l'affrontement entre la cogestion et l'autogestion ?",
      "answer": "ce séminaire",
      "answer_stringIds": [
        "string_21",
        "string_22"
      ]
    },
    {
      "id_qa": "FMSH_PB188a_11-12_247_qa28_v3",
      "id_block": "block_1",
      "question": "A quoi correspond la cogestion ?",
      "answer": "des décisions",
      "answer_stringIds": [
        "string_54",
        "string_55"
      ]
    },
    {
      "id_qa": "FMSH_PB188a_11-12_247_qa45_v3",
      "id_block": "block_1",
      "question": "Qu'y a-t-il entre cogestion et autogestion ?",
      "answer": "une différence de degré",
      "answer_stringIds": [
        "string_12",
        "string_13",
        "string_14",
        "string_15"
      ]
    },
    {
      "id_qa": "FMSH_PB188a_11-12_247_qa0_v3",
      "id_block": "block_2",
      "question": "Qui impose sa volonté au peuple ?",
      "answer": "une minorité",
      "answer_stringIds": [
        "string_106",
        "string_107"
      ]
    },
    {
      "id_qa": "FMSH_PB188a_11-12_247_qa1_v3",
      "id_block": "block_2",
      "question": "Où se trouve toujours la société de classe ?",
      "answer": "dans des régimes sociaux",
      "answer_stringIds": [
        "string_251",
        "string_252",
        "string_253",
        "string_254"
      ]
    },
    {
      "id_qa": "FMSH_PB188a_11-12_247_qa2_v3",
      "id_block": "block_2",
      "question": "Qui impose sa volonté dans les régimes sociaux ?",
      "answer": "une minorité établie",
      "answer_stringIds": [
        "string_256",
        "string_257",
        "string_258"
      ]
    },
    {
      "id_qa": "FMSH_PB188a_11-12_247_qa3_v3",
      "id_block": "block_2",
      "question": "Dans quel type de régime se trouve la société de classe ?",
      "answer": "on se trouve toujours dans des régimes sociaux où une minorité établie et structurée impose sa volonté",
      "answer_stringIds": [
        "string_247",
        "string_248",
        "string_249",
        "string_250",
        "string_251",
        "string_252",
        "string_253",
        "string_254",
        "string_255",
        "string_256",
        "string_257",
        "string_258",
        "string_259",
        "string_260",
        "string_261",
        "string_262",
        "string_263"
      ]
    },
    {
      "id_qa": "FMSH_PB188a_11-12_247_qa5_v3",
      "id_block": "block_2",
      "question": "Qui a été éliminé de la société de classe ?",
      "answer": "les propriétaires privés des moyens de production",
      "answer_stringIds": [
        "string_235",
        "string_236",
        "string_237",
        "string_238",
        "string_239",
        "string_240",
        "string_241"
      ]
    },
    {
      "id_qa": "FMSH_PB188a_11-12_247_qa7_v3",
      "id_block": "block_2",
      "question": "Qu'est ce qui ne pourra être renversée que par une révolution brusque et radicale ?",
      "answer": "la classe dirigeante",
      "answer_stringIds": [
        "string_173",
        "string_174",
        "string_175"
      ]
    },
    {
      "id_qa": "FMSH_PB188a_11-12_247_qa9_v3",
      "id_block": "block_2",
      "question": "Qu'est ce qui renforce la classe dirigeante ?",
      "answer": "la participation",
      "answer_stringIds": [
        "string_158",
        "string_159",
        "string_160"
      ]
    },
    {
      "id_qa": "FMSH_PB188a_11-12_247_qa11_v3",
      "id_block": "block_2",
      "question": "Qui ne peut être renversé que par une révolution brusque et radicale ?",
      "answer": "la classe dirigeante",
      "answer_stringIds": [
        "string_173",
        "string_174",
        "string_175"
      ]
    },
    {
      "id_qa": "FMSH_PB188a_11-12_247_qa12_v3",
      "id_block": "block_2",
      "question": "Qu'est ce qui ne pourra être renversé que par une révolution brusque et radicale ?",
      "answer": "la classe dirigeante",
      "answer_stringIds": [
        "string_173",
        "string_174",
        "string_175"
      ]
    },
    {
      "id_qa": "FMSH_PB188a_11-12_247_qa13_v3",
      "id_block": "block_2",
      "question": "Par quoi la classe dirigeante ne peut-elle pas être renversée ?",
      "answer": "par une révolution brusque et radicale",
      "answer_stringIds": [
        "string_182",
        "string_183",
        "string_184",
        "string_185",
        "string_186",
        "string_187"
      ]
    },
    {
      "id_qa": "FMSH_PB188a_11-12_247_qa17_v3",
      "id_block": "block_2",
      "question": "Qu'est-ce qui est nécessaire dans les régimes de PEst et de lOuest ?",
      "answer": "Cette nouvelle révolution",
      "answer_stringIds": [
        "string_188",
        "string_189",
        "string_190"
      ]
    },
    {
      "id_qa": "FMSH_PB188a_11-12_247_qa18_v3",
      "id_block": "block_2",
      "question": "Qu'est-ce qui distingue les régimes socialistes des régimes capitalistes ?",
      "answer": "de grandes différences",
      "answer_stringIds": [
        "string_208",
        "string_209",
        "string_210"
      ]
    },
    {
      "id_qa": "FMSH_PB188a_11-12_247_qa20_v3",
      "id_block": "block_2",
      "question": "Quelles sont les différences entre les régimes de PEst et de lOuest ?",
      "answer": "les régimes socialistes des régimes capitalistes",
      "answer_stringIds": [
        "string_212",
        "string_213",
        "string_214",
        "string_215",
        "string_216",
        "string_217",
        "string_218"
      ]
    },
    {
      "id_qa": "FMSH_PB188a_11-12_247_qa36_v3",
      "id_block": "block_2",
      "question": "Qu'est ce qui assure l'ordre ?",
      "answer": "un système social",
      "answer_stringIds": [
        "string_327",
        "string_328",
        "string_329"
      ]
    },
    {
      "id_qa": "FMSH_PB188a_11-12_247_qa39_v3",
      "id_block": "block_2",
      "question": "Qu'est-ce que la bureaucratie politique centrale ?",
      "answer": "la propriété privée du pouvoir de décision sur les moyens de produc‘tion",
      "answer_stringIds": [
        "string_292",
        "string_293",
        "string_294",
        "string_295",
        "string_296",
        "string_297",
        "string_298",
        "string_299",
        "string_300",
        "string_301",
        "string_302",
        "string_303",
        "string_304",
        "string_305"
      ]
    },
    {
      "id_qa": "FMSH_PB188a_11-12_247_qa31_v3",
      "id_block": "block_4",
      "question": "Qui a étudié le cas exemplaire de la Commune de Paris ?",
      "answer": "Karl Marx",
      "answer_stringIds": [
        "string_380",
        "string_381"
      ]
    }
  ]
}