{
  "num": "autog_0249-2563_1980_num_13_2",
  "article": "autog_0249-2563_1980_num_13_2_1859",
  "page_name": "autog_0249-2563_1980_num_13_2_T1_0255_0000",
  "questions": [
    "Quels processus ont été utilisés à des fins d'information et d'agitation, alimentant ainsi des discussions sur de multiples sujets d'actualité ?",
    "En quoi consistait une autre façon de soutenir et d'élargir les luttes ?",
    "Quels groupes théâtraux ont été constitués et pourquoi ?",
    "Quel type de théâtre s'agit-il ici ?",
    "Comment ces groupes théâtraux ont-ils pu se consacrer à leurs activités théâtrales ?",
    "Combien de troupes théâtrales y a-t-il eu entre 1971 et 1974 ?",
    "Quels groupes théâtraux ont connu une existence éphémère et pourquoi ?",
    "Quels groupes théâtraux ont considéré le théâtre comme une arme spécifique pour atteindre un objectif précis et quels objectifs ont-ils visés ?",
    "Quels groupes théâtraux ont persisté et pourquoi ?",
    "Comment ces créations théâtrales impliquent-elles une autogestion pédagogique de l'appropriation d'un savoir-connaissance ?",
    "Comment ces créations théâtrales s'ancrent-elles dans la tradition du théâtre d'agit-prop et participent-elles de productions improvisées ?",
    "Comment le théâtre est-il décrit dans le texte ?",
    "Quels sont les différents types de pièces produites ?",
    "Comment ces pièces contribuent-elles à une culture prolétarienne ?",
    "Comment le théâtre est-il utilisé comme arme de lutte ?",
    "Comment les apprentis prenaient-ils le pouvoir et quels moyens culturels ils utilisaient ?",
    "Comment les apprentis se différenciaient-ils des enseignants traditionnels ?",
    "Comment les apprentis utilisaient-ils les visées esthétiques plus élaborées pour contribuer à une culture prolétarienne ?",
    "Comment les?"
  ]
}