{
  "num": "autog_0338-7259_1974_num_26_1",
  "article": "autog_0338-7259_1974_num_26_1_1117",
  "page_name": "FMSH_PB188a_26-27_190",
  "questions": [
    "Quel est le rôle objectif de la section 190 LILIANA LANZARDO dans la lutte entre ouvriers et patronat ?",
    "Comment la Fiat utilise-t-elle la division dans la masse ouvrière pour reprendre le contrôle des combats ?",
    "Quel est le comportement des ouvriers de la Fiat envers les grèves décrétées par le syndicat avant 1966 ?",
    "Comment la participation ouvrière dans le contrat (adhésion au syndicat) a-t-elle évolué par rapport au passé ?",
    "Quels sont les changements apportés à la plate-forme revendicative du syndicat en réponse à la spontanéité ouvrière ?",
    "Quels sont les revendications ouvrières qui ont été acceptées par le syndicat sous la pression de la base ?",
    "En quoi la lutte spontanée est-elle obligée de se porter sur un terrain plus général ?",
    "Comment la direction de la Fiat attire la lutte spontanée sur ce terrain plus général ?",
    "Quel est le résultat réel de la médiation syndicale, du retour des hésitants et de l'ouverture de la lutte contractuelle sur la direction des combats ?",
    "En quoi la lutte spontanée est-elle momentanément bloquée ?",
    "En quels termes la lutte spontanée est-elle obligée de se porter sur un terrain plus général ?",
    "Comment la perte de 60 milliards par la Fiat est-elle liée aux luttes spontanées des ouvriers ?",
    "En quelle mesure la participation ouvrière dans les grèves décrétées par le syndicat est-elle active ?",
    "Comment la méfiance et la critique passive des ouvriers influent-elles sur leur engagement syndical ?",
    "Comment la division dans la masse ouvrière est-elle créée par la Fiat ?",
    "En quels termes la direction des combats est-elle replacée?"
  ]
}