{
  "num": "autog_0338-7259_1974_num_26_1",
  "article": "autog_0338-7259_1974_num_26_1_1117",
  "page_name": "FMSH_PB188a_26-27_234",
  "questions": [
    "Quel rôle a joué la régression économique dans la répression de la Fiat envers les avant-gardes politiques ?",
    "Quels groupes politiques ont été visés par la répression de la Fiat ?",
    "Quels militants ont été particulièrement visés par la répression ?",
    "Comment la lutte contractuelle de 1972-1973 a-t-elle confirmé les tendances existantes dans les luttes de classes récentes ?",
    "Quel était le type de lutte qui avait caractérisé les années 1969-1971 ?",
    "Comment la première phase de la lutte contractuelle (avant 1973) a-t-elle été marquée ?",
    "Quel processus a été mis en évidence par la lutte contractuelle de 1972-1973 ?",
    "Comment la classe ouvrière de la Fiat a-t-elle tiré avantage de ce processus ?",
    "Quel était le rôle des délégués dans cette lutte contractuelle ?",
    "Comment la classe ouvrière a-t-elle pu s'en servir des délégués et les dépasser ?",
    "Quels termes généraux peuvent être utilisés pour caractériser cette lutte contractuelle ?"
  ]
}