{
  "num": "autog_0338-7259_1974_num_26_1",
  "article": "autog_0338-7259_1974_num_26_1_1117",
  "page_name": "FMSH_PB188a_26-27_222",
  "questions": [
    "Quel est le rôle des commissaires de département dans l'usine ?",
    "Comment les commissaires de département sont-ils élus ?",
    "Quel est la relation entre les commissaires de département et la C.I. ?",
    "Quels sont les pouvoirs des commissaires de département ?",
    "Comment les commissaires de département sont-ils différents des conseils industriels de 1919 ?",
    "Quel est le rôle des collecteurs d'équipe dans le fonctionnement des commissaires de département ?",
    "Pourquoi les commissaires de département ne peuvent-ils pas être une instance de coordination autonome ?",
    "Quel est l'impact de l'existence des commissaires de département sur le pouvoir du syndicat ?",
    "Quels sont les avantages de la méthode d'élection directe des commissaires de département ?",
    "Quels sont les aspects positifs que l'on souhaite conserver des commissaires de département ?"
  ]
}