{
  "num": "autog_0338-7259_1974_num_26_1",
  "article": "autog_0338-7259_1974_num_26_1_1117",
  "page_name": "FMSH_PB188a_26-27_220",
  "questions": [
    "Quel syndicat est responsable de l'initiative pour avoir des délégués basés sur des groupes homogènes dans les années 1960 ?",
    "Quels sont les origines de ces premières actions visant à avoir des délégués basés sur des groupes homogènes ?",
    "Quel lien précis existait entre les délégués et leur département dans les luttes de 1920 et 1945 ?",
    "Quelles revendications ont été avancées par la classe ouvrière sur la base de cette structure et comment ont elles été perçues ?",
    "Quelle est la différence entre la condition d'homogénéité des groupes ouvriers et la possibilité et la valeur de leur généralisation ?",
    "Qu'implique la proposition du groupe homogène faite par le syndicat et comment est le délégué utilisé dans l'organisation syndicale ?",
    "Quels sont les perspectives ouvertes par cette nouvelle cellule productive et cette nouvelle forme d'organisation syndicale ?",
    "Quel est le nouveau rapport entre syndicats et quelle est une nouveauté par rapport aux expériences de la Fiat en 1920 et 1945 ?"
  ]
}