{
  "num": "autog_0338-7259_1974_num_26_1",
  "article": "autog_0338-7259_1974_num_26_1_1117",
  "page_name": "FMSH_PB188a_26-27_213",
  "questions": [
    "Quels sont les trois figures distinctes présentes dans les comités d'atelier, le conseil des délégués et les conseils de coordination à la Fiat ?",
    "Quel était le rôle initial du syndicat dans les accords de la Fiat et d'autres établissements significatifs ?",
    "Quel était le nombre de délégués désignés entre les syndiqués dans l'accord de la Fiat ?",
    "Quel était le rôle des délégués de lutte à la Fiat ?",
    "Quel était le rôle des délégués protégés à la Fiat ?",
    "Quel était le rôle des délégués généraux de militant actif à la Fiat ?",
    "Quel était le rôle des délégués de tâcherons dans le premier accord de décembre 1968 à la Pirelli ?",
    "Comment la participation de la base a-t-elle été corrigée dans les accords des établissements significatifs ?",
    "Quel était le mode de désignation des délégués protégés à la Fiat ?",
    "Quel était le mode de désignation des délégués de lutte à la Fiat ?",
    "Quel était le mode de désignation des délégués généraux de militant actif à la Fiat ?",
    "Quel était le mode de désignation des délégués de tâcherons dans les accords des établissements significatifs ?",
    "Quand apparaît le délégué protégé dans les luttes spontanées et organisées ?",
    "Quels sont les critères de parité pour l'élection des délégués professionnels à la Fiat ?",
    "Quels sont les fonctions des délégués professionnels à la Fiat ?",
    "Quels sont les fonctions des délégués de lutte à la Fiat ?",
    "Quels sont les fonctions des délégués protégés à la Fiat ?",
    "Quels sont les fonctions des délégués généraux de militant actif à la Fiat ?"
  ]
}