{
  "num": "autog_0338-7259_1974_num_26_1",
  "article": "autog_0338-7259_1974_num_26_1_1117",
  "page_name": "FMSH_PB188a_26-27_211",
  "questions": [
    "Quels types d'établissements sont concernés par ces luttes spontanées ?",
    "Quels sont les lieux où l'on trouve une attache préexistante plus grande avec les organisations syndicales ?",
    "Quel est le rôle des délégués syndicaux dans ces luttes spontanées ?",
    "Combien de délégués sont reconnus par les accords d'usine ?",
    "Combien de délégués sont-ils estimés avoir existé dans les usines ?",
    "Comment se développent ces délégués syndicaux ?",
    "Comment dépend l'image du délégué syndical de la type de lutte spontanée qui le fait naître ?",
    "Comment la F.I.O.M. perçoit l'initiative syndicale ?",
    "Quels sont les limites à l'initiative syndicale reconnu par la F.I.O.M. ?"
  ]
}