{
  "num": "autog_0338-7259_1974_num_26_1",
  "article": "autog_0338-7259_1974_num_26_1_1117",
  "page_name": "FMSH_PB188a_26-27_205",
  "questions": [
    "Quels événements ont mis en évidence la faiblesse institutionnelle du syndicat dans les entreprises ?",
    "Pourquoi la C.G.T.L. ne peut-elle être considérée comme la cause de sa faiblesse dans les entreprises lorsqu'elle affirme que son attitude de considérer que le pouvoir provenait uniquement de la participation des partis du mouvement ouvrier au gouvernement a entraîné des sacrifices ?",
    "Quels sont les trois moments de la lutte ouvrière des dernières années mentionnés dans le texte ?",
    "Quel est le résultat de la lutte des ouvriers dans la période 1960-1962 ?",
    "Qu'est-ce qui manque pour permettre aux travailleurs de utiliser leurs pouvoirs dans les usines ?",
    "Quel est la cause de l'absence d'utilisation d'instruments tels que la négociation ouverte et la lutte intégrative ?",
    "Comment le syndicat est-il entré dans sa phase actuelle et comment cela constitue une soudure entre les deux précédentes phases ?"
  ]
}