{
  "num": "autog_0338-7259_1974_num_26_1",
  "article": "autog_0338-7259_1974_num_26_1_1117",
  "page_name": "FMSH_PB188a_26-27_180",
  "questions": [
    "Quels mouvements ont contribué à la naissance de Liliana Lanzardo dans les années 1968-1973 ?",
    "Quels éléments de continuité et de nouveauté avec le passé peuvent émerger des analyses des Conseils ?",
    "Pourquoi il est arbitraire de chercher des analogies avec des expériences du passé, telles que celles des Conseils d'usine de 1919-1920 et des Conseils de gestion de la période 1945-1950 ?",
    "Quels sont les revendications économiques et politiques des ouvriers et leurs avant-gardes dans ce mouvement spontané ?",
    "Quel est le refus explicite des ouvriers face à la condition ouvrière et la division du travail ?",
    "Quels sont les aspects extrêmes économiques et politiques des revendications de ce mouvement ?",
    "Quel est le refus catégorique des ouvriers envers la logique du développement capitaliste ?",
    "Quels sont les enjeux politiques impliqués dans ces luttes spontanées ?",
    "Comment les organisations du mouvement ouvrier ont-elles utilisé politiquement ces luttes spontanées ?",
    "Quelles sont les conséquences de ces luttes sur le fonctionnement de l'économie ?"
  ]
}