{
  "num": "autog_0338-7259_1974_num_26_1",
  "article": "autog_0338-7259_1974_num_26_1_1117",
  "page_name": "FMSH_PB188a_26-27_200",
  "questions": [
    "Quel rôle idéalement intègre Liliana Lanzardo dans la perspective de l'expérience consultative ?",
    "Quels tâches pratiques immédiates sont indiquées dans le contexte actuel ?",
    "Pourquoi l'invitation à reprendre la thématique des soviets est idéologique et académique dans ce contexte ?",
    "Comment les organisations avec une idéologie ou matrice partitique trouvent-elles leur justification dans l'institutionalisation des conseils ?",
    "Comment les avant-gardes réagissent au développement des conseils de délégués ?",
    "Comment les groupes politiques perçoivent-ils les positions des avant-gardes aux carrosseries ?",
    "Quels mots d'ordre expriment Lotta continua et Potere operaio dans les limites du groupuscule ?",
    "Comment les délégués et les conseils de délégués sont-ils créés et développent-ils leur influence ?",
    "Comment les conseils sont-ils perçus par le mouvement de masse ?",
    "Quel recul marque l'institutionnalisation des conseils de délégués selon les avant-gardes ?",
    "Quel contrôle veulent-ils exercer les syndicats sur les développements des conseils ?",
    "Quelle revendication est faite pour des institutions de démocratie ?"
  ]
}