{
  "num": "autog_0338-7259_1970_num_13_1",
  "article": "autog_0338-7259_1970_num_13_1_989",
  "page_name": "FMSH_PB188a_13-14_230",
  "questions": [
    "Quels types de structures semblent garantir le mouvement institutionnel contre la déviation techniciste ?",
    "Pourquoi il est incertain qu'elles constituent une condition suffisante pour préserver l'analyse institutionnelle de l'École contre une « récupération » bureaucratique ?",
    "Quels sont les conséquences historiques de ce qui est arrivé aux « méthodes Freinet » ?",
    "Comment l'imprimerie dans la classe ne peut-elle atteindre ses objectifs qu'une fois les rapports hiérarchiques traditionnels rompus ?",
    "Quels sont les symptômes de l'école contemporaine d'une institution bureaucratisée ?",
    "Comment le mouvement institutionnel a-t-il renouvelé ou redécouvert l'articulation étroite du pédagogique et du politique ?",
    "Comment le mouvement institutionnel se condamne-t-il à rendre l'école impossible ou à ne plus permettre le retour du ?"
  ]
}