{
  "num": "autog_0338-7259_1976_num_35_1",
  "article": "autog_0338-7259_1976_num_35_1_1181",
  "page_name": "FMSH_PB188a_35-36_145",
  "questions": [
    "Quels groupes sociaux sont-ils à l'origine de ces tentatives de formation de syndicats autonomes au Mexique ?",
    "Quel est le rôle des habitants du Campamento 2 octobre dans ces luttes ?",
    "Qui sont les habitants du Campamento 2 octobre ?",
    "Quels sont les groupes sociaux concernés par les luttes urbaines actuelles dans les grandes villes mexicaines ?",
    "Quels sont les objectifs politiques de ces mouvements de luttes urbaines ?",
    "Quels sont les phénomènes quotidiens les plus explosifs dans les villes mexicaines en ce qui concerne la question du logement ?"
  ]
}