{
  "num": "autog_0338-7259_1976_num_35_1",
  "article": "autog_0338-7259_1976_num_35_1_1181",
  "page_name": "FMSH_PB188a_35-36_148",
  "questions": [
    "Quels bidonvilles sont cités dans le texte ?",
    "Quels liens ont été formés entre les habitants de ce bidonville ?",
    "Comment les habitants de ce bidonville se sont-ils organisés ?",
    "Quel type de bataille ont mené les habitants de ce bidonville pendant 13 ans ?",
    "Quel est le nom de l'association formée par les habitants de ce bidonville ?",
    "Dans quelle partie de la ville se trouve le Campamento ?",
    "Quand ont les habitants du Campamento demandé l'accès à la propriété ?",
    "Quel décret présidentiel a déclaré l'utilité publique de former un noyau d'habitations populaires sur un terrain de 372 ha. ?",
    "Quel est le but de l'urbanisation prévue dans le décret présidentiel ?",
    "Les habitants du Campamento ont-ils été délogés ?",
    "Quel est le nom du journal publié par le mouvement des bidonvilles et quartiers populaires ?",
    "Quels quartiers sont regroupés dans le « Bloc Urbain des Quartiers populaires » ?"
  ]
}