{
  "num": "autog_0338-7259_1972_num_20_1",
  "article": "autog_0338-7259_1972_num_20_1_1063",
  "page_name": "FMSH_PB188a_20-21_037",
  "questions": [
    {
      "id_qa": "FMSH_PB188a_20-21_037_qa2_v3",
      "id_block": "block_1",
      "question": "Qu'est ce qui oblige les enfants à s'effacer ?",
      "answer": "du poids de leur autorité",
      "answer_stringIds": [
        "string_124",
        "string_125",
        "string_126",
        "string_127",
        "string_128"
      ]
    },
    {
      "id_qa": "FMSH_PB188a_20-21_037_qa22_v3",
      "id_block": "block_3",
      "question": "Quel est le modèle d'une Phalange d'essai ?",
      "answer": "de cette école",
      "answer_stringIds": [
        "string_251",
        "string_252",
        "string_253"
      ]
    },
    {
      "id_qa": "FMSH_PB188a_20-21_037_qa23_v3",
      "id_block": "block_3",
      "question": "Qu'est ce qui empêche de faire de cette école le modèle d'une Phalange d'essai ?",
      "answer": "trop de contradictions",
      "answer_stringIds": [
        "string_242",
        "string_243",
        "string_244"
      ]
    },
    {
      "id_qa": "FMSH_PB188a_20-21_037_qa24_v3",
      "id_block": "block_3",
      "question": "Pourquoi les écoles devraient-elles être mixtes ?",
      "answer": "parce que la vie est mixte",
      "answer_stringIds": [
        "string_272",
        "string_273",
        "string_274",
        "string_275",
        "string_276",
        "string_277"
      ]
    },
    {
      "id_qa": "FMSH_PB188a_20-21_037_qa25_v3",
      "id_block": "block_3",
      "question": "Qui pense que les écoles devraient être mixtes ?",
      "answer": "Neill",
      "answer_stringIds": [
        "string_105"
      ]
    },
    {
      "id_qa": "FMSH_PB188a_20-21_037_qa27_v3",
      "id_block": "block_3",
      "question": "Qu'applique Neill ?",
      "answer": "tous ses principes",
      "answer_stringIds": [
        "string_262",
        "string_263",
        "string_264"
      ]
    },
    {
      "id_qa": "FMSH_PB188a_20-21_037_qa28_v3",
      "id_block": "block_3",
      "question": "Quel est le genre de l'école de Summerhill ?",
      "answer": "les garçons et les filles",
      "answer_stringIds": [
        "string_293",
        "string_294",
        "string_295",
        "string_296",
        "string_297"
      ]
    },
    {
      "id_qa": "FMSH_PB188a_20-21_037_qa30_v3",
      "id_block": "block_3",
      "question": "Quand le directeur rencontre-t-il ses élèves amoureux l'un de l'autre ?",
      "answer": "un soir",
      "answer_stringIds": [
        "string_313",
        "string_314"
      ]
    },
    {
      "id_qa": "FMSH_PB188a_20-21_037_qa32_v3",
      "id_block": "block_3",
      "question": "Quand Neill écrit-il que les écoles devraient être mixtes ?",
      "answer": "il(55",
      "answer_stringIds": [
        "string_279"
      ]
    },
    {
      "id_qa": "FMSH_PB188a_20-21_037_qa35_v3",
      "id_block": "block_3",
      "question": "Qu'est-ce qui devrait être mixte selon Neill ?",
      "answer": "Les écoles",
      "answer_stringIds": [
        "string_267",
        "string_268"
      ]
    }
  ]
}