{
  "num": "autog_0338-7259_1972_num_20_1",
  "article": "autog_0338-7259_1972_num_20_1_1063",
  "page_name": "FMSH_PB188a_20-21_049",
  "questions": [
    {
      "id_qa": "FMSH_PB188a_20-21_049_qa1_v3",
      "id_block": "block_2",
      "question": "Qu'est-ce que la Révolution Sociale ?",
      "answer": "de ce",
      "answer_stringIds": [
        "string_205",
        "string_206"
      ]
    },
    {
      "id_qa": "FMSH_PB188a_20-21_049_qa7_v3",
      "id_block": "block_2",
      "question": "A qui le Parti Communiste Chinois donne-t-il le goût ?",
      "answer": "à la nation tout entière",
      "answer_stringIds": [
        "string_56",
        "string_57",
        "string_58",
        "string_59",
        "string_60"
      ]
    },
    {
      "id_qa": "FMSH_PB188a_20-21_049_qa19_v3",
      "id_block": "block_2",
      "question": "Qui est le fondateur du Parti Communiste Chinois ?",
      "answer": "Mao Tsétoung",
      "answer_stringIds": [
        "string_93",
        "string_94",
        "string_95"
      ]
    },
    {
      "id_qa": "FMSH_PB188a_20-21_049_qa23_v3",
      "id_block": "block_2",
      "question": "Qu'encourage Mao Tsé-Toung ?",
      "answer": "à « marcher",
      "answer_stringIds": [
        "string_336",
        "string_337",
        "string_338"
      ]
    }
  ]
}