{
  "num": "autog_0338-7259_1972_num_20_1",
  "article": "autog_0338-7259_1972_num_20_1_1063",
  "page_name": "FMSH_PB188a_20-21_045",
  "questions": [
    {
      "id_qa": "FMSH_PB188a_20-21_045_qa12_v3",
      "id_block": "block_1",
      "question": "Qui sont les successeurs des autorités ?",
      "answer": "les successeurs des grands révolutionnaires",
      "answer_stringIds": [
        "string_152",
        "string_153",
        "string_154",
        "string_155",
        "string_156"
      ]
    },
    {
      "id_qa": "FMSH_PB188a_20-21_045_qa14_v3",
      "id_block": "block_1",
      "question": "Qui est à l'origine de la tradition féodale de respect filial ?",
      "answer": "Les « autorités",
      "answer_stringIds": [
        "string_109",
        "string_110",
        "string_111"
      ]
    },
    {
      "id_qa": "FMSH_PB188a_20-21_045_qa15_v3",
      "id_block": "block_1",
      "question": "Qui affirme sa détermination à se séparer des masses ?",
      "answer": "Les « autorités",
      "answer_stringIds": [
        "string_109",
        "string_110",
        "string_111"
      ]
    },
    {
      "id_qa": "FMSH_PB188a_20-21_045_qa16_v3",
      "id_block": "block_1",
      "question": "Avec qui les dirigeants doivent-ils s'unir ?",
      "answer": "avec ceux qui",
      "answer_stringIds": [
        "string_198",
        "string_199",
        "string_200"
      ]
    },
    {
      "id_qa": "FMSH_PB188a_20-21_045_qa18_v3",
      "id_block": "block_1",
      "question": "De quoi doivent se garder les autorités ?",
      "answer": "de toute arrogance et de toute impétuosité",
      "answer_stringIds": [
        "string_234",
        "string_235",
        "string_236",
        "string_237",
        "string_238",
        "string_239",
        "string_240"
      ]
    },
    {
      "id_qa": "FMSH_PB188a_20-21_045_qa5_v3",
      "id_block": "block_2",
      "question": "Que permet la collectivisation des moyens de production agricoles et industriels ?",
      "answer": "le fossé",
      "answer_stringIds": [
        "string_309",
        "string_310"
      ]
    },
    {
      "id_qa": "FMSH_PB188a_20-21_045_qa11_v3",
      "id_block": "block_2",
      "question": "Avec quoi l'éducation peut-elle donner les idées ?",
      "answer": "avec le travail productif et",
      "answer_stringIds": [
        "string_267",
        "string_268",
        "string_269",
        "string_270",
        "string_271"
      ]
    }
  ]
}