{
  "num": "autog_0338-7259_1972_num_20_1",
  "article": "autog_0338-7259_1972_num_20_1_1063",
  "page_name": "FMSH_PB188a_20-21_011",
  "questions": [
    {
      "id_qa": "FMSH_PB188a_20-21_011_qa7_v3",
      "id_block": "block_2",
      "question": "A qui s'adressait le professeur de droit constitutionnel au début du discours ?",
      "answer": "à ses auditeurs",
      "answer_stringIds": [
        "string_15",
        "string_16",
        "string_17"
      ]
    },
    {
      "id_qa": "FMSH_PB188a_20-21_011_qa8_v3",
      "id_block": "block_2",
      "question": "Quel était le métier d'un professeur ?",
      "answer": "Un professeur de droit constitutionnel",
      "answer_stringIds": [
        "string_9",
        "string_10",
        "string_11",
        "string_12",
        "string_13"
      ]
    },
    {
      "id_qa": "FMSH_PB188a_20-21_011_qa2_v3",
      "id_block": "block_3",
      "question": "Où étaient les hommes très Rationnels ?",
      "answer": "la salle des leçons constitutionnelles",
      "answer_stringIds": [
        "string_56",
        "string_57",
        "string_58",
        "string_59",
        "string_60"
      ]
    },
    {
      "id_qa": "FMSH_PB188a_20-21_011_qa11_v3",
      "id_block": "block_4",
      "question": "Qu'est-ce qui a donné à ce scandale ?",
      "answer": "de cet incident",
      "answer_stringIds": [
        "string_130",
        "string_131",
        "string_132"
      ]
    },
    {
      "id_qa": "FMSH_PB188a_20-21_011_qa12_v3",
      "id_block": "block_4",
      "question": "Qui a parlé de cet incident ?",
      "answer": "Le professeur",
      "answer_stringIds": [
        "string_127",
        "string_128"
      ]
    }
  ]
}