{
  "num": "autog_0338-7259_1977_num_39_1",
  "article": "autog_0338-7259_1977_num_39_1_1252",
  "page_name": "FMSH_PB188a_00039_050",
  "questions": [
    "Quel est le lien supposé entre la matérialité et la sociabilité selon Gérald Berthoud ?",
    "Quels sont les conditions dans lesquelles l'entraide, l'égalité et le partage se réalisent selon Berthoud ?",
    "Quel mythe destructeur selon Berthoud est la notion d'abondance matérielle ?",
    "Comment peut-on construire une société autogestionnaire selon Berthoud ?",
    "Quelle est la première condition pour libérer la société d'une emprise du productivisme selon Berthoud ?",
    "Quel est l'exemple donné par Berthoud pour montrer comment créer une organisation sociale différente du nôtre ?",
    "Quel est le rôle de l'écologie dans la critique de l'abondance matérielle selon Berthoud ?",
    "Comment échapper à la loi de la valeur et à l'univers de rareté dans le capitalisme selon Berthoud ?",
    "Quelle est la solution unique selon Berthoud pour échapper à la loi de la valeur et à l'univers de rareté dans le capitalisme ?",
    "Quel est le rôle du progrès matériel dans la solution proposée par Berthoud ?"
  ]
}