{
  "num": "autog_0338-7259_1977_num_39_1",
  "article": "autog_0338-7259_1977_num_39_1_1252",
  "page_name": "FMSH_PB188a_00039_052",
  "questions": [
    "Quel est le type de sociabilité décrit dans la figure 1 ?",
    "Quel est le rôle du capitale dans cette sociabilité communautaire ?",
    "Comment la relation entre le capitale et la communauté villageoise est-elle asymétrique ?",
    "Quel type de sociabilité est décrit dans la figure 3 ?",
    "Quel est le rôle du chef du village dans cette sociabilité mixte ?",
    "Comment la sociabilité communautaire et la sociabilité mixte diffèrent-elles ?",
    "Quels sont les caractéristiques de la communauté familiale dans ce contexte ?"
  ]
}