{
  "num": "autog_0338-7259_1977_num_39_1",
  "article": "autog_0338-7259_1977_num_39_1_1252",
  "page_name": "FMSH_PB188a_00039_046",
  "questions": [
    "Quel est le rôle de l'ouvrier admirable dans l'egbe ?",
    "En quoi ressemble l'egbe à une pratique éducative ?",
    "Quels sont les valeurs dominantes transmises par l'éducation à travers l'egbe ?",
    "Qui bénéficient des prestations de l'egbe ?",
    "Quel est le rôle de la communauté dans l'egbe ?",
    "Quelles sont d'autres formes de domination que le tribut chez les Nupe ?",
    "Qu'est le prêt sur gages humains et comment fonctionne-t-il ?",
    "Pourquoi un fils cadet peut-il être mis en gage pour permettre le mariage d'un fils aîné ?",
    "Comment l'idéologie dominante est-elle manifestée dans l'egbe ?",
    "Quel était l'impact de la suppression de la pratique du prêt sur gages humains par l'autorité coloniale ?"
  ]
}