{
  "num": "autog_0338-7259_1977_num_39_1",
  "article": "autog_0338-7259_1977_num_39_1_1252",
  "page_name": "FMSH_PB188a_00039_049",
  "questions": [
    "Quels problèmes fondamentaux le rapide accroissement des forces productives n'a pas résolu depuis un quart de siècle ?",
    "Quels sont les deux causes de la mort simultanée de sous-alimentation et de suralimentation sur terre aujourd'hui ?",
    "En quoi la notion de sociabilité est-elle irremplaçable pour mieux évaluer les destructions faites au nom de la « civilisation » et de la « modernisation » ?",
    "Qu'affirme Bataille sur l'« humanité sérieuse de la croissance » ?",
    "En ce qui concerne la critique, pourquoi il semble nécessaire de penser que la formation communautaire constitue la première société autogestionnaire ?",
    "Quels usages font les Ganawuri de leur excédent ?",
    "Comment les gaspillages dans notre société ne visent-ils pas à intensifier la communication sociale ?"
  ]
}