{
  "num": "autog_0249-2563_1984_num_17_15",
  "article": "autog_0249-2563_1984_num_17_15_1577",
  "page_name": "autog_0249-2563_1984_num_17_15_T1_0057_0000",
  "questions": [
    "Quand commence la voyage des autogestionnaires en France selon le texte ?",
    "Quand se termine-t-il ?",
    "Quel est le point de départ de la critique des autogestionnaires ?",
    "Quel système est critiqué par les autogestionnaires ?",
    "Quels États sociaux et partis communistes sont visés par la critique ?",
    "Comment peut-on caractériser la première période de l'aventure des autogestionnaires ?",
    "Quel événement marque la fin de la première période ?",
    "Quand arrive la gauche au pouvoir en France ?",
    "Comment les autogestionnaires sont-ils perçus aujourd'hui ?",
    "Existe-t-il des divergences sur l'identité des autogestionnaires actuels ?",
    "Sont-ils les mêmes que ceux qui ont embarqué sur le vaisseau dans les années 60 ?",
    "Quel est le but de la recherche de comprendre l'histoire des autogestionnaires ?"
  ]
}