{
  "num": "autog_0249-2563_1984_num_17_15",
  "article": "autog_0249-2563_1984_num_17_15_1577",
  "page_name": "autog_0249-2563_1984_num_17_15_T1_0059_0000",
  "questions": [
    "Quand commence cette deuxième époque historique appelée l'âge néolithique ?",
    "Qu'est-ce qui caractérise cette époque en matière d'utopie et d'entrée dans la réalité sociale ?",
    "Quels premiers numéros de quelle revue ont tenté de montrer des racines historiques de l'utopie autogestionnaire ?",
    "Quels textes anciens ont été mis à la surface pour prouver que l'utopie s'est partiellement réalisée ?",
    "Dans quels institutions politiques et syndicales de masse ont les théories autogestionnaires pénétré entre les années 70 et 80 ?",
    "Quels sont les autogestionnaires des partis politiques et comment sont-ils différents des autogestionnaires du paléolithique ?",
    "Comment l'utopie autogestionnaire a-t-elle été malaxée et domestiquée dans les programmes des partis ?",
    "Quelles lois ont été votées après l'arrivée de la gauche au pouvoir pour donner une forme législative à l'idéologie officielle de l'autogestion ?",
    "Comment l'autogestion a-t-elle propagée dans la société aujourd'hui ?",
    "Quels sont les étudiants et les intellectuels qui ont été influencés par l'enseignement et les analyses sociales des mandarins autogestionnaires ?"
  ]
}