{
  "num": "autog_0005-0970_1968_num_7_1",
  "article": "autog_0005-0970_1968_num_7_1_938",
  "page_name": "FMSH_PB188a_00007_112",
  "questions": [
    "Quel est le rôle de Albert Meister dans le débat sur l'autogestion ?",
    "Pourquoi l'autogestion est-elle dépendante d'une volonté de transformation sociale ?",
    "Quels sont les éléments clés de la structuration sociale dans les expériences d'autogestion ?",
    "Comment l'emprise idéologique a-t-elle influencé le fonctionnement de l'autogestion ?",
    "Quels sont les facteurs qui ont contribué à la relâchement de l'emprise idéologique et à l'anémiement de l'autogestion ?",
    "Quels sont les défis actuels pour l'autogestion dans une société d'abondance ?",
    "Comment les États-Unis peuvent-ils être considérés comme une société d'abondance ?",
    "Quels sont les facteurs qui peuvent expliquer le fait que les pauvres soient plus nombreux et plus pauvres au niveau matériel et moral dans les États-Unis qu'en France ?"
  ]
}