{
  "num": "autog_0005-0970_1968_num_7_1",
  "article": "autog_0005-0970_1968_num_7_1_938",
  "page_name": "FMSH_PB188a_00007_116",
  "questions": [
    "Quels mots et thèmes ont été redécouverts ces deux semaines par les sociologues ?",
    "Qu'est-ce que le mot \"progrès\" signifie pour l'auteur ?",
    "Quels indices, mesures et quantités sont associés aux termes de développement et de progress des hommes ?",
    "Est-ce que l'efficacité seule compte dans les entreprises et dans l'État ?",
    "Peut-on estimer que ce qu'on perd en efficacité dans les entreprises autogérées est compensé par d'autres valeurs ?",
    "Est-il plus rapide de légiférer par ordonnances ou de discuter avec les gens ?",
    "Y a-t-il une expansion au-delà du développement ?",
    "Doivent-nous avoir honte de notre infériorité en matière de publicité ?",
    "Doivent-nous essayer de distribuer plus largement les actions des sociétés anonymes dans le public ?"
  ]
}