{
  "num": "autog_0249-2563_1984_num_17_17",
  "article": "autog_0249-2563_1984_num_17_17_1613",
  "page_name": "autog_0249-2563_1984_num_17_17_T1_0063_0000",
  "questions": [
    "Quels événements ont entraîné la création de ces nouvelles organisations populaires dans les bidonvilles chiliens?",
    "Quels groupes de personnes ont initié la formation de ces organisations?",
    "Quels besoins ont motivé la création des ateliers d'artisanat et du réseau de commercialisation des produits?",
    "Quels types de produits étaient fabriqués par les prisonniers politiques dans les camps de concentration?",
    "Quand ont été créées les premières cantines pour les enfants dans les bidonvilles?",
    "Comment les chômeurs se sont-ils intégrés au réseau de solidarité?",
    "Quand ont commencé à s'établir plus durablement les ateliers de production et de prestation de services?",
    "Quels types d'organisations économiques populaires existent aujourd'hui dans les bidonvilles pauvres de Santiago et dans certaines régions du pays?",
    "Quels types d'activités sont proposés par les organisations chargées de faire face aux problèmes de logement et d'habitat?",
    "Quels types de clubs sportifs ont été organisés par les habitants des bidonvilles?"
  ]
}