{
  "num": "autog_0249-2563_1984_num_17_17",
  "article": "autog_0249-2563_1984_num_17_17_1613",
  "page_name": "autog_0249-2563_1984_num_17_17_T1_0065_0000",
  "questions": [
    "Quels éléments de la chanson contestataire des années 60 et 70 et de la musique moderne ont été utilisés dans la composition de la musique de Canto?",
    "Comment la musique de Canto a-t-elle contribué à la défense et à la récréation d'une identité culturelle face à la modernité oppressive du régime?",
    "Quand ont été créées les premières associations culturelles dans différents quartiers de Santiago?",
    "Quels types de cours et de spectacles offrent ces associations culturelles?",
    "Comment les concerts dans les paroisses, les écoles et les centres culturels ont-ils servi de lieux de communication et de rencontre pour les personnes de gauche et les jeunes?",
    "Quand ont été interdites les élections syndicales et comment cela a affecté le mouvement syndical?",
    "Comment le mouvement syndical s'est-il réveillé et reconstruit durant ces années?",
    "Quels types de manifestations artistiques ont remplacé les concerts interdits?",
    "Comment ces manifestations artistiques ont-elles aidé leurs participants à réinventer des rapports de convivialité malgré les interdictions et à faire face aux discours de haine, de rancune et de division du régime?",
    "Quel est le rôle des syndicats dans les résistances au régime?",
    "Quels sont les deux processus de renaissance et de reconstruction du mouvement syndical?",
    "Pourquoi les élections syndicales ont-elles été interdites et comment cela a-t-il affecté le mouvement syndical?",
    "Quels sont les difficultés rencontrées dans le monde syndical durant ces années?",
    "Comment les personnes de gauche et les jeunes se sont-elles retrouvées et se sont-elles rassemblées durant ces années?",
    "Quels sont les lieux où se sont tenus les premiers rassemblements des personnes de gauche et des jeunes?",
    "Quels sont les sentiments ressentis?"
  ]
}