{
  "num": "autog_0249-2563_1984_num_17_17",
  "article": "autog_0249-2563_1984_num_17_17_1613",
  "page_name": "autog_0249-2563_1984_num_17_17_T1_0064_0000",
  "questions": [
    "Quels groupes émergent chez les femmes pendant cette période ?",
    "Quels groupes se créent parmi les jeunes ?",
    "Comment sont créés les groupes de santé et les crèches ?",
    "Quels principes guident l'organisation de ces groupes ?",
    "Quels sont les liens entre les pobladores, les membres de l'Église et les professionnels ?",
    "Comment l'action politique est-elle remplacée ou enrichie ?",
    "Quand ont été autorisés les étudiants à élire leurs représentants ?",
    "Quels groupes sont créés par les étudiants à partir de 1974 ?",
    "Quel but poursuivent l'Association Culturelle Universitaire et la Coordination Culturelle de l'Université Catholique ?",
    "Qu'est-ce que la « nouvelle chanson » ?",
    "Note: The text is about the emergence of new organizations in Chile during a period of social and political change. The questions are meant to encourage further exploration and analysis of the text, rather than to provide definitive answers.?"
  ]
}