{
  "num": "autog_0249-2563_1984_num_17_15",
  "article": "autog_0249-2563_1984_num_17_15_1580",
  "page_name": "autog_0249-2563_1984_num_17_15_T1_0082_0000",
  "questions": [
    "Quels sont les facteurs qui influenceront le destin ultérieur de l'autogestion en Pologne ?",
    "Quels sont les trois scénarios possibles quant au comportement du pouvoir en matière de réforme et d'autogestion ?",
    "Quels sont les conclusions que le groupe au pouvoir tirent de l'inefficacité de la réforme en cours et des tentatives de reconstruction d'une autogestion subordonnée à l'administration d'Etat et à l'appareil du Parti ?",
    "Quels sont les principaux opposants à la réforme et à l'autogestion en Pologne ?",
    "Comment le groupe au pouvoir maintient et étend les contraintes existantes envers la réforme et l'autogestion ?",
    "Quels sont les objectifs réels de Solidarité en matière de réforme économique et sociale ?",
    "Pourquoi Alain Touraine et ses collaborateurs commettent-ils une erreur en affirmant que Solidarité a seulement voulu « aller plus loin » que le mouvement hongrois ?",
    "Quels sont les lois du 25 septembre 1981 qui consacrent un système économique et social fondé sur l'autogestion et les syndicats libres ?"
  ]
}