{
  "num": "autog_0249-2563_1984_num_17_15",
  "article": "autog_0249-2563_1984_num_17_15_1580",
  "page_name": "autog_0249-2563_1984_num_17_15_T1_0083_0000",
  "questions": [
    "Quel scénario implique un retour clair au système d'économie dirigée et quelle est la conséquence formelle ou effective de ce retour ?",
    "Quels intérêts sont concernés dans l'analyse de ces scénarios : ceux du pays et de la nation, du pouvoir et des travailleurs ?",
    "Quel scénario est favorable à tous les intéressés et pourquoi ?",
    "Quel serait le résultat social et politique du scénario 3 ?",
    "Quels groupes au pouvoir sont envisagés dans le scénario 3 et quels sont leurs motivations ?",
    "Quels groupes attendent une relève et quels sont leurs moyens pour imposer un changement ?",
    "Quels mots d'ordre ont été lancés par les « radicaux » et quels sont leurs intentions réelles envers le Parti des entreprises ?",
    "Quel scénario correspond au prolongement de la politique actuelle et quels sont ses risques possibles ?"
  ]
}