{
  "num": "autog_0338-7259_1978_num_40_1",
  "article": "autog_0338-7259_1978_num_40_1_1270",
  "page_name": "FMSH_PB188a_00040_004",
  "questions": [
    "Qu'est-ce que Ernst Bloch pense d'une histoire longue sur un animal tel que le porc-épic ou la vache ?",
    "Quel est l'objectif de ce numéro d'étude ?",
    "Quels partis de gauche sont concernés par l'analyse de cette étude ?",
    "Pourquoi les petits partis ne sont-ils pas concernés par cette étude ?",
    "Quel rôle joue l'échéance électorale dans l'analyse des discours et des comportements des partis de gauche ?",
    "Pourquoi les petits partis ne sont-ils pas tentés de modifier leur discours pour gagner des voix ?",
    "Quel est le degré de rôle de l'échéance électorale comme analyseur pour les petits partis ?"
  ]
}