{
  "num": "autog_0338-7259_1978_num_40_1",
  "article": "autog_0338-7259_1978_num_40_1_1270",
  "page_name": "FMSH_PB188a_00040_005",
  "questions": [
    "Quel est le champ d'étude restreint mentionné dans le texte ?",
    "Quels sont les différentes positions du comité de rédaction quant à la méthode d'étude à adopter ?",
    "Quel risque est-il de ne pas mettre les partis eux-mêmes à la question ?",
    "Quel est le choix final du comité de rédaction entre deux méthodes d'étude ?",
    "Comment le fait que le comité de rédaction ne forme pas un bloc idéologique complique la situation ?",
    "Quel est l'avis des partisans de l'option « libre tribune » quant à la place des organisations dans la revue ?",
    "Quel est l'avis des partisans de l'option « analyse produite par le comité » quant à la place des organisations dans la revue ?",
    "Quel est l'importance accordée aux dirigeants dans l'option « analyse produite par le comité » ?",
    "Quel est l'importance accordée aux dirigeants dans l'option « témoignage de la base » ?",
    "Quel est l'avis des partisans de l'option « témoignage de la base » quant à la définition de la base d'un parti ?",
    "Quels sont les moyens financiers nécessaires pour un sondage correct selon les partisans de l'option « témoignage de la base » ?",
    "Comment les options pratiques retenues ne résultent-elles pas de la solution des questions de principe ?"
  ]
}