{
  "num": "autog_0249-2563_1980_num_13_1",
  "article": "autog_0249-2563_1980_num_13_1_1348",
  "page_name": "autog_0249-2563_1980_num_13_1_T1_0107_0000",
  "questions": [
    {
      "id_qa": "autog_0249-2563_1980_num_13_1_T1_0107_0000_qa4_v3",
      "id_block": "block_0",
      "question": "Qui ne pardonnent pas au patron de n'avoir pas exprimé le désir de reprendre lui-même l'affaire ?",
      "answer": "Les ouvriers",
      "answer_stringIds": [
        "string_21",
        "string_22"
      ]
    },
    {
      "id_qa": "autog_0249-2563_1980_num_13_1_T1_0107_0000_qa5_v3",
      "id_block": "block_0",
      "question": "Qui ne pardonnent pas au patron de n'avoir pas exprimé le désir de reprendre l'affaire ?",
      "answer": "Les ouvriers",
      "answer_stringIds": [
        "string_21",
        "string_22"
      ]
    },
    {
      "id_qa": "autog_0249-2563_1980_num_13_1_T1_0107_0000_qa7_v3",
      "id_block": "block_0",
      "question": "Qu'est-ce qui motive les ouvriers à reprendre l'entreprise ?",
      "answer": "les dettes",
      "answer_stringIds": [
        "string_33",
        "string_34"
      ]
    },
    {
      "id_qa": "autog_0249-2563_1980_num_13_1_T1_0107_0000_qa14_v3",
      "id_block": "block_0",
      "question": "Qui déclare que par l'autogestion nous voulons prouver qu'il est possible à des ouvriers d'arriver seuls ?",
      "answer": "le responsable du syndicat",
      "answer_stringIds": [
        "string_79",
        "string_80",
        "string_81",
        "string_82"
      ]
    },
    {
      "id_qa": "autog_0249-2563_1980_num_13_1_T1_0107_0000_qa15_v3",
      "id_block": "block_0",
      "question": "Qui déclare que par l'autogestion, nous voulons prouver qu'il est possible à des ouvriers d'arriver seuls ?",
      "answer": "le responsable du syndicat",
      "answer_stringIds": [
        "string_79",
        "string_80",
        "string_81",
        "string_82"
      ]
    },
    {
      "id_qa": "autog_0249-2563_1980_num_13_1_T1_0107_0000_qa16_v3",
      "id_block": "block_0",
      "question": "Qu'est-ce qui est possible par l'autogestion ?",
      "answer": "des ouvriers",
      "answer_stringIds": [
        "string_94",
        "string_95"
      ]
    },
    {
      "id_qa": "autog_0249-2563_1980_num_13_1_T1_0107_0000_qa18_v3",
      "id_block": "block_0",
      "question": "Quel est le but de l'autogestion ?",
      "answer": "tenir jusque-là",
      "answer_stringIds": [
        "string_116",
        "string_117"
      ]
    },
    {
      "id_qa": "autog_0249-2563_1980_num_13_1_T1_0107_0000_qa24_v3",
      "id_block": "block_0",
      "question": "Qu'est-ce que la conscience chez les ouvriers ?",
      "answer": "il vaut mieux",
      "answer_stringIds": [
        "string_148",
        "string_149",
        "string_150"
      ]
    },
    {
      "id_qa": "autog_0249-2563_1980_num_13_1_T1_0107_0000_qa25_v3",
      "id_block": "block_0",
      "question": "Qui pense qu'il vaut mieux avoir quelqu'un au dessus de soi ?",
      "answer": "les ouvriers",
      "answer_stringIds": [
        "string_5",
        "string_6"
      ]
    },
    {
      "id_qa": "autog_0249-2563_1980_num_13_1_T1_0107_0000_qa28_v3",
      "id_block": "block_0",
      "question": "Qui pense qu'il vaut mieux avoir quelqu'un au-dessus de soi ?",
      "answer": "les ouvriers",
      "answer_stringIds": [
        "string_5",
        "string_6"
      ]
    },
    {
      "id_qa": "autog_0249-2563_1980_num_13_1_T1_0107_0000_qa29_v3",
      "id_block": "block_0",
      "question": "Qu'est ce que l'argent retenu à la base pour les impôts ?",
      "answer": "un capital manipulé et détourné",
      "answer_stringIds": [
        "string_16",
        "string_17",
        "string_18",
        "string_19",
        "string_20"
      ]
    },
    {
      "id_qa": "autog_0249-2563_1980_num_13_1_T1_0107_0000_qa30_v3",
      "id_block": "block_0",
      "question": "Que constituait l'argent retenu à la base pour les impôts ?",
      "answer": "un capital",
      "answer_stringIds": [
        "string_16",
        "string_17"
      ]
    },
    {
      "id_qa": "autog_0249-2563_1980_num_13_1_T1_0107_0000_qa32_v3",
      "id_block": "block_0",
      "question": "Quelle est la conséquence de l'autogestion ?",
      "answer": "la conscience des ouvriers",
      "answer_stringIds": [
        "string_169",
        "string_170",
        "string_171",
        "string_172"
      ]
    },
    {
      "id_qa": "autog_0249-2563_1980_num_13_1_T1_0107_0000_qa37_v3",
      "id_block": "block_0",
      "question": "Par qui sont versées les assurances ?",
      "answer": "les ouvriers",
      "answer_stringIds": [
        "string_5",
        "string_6"
      ]
    },
    {
      "id_qa": "autog_0249-2563_1980_num_13_1_T1_0107_0000_qa38_v3",
      "id_block": "block_0",
      "question": "Qu'est ce qui est versé par les ouvriers ?",
      "answer": "diverses assurances",
      "answer_stringIds": [
        "string_1",
        "string_2"
      ]
    },
    {
      "id_qa": "autog_0249-2563_1980_num_13_1_T1_0107_0000_qa3_v3",
      "id_block": "block_1",
      "question": "Qu'arrive-t-il au travail ?",
      "answer": "retard",
      "answer_stringIds": [
        "string_239"
      ]
    },
    {
      "id_qa": "autog_0249-2563_1980_num_13_1_T1_0107_0000_qa21_v3",
      "id_block": "block_1",
      "question": "Qui pense qu'il n'est pas nécessaire de fabriquer et d'accumuler des stocks ?",
      "answer": "Certains ouvriers",
      "answer_stringIds": [
        "string_201",
        "string_202"
      ]
    },
    {
      "id_qa": "autog_0249-2563_1980_num_13_1_T1_0107_0000_qa23_v3",
      "id_block": "block_1",
      "question": "Qui pense qu'il est nécessaire de fabriquer et d'accumuler des stocks ?",
      "answer": "Certains ouvriers",
      "answer_stringIds": [
        "string_201",
        "string_202"
      ]
    },
    {
      "id_qa": "autog_0249-2563_1980_num_13_1_T1_0107_0000_qa34_v3",
      "id_block": "block_1",
      "question": "Quelle est l'idée de leur entreprise ?",
      "answer": "produire",
      "answer_stringIds": [
        "string_227"
      ]
    },
    {
      "id_qa": "autog_0249-2563_1980_num_13_1_T1_0107_0000_qa35_v3",
      "id_block": "block_1",
      "question": "Par quoi l'autogestion n'a pas été choisie ?",
      "answer": "cette situation extérieure",
      "answer_stringIds": [
        "string_195",
        "string_196",
        "string_197"
      ]
    },
    {
      "id_qa": "autog_0249-2563_1980_num_13_1_T1_0107_0000_qa36_v3",
      "id_block": "block_1",
      "question": "Quelle est la conséquence de l'autogestion ?",
      "answer": "la faillite",
      "answer_stringIds": [
        "string_199",
        "string_200"
      ]
    },
    {
      "id_qa": "autog_0249-2563_1980_num_13_1_T1_0107_0000_qa2_v3",
      "id_block": "block_3",
      "question": "Qu'est-ce qui mène à l'autogestion après une faillite ?",
      "answer": "les différentes étapes",
      "answer_stringIds": [
        "string_313",
        "string_314",
        "string_315"
      ]
    }
  ]
}