{
  "num": "autog_0249-2563_1982_num_15_11",
  "article": "autog_0249-2563_1982_num_15_11_1515",
  "page_name": "autog_0249-2563_1982_num_15_11_T1_0060_0000",
  "questions": [
    {
      "id_qa": "autog_0249-2563_1982_num_15_11_T1_0060_0000_qa1_v3",
      "id_block": "block_0",
      "question": "Qu'est ce qui caractérise les terrains de 1400 et 1600 m2 ?",
      "answer": "une forte densité",
      "answer_stringIds": [
        "string_9",
        "string_10",
        "string_11"
      ]
    },
    {
      "id_qa": "autog_0249-2563_1982_num_15_11_T1_0060_0000_qa5_v3",
      "id_block": "block_0",
      "question": "Où sont situées les grandes étendues cultivées ?",
      "answer": "à leur entour",
      "answer_stringIds": [
        "string_84",
        "string_85",
        "string_86"
      ]
    },
    {
      "id_qa": "autog_0249-2563_1982_num_15_11_T1_0060_0000_qa7_v3",
      "id_block": "block_0",
      "question": "Qu'est-ce qui traduit mal le fait que certains groupes sont constitués en rase campagne ?",
      "answer": "cette densité numérique",
      "answer_stringIds": [
        "string_50",
        "string_51",
        "string_52"
      ]
    },
    {
      "id_qa": "autog_0249-2563_1982_num_15_11_T1_0060_0000_qa8_v3",
      "id_block": "block_0",
      "question": "Qu'est-ce qui profite aux groupes péri-urbains ?",
      "answer": "de grandes étendues",
      "answer_stringIds": [
        "string_80",
        "string_81",
        "string_82"
      ]
    },
    {
      "id_qa": "autog_0249-2563_1982_num_15_11_T1_0060_0000_qa9_v3",
      "id_block": "block_0",
      "question": "Qu'est-ce qui est construit au milieu de vastes étendues non bâties ?",
      "answer": "les maisons",
      "answer_stringIds": [
        "string_95",
        "string_96"
      ]
    },
    {
      "id_qa": "autog_0249-2563_1982_num_15_11_T1_0060_0000_qa24_v3",
      "id_block": "block_0",
      "question": "Qu'a trouvé le groupe de l'Ellan ?",
      "answer": "un vaste terrain",
      "answer_stringIds": [
        "string_33",
        "string_34",
        "string_35"
      ]
    },
    {
      "id_qa": "autog_0249-2563_1982_num_15_11_T1_0060_0000_qa11_v3",
      "id_block": "block_1",
      "question": "Quelle est la particularité des groupes qui utilisent des terrains similaires ?",
      "answer": "des formes très différentes",
      "answer_stringIds": [
        "string_159",
        "string_160",
        "string_161",
        "string_162"
      ]
    },
    {
      "id_qa": "autog_0249-2563_1982_num_15_11_T1_0060_0000_qa12_v3",
      "id_block": "block_1",
      "question": "Qu'est ce qui est utilisé de manière très variable ?",
      "answer": "des terrains similaires",
      "answer_stringIds": [
        "string_145",
        "string_146",
        "string_147"
      ]
    },
    {
      "id_qa": "autog_0249-2563_1982_num_15_11_T1_0060_0000_qa14_v3",
      "id_block": "block_1",
      "question": "Quel groupe adopte des formes très différentes ?",
      "answer": "ces groupes",
      "answer_stringIds": [
        "string_155",
        "string_156"
      ]
    },
    {
      "id_qa": "autog_0249-2563_1982_num_15_11_T1_0060_0000_qa16_v3",
      "id_block": "block_1",
      "question": "Qu'est ce qui n'implique rien en revanche sur la disposition des bâtiments, du plan-masse, des logements entre eux ?",
      "answer": "le principe du COS",
      "answer_stringIds": [
        "string_110",
        "string_111",
        "string_112",
        "string_113"
      ]
    },
    {
      "id_qa": "autog_0249-2563_1982_num_15_11_T1_0060_0000_qa18_v3",
      "id_block": "block_2",
      "question": "Quelle est la conséquence d'une opération de promotion immobilière ?",
      "answer": "une dispersion maximale des constructions en dépit des surcoûts de voirie et réseaux divers",
      "answer_stringIds": [
        "string_251",
        "string_252",
        "string_253",
        "string_254",
        "string_255",
        "string_256",
        "string_257",
        "string_258",
        "string_259",
        "string_260",
        "string_261",
        "string_262",
        "string_263",
        "string_264"
      ]
    },
    {
      "id_qa": "autog_0249-2563_1982_num_15_11_T1_0060_0000_qa19_v3",
      "id_block": "block_2",
      "question": "Qu'est-ce qu'une opération de promotion immobilière ?",
      "answer": "un lotissement de luxe",
      "answer_stringIds": [
        "string_224",
        "string_225",
        "string_226",
        "string_227"
      ]
    },
    {
      "id_qa": "autog_0249-2563_1982_num_15_11_T1_0060_0000_qa26_v3",
      "id_block": "block_2",
      "question": "Quelle est la conséquence de la division du terrain en six lots ?",
      "answer": "la dispersion",
      "answer_stringIds": [
        "string_320",
        "string_321"
      ]
    },
    {
      "id_qa": "autog_0249-2563_1982_num_15_11_T1_0060_0000_qa27_v3",
      "id_block": "block_2",
      "question": "Qui a discuté de la division du terrain en six lots égaux ?",
      "answer": "le groupe",
      "answer_stringIds": [
        "string_296",
        "string_297"
      ]
    },
    {
      "id_qa": "autog_0249-2563_1982_num_15_11_T1_0060_0000_qa28_v3",
      "id_block": "block_2",
      "question": "Quelle est la particularité de la construction unique ?",
      "answer": "totalement",
      "answer_stringIds": [
        "string_327"
      ]
    },
    {
      "id_qa": "autog_0249-2563_1982_num_15_11_T1_0060_0000_qa32_v3",
      "id_block": "block_2",
      "question": "Quelle est la superficie du groupe d'Ellan ?",
      "answer": "le terrain compte trois hectares",
      "answer_stringIds": [
        "string_188",
        "string_189",
        "string_190",
        "string_191",
        "string_192"
      ]
    },
    {
      "id_qa": "autog_0249-2563_1982_num_15_11_T1_0060_0000_qa21_v3",
      "id_block": "block_3",
      "question": "Quelle est la fonction de la DDE ?",
      "answer": "de la délivrance du permis de construire",
      "answer_stringIds": [
        "string_389",
        "string_390",
        "string_391",
        "string_392",
        "string_393",
        "string_394",
        "string_395"
      ]
    }
  ]
}