{
  "num": "autog_0249-2563_1982_num_15_11",
  "article": "autog_0249-2563_1982_num_15_11_1515",
  "page_name": "autog_0249-2563_1982_num_15_11_T1_0072_0000",
  "questions": [
    {
      "id_qa": "autog_0249-2563_1982_num_15_11_T1_0072_0000_qa2_v3",
      "id_block": "block_0",
      "question": "Qu'est ce qui tend à s'élargir vers le bas ?",
      "answer": "le niveau social des groupes les plus récents",
      "answer_stringIds": [
        "string_14",
        "string_15",
        "string_16",
        "string_17",
        "string_18",
        "string_19",
        "string_20",
        "string_21"
      ]
    },
    {
      "id_qa": "autog_0249-2563_1982_num_15_11_T1_0072_0000_qa4_v3",
      "id_block": "block_0",
      "question": "Qu'est-ce qui confirme que le niveau social des groupes les plus récents tende à s'élargir vers le bas ?",
      "answer": "notre analyse",
      "answer_stringIds": [
        "string_11",
        "string_12"
      ]
    },
    {
      "id_qa": "autog_0249-2563_1982_num_15_11_T1_0072_0000_qa13_v3",
      "id_block": "block_2",
      "question": "A quoi est soumis le groupe ?",
      "answer": "règles de décision",
      "answer_stringIds": [
        "string_177",
        "string_178",
        "string_179"
      ]
    },
    {
      "id_qa": "autog_0249-2563_1982_num_15_11_T1_0072_0000_qa19_v3",
      "id_block": "block_2",
      "question": "Qui joue un rôle crucial dans la phase de construction ?",
      "answer": "ceux du groupe",
      "answer_stringIds": [
        "string_112",
        "string_113",
        "string_114"
      ]
    },
    {
      "id_qa": "autog_0249-2563_1982_num_15_11_T1_0072_0000_qa20_v3",
      "id_block": "block_2",
      "question": "A quel rôle peut-on assimilé le rôle de leader ?",
      "answer": "celui du promoteur",
      "answer_stringIds": [
        "string_157",
        "string_158",
        "string_159"
      ]
    },
    {
      "id_qa": "autog_0249-2563_1982_num_15_11_T1_0072_0000_qa17_v3",
      "id_block": "block_3",
      "question": "Qui peut boucler une opération en deux ou trois ans ?",
      "answer": "un promoteur",
      "answer_stringIds": [
        "string_293",
        "string_294"
      ]
    },
    {
      "id_qa": "autog_0249-2563_1982_num_15_11_T1_0072_0000_qa26_v3",
      "id_block": "block_3",
      "question": "Qu'est ce qui n'est pas remis en cause par ces pratiques ?",
      "answer": "leur profession",
      "answer_stringIds": [
        "string_259",
        "string_260",
        "string_261"
      ]
    }
  ]
}