{
  "num": "autog_0249-2563_1980_num_13_1",
  "article": "autog_0249-2563_1980_num_13_1_1339",
  "page_name": "autog_0249-2563_1980_num_13_1_T1_0006_0000",
  "questions": [
    "Quels sont les éléments clés de la société globale décrits dans le texte ?",
    "Quels sont les différents types de unités micro-sociales mentionnées ?",
    "Quels sont les objectifs des expériences autogestionnaires décrites ?",
    "Quels sont les « échecs » historiques mentionnés et où se sont produits-ils ?",
    "Quel est l'attitude du texte envers les expériences et les discours autogestionnaires ?",
    "Quel est le rôle de l'auteur(s) dans les débats en cours ?",
    "Quel est le lien entre la revue Autogestion et socialisme et la nouvelle série Autogestions ?",
    "Quel est le rôle du Centre international de coordination des recherches sur l'autogestion (cI.C.R.A.) et du réseau international dans la publication ?",
    "Quel est le but de la revue Autogestions ?",
    "Quel est le passé et la signification de la revue Autogestion et socialisme ?"
  ]
}