{
  "num": "autog_0338-7259_1975_num_32_1",
  "article": "autog_0338-7259_1975_num_32_1_1143",
  "page_name": "FMSH_PB188a_00032_090",
  "questions": [
    {
      "id_qa": "FMSH_PB188a_00032_090_qa35_v3",
      "id_block": "block_1",
      "question": "Qu'est-ce que la société de soutien ?",
      "answer": "une œuvre de bienfaisance",
      "answer_stringIds": [
        "string_46",
        "string_47",
        "string_48",
        "string_49"
      ]
    },
    {
      "id_qa": "FMSH_PB188a_00032_090_qa37_v3",
      "id_block": "block_1",
      "question": "Qu'est ce qui est considéré comme une oeuvre de bienfaisance ?",
      "answer": "la « société de soutien",
      "answer_stringIds": [
        "string_37",
        "string_38",
        "string_39",
        "string_40",
        "string_41"
      ]
    },
    {
      "id_qa": "FMSH_PB188a_00032_090_qa5_v3",
      "id_block": "block_2",
      "question": "Qu'est-ce que la société de soutien ?",
      "answer": "attribuer",
      "answer_stringIds": [
        "string_220"
      ]
    },
    {
      "id_qa": "FMSH_PB188a_00032_090_qa3_v3",
      "id_block": "block_2",
      "question": "Quel est le nom de la société qui attribue des capitaux aux entreprises autogérées par l'un des procédés traditionnels ?",
      "answer": "La société de soutien",
      "answer_stringIds": [
        "string_138",
        "string_139",
        "string_140",
        "string_141"
      ]
    },
    {
      "id_qa": "FMSH_PB188a_00032_090_qa15_v3",
      "id_block": "block_2",
      "question": "Quel est le nom de la société qui collecte les économies personnelles des membres de la communauté autogérée ?",
      "answer": "La société de soutien",
      "answer_stringIds": [
        "string_138",
        "string_139",
        "string_140",
        "string_141"
      ]
    },
    {
      "id_qa": "FMSH_PB188a_00032_090_qa22_v3",
      "id_block": "block_2",
      "question": "Quelle est la plus-value en capital résultant de la « société de soutien » ?",
      "answer": "toute vente des biens des entreprises autogérées",
      "answer_stringIds": [
        "string_301",
        "string_302",
        "string_303",
        "string_304",
        "string_305",
        "string_306",
        "string_307"
      ]
    },
    {
      "id_qa": "FMSH_PB188a_00032_090_qa28_v3",
      "id_block": "block_2",
      "question": "Qu'exige l'acheteur potentiel lors de la réalisation des plus-values en capital ?",
      "answer": "un revenu convenable de tous les facteurs de production",
      "answer_stringIds": [
        "string_311",
        "string_312",
        "string_313",
        "string_314",
        "string_315",
        "string_316",
        "string_317",
        "string_318",
        "string_319"
      ]
    },
    {
      "id_qa": "FMSH_PB188a_00032_090_qa38_v3",
      "id_block": "block_2",
      "question": "Dans quelle communauté peut-on gérer les réserves financières de la caisse de retraite ?",
      "answer": "la communauté autogérée",
      "answer_stringIds": [
        "string_152",
        "string_153",
        "string_154"
      ]
    },
    {
      "id_qa": "FMSH_PB188a_00032_090_qa39_v3",
      "id_block": "block_2",
      "question": "Quelle est la fonction de la société de soutien ?",
      "answer": "gérer",
      "answer_stringIds": [
        "string_197"
      ]
    },
    {
      "id_qa": "FMSH_PB188a_00032_090_qa40_v3",
      "id_block": "block_2",
      "question": "Qu'est ce que la société de soutien ?",
      "answer": "les réserves financières de la caisse de retraite",
      "answer_stringIds": [
        "string_198",
        "string_199",
        "string_200",
        "string_201",
        "string_202",
        "string_203",
        "string_204",
        "string_205"
      ]
    },
    {
      "id_qa": "FMSH_PB188a_00032_090_qa41_v3",
      "id_block": "block_2",
      "question": "Quelle est la forme de la société autogérée ?",
      "answer": "la « société de soutien",
      "answer_stringIds": [
        "string_37",
        "string_38",
        "string_39",
        "string_40",
        "string_41"
      ]
    },
    {
      "id_qa": "FMSH_PB188a_00032_090_qa44_v3",
      "id_block": "block_2",
      "question": "Qu'est ce qui est loué à la société de soutien ?",
      "answer": "ses biens",
      "answer_stringIds": [
        "string_98",
        "string_99"
      ]
    },
    {
      "id_qa": "FMSH_PB188a_00032_090_qa45_v3",
      "id_block": "block_2",
      "question": "Qui loue ses biens à la société de soutien ?",
      "answer": "la partie propriétaire",
      "answer_stringIds": [
        "string_93",
        "string_94",
        "string_95"
      ]
    },
    {
      "id_qa": "FMSH_PB188a_00032_090_qa9_v3",
      "id_block": "block_3",
      "question": "Que fournit la « société de soutien » aux entreprises autogérées ?",
      "answer": "des capitaux",
      "answer_stringIds": [
        "string_64",
        "string_65"
      ]
    },
    {
      "id_qa": "FMSH_PB188a_00032_090_qa10_v3",
      "id_block": "block_3",
      "question": "A qui la « société de soutien » fournit-elle des capitaux ?",
      "answer": "aux entreprises autogérées",
      "answer_stringIds": [
        "string_223",
        "string_224",
        "string_225"
      ]
    },
    {
      "id_qa": "FMSH_PB188a_00032_090_qa11_v3",
      "id_block": "block_3",
      "question": "Qu'est-ce que la « société de soutien » ?",
      "answer": "entreprises",
      "answer_stringIds": [
        "string_224"
      ]
    }
  ]
}