{
  "num": "autog_0338-7259_1975_num_32_1",
  "article": "autog_0338-7259_1975_num_32_1_1143",
  "page_name": "FMSH_PB188a_00032_096",
  "questions": [
    {
      "id_qa": "FMSH_PB188a_00032_096_qa25_v3",
      "id_block": "block_1",
      "question": "Qui contrôle les taux de rémunération ?",
      "answer": "personnel de la société",
      "answer_stringIds": [
        "string_4",
        "string_5",
        "string_6",
        "string_7"
      ]
    },
    {
      "id_qa": "FMSH_PB188a_00032_096_qa27_v3",
      "id_block": "block_1",
      "question": "Que doit assurer le personnel de la société ?",
      "answer": "tous les postes sont occupés et établir les taux de rémunération",
      "answer_stringIds": [
        "string_10",
        "string_11",
        "string_12",
        "string_13",
        "string_14",
        "string_15",
        "string_16",
        "string_17",
        "string_18",
        "string_19",
        "string_20"
      ]
    },
    {
      "id_qa": "FMSH_PB188a_00032_096_qa28_v3",
      "id_block": "block_1",
      "question": "Que doit établir le personnel de la société ?",
      "answer": "les taux de rémunération",
      "answer_stringIds": [
        "string_17",
        "string_18",
        "string_19",
        "string_20"
      ]
    },
    {
      "id_qa": "FMSH_PB188a_00032_096_qa1_v3",
      "id_block": "block_2",
      "question": "Quel est le but du plan statle à long terme ?",
      "answer": "travailleurs",
      "answer_stringIds": [
        "string_246"
      ]
    },
    {
      "id_qa": "FMSH_PB188a_00032_096_qa8_v3",
      "id_block": "block_2",
      "question": "Qui a une base de prévision à long terme ?",
      "answer": "travailleurs",
      "answer_stringIds": [
        "string_246"
      ]
    },
    {
      "id_qa": "FMSH_PB188a_00032_096_qa14_v3",
      "id_block": "block_2",
      "question": "Quel est le problème majeur auquel sera confronté la communauté de travail ?",
      "answer": "la définition des critères selon lesquels cette dernière répartition",
      "answer_stringIds": [
        "string_100",
        "string_101",
        "string_102",
        "string_103",
        "string_104",
        "string_105",
        "string_106",
        "string_107",
        "string_108"
      ]
    },
    {
      "id_qa": "FMSH_PB188a_00032_096_qa15_v3",
      "id_block": "block_2",
      "question": "Qu'est ce qui est distribué à dates fixes ?",
      "answer": "une rémunération de base",
      "answer_stringIds": [
        "string_304",
        "string_305",
        "string_306",
        "string_307"
      ]
    },
    {
      "id_qa": "FMSH_PB188a_00032_096_qa17_v3",
      "id_block": "block_2",
      "question": "Qu'est ce qui restreint les possibilités de répartition des bénéfices ?",
      "answer": "les forces du marché",
      "answer_stringIds": [
        "string_122",
        "string_123",
        "string_124",
        "string_125"
      ]
    },
    {
      "id_qa": "FMSH_PB188a_00032_096_qa19_v3",
      "id_block": "block_2",
      "question": "Quel type d'entreprise peut subir des fluctuations inattendues ?",
      "answer": "entreprises autogérées",
      "answer_stringIds": [
        "string_192",
        "string_193"
      ]
    },
    {
      "id_qa": "FMSH_PB188a_00032_096_qa22_v3",
      "id_block": "block_2",
      "question": "A qui est destiné le bénéfice des entreprises autogérées ?",
      "answer": "ouvriers",
      "answer_stringIds": [
        "string_298"
      ]
    },
    {
      "id_qa": "FMSH_PB188a_00032_096_qa24_v3",
      "id_block": "block_2",
      "question": "Qu'est ce qui est ajouté à la rémunération fixe ?",
      "answer": "une somme résiduelle",
      "answer_stringIds": [
        "string_313",
        "string_314",
        "string_315"
      ]
    }
  ]
}