{
  "num": "autog_0338-7259_1975_num_32_1",
  "article": "autog_0338-7259_1975_num_32_1_1143",
  "page_name": "FMSH_PB188a_00032_086",
  "questions": [
    {
      "id_qa": "FMSH_PB188a_00032_086_qa0_v3",
      "id_block": "block_1",
      "question": "Qui est responsable de la dispersion du capital ?",
      "answer": "les membres",
      "answer_stringIds": [
        "string_27",
        "string_28"
      ]
    },
    {
      "id_qa": "FMSH_PB188a_00032_086_qa6_v3",
      "id_block": "block_1",
      "question": "Qu'est ce qui permet de limiter le nombre des membres de la communauté ?",
      "answer": "le travail",
      "answer_stringIds": [
        "string_7",
        "string_8"
      ]
    },
    {
      "id_qa": "FMSH_PB188a_00032_086_qa18_v3",
      "id_block": "block_1",
      "question": "Quel est le but de l'organisme ?",
      "answer": "la sécurité des petits porteurs",
      "answer_stringIds": [
        "string_157",
        "string_158",
        "string_159",
        "string_160",
        "string_161"
      ]
    },
    {
      "id_qa": "FMSH_PB188a_00032_086_qa28_v3",
      "id_block": "block_1",
      "question": "Qu'est-ce qui est collecté par l'organisme ?",
      "answer": "les économies et Îles fonds de retraite des membres de la communauté",
      "answer_stringIds": [
        "string_133",
        "string_134",
        "string_135",
        "string_136",
        "string_137",
        "string_138",
        "string_139",
        "string_140",
        "string_141",
        "string_142",
        "string_143",
        "string_144"
      ]
    },
    {
      "id_qa": "FMSH_PB188a_00032_086_qa29_v3",
      "id_block": "block_1",
      "question": "Qu'est-ce qui peut être collecté par la communauté ?",
      "answer": "collecter les économies et Îles fonds de retraite des membres de la communauté",
      "answer_stringIds": [
        "string_132",
        "string_133",
        "string_134",
        "string_135",
        "string_136",
        "string_137",
        "string_138",
        "string_139",
        "string_140",
        "string_141",
        "string_142",
        "string_143",
        "string_144"
      ]
    },
    {
      "id_qa": "FMSH_PB188a_00032_086_qa30_v3",
      "id_block": "block_1",
      "question": "Dans quel type d'entreprise peut-on trouver une dotation de base ?",
      "answer": "les entreprises",
      "answer_stringIds": [
        "string_191",
        "string_192"
      ]
    },
    {
      "id_qa": "FMSH_PB188a_00032_086_qa34_v3",
      "id_block": "block_1",
      "question": "Quel organisme peut être au service d'un grand nombre d'entreprise ?",
      "answer": "Cet organisme particulier",
      "answer_stringIds": [
        "string_117",
        "string_118",
        "string_119"
      ]
    },
    {
      "id_qa": "FMSH_PB188a_00032_086_qa13_v3",
      "id_block": "block_2",
      "question": "Qui possède les parts d'une entreprise autogérée ?",
      "answer": "les ouvriers",
      "answer_stringIds": [
        "string_257",
        "string_258"
      ]
    },
    {
      "id_qa": "FMSH_PB188a_00032_086_qa14_v3",
      "id_block": "block_2",
      "question": "Qu'est ce qui n'est pas souhaitable à plusieurs points de vue ?",
      "answer": "une entreprise",
      "answer_stringIds": [
        "string_253",
        "string_254"
      ]
    },
    {
      "id_qa": "FMSH_PB188a_00032_086_qa32_v3",
      "id_block": "block_2",
      "question": "Par qui est garantie la valeur totale du capital ?",
      "answer": "les firmes autogé",
      "answer_stringIds": [
        "string_355",
        "string_356",
        "string_357"
      ]
    },
    {
      "id_qa": "FMSH_PB188a_00032_086_qa33_v3",
      "id_block": "block_2",
      "question": "Par quoi est garantie la valeur totale du capital ?",
      "answer": "contrat initial",
      "answer_stringIds": [
        "string_352",
        "string_353"
      ]
    }
  ]
}