{
  "num": "autog_0249-2563_1980_num_13_1",
  "article": "autog_0249-2563_1980_num_13_1_1352_t1_0124_0000_2",
  "page_name": "autog_0249-2563_1980_num_13_1_T1_0124_0000",
  "questions": [
    "Quel est le sens de la question que M. Crozier reçoit au début du texte ?",
    "Quel est le domaine d'étude de M. Crozier ?",
    "Comment se démarque-t-il des autres sociologues ?",
    "Comment s'est-il comporté lors d'une dispute au cours d'une rencontre de boxe ?",
    "Qu'est-ce qu'il pense de l'autogestion ?",
    "Comment a-t-il évolué l'idée de l'autogestion dans le milieu de gauche ?",
    "Quel est le point de vue de M. Crozier sur la société bloquée ?",
    "Comment peut-on obtenir plus d'informations sur ses opinions sur l'autogestion ?"
  ]
}