{
  "num": "autog_0338-7259_1972_num_18_1",
  "article": "autog_0338-7259_1972_num_18_1_1028",
  "page_name": "FMSH_PB188a_18-19_033",
  "questions": [
    "Quel titre porte l'article de Kropotkine mentionné dans le texte ?",
    "Quels auteurs rejoint-il dans cet article ?",
    "Qu'avait la bourgeoisie clairement en tête lors des révolutions de 1848 et 1871 ?",
    "Qu'avaient-ils demandé les ouvriers lors de ces révolutions ?",
    "Qu'était l'organisation du travail pour Kropotkine en 1871 ?",
    "Qu'était le collectivisme pour lui à cette époque ?",
    "Qu'aurait-on pu apprendre à qui que ce concernait si on avait demandé ce qu'il fallait faire pour résoudre la question du pain et du travail lors de la Commune ?",
    "Quels penseurs avaient-ils des aspirations communistes avant la Révolution française ?",
    "Quelles formes prenaient-elles pour Kropotkine ?",
    "Qu'est-ce qui manquait à ces aspirations selon lui ?"
  ]
}