{
  "num": "autog_0338-7259_1972_num_18_1",
  "article": "autog_0338-7259_1972_num_18_1_1028",
  "page_name": "FMSH_PB188a_18-19_027",
  "questions": [
    "Quels groupes sociaux sont-ils économiquement exploités et politiquement opprimés dans le monde selon Bakounine ?",
    "Quel est le rôle des propriétaires et des intermédiaires privilégiés du capital dans l'exploitation et l'oppression des groupes sociaux mentionnés ?",
    "Quel est le côté négatif de l'idée socialiste libérale selon Bakounine ?",
    "Quel est le côté positif de l'idée socialiste libérale selon Bakounine ?",
    "Qu'est-ce qui constitue l'inspiration première de l'action destructive selon Bakounine ?",
    "Qu'est l'idée que Bakounine a d'un monde social nouveau ?",
    "Comment est-ce que ce monde social nouveau se créerait selon Bakounine ?",
    "Qu'est-ce qui permettrait à l'action destructive de devenir salutaire et utile selon Bakounine ?",
    "Qu'est-ce qui fait de la passion de la destruction une force constructive selon Bakounine ?",
    "En termes économiques, qu'entendait-on par capital selon Bakounine ?",
    "Qu'est-ce que Berdiaeff pense de la phrase « La passion de la destruction est éminemment constructive » selon Bakounine ?"
  ]
}