{
  "num": "autog_0338-7259_1972_num_18_1",
  "article": "autog_0338-7259_1972_num_18_1_1028",
  "page_name": "FMSH_PB188a_18-19_049",
  "questions": [
    "Quels sont les fonctions attribuées aux communes dans le cadre du socialisme libéral?",
    "Quels sont les différents types d'offices syndicaux prévus dans ce système?",
    "Dans quels domaines apparaissent-ils à l'échelle régionale et nationale?",
    "Comment fonctionnent les comités d'atelier, les conseils d'usine et les sections techniques selon Besnard?",
    "Quel rôle jouent les bureaux de recherche et les laboratoires d'essais dans ce système?",
    "Comment cette structure correspond-elle à celle du mouvement syndical libertaire espagnol?",
    "En quelles circonstances a-t-elle pu être mise en place à l'échelle nationale en Espagne?"
  ]
}