{
  "num": "autog_0338-7259_1972_num_18_1",
  "article": "autog_0338-7259_1972_num_18_1_1028",
  "page_name": "FMSH_PB188a_18-19_021",
  "questions": [
    "Quel rôle a joué Jules Lechevalier dans la Banque du Peuple ?",
    "Quels sont les deux syndicats que Jules Lechevalier a contribué à établir ?",
    "Quels sont les attributions de ces syndicats ?",
    "Comment les travailleurs doivent-ils être organisés selon cette idée ?",
    "Quel est le but premier de ces syndicats ?",
    "Comment les travailleurs doivent-ils rendre leurs personnes et leurs instruments de travail disponibles ?",
    "Quels sont les trois bases des avances aux travailleurs ?",
    "Comment les rapports des fabricants doivent-ils être centralisés ?",
    "Quel est le rôle de ces syndicats dans la répartition du travail et du chômage ?"
  ]
}