{
  "num": "autog_0338-7259_1972_num_18_1",
  "article": "autog_0338-7259_1972_num_18_1_1028",
  "page_name": "FMSH_PB188a_18-19_016",
  "questions": [
    "Quels sont les théoriciens marxistes mentionnés dans le texte ?",
    "Quel est le rôle de Rosa Luxemburg et Karl Kautsky dans le marxisme ?",
    "Quel est la position théorique de Marx vis-à-vis de la reconstruction sociale ?",
    "Quel est le caractère perçu de l'école libertaire dans l'histoire ?",
    "Quel est le rôle de Proudhon dans l'anarchisme ?",
    "Quelles sont les préoccupations majeures de Proudhon ?",
    "Quels types d'écrits Proudhon a-t-il produits pour aborder le problème social ?",
    "Qu'est-ce que les mesures que Proudhon recommande pour la reconstruction ?"
  ]
}