{
  "num": "autog_0338-7259_1972_num_18_1",
  "article": "autog_0338-7259_1972_num_18_1_1028",
  "page_name": "FMSH_PB188a_18-19_023",
  "questions": [
    "Quel rôle joue le fonds de réserve dans le financement des conditions de retraites pour chaque corporation ?",
    "Comment traitera le socialisme libéral avec chaque corporation pour déterminer son intervention en matière de ses membres ?",
    "Quel est le but de l'organisation d'une caisse centrale pour les pensions de retraites ?",
    "Comment contribue la caisse centrale aux pensions de retraites ?",
    "Quel est l'objectif de l'organisation des travaux pour éviter les chômages et contrebalancer l'influence négative de la division parcellaire dans les travaux ?",
    "Quel lien y a-t-il entre les idées de Proudhon et celles du groupe d'études proudhonien sur le projet de la caisse centrale de retraites ?",
    "Comment caractérise Proudhon ses adversaires qui critiquent ses conceptions anarchistes ?",
    "Quels sont les défenses de l'anarchie selon Proudhon ?"
  ]
}