{
  "num": "autog_0249-2563_1982_num_15_8",
  "article": "autog_0249-2563_1982_num_15_8_1470",
  "page_name": "autog_0249-2563_1982_num_15_8_T1_0053_0000",
  "questions": [
    "Quels modes de financement parallèles ont connu un essor réel autour d'une collecte active d'épargne solidaire ?",
    "Quels sont les buts de la volonté de se rendre plus autonome des circuits bancaires traditionnels et des subventions publiques ?",
    "Quand a été créé le Comité de liaison des boutiques de gestion ?",
    "Quels sont les objectifs de ces boutiques de gestion ?",
    "Quel rôle jouent les boutiques de gestion dans la création et le développement d'organisations de biens et de services n'ayant pas des objectifs uniquement économiques ?",
    "Quel est l'enjeu central dans le processus de recomposition d'une alternative économique ?",
    "Dans quelle mesure l'expérience de Maurice Allefres a-t-elle été riche en termes de formation alternative ?",
    "Quels sont les conditions favorables pour une expérience de formation alternative dans une région non intégrée au modèle dominant ?",
    "Comment les différentes couches d'élus ou responsables locaux peuvent-elles être sensibilisées à l'alternative économique ?"
  ]
}