{
  "num": "autog_0249-2563_1982_num_15_8",
  "article": "autog_0249-2563_1982_num_15_8_1470",
  "page_name": "autog_0249-2563_1982_num_15_8_T1_0046_0000",
  "questions": [
    "Quand et où Hervé s'est-il installé pour pratiquer l'élevage de volaille grasse ?",
    "Quel a été le paradoxe économique que Hervé a rencontré dans son activité ?",
    "Comment les volailles ont-elles été vendues et commercialisées ?",
    "Comment Hervé s'est-il senti à l'égard de cette situation ?",
    "Quel est le problème posé par cette situation pour Hervé ?",
    "Quels types de produits sont concernés par cette contradiction entre le produit et le marché dans le néo-ruralisme artisanal ou agricole ?",
    "Quels objectifs poursuivent certains travailleurs sociaux dans le cadre de leur projet social ?",
    "Dans quelle région se trouve l'atelier de matériel agricole créé par un éducateur pour des jeunes loubards ?",
    "Quels types d'emplois ont été créés dans cette expérience et pour quels besoins ?",
    "Quel type de société coopérative civile distribue des produits biologiques et fait du jardinage près de La Rochelle ?",
    "Combien de personnes sont employées à temps plein dans cette société coopérative civile et quel handicap ont deux d'entre elles ?",
    "Dans quel domaine la recherche scientifique est-elle associée à l'expérimentation sur les technologies douces dans l'institut Synopsis ?"
  ]
}