{
  "num": "autog_0338-7259_1979_num_43_1",
  "article": "autog_0338-7259_1979_num_43_1_1302_t1_0129_0000_1",
  "page_name": "FMSH_PB188a_00043_131",
  "questions": [
    {
      "id_qa": "FMSH_PB188a_00043_131_qa10_v2",
      "id_block": "block_3",
      "question": "Dans quel type d'organisation le travail est-il développé ?",
      "answer": "les sociétés industrielles",
      "answer_stringIds": [
        "string_46",
        "string_47",
        "string_48"
      ]
    },
    {
      "id_qa": "FMSH_PB188a_00043_131_qa12_v2",
      "id_block": "block_3",
      "question": "Combien d'ouvrages sont consacrés à l'organisation du travail dans les sociétés industrielles développées ?",
      "answer": "deux ouvrages",
      "answer_stringIds": [
        "string_25",
        "string_26"
      ]
    },
    {
      "id_qa": "FMSH_PB188a_00043_131_qa9_v2",
      "id_block": "block_4",
      "question": "Qui s'efforce de montrer la complémentarité évolutive plutôt que l'opposition ?",
      "answer": "B. Lussato",
      "answer_stringIds": [
        "string_97",
        "string_98"
      ]
    },
    {
      "id_qa": "FMSH_PB188a_00043_131_qa16_v2",
      "id_block": "block_4",
      "question": "Qui a ajouté deux sections supplémentaires sur l'autogestion ?",
      "answer": "B. Lussato",
      "answer_stringIds": [
        "string_97",
        "string_98"
      ]
    }
  ]
}