{
  "num": "autog_0005-0970_1967_num_4_1",
  "article": "autog_0005-0970_1967_num_4_1_916_t1_0171_0000_1",
  "page_name": "FMSH_PB188a_00004_173",
  "questions": [
    {
      "id_qa": "FMSH_PB188a_00004_173_qa21_v3",
      "id_block": "block_1",
      "question": "Comment s'appelle le journal du C.E.S ?",
      "answer": "Cahiers",
      "answer_stringIds": [
        "string_20"
      ]
    },
    {
      "id_qa": "FMSH_PB188a_00004_173_qa15_v3",
      "id_block": "block_2",
      "question": "A quoi est liée la question du contrôle ouvrier ?",
      "answer": "à celle de la dualité de pouvoir",
      "answer_stringIds": [
        "string_48",
        "string_49",
        "string_50",
        "string_51",
        "string_52",
        "string_53",
        "string_54"
      ]
    },
    {
      "id_qa": "FMSH_PB188a_00004_173_qa17_v3",
      "id_block": "block_2",
      "question": "A quoi est liée la question de la dualité de pouvoir ?",
      "answer": "du contrôle ouvrier",
      "answer_stringIds": [
        "string_37",
        "string_38",
        "string_39"
      ]
    },
    {
      "id_qa": "FMSH_PB188a_00004_173_qa8_v3",
      "id_block": "block_3",
      "question": "Qui a conquis l'indépendance dans sa lutte ?",
      "answer": "la classe ouvrière",
      "answer_stringIds": [
        "string_367",
        "string_368",
        "string_369"
      ]
    },
    {
      "id_qa": "FMSH_PB188a_00004_173_qa13_v3",
      "id_block": "block_3",
      "question": "A quoi mon réformisme tend-il à substituer ?",
      "answer": "une solution unique à la solution capitaliste et à la solution socialiste",
      "answer_stringIds": [
        "string_179",
        "string_180",
        "string_181",
        "string_182",
        "string_183",
        "string_184",
        "string_185",
        "string_186",
        "string_187",
        "string_188",
        "string_189",
        "string_190"
      ]
    },
    {
      "id_qa": "FMSH_PB188a_00004_173_qa14_v3",
      "id_block": "block_3",
      "question": "Qu'est ce qui tend à multiplier les formes d'entreprises ?",
      "answer": "Mon réformisme",
      "answer_stringIds": [
        "string_168",
        "string_169"
      ]
    }
  ]
}