{
  "num": "autog_0005-0970_1967_num_2_1",
  "article": "autog_0005-0970_1967_num_2_1_898",
  "page_name": "FMSH_PB188a_00002_065",
  "questions": [
    "Quels sont les conditions préalables pour que la société puisse s'autodéterminer selon l'autocéstion et la démocratie ?",
    "Comment la capacité de chaque membre de la société de participer directement à toutes les décisions en connaissance de cause est-elle liée à l'auto-éducation continue ?",
    "Comment se réalise cette auto-éducation théoréticopratique ?",
    "Quel est le rôle de la militantisme dans l'auto-éducation théoréticopratique ?",
    "Quel est le rôle de l'autogestion dans l'auto-éducation théoréticopratique ?",
    "Quelle est la contradiction liée au respect des conditions préalables de l'autogestion ?",
    "Comment l'éducation peut-elle être bloquée par la bourgeoisie ?",
    "Quel est le but de l'enseignement donné dans les écoles actuelles ?",
    "Comment le développement économique peut-il être orienté à l'avantage du capitalisme ?",
    "Qu'est-ce que la pensée révolutionnaire et comment elle est-elle liée à la mort de Dieu ?"
  ]
}