{
  "num": "autog_0249-2563_1983_num_16_14",
  "article": "autog_0249-2563_1983_num_16_14_1558",
  "page_name": "autog_0249-2563_1983_num_16_14_T1_0061_0000",
  "questions": [
    "Quel est le sens initial du terme \"équipe\" dans le contexte historique décrit ici ?",
    "En quelle période se démocratise le sport d'équipe et comment le peuple est-il intégré à cette pratique ?",
    "Quels sont les intérêts des industriels dans le développement des sports d'équipe ?",
    "Comment le modèle sportif est-il utilisé dans le contexte industriel ?",
    "Quel livre illustre cette utilisation du modèle sportif dans le contexte industriel ?",
    "Quels auteurs sont cités dans le texte pour apporter des perspectives complémentaires sur le sujet ?"
  ]
}