{
  "num": "autog_0249-2563_1983_num_16_14",
  "article": "autog_0249-2563_1983_num_16_14_1558",
  "page_name": "autog_0249-2563_1983_num_16_14_T1_0063_0000",
  "questions": [
    "Quels auteurs ont abordé le thème de l'équipe dans leur travail en 1979 ?",
    "En quelle revue ont été présentés les travaux de Michel Crozier et Erhard Friedberg sur l'organisation et le fonctionnement des entreprises ?",
    "Quel événement a freiné l'application de la notion d'équipe en matière d'organisation et de division technique du travail ?",
    "Dans quels domaines la notion d'équipe a-t-elle évolué depuis cette période ?",
    "Quels événements ont montré la diversité des initiatives prises par les chefs d'entreprises pour développer une plus grande participation des salariés ?",
    "Quels types de structures de concertation ont émergé durant cette période ?",
    "Quel rôle a-t-on attribué à l'encadrement dans ces nouvelles structures ?",
    "Quels sont les objectifs poursuivis dans les « réunions d'échange » et les ERACT ?",
    "Quel rôle ont les groupes d'expression directe joué dans le processus de travail en équipe ?",
    "Quand a-t-on commencé à parler d'une expression des salariés à l'intérieur de l'entreprise ?",
    "Quels sont les positions du patronat sur le droit d'expression des salariés ?"
  ]
}