{
  "num": "autog_0338-7259_1975_num_30_1",
  "article": "autog_0338-7259_1975_num_30_1_1136_t1_0209_0000_1",
  "page_name": "FMSH_PB188a_30-31_216",
  "questions": [
    "Quels auteurs sont-ils en question dans ce texte ?",
    "Qu'est-ce que la dictature du prolétariat, selon Marx et Engels ?",
    "Comment Marx et Engels différencient-ils la dictature du prolétariat d'une dictature d'avant-garde ?",
    "Qu'est-ce qui a conduit Marx et Engels à préciser leur position sur la dictature du prolétariat ?",
    "Qu'est-ce que la Commune de Paris selon Marx et Engels ?",
    "Qu'est-ce que l'autogestion selon les auteurs cités ?",
    "Comment Marx et Engels se référaient-ils aux personnes qui se prétendaient leurs partisans sectaires ?",
    "Qu'est-ce que l'OCI ?",
    "Qu'est-ce que H. Draper et qu'il a-t-il écrit sur la dictature du prolétariat ?"
  ]
}