{
  "num": "autog_0249-2563_1982_num_15_10",
  "article": "autog_0249-2563_1982_num_15_10_1509",
  "page_name": "autog_0249-2563_1982_num_15_10_T1_0141_0000",
  "questions": [
    {
      "id_qa": "autog_0249-2563_1982_num_15_10_T1_0141_0000_qa1_v3",
      "id_block": "block_15",
      "question": "Qu'est-ce que l'autogestion de l'outil ?",
      "answer": "travail",
      "answer_stringIds": [
        "string_274"
      ]
    },
    {
      "id_qa": "autog_0249-2563_1982_num_15_10_T1_0141_0000_qa2_v3",
      "id_block": "block_2",
      "question": "Quand est-ce que les numéros d'Autogestion et socialisme sont épuisés ?",
      "answer": "entre 1966 et 1979",
      "answer_stringIds": [
        "string_15",
        "string_16",
        "string_17",
        "string_18"
      ]
    },
    {
      "id_qa": "autog_0249-2563_1982_num_15_10_T1_0141_0000_qa4_v3",
      "id_block": "block_2",
      "question": "Qu'envoie-t-on directement à Autogestion ?",
      "answer": "un bon de commande",
      "answer_stringIds": [
        "string_45",
        "string_46",
        "string_47",
        "string_48"
      ]
    },
    {
      "id_qa": "autog_0249-2563_1982_num_15_10_T1_0141_0000_qa3_v3",
      "id_block": "block_7",
      "question": "Qu'est ce qui est entièrement autogéré aux Etats-Unis ?",
      "answer": "un secteur",
      "answer_stringIds": [
        "string_145",
        "string_146"
      ]
    }
  ]
}