{
  "num": "autog_0249-2563_1981_num_14_6",
  "article": "autog_0249-2563_1981_num_14_6_1438",
  "page_name": "FMSH_PB188a_NS_00006_093",
  "questions": [
    "Quels sont les thèmes d'action des anarchistes en Yougoslavie ?",
    "Comment le pouvoir yougoslave est-il décrit dans le texte ?",
    "Quels sont les deux niveaux de l'occupation de maisons en Yougoslavie ?",
    "Quels types de personnes occupent des maisons en Yougoslavie au premier niveau ?",
    "Quels sont les motivations politiques des occupations de maisons au second niveau ?",
    "Comment les médias traitent-ils les occupations de maisons en Yougoslavie ?",
    "Quel est le problème du logement en général en Yougoslavie ?",
    "Quels sont les conditions de vie des étudiants à Lubljana ?",
    "Comment les propriétaires des maisons exploitent-ils les étudiants logés sans enregistrement ?",
    "Quel est le rôle de la Ligue des communistes dans le contexte de l'occupation de maisons en Yougoslavie ?",
    "Comment les occupations de maisons sont-elles perçues par la société yougoslave ?",
    "Quels sont les conséquences possibles des occupations de maisons en Yougoslavie ?",
    "Quels sont les raisons pour lesquelles les anarchistes sont considérés comme fous en Yougoslavie ?",
    "Quel est le statut légal de l'occupation de maisons en Yougoslavie ?",
    "Quels sont les liens entre l'anarchisme et l'occupation de maisons en Yougoslavie ?",
    "Quels sont les défis actuels et futurs pour les occupants de maisons en Yougoslavie ?"
  ]
}