{
  "num": "autog_0249-2563_1982_num_15_8",
  "article": "autog_0249-2563_1982_num_15_8_1468",
  "page_name": "autog_0249-2563_1982_num_15_8_T1_0029_0000",
  "questions": [
    "Quels sont les gens qui s'opposent aux scénarios présentés et pourquoi ?",
    "Quels sont les objections politiques auxquelles s'oppose le narrateur ?",
    "Quel est le rôle de la politique dans ces objections ?",
    "Quels sont les arguments objectifs contre ces scénarios ?",
    "Quel est le poste le plus important et le plus stupide de notre facture énergétique selon le narrateur ?",
    "Quels sont les citoyens que préfère le narrateur ?",
    "Quels sont les citoyens qui émettent les objections ?",
    "Qu'est-ce qui peut arriver demain matin dans une ville ?",
    "Comment commence l'évolution de ces cent personnes ?",
    "Comment est gérée l'assurance universelle ?",
    "Comment fonctionne le fonds de risque ?",
    "Quel est le montant de la cotisation d'assurance versée par chaque personne ?",
    "Quand est atteint le montant nécessaire pour le fonds de risque ?"
  ]
}