{
  "num": "autog_0249-2563_1982_num_15_8",
  "article": "autog_0249-2563_1982_num_15_8_1468",
  "page_name": "autog_0249-2563_1982_num_15_8_T1_0030_0000",
  "questions": [
    "Quel niveau de versements permet la suspension des paiements dans ce système d'assurance?",
    "Quels types de dommages sont couverts par la contre-assurance?",
    "Comment les prestations sont-elles adaptées aux besoins de l'assuré dans cette assurance universelle?",
    "Quels avantages offre cette assurance universelle par rapport aux assurances normales?",
    "Quels types de risques peuvent être couverts par cette assurance universelle?",
    "Comment les prestations sont-elles fournies dans cette assurance universelle?",
    "Comment les cent personnes gèrent-elles les réparations et les remplacements des voittes dans ce système de transport collectif?",
    "Comment les cent personnes gèrent-ils les réparations et les remplacements des appartements dans ce système d'habitation collectif?",
    "Quels types de mesures sont prises pour améliorer l'isolation thermique des appartements?",
    "Quels types de solutions solaires passives sont utilisées pour améliorer l'efficacité énergétique des appartements?",
    "Quel rôle joue le centre de communication dans ce système collectif?",
    "Quels types d'installations peuvent être présentes dans ce centre de communication?"
  ]
}