{
  "num": "autog_0338-7259_1974_num_28_1",
  "article": "autog_0338-7259_1974_num_28_1_1201",
  "page_name": "FMSH_PB188a_28-29_162",
  "questions": [
    {
      "id_qa": "FMSH_PB188a_28-29_162_qa5_v3",
      "id_block": "block_2",
      "question": "Qu'est ce qui a permis la création d'une seule organisation structurée à partir des groupes de base ?",
      "answer": "la pratique commune",
      "answer_stringIds": [
        "string_101",
        "string_102",
        "string_103"
      ]
    },
    {
      "id_qa": "FMSH_PB188a_28-29_162_qa18_v3",
      "id_block": "block_2",
      "question": "Que suscite le comité de Liaison pour l'Autogestion Socialiste ?",
      "answer": "quelque intérêt",
      "answer_stringIds": [
        "string_72",
        "string_73"
      ]
    },
    {
      "id_qa": "FMSH_PB188a_28-29_162_qa1_v3",
      "id_block": "block_4",
      "question": "Qui a pris l'affaire au sérieux ?",
      "answer": "des militants",
      "answer_stringIds": [
        "string_212",
        "string_213"
      ]
    },
    {
      "id_qa": "FMSH_PB188a_28-29_162_qa2_v3",
      "id_block": "block_4",
      "question": "Quel mouvement politique est devenu l'expression politique d'un mouvement pour l'Autogestion Socialiste ?",
      "answer": "Le P.S.U.",
      "answer_stringIds": [
        "string_184",
        "string_185"
      ]
    },
    {
      "id_qa": "FMSH_PB188a_28-29_162_qa20_v3",
      "id_block": "block_4",
      "question": "A qui est destiné le parti déjà existant de l'autogestion ?",
      "answer": "aux autres groupes politiques",
      "answer_stringIds": [
        "string_174",
        "string_175",
        "string_176",
        "string_177"
      ]
    },
    {
      "id_qa": "FMSH_PB188a_28-29_162_qa21_v3",
      "id_block": "block_4",
      "question": "Quel est le parti déjà existant de l'autogestion ?",
      "answer": "le noyau politique",
      "answer_stringIds": [
        "string_154",
        "string_155",
        "string_156"
      ]
    },
    {
      "id_qa": "FMSH_PB188a_28-29_162_qa12_v3",
      "id_block": "block_5",
      "question": "Qu'est-ce que voulaient les organisations de masse au C.L.A.S ?",
      "answer": "leur indépendance vis-à-vis des partis",
      "answer_stringIds": [
        "string_258",
        "string_259",
        "string_260",
        "string_261",
        "string_262"
      ]
    },
    {
      "id_qa": "FMSH_PB188a_28-29_162_qa27_v3",
      "id_block": "block_7",
      "question": "Qu'est ce qui ne suscite pas que les enthousiasmes ?",
      "answer": "un reste",
      "answer_stringIds": [
        "string_350",
        "string_351"
      ]
    },
    {
      "id_qa": "FMSH_PB188a_28-29_162_qa14_v3",
      "id_block": "block_8",
      "question": "Qui va naturellement là où ils ont le plus de possibilité de carrière ?",
      "answer": "Les politiciens réformistes",
      "answer_stringIds": [
        "string_353",
        "string_354",
        "string_355"
      ]
    },
    {
      "id_qa": "FMSH_PB188a_28-29_162_qa15_v3",
      "id_block": "block_8",
      "question": "Où les politiciens réformistes vont-ils naturellement ?",
      "answer": "le plus de possibilité de carrière",
      "answer_stringIds": [
        "string_362",
        "string_363",
        "string_364",
        "string_365",
        "string_366",
        "string_367"
      ]
    }
  ]
}