{
  "num": "autog_0338-7259_1974_num_28_1",
  "article": "autog_0338-7259_1974_num_28_1_1201",
  "page_name": "FMSH_PB188a_28-29_163",
  "questions": [
    {
      "id_qa": "FMSH_PB188a_28-29_163_qa15_v3",
      "id_block": "block_1",
      "question": "Qui offre un débouché au capitalisme ?",
      "answer": "les révolutionnaires",
      "answer_stringIds": [
        "string_41",
        "string_42"
      ]
    },
    {
      "id_qa": "FMSH_PB188a_28-29_163_qa21_v3",
      "id_block": "block_1",
      "question": "Qu'est-ce que les révolutionnaires offrent au capitalisme ?",
      "answer": "un débouché",
      "answer_stringIds": [
        "string_45",
        "string_46"
      ]
    },
    {
      "id_qa": "FMSH_PB188a_28-29_163_qa9_v3",
      "id_block": "block_3",
      "question": "Qui n'avait pas participé au C.L.A.S ?",
      "answer": "des militants",
      "answer_stringIds": [
        "string_76",
        "string_77"
      ]
    },
    {
      "id_qa": "FMSH_PB188a_28-29_163_qa11_v3",
      "id_block": "block_3",
      "question": "A quelle organisation appartenaient certains militants du P.S.U.",
      "answer": "au C.L.A.S.",
      "answer_stringIds": [
        "string_107",
        "string_108"
      ]
    },
    {
      "id_qa": "FMSH_PB188a_28-29_163_qa13_v3",
      "id_block": "block_3",
      "question": "Quelle était la caractéristique du C.L.A.S ?",
      "answer": "le courant autogestionnaire",
      "answer_stringIds": [
        "string_123",
        "string_124",
        "string_125"
      ]
    },
    {
      "id_qa": "FMSH_PB188a_28-29_163_qa0_v3",
      "id_block": "block_4",
      "question": "Quel est le but de l'organisation qui n'a finalement comme but que de parvenir elle même ?",
      "answer": "au pouvoir",
      "answer_stringIds": [
        "string_280",
        "string_281"
      ]
    },
    {
      "id_qa": "FMSH_PB188a_28-29_163_qa1_v3",
      "id_block": "block_4",
      "question": "Qui apporte à la classe ouvrière la conscience de l'extérieur ?",
      "answer": "des initiés",
      "answer_stringIds": [
        "string_250",
        "string_251"
      ]
    },
    {
      "id_qa": "FMSH_PB188a_28-29_163_qa2_v3",
      "id_block": "block_4",
      "question": "A qui doit apporter la conscience de l'extérieur ?",
      "answer": "à la classe ouvrière",
      "answer_stringIds": [
        "string_254",
        "string_255",
        "string_256",
        "string_257"
      ]
    },
    {
      "id_qa": "FMSH_PB188a_28-29_163_qa30_v3",
      "id_block": "block_4",
      "question": "Quelles sont les conséquences de l'autogestion ?",
      "answer": "rux possibilités électorales des modalités illégales et violentes",
      "answer_stringIds": [
        "string_232",
        "string_233",
        "string_234",
        "string_235",
        "string_236",
        "string_237",
        "string_238",
        "string_239",
        "string_240"
      ]
    },
    {
      "id_qa": "FMSH_PB188a_28-29_163_qa31_v3",
      "id_block": "block_4",
      "question": "Après quoi l'autogestion pourra-t-elle être progressivement octroyée ?",
      "answer": "après la conquête du pouvoir",
      "answer_stringIds": [
        "string_213",
        "string_214",
        "string_215",
        "string_216",
        "string_217"
      ]
    },
    {
      "id_qa": "FMSH_PB188a_28-29_163_qa32_v3",
      "id_block": "block_4",
      "question": "Qui pense que l'autogestion pourra être progressivement octroyée ?",
      "answer": "les réformistes du courant autogestionnaire",
      "answer_stringIds": [
        "string_201",
        "string_202",
        "string_203",
        "string_204",
        "string_205"
      ]
    },
    {
      "id_qa": "FMSH_PB188a_28-29_163_qa33_v3",
      "id_block": "block_4",
      "question": "Par quoi l'autogestion pourra-t-elle être progressivement octroyée ?",
      "answer": "par des voies légales",
      "answer_stringIds": [
        "string_218",
        "string_219",
        "string_220",
        "string_221"
      ]
    },
    {
      "id_qa": "FMSH_PB188a_28-29_163_qa34_v3",
      "id_block": "block_5",
      "question": "A quoi doit se donner l'organisation nouvelle et nécessaire ?",
      "answer": "des structures",
      "answer_stringIds": [
        "string_300",
        "string_301"
      ]
    },
    {
      "id_qa": "FMSH_PB188a_28-29_163_qa40_v3",
      "id_block": "block_6",
      "question": "Qu'est ce qui n'existera pas sans un projet cohérent ?",
      "answer": "Aucune perspective révolutionnaire",
      "answer_stringIds": [
        "string_352",
        "string_353",
        "string_354"
      ]
    }
  ]
}