{
  "num": "autog_0338-7259_1974_num_28_1",
  "article": "autog_0338-7259_1974_num_28_1_1201",
  "page_name": "FMSH_PB188a_28-29_161",
  "questions": [
    {
      "id_qa": "FMSH_PB188a_28-29_161_qa23_v3",
      "id_block": "block_1",
      "question": "Quel est le but de l'autogestion ?",
      "answer": "la marche ainsi entreprise vers le communisme",
      "answer_stringIds": [
        "string_93",
        "string_94",
        "string_95",
        "string_96",
        "string_97",
        "string_98",
        "string_99"
      ]
    },
    {
      "id_qa": "FMSH_PB188a_28-29_161_qa9_v3",
      "id_block": "block_2",
      "question": "Que doit faire l'organisation pour coordonner les luttes ?",
      "answer": "émerger de ces luttes",
      "answer_stringIds": [
        "string_136",
        "string_137",
        "string_138",
        "string_139"
      ]
    },
    {
      "id_qa": "FMSH_PB188a_28-29_161_qa11_v3",
      "id_block": "block_2",
      "question": "Qu'est-ce que l'autogestion ?",
      "answer": "une organisation",
      "answer_stringIds": [
        "string_126",
        "string_127"
      ]
    },
    {
      "id_qa": "FMSH_PB188a_28-29_161_qa12_v3",
      "id_block": "block_2",
      "question": "Pour quelle raison faut-il une organisation pour coordonner les luttes ?",
      "answer": "pour un rendement politique",
      "answer_stringIds": [
        "string_144",
        "string_145",
        "string_146",
        "string_147"
      ]
    },
    {
      "id_qa": "FMSH_PB188a_28-29_161_qa14_v3",
      "id_block": "block_2",
      "question": "Qu'est-ce qu'une organisation ?",
      "answer": "pour coordonner les luttes",
      "answer_stringIds": [
        "string_128",
        "string_129",
        "string_130",
        "string_131"
      ]
    },
    {
      "id_qa": "FMSH_PB188a_28-29_161_qa20_v3",
      "id_block": "block_2",
      "question": "Qui estime que l'autogestion ne s'instaurera pas toute seule ?",
      "answer": "Le C.A.R.A.C.",
      "answer_stringIds": [
        "string_102",
        "string_103"
      ]
    },
    {
      "id_qa": "FMSH_PB188a_28-29_161_qa6_v3",
      "id_block": "block_6",
      "question": "Qui a écrit la note ?",
      "answer": "les animateurs du C.A.R.A.C.",
      "answer_stringIds": [
        "string_259",
        "string_260",
        "string_261",
        "string_262"
      ]
    },
    {
      "id_qa": "FMSH_PB188a_28-29_161_qa7_v3",
      "id_block": "block_6",
      "question": "Qu'est ce qui nous a été adressé le 2 octobre 1974 ?",
      "answer": "une note",
      "answer_stringIds": [
        "string_247",
        "string_248"
      ]
    }
  ]
}