{
  "num": "autog_0338-7259_1976_num_35_1",
  "article": "autog_0338-7259_1976_num_35_1_1175",
  "page_name": "FMSH_PB188a_35-36_018",
  "questions": [
    {
      "id_qa": "FMSH_PB188a_35-36_018_qa0_v3",
      "id_block": "block_2",
      "question": "Que défend les anarchistes avec Voline ?",
      "answer": "la gestion ouvrière",
      "answer_stringIds": [
        "string_X"
      ]
    },
    {
      "id_qa": "FMSH_PB188a_35-36_018_qa1_v3",
      "id_block": "block_2",
      "question": "Qui défend la gestion ouvrière ?",
      "answer": "les anarchistes",
      "answer_stringIds": [
        "string_X"
      ]
    },
    {
      "id_qa": "FMSH_PB188a_35-36_018_qa3_v3",
      "id_block": "block_2",
      "question": "Que continuent les anarchistes avec Voline ?",
      "answer": "défendre la gestion ouvrière",
      "answer_stringIds": [
        "string_X"
      ]
    },
    {
      "id_qa": "FMSH_PB188a_35-36_018_qa7_v3",
      "id_block": "block_2",
      "question": "Qui déclare que, dans l'usine les comités doivent contrôler, pas décider ?",
      "answer": "les bolcheviks",
      "answer_stringIds": [
        "string_X"
      ]
    },
    {
      "id_qa": "FMSH_PB188a_35-36_018_qa32_v3",
      "id_block": "block_2",
      "question": "Qu'est ce qui explique l'échec de la motion anarchiste ?",
      "answer": "la gestion ouvrière",
      "answer_stringIds": [
        "string_X"
      ]
    },
    {
      "id_qa": "FMSH_PB188a_35-36_018_qa33_v3",
      "id_block": "block_2",
      "question": "Qu'est ce qui allait se répercuter sur les comités eux-mêmes ?",
      "answer": "la défaite institutionnelle",
      "answer_stringIds": [
        "string_X"
      ]
    },
    {
      "id_qa": "FMSH_PB188a_35-36_018_qa27_v3",
      "id_block": "block_4",
      "question": "Quel était l'objectif des comités d'usine ?",
      "answer": "une gestion",
      "answer_stringIds": [
        "string_X"
      ]
    },
    {
      "id_qa": "FMSH_PB188a_35-36_018_qa28_v3",
      "id_block": "block_4",
      "question": "Qui a mis en cause les actions individuelles ?",
      "answer": "les comités",
      "answer_stringIds": [
        "string_X"
      ]
    },
    {
      "id_qa": "FMSH_PB188a_35-36_018_qa16_v3",
      "id_block": "block_5",
      "question": "Qu'est-ce qui était l'amorce d'une gestion ?",
      "answer": "contrôle",
      "answer_stringIds": [
        "string_X"
      ]
    },
    {
      "id_qa": "FMSH_PB188a_35-36_018_qa20_v3",
      "id_block": "block_5",
      "question": "Qui confond contrôle et occupation ?",
      "answer": "Certains",
      "answer_stringIds": [
        "string_X"
      ]
    },
    {
      "id_qa": "FMSH_PB188a_35-36_018_qa21_v3",
      "id_block": "block_5",
      "question": "Qu'est-ce que certains confondent ?",
      "answer": "contrôle et occupation",
      "answer_stringIds": [
        "string_X"
      ]
    },
    {
      "id_qa": "FMSH_PB188a_35-36_018_qa22_v3",
      "id_block": "block_5",
      "question": "Qui veulent une nationalisation ?",
      "answer": "les bolcheviks",
      "answer_stringIds": [
        "string_X"
      ]
    },
    {
      "id_qa": "FMSH_PB188a_35-36_018_qa24_v3",
      "id_block": "block_5",
      "question": "A qui l'autogestion est-elle inspirée ?",
      "answer": "les ouvriers des petites et moyennes entreprises",
      "answer_stringIds": [
        "string_X"
      ]
    },
    {
      "id_qa": "FMSH_PB188a_35-36_018_qa25_v3",
      "id_block": "block_5",
      "question": "Qu'est ce que veulent les bolcheviks ?",
      "answer": "une nationalisation",
      "answer_stringIds": [
        "string_X"
      ]
    },
    {
      "id_qa": "FMSH_PB188a_35-36_018_qa26_v3",
      "id_block": "block_5",
      "question": "Qui a procédé à l'autogestion ?",
      "answer": "les ouvriers",
      "answer_stringIds": [
        "string_X"
      ]
    },
    {
      "id_qa": "FMSH_PB188a_35-36_018_qa37_v3",
      "id_block": "block_5",
      "question": "Qu'est-ce que la nationalisation ?",
      "answer": "une occupation",
      "answer_stringIds": [
        "string_X"
      ]
    },
    {
      "id_qa": "FMSH_PB188a_35-36_018_qa38_v3",
      "id_block": "block_5",
      "question": "Qu'est-ce qui implique une occupation ?",
      "answer": "La nationalisation",
      "answer_stringIds": [
        "string_X"
      ]
    }
  ]
}