{
  "num": "autog_0005-0970_1967_num_2_1",
  "article": "autog_0005-0970_1967_num_2_1_906",
  "page_name": "FMSH_PB188a_00002_139",
  "questions": [
    {
      "id_qa": "FMSH_PB188a_00002_139_qa18_v3",
      "id_block": "block_3",
      "question": "Quelle est l'optique de l'oeuvre ?",
      "answer": "cette œuvre",
      "answer_stringIds": [
        "string_38",
        "string_39"
      ]
    },
    {
      "id_qa": "FMSH_PB188a_00002_139_qa0_v3",
      "id_block": "block_4",
      "question": "Qui est particulièrement préoccupé par le problème actuel du sous-développement ?",
      "answer": "Yves Lacoste",
      "answer_stringIds": [
        "string_47",
        "string_48"
      ]
    },
    {
      "id_qa": "FMSH_PB188a_00002_139_qa1_v3",
      "id_block": "block_4",
      "question": "Quel est le problème actuel du sous-développement ?",
      "answer": "cette dramatique distorsion de notre temps",
      "answer_stringIds": [
        "string_68",
        "string_69",
        "string_70",
        "string_71",
        "string_72",
        "string_73"
      ]
    },
    {
      "id_qa": "FMSH_PB188a_00002_139_qa2_v3",
      "id_block": "block_4",
      "question": "A qui s'adresse Yves Lacoste ?",
      "answer": "au penseur Arabe",
      "answer_stringIds": [
        "string_54",
        "string_55",
        "string_56",
        "string_57"
      ]
    },
    {
      "id_qa": "FMSH_PB188a_00002_139_qa3_v3",
      "id_block": "block_4",
      "question": "Qu'est-ce qui préoccupe Yves Lacoste ?",
      "answer": "par le problème actuel du sous-développement",
      "answer_stringIds": [
        "string_61",
        "string_62",
        "string_63",
        "string_64",
        "string_65",
        "string_66"
      ]
    },
    {
      "id_qa": "FMSH_PB188a_00002_139_qa12_v3",
      "id_block": "block_4",
      "question": "Dans quel ouvrage d'Ibn Khaldoun existe-t-il une riche matière éclairant le passé du Tiers-Monde ?",
      "answer": "dans les Prolégomènes",
      "answer_stringIds": [
        "string_84",
        "string_85",
        "string_86"
      ]
    },
    {
      "id_qa": "FMSH_PB188a_00002_139_qa13_v3",
      "id_block": "block_4",
      "question": "Qu'est-ce que les Prolégomènes d'Ibn Khaldoun ?",
      "answer": "une riche matière éclairant « le passé du Tiers-Monde",
      "answer_stringIds": [
        "string_92",
        "string_93",
        "string_94",
        "string_95",
        "string_96",
        "string_97",
        "string_98",
        "string_99",
        "string_100"
      ]
    },
    {
      "id_qa": "FMSH_PB188a_00002_139_qa15_v3",
      "id_block": "block_4",
      "question": "Que trouve-t-il dans les Prolégomènes en particulier d'Ibn Khaldoun ?",
      "answer": "une riche matière",
      "answer_stringIds": [
        "string_92",
        "string_93",
        "string_94"
      ]
    },
    {
      "id_qa": "FMSH_PB188a_00002_139_qa8_v3",
      "id_block": "block_5",
      "question": "A quoi est venu se greffer le phénomène contemporain du « sous-développement » ?",
      "answer": "le colonialisme des puissances impérialistes européennes",
      "answer_stringIds": [
        "string_157",
        "string_158",
        "string_159",
        "string_160",
        "string_161",
        "string_162"
      ]
    }
  ]
}