{
  "num": "autog_0005-0970_1967_num_2_1",
  "article": "autog_0005-0970_1967_num_2_1_906",
  "page_name": "FMSH_PB188a_00002_145",
  "questions": [
    {
      "id_qa": "FMSH_PB188a_00002_145_qa1_v3",
      "id_block": "block_1",
      "question": "Qu'est ce qui émerge de l'indépendance ?",
      "answer": "les Etats",
      "answer_stringIds": [
        "string_30",
        "string_31"
      ]
    }
  ]
}