{
  "num": "autog_0338-7259_1970_num_13_1",
  "article": "autog_0338-7259_1970_num_13_1_981",
  "page_name": "FMSH_PB188a_13-14_138",
  "questions": [
    "Quel était le but initial de l'action menée par M. Dravet et ses collègues ?",
    "Pourquoi ont-ils choisi de gérer eux-mêmes l'organisation des loisirs pour enfants dans chaque quartier ?",
    "Quel était le but final de leur action, selon leur intention ?",
    "Quels problèmes ont surgi lors de la gestion des loisirs pour enfants ?",
    "Comment les tâches d'organisation ont-elles devenues lourdes ?",
    "Quels facteurs ont contribué au manque de locaux, d'encadrement, d'espace et d'argent pour assurer une bonne organisation des loisirs ?",
    "Pourquoi l'établissement d'une structure de service public a-t-il été une erreur ?",
    "Quels types de réalisations modèles ont été décidés par les C.P.N.G. pour maintenir leur action ?"
  ]
}