{
  "num": "autog_0338-7259_1970_num_13_1",
  "article": "autog_0338-7259_1970_num_13_1_981",
  "page_name": "FMSH_PB188a_13-14_129",
  "questions": [
    "Quels quartiers sont-ils en question ici ?",
    "Quel est le type de population qui habite ces quartiers ?",
    "Quels sont les quatre problèmes qui ont suscité l'action dans ces quartiers ?",
    "Comment les habitants ont-ils été sensibilisés dans chaque quartier ?",
    "Quels types d'associations étaient présentes avant l'arrivée des Comités de quartier ?",
    "Quand et comment les Comités de quartier ont-ils été créés ?",
    "Comment les associations spécialisées ont-elles réagies face au pouvoir avant l'arrivée des Comités de quartier ?",
    "Comment les Comités de quartier ont-ils réussi à rassembler la masse des habitants ?",
    "Quel rôle a joué la prise de conscience des habitants dans la réussite de l'action ?",
    "Quels exemples de prises de conscience peuvent-on citer ?",
    "Quel rôle a joué le Comité Pour Nos Gosses (C.P.N.G.) dans la pression populaire ?",
    "Quel est le rôle de la force de pression populaire face aux pouvoirs publics ?",
    "Quel est l'exemple donné de l'action collective contre l'augmentation du prix du chauffage ?",
    "Est-il possible de parler d'un syndicalisme de l'habitat ?",
    "Quels sont les avantages possibles d'un syndicalisme de l'habitat ?"
  ]
}