{
  "num": "autog_0249-2563_1980_num_13_2",
  "article": "autog_0249-2563_1980_num_13_2_1850",
  "page_name": "autog_0249-2563_1980_num_13_2_T1_0236_0000",
  "questions": [
    "Quels types d'entreprises distinguez-vous dans ce passage ?",
    "Pourquoi les journalistes traditionnels considèrent le contenu des journaux alternatifs comme peu sérieux ?",
    "Quels sont les raisons pour lesquelles les journaux alternatifs ne peuvent pas s'opposer à la bureaucratie et aux méthodes policières de l'État ?",
    "Quels sont les thèmes politiques ou les conflits communautaires sur lesquels les journaux alternatifs permettent de prendre position ?",
    "Comment les journaux alternatifs fonctionnent-ils, particulièrement en termes de structure hiérarchique ?",
    "Quels sont les exemples de journaux alternatifs donnés dans le passage ?",
    "Quel est le tirage de Blatt et quelle est sa tendance politique ?",
    "Comment Blatt attire-t-il des lecteurs et quels services offre-t-il ?",
    "Quel est le fonctionnement de BUG (groupes non organisés de Brême) Info ?",
    "Combien de personnes est rémunérée dans l'équipe de rédaction de Blatt ?",
    "Comment les articles sont-ils sélectionnés et publiés dans BUG (groupes non organisés de Brême) Info ?"
  ]
}