{
  "num": "autog_0249-2563_1980_num_13_2",
  "article": "autog_0249-2563_1980_num_13_2_1850",
  "page_name": "autog_0249-2563_1980_num_13_2_T1_0239_0000",
  "questions": [
    "Quel est le nom de l'institution où se déroule la médiépédagogie Z ?",
    "Quel est le nom du professeur qui enseigne à Hambourg ?",
    "Quels sont les pays où cette médiépédagogie est enseignée ?",
    "Quel est le nom de la méthode utilisée dans cette médiépédagogie ?",
    "Quel est le but de cette médiépédagogie ?",
    "Quel est le rôle de la médaille dans cette médiépédagogie ?",
    "Quel est le nombre d'étudiants qui fréquentent cette médiépédagogie ?",
    "Quel est le lien entre la médiépédagogie et la vidéocouverture ?",
    "En quelles langues est cette médiépédagogie enseignée ?",
    "Quel est l'origine de cette médiépédagogie ?",
    "Quels sont les principaux concepts de cette médiépédagogie ?",
    "Quels sont les outils utilisés dans cette médiépédagogie ?",
    "Quels sont les objectifs pédagogiques de cette médiépédagogie ?",
    "Quels sont les avantages de cette médiépédagogie pour les étudiants ?",
    "Quels sont les défis de cette médiépédagogie pour les enseignants ?",
    "Quels sont les critiques de cette médiépédagogie ?",
    "Quels sont les résultats de recherches sur l'efficacité de cette médiépédagogie ?",
    "Quels sont les perspectives de développement de cette médiépédagogie ?"
  ]
}