{
  "num": "autog_0338-7259_1974_num_26_1",
  "article": "autog_0338-7259_1974_num_26_1_1109",
  "page_name": "FMSH_PB188a_26-27_063",
  "questions": [
    {
      "id_qa": "FMSH_PB188a_26-27_063_qa2_v3",
      "id_block": "block_1",
      "question": "Qui a dressé de magnifiques barricades ?",
      "answer": "Les masses ouvrières",
      "answer_stringIds": [
        "string_120",
        "string_121",
        "string_122"
      ]
    },
    {
      "id_qa": "FMSH_PB188a_26-27_063_qa4_v3",
      "id_block": "block_1",
      "question": "Qui a résisté cinq jours contre l'armée et la police ?",
      "answer": "Les masses ouvrières",
      "answer_stringIds": [
        "string_120",
        "string_121",
        "string_122"
      ]
    },
    {
      "id_qa": "FMSH_PB188a_26-27_063_qa7_v3",
      "id_block": "block_1",
      "question": "Qu'ont construit les masses ouvrières ?",
      "answer": "de magnifiques barricades",
      "answer_stringIds": [
        "string_125",
        "string_126",
        "string_127"
      ]
    },
    {
      "id_qa": "FMSH_PB188a_26-27_063_qa10_v3",
      "id_block": "block_1",
      "question": "Combien de temps les ouvriers se battirent-ils dans les rues ?",
      "answer": "Pendant cinq jours",
      "answer_stringIds": [
        "string_16",
        "string_17",
        "string_18"
      ]
    },
    {
      "id_qa": "FMSH_PB188a_26-27_063_qa11_v3",
      "id_block": "block_1",
      "question": "Qui se battit pendant cinq jours ?",
      "answer": "les ouvriers",
      "answer_stringIds": [
        "string_19",
        "string_20"
      ]
    },
    {
      "id_qa": "FMSH_PB188a_26-27_063_qa12_v3",
      "id_block": "block_1",
      "question": "Où les ouvriers se battirent-ils pendant cinq jours ?",
      "answer": "dans les rues",
      "answer_stringIds": [
        "string_23",
        "string_24",
        "string_25"
      ]
    },
    {
      "id_qa": "FMSH_PB188a_26-27_063_qa14_v3",
      "id_block": "block_1",
      "question": "Qu'ont tenté les masses ouvrières à trois ou quatre reprises ?",
      "answer": "lPattaque",
      "answer_stringIds": [
        "string_49"
      ]
    },
    {
      "id_qa": "FMSH_PB188a_26-27_063_qa15_v3",
      "id_block": "block_1",
      "question": "Où se trouvaient les institutions et le commandement militaire ?",
      "answer": "du centre de la ville",
      "answer_stringIds": [
        "string_50",
        "string_51",
        "string_52",
        "string_53",
        "string_54"
      ]
    },
    {
      "id_qa": "FMSH_PB188a_26-27_063_qa16_v3",
      "id_block": "block_1",
      "question": "Qui a attaqué le centre de la ville ?",
      "answer": "les masses ouvrières",
      "answer_stringIds": [
        "string_45",
        "string_46",
        "string_47"
      ]
    },
    {
      "id_qa": "FMSH_PB188a_26-27_063_qa29_v3",
      "id_block": "block_1",
      "question": "Qui a provoqué l'insurrection ?",
      "answer": "par les agents allemands",
      "answer_stringIds": [
        "string_116",
        "string_117",
        "string_118",
        "string_119"
      ]
    },
    {
      "id_qa": "FMSH_PB188a_26-27_063_qa33_v3",
      "id_block": "block_1",
      "question": "Qu'est ce qui a changé après l'insurrection ?",
      "answer": "le mouvement",
      "answer_stringIds": [
        "string_182",
        "string_183"
      ]
    },
    {
      "id_qa": "FMSH_PB188a_26-27_063_qa34_v3",
      "id_block": "block_1",
      "question": "Combien d'ouvriers tombèrent en combattant ?",
      "answer": "Plus de 500 ouvriers",
      "answer_stringIds": [
        "string_152",
        "string_153",
        "string_154",
        "string_155"
      ]
    },
    {
      "id_qa": "FMSH_PB188a_26-27_063_qa39_v3",
      "id_block": "block_1",
      "question": "Dans quelle ville les meilleurs éléments ouvriers furent-ils arrêtés ?",
      "answer": "de Turin",
      "answer_stringIds": [
        "string_178",
        "string_179"
      ]
    },
    {
      "id_qa": "FMSH_PB188a_26-27_063_qa40_v3",
      "id_block": "block_1",
      "question": "Qu'est ce qui fut arrêté et expuisé de Turin ?",
      "answer": "les meilleurs éléments ouvriers",
      "answer_stringIds": [
        "string_170",
        "string_171",
        "string_172",
        "string_173"
      ]
    },
    {
      "id_qa": "FMSH_PB188a_26-27_063_qa1_v3",
      "id_block": "block_2",
      "question": "Qu'est-ce que l'Union des Coopératives ?",
      "answer": "vaste organisation purement ouvrière",
      "answer_stringIds": [
        "string_226",
        "string_227",
        "string_228",
        "string_229"
      ]
    },
    {
      "id_qa": "FMSH_PB188a_26-27_063_qa21_v3",
      "id_block": "block_2",
      "question": "Quel est le but de la propagande de la section socialiste ?",
      "answer": "les profondeurs des masses ouvrières",
      "answer_stringIds": [
        "string_290",
        "string_291",
        "string_292",
        "string_293",
        "string_294"
      ]
    },
    {
      "id_qa": "FMSH_PB188a_26-27_063_qa30_v3",
      "id_block": "block_2",
      "question": "Quel était le capital de l'Union ?",
      "answer": "des actions des chemins de fer",
      "answer_stringIds": [
        "string_303",
        "string_304",
        "string_305",
        "string_306",
        "string_307",
        "string_308"
      ]
    }
  ]
}