{
  "num": "autog_0338-7259_1974_num_26_1",
  "article": "autog_0338-7259_1974_num_26_1_1109",
  "page_name": "FMSH_PB188a_26-27_069",
  "questions": [
    {
      "id_qa": "FMSH_PB188a_26-27_069_qa1_v3",
      "id_block": "block_1",
      "question": "Qui se refusaient à toute initiative d'action locale ?",
      "answer": "Les camarades du comité du parti",
      "answer_stringIds": [
        "string_23",
        "string_24",
        "string_25",
        "string_26",
        "string_27",
        "string_28"
      ]
    },
    {
      "id_qa": "FMSH_PB188a_26-27_069_qa2_v3",
      "id_block": "block_1",
      "question": "Qu'est ce que le comité central n'a pas fait ?",
      "answer": "autre chose à faire que de donner aux",
      "answer_stringIds": [
        "string_90",
        "string_91",
        "string_92",
        "string_93",
        "string_94",
        "string_95",
        "string_96",
        "string_97"
      ]
    },
    {
      "id_qa": "FMSH_PB188a_26-27_069_qa3_v3",
      "id_block": "block_1",
      "question": "Qui a accepté le projet d'élection des délégués de fabriques ?",
      "answer": "le comité central",
      "answer_stringIds": [
        "string_86",
        "string_87",
        "string_88"
      ]
    },
    {
      "id_qa": "FMSH_PB188a_26-27_069_qa4_v3",
      "id_block": "block_1",
      "question": "Qui a donné aux matériaux ainsi fournis une forme définitive ?",
      "answer": "le comité central",
      "answer_stringIds": [
        "string_86",
        "string_87",
        "string_88"
      ]
    },
    {
      "id_qa": "FMSH_PB188a_26-27_069_qa5_v3",
      "id_block": "block_1",
      "question": "Qui a donné une forme définitive au projet de programme ?",
      "answer": "le comité central",
      "answer_stringIds": [
        "string_86",
        "string_87",
        "string_88"
      ]
    },
    {
      "id_qa": "FMSH_PB188a_26-27_069_qa6_v3",
      "id_block": "block_1",
      "question": "Qu'est ce qui peut être considéré comme purement ouvrier ?",
      "answer": "le mouvement",
      "answer_stringIds": [
        "string_117",
        "string_118"
      ]
    },
    {
      "id_qa": "FMSH_PB188a_26-27_069_qa15_v3",
      "id_block": "block_1",
      "question": "Quand a eu lieu la Conférence des Industriels ?",
      "answer": "au mois de mars",
      "answer_stringIds": [
        "string_237",
        "string_238",
        "string_239",
        "string_240"
      ]
    },
    {
      "id_qa": "FMSH_PB188a_26-27_069_qa16_v3",
      "id_block": "block_1",
      "question": "Qu'est ce qui a eu lieu à Milan au mois de mars ?",
      "answer": "La Conférence des Industriels",
      "answer_stringIds": [
        "string_226",
        "string_227",
        "string_228",
        "string_229",
        "string_230"
      ]
    },
    {
      "id_qa": "FMSH_PB188a_26-27_069_qa17_v3",
      "id_block": "block_1",
      "question": "Qui a élaboré un plan d'attaque ?",
      "answer": "La Conférence des Industriels",
      "answer_stringIds": [
        "string_226",
        "string_227",
        "string_228",
        "string_229",
        "string_230"
      ]
    },
    {
      "id_qa": "FMSH_PB188a_26-27_069_qa18_v3",
      "id_block": "block_1",
      "question": "Où a eu lieu la Conférence des Industriels ?",
      "answer": "à Milan",
      "answer_stringIds": [
        "string_235",
        "string_236"
      ]
    },
    {
      "id_qa": "FMSH_PB188a_26-27_069_qa19_v3",
      "id_block": "block_1",
      "question": "Qui a eu lieu à Milan au mois de mars ?",
      "answer": "La Conférence des Industriels",
      "answer_stringIds": [
        "string_226",
        "string_227",
        "string_228",
        "string_229",
        "string_230"
      ]
    },
    {
      "id_qa": "FMSH_PB188a_26-27_069_qa21_v3",
      "id_block": "block_1",
      "question": "Qui a été mis dans la nécessité de lutter seul ?",
      "answer": "Le prolétariat de Turin",
      "answer_stringIds": [
        "string_266",
        "string_267",
        "string_268",
        "string_269"
      ]
    },
    {
      "id_qa": "FMSH_PB188a_26-27_069_qa22_v3",
      "id_block": "block_1",
      "question": "Quel est le nom du prolétariat abandonné de tous ?",
      "answer": "Le prolétariat de Turin",
      "answer_stringIds": [
        "string_266",
        "string_267",
        "string_268",
        "string_269"
      ]
    },
    {
      "id_qa": "FMSH_PB188a_26-27_069_qa25_v3",
      "id_block": "block_1",
      "question": "Quel mouvement fut ridiculisé et vivement discuté ?",
      "answer": "Le mouvement de Turin",
      "answer_stringIds": [
        "string_173",
        "string_174",
        "string_175",
        "string_176"
      ]
    },
    {
      "id_qa": "FMSH_PB188a_26-27_069_qa26_v3",
      "id_block": "block_1",
      "question": "Quel mouvement fut ridiculisé, dénigré et vivement discuté ?",
      "answer": "Le mouvement de Turin",
      "answer_stringIds": [
        "string_173",
        "string_174",
        "string_175",
        "string_176"
      ]
    },
    {
      "id_qa": "FMSH_PB188a_26-27_069_qa29_v3",
      "id_block": "block_1",
      "question": "Qui commença la série des provocations ?",
      "answer": "les capitalistes",
      "answer_stringIds": [
        "string_336",
        "string_337"
      ]
    },
    {
      "id_qa": "FMSH_PB188a_26-27_069_qa32_v3",
      "id_block": "block_1",
      "question": "Qu'est-ce qui est révolutionnaire ?",
      "answer": "à tenir les foules ouvrières en tutelle",
      "answer_stringIds": [
        "string_12",
        "string_13",
        "string_14",
        "string_15",
        "string_16",
        "string_17",
        "string_18"
      ]
    },
    {
      "id_qa": "FMSH_PB188a_26-27_069_qa33_v3",
      "id_block": "block_1",
      "question": "A qui les critiques des organes centraux des syndicats et du Parti Socialiste donnèrent-elles quelque audace ?",
      "answer": "aux capitalistes qui",
      "answer_stringIds": [
        "string_199",
        "string_200",
        "string_201"
      ]
    },
    {
      "id_qa": "FMSH_PB188a_26-27_069_qa34_v3",
      "id_block": "block_1",
      "question": "Quelles sont les causes des attaques du prolétariat de Turin ?",
      "answer": "Les vives attaques des organes centraux des syndicats et du Parti Socialiste",
      "answer_stringIds": [
        "string_184",
        "string_185",
        "string_186",
        "string_187",
        "string_188",
        "string_189",
        "string_190",
        "string_191",
        "string_192",
        "string_193",
        "string_194",
        "string_195"
      ]
    },
    {
      "id_qa": "FMSH_PB188a_26-27_069_qa37_v3",
      "id_block": "block_1",
      "question": "Qui s'opposa aux attaques des organes centraux des syndicats et du Parti Socialiste ?",
      "answer": "aux capitalistes",
      "answer_stringIds": [
        "string_199",
        "string_200"
      ]
    }
  ]
}