{
  "num": "autog_0249-2563_1980_num_13_2",
  "article": "autog_0249-2563_1980_num_13_2_1383_t1_0368_0000_5",
  "page_name": "autog_0249-2563_1980_num_13_2_T1_0368_0000",
  "questions": [
    {
      "id_qa": "autog_0249-2563_1980_num_13_2_T1_0368_0000_qa1_v3",
      "id_block": "block_1",
      "question": "Où l'ingénieur d'étude doit-il apprendre ses leçons ?",
      "answer": "chez les contrôleurs",
      "answer_stringIds": [
        "string_16",
        "string_17",
        "string_18"
      ]
    },
    {
      "id_qa": "autog_0249-2563_1980_num_13_2_T1_0368_0000_qa45_v3",
      "id_block": "block_4",
      "question": "Qui se lance sur le thème de l'autogestion ?",
      "answer": "la CGT",
      "answer_stringIds": [
        "string_89",
        "string_90"
      ]
    },
    {
      "id_qa": "autog_0249-2563_1980_num_13_2_T1_0368_0000_qa27_v3",
      "id_block": "block_5",
      "question": "Qu'est-ce que le travail informatique ?",
      "answer": "un travail de spécialiste",
      "answer_stringIds": [
        "string_218",
        "string_219",
        "string_220",
        "string_221"
      ]
    },
    {
      "id_qa": "autog_0249-2563_1980_num_13_2_T1_0368_0000_qa48_v3",
      "id_block": "block_5",
      "question": "Qui contrôle la justesse d'application d'un traitement ?",
      "answer": "des spécialistes",
      "answer_stringIds": [
        "string_225",
        "string_226"
      ]
    },
    {
      "id_qa": "autog_0249-2563_1980_num_13_2_T1_0368_0000_qa75_v3",
      "id_block": "block_7",
      "question": "Qu'est-ce qui est cité dans le texte ?",
      "answer": "Options",
      "answer_stringIds": [
        "string_56"
      ]
    },
    {
      "id_qa": "autog_0249-2563_1980_num_13_2_T1_0368_0000_qa13_v3",
      "id_block": "block_9",
      "question": "Qui est responsable de la crise des rapports de travail ?",
      "answer": "les ouvriers",
      "answer_stringIds": [
        "string_303",
        "string_304"
      ]
    },
    {
      "id_qa": "autog_0249-2563_1980_num_13_2_T1_0368_0000_qa16_v3",
      "id_block": "block_9",
      "question": "Que voit naître la crise des rapports de travail ?",
      "answer": "une sorte de « compromis historique » entre les ouvriers et les catégories qui commandent aux ouvriers patrons exceptés",
      "answer_stringIds": [
        "string_295",
        "string_296",
        "string_297",
        "string_298",
        "string_299",
        "string_300",
        "string_301",
        "string_302",
        "string_303",
        "string_304",
        "string_305",
        "string_306",
        "string_307",
        "string_308",
        "string_309",
        "string_310",
        "string_311",
        "string_313",
        "string_314"
      ]
    },
    {
      "id_qa": "autog_0249-2563_1980_num_13_2_T1_0368_0000_qa33_v3",
      "id_block": "block_9",
      "question": "Qu'est-ce que promouvoir sur les lieux de travail ?",
      "answer": "une coopération entre dirigeants et exécutants",
      "answer_stringIds": [
        "string_281",
        "string_282",
        "string_283",
        "string_284",
        "string_285",
        "string_286"
      ]
    },
    {
      "id_qa": "autog_0249-2563_1980_num_13_2_T1_0368_0000_qa58_v3",
      "id_block": "block_9",
      "question": "Qui publie la revue Alliance dans l'entreprise ?",
      "answer": "Le comité central du PCF",
      "answer_stringIds": [
        "string_255",
        "string_256",
        "string_257",
        "string_258",
        "string_259"
      ]
    },
    {
      "id_qa": "autog_0249-2563_1980_num_13_2_T1_0368_0000_qa72_v3",
      "id_block": "block_9",
      "question": "Qu'est ce que l'on offre aux ouvriers ?",
      "answer": "cette nouvelle participation",
      "answer_stringIds": [
        "string_329",
        "string_330",
        "string_331"
      ]
    }
  ]
}