{
  "num": "autog_0338-7259_1975_num_32_1",
  "article": "autog_0338-7259_1975_num_32_1_1144",
  "page_name": "FMSH_PB188a_00032_105",
  "questions": [
    {
      "id_qa": "FMSH_PB188a_00032_105_qa24_v3",
      "id_block": "block_2",
      "question": "Qui reçoit le mandat de traiter au niveau macro-politique ?",
      "answer": "les délégués des unités autogérées",
      "answer_stringIds": [
        "string_78",
        "string_79",
        "string_80",
        "string_81",
        "string_82"
      ]
    },
    {
      "id_qa": "FMSH_PB188a_00032_105_qa26_v3",
      "id_block": "block_2",
      "question": "Qui a le mandat de traiter au niveau macro-politique ?",
      "answer": "les délégués des unités autogérées",
      "answer_stringIds": [
        "string_78",
        "string_79",
        "string_80",
        "string_81",
        "string_82"
      ]
    },
    {
      "id_qa": "FMSH_PB188a_00032_105_qa27_v3",
      "id_block": "block_2",
      "question": "Qu'est ce qui disparaît au bénéfice du principe de représentations ?",
      "answer": "le principe de délégation",
      "answer_stringIds": [
        "string_98",
        "string_99",
        "string_100",
        "string_101"
      ]
    },
    {
      "id_qa": "FMSH_PB188a_00032_105_qa31_v3",
      "id_block": "block_2",
      "question": "D'où vient la plupart des besoins locaux ?",
      "answer": "un point de vue national",
      "answer_stringIds": [
        "string_70",
        "string_71",
        "string_72",
        "string_73",
        "string_74"
      ]
    },
    {
      "id_qa": "FMSH_PB188a_00032_105_qa32_v3",
      "id_block": "block_2",
      "question": "Qu'est-ce qui est sacrifié dans une économie de rareté ?",
      "answer": "un autre besoin local",
      "answer_stringIds": [
        "string_50",
        "string_51",
        "string_52",
        "string_53"
      ]
    },
    {
      "id_qa": "FMSH_PB188a_00032_105_qa33_v3",
      "id_block": "block_2",
      "question": "Que risque la satisfaction préférentielle d'un besoin local ?",
      "answer": "voir sacrifier un autre besoin local",
      "answer_stringIds": [
        "string_48",
        "string_49",
        "string_50",
        "string_51",
        "string_52",
        "string_53"
      ]
    },
    {
      "id_qa": "FMSH_PB188a_00032_105_qa37_v3",
      "id_block": "block_4",
      "question": "Qui participe aux décisions de l'Assemblée ?",
      "answer": "les délégués",
      "answer_stringIds": [
        "string_78",
        "string_79"
      ]
    },
    {
      "id_qa": "FMSH_PB188a_00032_105_qa18_v3",
      "id_block": "block_6",
      "question": "Avec quoi les organismes d'autogestion doivent-ils se prononcer ?",
      "answer": "se prononcer aussi en conformité avec les intérêts et les besoins sociaux communs et généraux",
      "answer_stringIds": [
        "string_179",
        "string_180",
        "string_181",
        "string_182",
        "string_183",
        "string_184",
        "string_185",
        "string_186",
        "string_187",
        "string_188",
        "string_189",
        "string_190",
        "string_191",
        "string_192",
        "string_193"
      ]
    },
    {
      "id_qa": "FMSH_PB188a_00032_105_qa23_v3",
      "id_block": "block_7",
      "question": "Quelle est la spécificité du système yougoslave ?",
      "answer": "parti unique et autoges",
      "answer_stringIds": [
        "string_219",
        "string_220",
        "string_221",
        "string_222"
      ]
    },
    {
      "id_qa": "FMSH_PB188a_00032_105_qa6_v3",
      "id_block": "block_9",
      "question": "Qu'est-ce qui introduit le changement essentiel dans la constitution de la République fédérale yougoslave ?",
      "answer": "par le système de délégation",
      "answer_stringIds": [
        "string_267",
        "string_268",
        "string_269",
        "string_270",
        "string_271",
        "string_272"
      ]
    },
    {
      "id_qa": "FMSH_PB188a_00032_105_qa10_v3",
      "id_block": "block_9",
      "question": "Quel est le nom du système de délégation ?",
      "answer": "le concept yougoslave de délégation",
      "answer_stringIds": [
        "string_226",
        "string_227",
        "string_228",
        "string_229",
        "string_230"
      ]
    }
  ]
}