{
  "num": "autog_0338-7259_1975_num_32_1",
  "article": "autog_0338-7259_1975_num_32_1_1144",
  "page_name": "FMSH_PB188a_00032_100",
  "questions": [
    {
      "id_qa": "FMSH_PB188a_00032_100_qa26_v3",
      "id_block": "block_1",
      "question": "Qu'est ce qui est indépendant de l'Etat ?",
      "answer": "unités économiques",
      "answer_stringIds": [
        "string_20",
        "string_21"
      ]
    },
    {
      "id_qa": "FMSH_PB188a_00032_100_qa0_v3",
      "id_block": "block_2",
      "question": "Qu'est ce qui doit être libéré de l'Etat ?",
      "answer": "le travailleur",
      "answer_stringIds": [
        "string_196",
        "string_197"
      ]
    },
    {
      "id_qa": "FMSH_PB188a_00032_100_qa12_v3",
      "id_block": "block_2",
      "question": "Vers quoi nous nous tournons-nous ?",
      "answer": "vers le système autogestionnaire",
      "answer_stringIds": [
        "string_61",
        "string_62",
        "string_63",
        "string_64"
      ]
    },
    {
      "id_qa": "FMSH_PB188a_00032_100_qa13_v3",
      "id_block": "block_2",
      "question": "Quelle était la question principale à l'époque de Marx ?",
      "answer": "comment libérer le travailleur du capitalisme",
      "answer_stringIds": [
        "string_194",
        "string_195",
        "string_196",
        "string_197",
        "string_198",
        "string_199"
      ]
    },
    {
      "id_qa": "FMSH_PB188a_00032_100_qa14_v3",
      "id_block": "block_2",
      "question": "Qui suggère que la question principale à l'époque de Marx était de libérer le travailleur du capitalisme ?",
      "answer": "le professeur Vanek",
      "answer_stringIds": [
        "string_180",
        "string_181",
        "string_182"
      ]
    },
    {
      "id_qa": "FMSH_PB188a_00032_100_qa16_v3",
      "id_block": "block_2",
      "question": "Quelle est la question principale à l'époque de Marx ?",
      "answer": "le travailleur du capitalisme",
      "answer_stringIds": [
        "string_196",
        "string_197",
        "string_198",
        "string_199"
      ]
    },
    {
      "id_qa": "FMSH_PB188a_00032_100_qa17_v3",
      "id_block": "block_2",
      "question": "Dans quel pays se trouve le régime autogérée pluraliste ?",
      "answer": "Le régime yougoslave",
      "answer_stringIds": [
        "string_85",
        "string_86",
        "string_87"
      ]
    },
    {
      "id_qa": "FMSH_PB188a_00032_100_qa18_v3",
      "id_block": "block_2",
      "question": "Quel régime a essayé d'ajuster la superstructure politique à l'infrastructure économique ?",
      "answer": "Le régime yougoslave",
      "answer_stringIds": [
        "string_85",
        "string_86",
        "string_87"
      ]
    },
    {
      "id_qa": "FMSH_PB188a_00032_100_qa19_v3",
      "id_block": "block_2",
      "question": "Qu'est-ce qui est libéré de son comportement de capitaliste collectif ?",
      "answer": "le travailleur",
      "answer_stringIds": [
        "string_196",
        "string_197"
      ]
    },
    {
      "id_qa": "FMSH_PB188a_00032_100_qa25_v3",
      "id_block": "block_2",
      "question": "Qu'est ce qui contredit les cadres formels, constitutionnels des institutions économiques et politiques ?",
      "answer": "le pouvoir informel du parti",
      "answer_stringIds": [
        "string_131",
        "string_132",
        "string_133",
        "string_134",
        "string_135"
      ]
    },
    {
      "id_qa": "FMSH_PB188a_00032_100_qa23_v3",
      "id_block": "block_3",
      "question": "Sur quoi repose l'autogestion ?",
      "answer": "sur un type de relations horizontales",
      "answer_stringIds": [
        "string_316",
        "string_317",
        "string_318",
        "string_319",
        "string_320",
        "string_321"
      ]
    }
  ]
}