{
  "num": "autog_0005-0970_1966_num_1_1",
  "article": "autog_0005-0970_1966_num_1_1_886",
  "page_name": "FMSH_PB188a_00001_067",
  "questions": [
    {
      "id_qa": "FMSH_PB188a_00001_067_qa0_v3",
      "id_block": "block_1",
      "question": "Qui veut mettre en autogestion les entreprises abandonnées par la bourgeoisie ?",
      "answer": "les ouvriers",
      "answer_stringIds": [
        "string_47",
        "string_48"
      ]
    },
    {
      "id_qa": "FMSH_PB188a_00001_067_qa1_v3",
      "id_block": "block_1",
      "question": "Que veulent mettre en place les ouvriers sous la Commune ?",
      "answer": "mettre en autogestion les entreprises abandonnées par la bourgeoisie versaillaise",
      "answer_stringIds": [
        "string_50",
        "string_51",
        "string_52",
        "string_53",
        "string_54",
        "string_55",
        "string_56",
        "string_57",
        "string_58",
        "string_59"
      ]
    },
    {
      "id_qa": "FMSH_PB188a_00001_067_qa2_v3",
      "id_block": "block_1",
      "question": "Par qui les ouvriers veulent-ils mettre en autogestion ?",
      "answer": "les entreprises abandonnées par la bourgeoisie versaillaise",
      "answer_stringIds": [
        "string_53",
        "string_54",
        "string_55",
        "string_56",
        "string_57",
        "string_58",
        "string_59"
      ]
    },
    {
      "id_qa": "FMSH_PB188a_00001_067_qa6_v3",
      "id_block": "block_1",
      "question": "Que veulent mettre en autogestion les ouvriers sous la Commune ?",
      "answer": "les entreprises",
      "answer_stringIds": [
        "string_53",
        "string_54"
      ]
    },
    {
      "id_qa": "FMSH_PB188a_00001_067_qa29_v3",
      "id_block": "block_1",
      "question": "Où le peuple prend-il en mains après le 18 mars ?",
      "answer": "la gestion de ses affaires dans les quartiers ainsi qu'",
      "answer_stringIds": [
        "string_31",
        "string_32",
        "string_33",
        "string_34",
        "string_35",
        "string_36",
        "string_37",
        "string_38",
        "string_39",
        "string_40"
      ]
    },
    {
      "id_qa": "FMSH_PB188a_00001_067_qa30_v3",
      "id_block": "block_1",
      "question": "Qui prend en mains la gestion de ses affaires dans les quartiers ?",
      "answer": "le peuple",
      "answer_stringIds": [
        "string_26",
        "string_27"
      ]
    },
    {
      "id_qa": "FMSH_PB188a_00001_067_qa33_v3",
      "id_block": "block_1",
      "question": "Que reste-t-il en dehors de Paris ?",
      "answer": "les rapports de production capitalistes",
      "answer_stringIds": [
        "string_89",
        "string_90",
        "string_91",
        "string_92",
        "string_93"
      ]
    },
    {
      "id_qa": "FMSH_PB188a_00001_067_qa44_v3",
      "id_block": "block_1",
      "question": "Qui prévoit une autogestion ou cogestion ?",
      "answer": "Theisz",
      "answer_stringIds": [
        "string_70"
      ]
    },
    {
      "id_qa": "FMSH_PB188a_00001_067_qa45_v3",
      "id_block": "block_1",
      "question": "Dans quelle région Theisz prévoit-il une autogestion ou cogestion ?",
      "answer": "Dans les P.T.T.",
      "answer_stringIds": [
        "string_67",
        "string_68",
        "string_69"
      ]
    },
    {
      "id_qa": "FMSH_PB188a_00001_067_qa46_v3",
      "id_block": "block_1",
      "question": "Qu'est-ce que Theisz prévoit ?",
      "answer": "une autogestion ou cogestion",
      "answer_stringIds": [
        "string_72",
        "string_73",
        "string_74",
        "string_75",
        "string_76"
      ]
    },
    {
      "id_qa": "FMSH_PB188a_00001_067_qa10_v3",
      "id_block": "block_2",
      "question": "Qui a écrit le mot d'ordre : « Tout le pouvoir aux Soviets » ?",
      "answer": "que Lénine",
      "answer_stringIds": [
        "string_182",
        "string_183"
      ]
    },
    {
      "id_qa": "FMSH_PB188a_00001_067_qa14_v3",
      "id_block": "block_2",
      "question": "Qu'est-ce que les Soviets ?",
      "answer": "leurs intérêts",
      "answer_stringIds": [
        "string_222",
        "string_223"
      ]
    },
    {
      "id_qa": "FMSH_PB188a_00001_067_qa12_v3",
      "id_block": "block_2",
      "question": "Qui proclame le mot d'ordre : « Tout le pouvoir aux Soviets » ?",
      "answer": "Lénine",
      "answer_stringIds": [
        "string_183"
      ]
    },
    {
      "id_qa": "FMSH_PB188a_00001_067_qa13_v3",
      "id_block": "block_2",
      "question": "Quel était le mot d'ordre de Lénine ?",
      "answer": "Tout le pouvoir aux Soviets",
      "answer_stringIds": [
        "string_191",
        "string_192",
        "string_193",
        "string_194",
        "string_195"
      ]
    },
    {
      "id_qa": "FMSH_PB188a_00001_067_qa15_v3",
      "id_block": "block_2",
      "question": "Quelle est la nationalité des entreprises capitalistes ?",
      "answer": "une bourgoisie",
      "answer_stringIds": [
        "string_149",
        "string_150"
      ]
    },
    {
      "id_qa": "FMSH_PB188a_00001_067_qa16_v3",
      "id_block": "block_2",
      "question": "Quelle est la nationalité de l'entreprise capitaliste ?",
      "answer": "une bourgoisie",
      "answer_stringIds": [
        "string_149",
        "string_150"
      ]
    },
    {
      "id_qa": "FMSH_PB188a_00001_067_qa19_v3",
      "id_block": "block_2",
      "question": "Qui rejoint dans cette situation une bourgoisie mal établie ?",
      "answer": "les entreprises capitalistes",
      "answer_stringIds": [
        "string_146",
        "string_147",
        "string_148"
      ]
    },
    {
      "id_qa": "FMSH_PB188a_00001_067_qa7_v3",
      "id_block": "block_3",
      "question": "Où s'installe l'autogestion ?",
      "answer": "les domaines",
      "answer_stringIds": [
        "string_270",
        "string_271"
      ]
    },
    {
      "id_qa": "FMSH_PB188a_00001_067_qa8_v3",
      "id_block": "block_3",
      "question": "Par qui est abandonnée l'autogestion ?",
      "answer": "par les colons",
      "answer_stringIds": [
        "string_273",
        "string_274",
        "string_275"
      ]
    },
    {
      "id_qa": "FMSH_PB188a_00001_067_qa20_v3",
      "id_block": "block_3",
      "question": "Qu'est ce qui met en question la société entière ?",
      "answer": "les appareils",
      "answer_stringIds": [
        "string_284",
        "string_285",
        "string_286"
      ]
    },
    {
      "id_qa": "FMSH_PB188a_00001_067_qa39_v3",
      "id_block": "block_4",
      "question": "Où se situe la vie rurale des régions ?",
      "answer": "au sud de la Loire",
      "answer_stringIds": [
        "string_335",
        "string_336",
        "string_337",
        "string_338",
        "string_339"
      ]
    },
    {
      "id_qa": "FMSH_PB188a_00001_067_qa41_v3",
      "id_block": "block_4",
      "question": "Qu'est ce qui ne peut s'émettre qu'avec une extrême prudence ?",
      "answer": "De telles affirmations",
      "answer_stringIds": [
        "string_355",
        "string_356",
        "string_357"
      ]
    },
    {
      "id_qa": "FMSH_PB188a_00001_067_qa23_v3",
      "id_block": "block_5",
      "question": "Que supposerait l'oeuvre d'intégration à laquelle s'emploient les institutions ?",
      "answer": "achevée",
      "answer_stringIds": [
        "string_470"
      ]
    },
    {
      "id_qa": "FMSH_PB188a_00001_067_qa24_v3",
      "id_block": "block_5",
      "question": "Qui insistait sur les caractères de précarité et d'équilibre momentané ?",
      "answer": "Georges Gurvitch",
      "answer_stringIds": [
        "string_466",
        "string_467"
      ]
    },
    {
      "id_qa": "FMSH_PB188a_00001_067_qa25_v3",
      "id_block": "block_5",
      "question": "Qu'est ce qui ôterait à la situation les caractères de précarité et d'équilibre momentané ?",
      "answer": "Une représentation unitaire",
      "answer_stringIds": [
        "string_444",
        "string_445",
        "string_446"
      ]
    },
    {
      "id_qa": "FMSH_PB188a_00001_067_qa27_v3",
      "id_block": "block_5",
      "question": "A quoi est impossible d'attribuer un caractère définitif ?",
      "answer": "à cette cohésion",
      "answer_stringIds": [
        "string_420",
        "string_421",
        "string_422"
      ]
    },
    {
      "id_qa": "FMSH_PB188a_00001_067_qa34_v3",
      "id_block": "block_5",
      "question": "Qu'est-ce qui a ses défaillances et insuffisances ?",
      "answer": "toute société",
      "answer_stringIds": [
        "string_506",
        "string_507"
      ]
    },
    {
      "id_qa": "FMSH_PB188a_00001_067_qa35_v3",
      "id_block": "block_5",
      "question": "Qu'est-ce qu'une cohésion ou cohérence globale ?",
      "answer": "une armature ou structure",
      "answer_stringIds": [
        "string_403",
        "string_404",
        "string_405",
        "string_406"
      ]
    },
    {
      "id_qa": "FMSH_PB188a_00001_067_qa36_v3",
      "id_block": "block_5",
      "question": "Qu'est ce qui a une armature ou structure ?",
      "answer": "Toute société",
      "answer_stringIds": [
        "string_400",
        "string_401"
      ]
    }
  ]
}