{
  "num": "autog_0249-2563_1980_num_13_4",
  "article": "autog_0249-2563_1980_num_13_4_1389",
  "page_name": "autog_0249-2563_1980_num_13_4_T1_0429_0000",
  "questions": [
    {
      "id_qa": "autog_0249-2563_1980_num_13_4_T1_0429_0000_qa15_v3",
      "id_block": "block_1",
      "question": "Qui a abandonné les crédits bancaires et facilités de trésorerie ?",
      "answer": "les entreprises",
      "answer_stringIds": [
        "string_12",
        "string_13"
      ]
    },
    {
      "id_qa": "autog_0249-2563_1980_num_13_4_T1_0429_0000_qa0_v3",
      "id_block": "block_2",
      "question": "Qu'est ce qui ne se rompent pas dans une entreprise autogestionnaire ?",
      "answer": "les déformations et contradictions",
      "answer_stringIds": [
        "string_75",
        "string_76",
        "string_77",
        "string_78"
      ]
    },
    {
      "id_qa": "autog_0249-2563_1980_num_13_4_T1_0429_0000_qa2_v3",
      "id_block": "block_2",
      "question": "Qui a une conscience plus développée que les travailleurs des autres secteurs ?",
      "answer": "les membres des EAT",
      "answer_stringIds": [
        "string_54",
        "string_55",
        "string_56",
        "string_57"
      ]
    },
    {
      "id_qa": "autog_0249-2563_1980_num_13_4_T1_0429_0000_qa4_v3",
      "id_block": "block_2",
      "question": "Qui analyse les expériences des travailleurs des autres secteurs ?",
      "answer": "les membres des EAT",
      "answer_stringIds": [
        "string_54",
        "string_55",
        "string_56",
        "string_57"
      ]
    },
    {
      "id_qa": "autog_0249-2563_1980_num_13_4_T1_0429_0000_qa24_v3",
      "id_block": "block_2",
      "question": "Qu'est ce qui n'a pas été atteint ici ?",
      "answer": "cette participation",
      "answer_stringIds": [
        "string_181",
        "string_182"
      ]
    },
    {
      "id_qa": "autog_0249-2563_1980_num_13_4_T1_0429_0000_qa25_v3",
      "id_block": "block_3",
      "question": "Qu'est ce qui intervient au sein de l'entreprise ?",
      "answer": "Cette interaction",
      "answer_stringIds": [
        "string_203",
        "string_204"
      ]
    },
    {
      "id_qa": "autog_0249-2563_1980_num_13_4_T1_0429_0000_qa7_v3",
      "id_block": "block_4",
      "question": "Qui s'efforce de développer des actions communes ?",
      "answer": "le CEAT",
      "answer_stringIds": [
        "string_247",
        "string_248"
      ]
    },
    {
      "id_qa": "autog_0249-2563_1980_num_13_4_T1_0429_0000_qa9_v3",
      "id_block": "block_4",
      "question": "Qu'est-ce que le CEAT cherche à développer ?",
      "answer": "développer des actions communes",
      "answer_stringIds": [
        "string_251",
        "string_252",
        "string_253",
        "string_254"
      ]
    },
    {
      "id_qa": "autog_0249-2563_1980_num_13_4_T1_0429_0000_qa10_v3",
      "id_block": "block_4",
      "question": "Qu'est ce que le CEAT cherche à développer ?",
      "answer": "des actions communes",
      "answer_stringIds": [
        "string_252",
        "string_253",
        "string_254"
      ]
    },
    {
      "id_qa": "autog_0249-2563_1980_num_13_4_T1_0429_0000_qa12_v3",
      "id_block": "block_4",
      "question": "Qu'assure ce centre à sept entreprises ?",
      "answer": "une formation administrative",
      "answer_stringIds": [
        "string_314",
        "string_315",
        "string_316"
      ]
    },
    {
      "id_qa": "autog_0249-2563_1980_num_13_4_T1_0429_0000_qa19_v3",
      "id_block": "block_4",
      "question": "Que permet l'installation d'une « Chambre de Commerce » des entreprises autogestionnaires ?",
      "answer": "une coordination inter-entreprise",
      "answer_stringIds": [
        "string_336",
        "string_337",
        "string_338"
      ]
    },
    {
      "id_qa": "autog_0249-2563_1980_num_13_4_T1_0429_0000_qa20_v3",
      "id_block": "block_4",
      "question": "Qu'est ce qui permet une coordination inter-entreprise ?",
      "answer": "une « Chambre de Commerce » des entreprises autogestionnaires",
      "answer_stringIds": [
        "string_325",
        "string_326",
        "string_327",
        "string_328",
        "string_329",
        "string_330",
        "string_331",
        "string_332",
        "string_333"
      ]
    }
  ]
}