{
  "num": "autog_0249-2563_1984_num_17_15",
  "article": "autog_0249-2563_1984_num_17_15_1578_t1_0072_0000_3",
  "page_name": "autog_0249-2563_1984_num_17_15_T1_0072_0000",
  "questions": [
    "Quel est le message d'Ivan Levaï sur la dictature de l'amour dans le contexte de la presse ?",
    "Quels sont les pays d'Est mentionnés dans le texte et quels sont les imprécations de Yves Montand envers eux ?",
    "Quel est l'opinion de la téléspectatrice sur l'âge des femmes et la société ?",
    "De quels intellectuels en perdition parle le texte et quels sont les reproches formulés contre eux ?",
    "Quels sont les positions des intellectuels critiqués sur le stalinisme et ses crimes ?",
    "Quel jugement est porté sur la politique soviétique de répression intérieure et extérieure ?",
    "Quel est le ton du texte envers ces intellectuels ?",
    "Quels sont les auteurs de la pétition et quels sont leurs positions politiques ?",
    "Comment les femmes forment leur opinion politique ?",
    "Quels sont les termes choquants utilisés dans le texte et quels sont leurs connotations ?"
  ]
}