{
  "num": "autog_0249-2563_1983_num_16_14",
  "article": "autog_0249-2563_1983_num_16_14_1566_t1_0112_0000_1",
  "page_name": "autog_0249-2563_1983_num_16_14_T1_0113_0000",
  "questions": [
    {
      "id_qa": "autog_0249-2563_1983_num_16_14_T1_0113_0000_qa1_v3",
      "id_block": "block_0",
      "question": "Qu'est ce qui s'est passé aux Amériques ?",
      "answer": "des projets",
      "answer_stringIds": [
        "string_6",
        "string_7"
      ]
    },
    {
      "id_qa": "autog_0249-2563_1983_num_16_14_T1_0113_0000_qa16_v3",
      "id_block": "block_0",
      "question": "Qu'est ce qui venait juste de sortir ?",
      "answer": "un ouvrage",
      "answer_stringIds": [
        "string_49",
        "string_50"
      ]
    },
    {
      "id_qa": "autog_0249-2563_1983_num_16_14_T1_0113_0000_qa23_v3",
      "id_block": "block_0",
      "question": "Qui a écrit ces textes ?",
      "answer": "S. Proulx et P. Valliéres",
      "answer_stringIds": [
        "string_71",
        "string_72",
        "string_73",
        "string_74",
        "string_75"
      ]
    },
    {
      "id_qa": "autog_0249-2563_1983_num_16_14_T1_0113_0000_qa25_v3",
      "id_block": "block_0",
      "question": "Que n'a pas appris S. Proulx et P. Valliéres ?",
      "answer": "grand-chose",
      "answer_stringIds": [
        "string_93"
      ]
    },
    {
      "id_qa": "autog_0249-2563_1983_num_16_14_T1_0113_0000_qa26_v3",
      "id_block": "block_0",
      "question": "Qu'est ce qui est passé sous silence sauf allusions ?",
      "answer": "Le présent mal",
      "answer_stringIds": [
        "string_98",
        "string_99",
        "string_100"
      ]
    },
    {
      "id_qa": "autog_0249-2563_1983_num_16_14_T1_0113_0000_qa27_v3",
      "id_block": "block_0",
      "question": "Qu'est ce qui est passé sous silence ?",
      "answer": "Le présent mal identifié",
      "answer_stringIds": [
        "string_98",
        "string_99",
        "string_100",
        "string_101"
      ]
    },
    {
      "id_qa": "autog_0249-2563_1983_num_16_14_T1_0113_0000_qa2_v3",
      "id_block": "block_1",
      "question": "Qu'est ce qui irrigue le réseau d'alimentation naturelle ?",
      "answer": "de larges morceaux de la vie alternative",
      "answer_stringIds": [
        "string_285",
        "string_286",
        "string_287",
        "string_288",
        "string_289",
        "string_290",
        "string_291"
      ]
    },
    {
      "id_qa": "autog_0249-2563_1983_num_16_14_T1_0113_0000_qa4_v3",
      "id_block": "block_1",
      "question": "Qu'est ce qui est aujourd'hui disparu ?",
      "answer": "un café",
      "answer_stringIds": [
        "string_221",
        "string_222"
      ]
    },
    {
      "id_qa": "autog_0249-2563_1983_num_16_14_T1_0113_0000_qa8_v3",
      "id_block": "block_1",
      "question": "Qu'est-ce que le plaisir ?",
      "answer": "le principe de réalité",
      "answer_stringIds": [
        "string_194",
        "string_195",
        "string_196",
        "string_197"
      ]
    },
    {
      "id_qa": "autog_0249-2563_1983_num_16_14_T1_0113_0000_qa11_v3",
      "id_block": "block_1",
      "question": "Qu'est-ce que le parti pris de dérouler maintenant ?",
      "answer": "un long fil de dispositifs",
      "answer_stringIds": [
        "string_176",
        "string_177",
        "string_178",
        "string_179",
        "string_180"
      ]
    },
    {
      "id_qa": "autog_0249-2563_1983_num_16_14_T1_0113_0000_qa21_v3",
      "id_block": "block_2",
      "question": "Dans quel pays j'étais venu pour écrire un livre sur les chemins de l'alternative ?",
      "answer": "au Québec",
      "answer_stringIds": [
        "string_64",
        "string_65"
      ]
    },
    {
      "id_qa": "autog_0249-2563_1983_num_16_14_T1_0113_0000_qa22_v3",
      "id_block": "block_2",
      "question": "Qu'est ce qui me confirmait dans le projet pour lequel j'étais venu au Québec ?",
      "answer": "Tout cela",
      "answer_stringIds": [
        "string_339",
        "string_340"
      ]
    },
    {
      "id_qa": "autog_0249-2563_1983_num_16_14_T1_0113_0000_qa28_v3",
      "id_block": "block_5",
      "question": "Qu'est ce qui sera publié dans le prochain numéro d'Autogestions ?",
      "answer": "Des informations plus précises",
      "answer_stringIds": [
        "string_438",
        "string_439",
        "string_440",
        "string_441"
      ]
    }
  ]
}