{
  "num": "autog_0338-7259_1972_num_18_1",
  "article": "autog_0338-7259_1972_num_18_1_1043",
  "page_name": "FMSH_PB188a_18-19_202",
  "questions": [
    "Quels sont les partisans de quelle position en matière de la Révolution sociale ?",
    "Quel est le point de départ de leur position ?",
    "Quel est leur raisonnement pour justifier cette position ?",
    "Quels sont les artisans et les créateurs de la Révolution sociale selon eux ?",
    "Quels biens de production refusent-ils que les travailleurs soient les seuls à posséder ?",
    "Quels types d'organisations sociales envisagent-ils pour le futur ?",
    "Quelle est la seconde position erronée de la Révolution sociale selon eux ?",
    "Quels groupes sont inclus dans le principe de la production selon eux ?",
    "Comment peuvent les personnes qui ne participent pas activement au travail social s'organiser ?"
  ]
}