{
  "num": "autog_0249-2563_1980_num_13_2",
  "article": "autog_0249-2563_1980_num_13_2_1380",
  "page_name": "autog_0249-2563_1980_num_13_2_T1_0355_0000",
  "questions": [
    {
      "id_qa": "autog_0249-2563_1980_num_13_2_T1_0355_0000_qa6_v3",
      "id_block": "block_0",
      "question": "Quelle entreprise vit au dessus de ses moyens ?",
      "answer": "Restoscop",
      "answer_stringIds": [
        "string_54"
      ]
    },
    {
      "id_qa": "autog_0249-2563_1980_num_13_2_T1_0355_0000_qa16_v3",
      "id_block": "block_0",
      "question": "Quel est le nom du processus qui submerge son histoire ?",
      "answer": "Restoscop",
      "answer_stringIds": [
        "string_54"
      ]
    },
    {
      "id_qa": "autog_0249-2563_1980_num_13_2_T1_0355_0000_qa18_v3",
      "id_block": "block_0",
      "question": "Qu'est ce qui submerge Restoscop ?",
      "answer": "son histoire",
      "answer_stringIds": [
        "string_63",
        "string_64"
      ]
    },
    {
      "id_qa": "autog_0249-2563_1980_num_13_2_T1_0355_0000_qa22_v3",
      "id_block": "block_0",
      "question": "Qu'est ce qui est vendu au prix des matières premières ?",
      "answer": "Ces plats",
      "answer_stringIds": [
        "string_116",
        "string_117"
      ]
    },
    {
      "id_qa": "autog_0249-2563_1980_num_13_2_T1_0355_0000_qa12_v3",
      "id_block": "block_2",
      "question": "Que cherche-t-on à créer dans le champ social ?",
      "answer": "des lieux de production",
      "answer_stringIds": [
        "string_248",
        "string_249",
        "string_250",
        "string_251"
      ]
    },
    {
      "id_qa": "autog_0249-2563_1980_num_13_2_T1_0355_0000_qa26_v3",
      "id_block": "block_2",
      "question": "Qu'est-ce qui poursuivra ?",
      "answer": "ce travail de taupe",
      "answer_stringIds": [
        "string_209",
        "string_210",
        "string_211",
        "string_212"
      ]
    },
    {
      "id_qa": "autog_0249-2563_1980_num_13_2_T1_0355_0000_qa24_v3",
      "id_block": "block_3",
      "question": "A qui doivent être adressés les manuscrits et les propositions d'articles ?",
      "answer": "à la rédaction",
      "answer_stringIds": [
        "string_276",
        "string_277",
        "string_278"
      ]
    }
  ]
}