{
  "num": "autog_0249-2563_1980_num_13_2",
  "article": "autog_0249-2563_1980_num_13_2_1380",
  "page_name": "autog_0249-2563_1980_num_13_2_T1_0348_0000",
  "questions": [
    {
      "id_qa": "autog_0249-2563_1980_num_13_2_T1_0348_0000_qa14_v3",
      "id_block": "block_12",
      "question": "Qu'est-ce que Restoscop ?",
      "answer": "la machine",
      "answer_stringIds": [
        "string_337",
        "string_338"
      ]
    },
    {
      "id_qa": "autog_0249-2563_1980_num_13_2_T1_0348_0000_qa16_v3",
      "id_block": "block_13",
      "question": "Où sont découpés les morceaux de choix ?",
      "answer": "dans la chair fraîche",
      "answer_stringIds": [
        "string_349",
        "string_350",
        "string_351",
        "string_352"
      ]
    },
    {
      "id_qa": "autog_0249-2563_1980_num_13_2_T1_0348_0000_qa17_v3",
      "id_block": "block_2",
      "question": "Qui a engagé la comptabilité et la tenue de cette comptabilité ?",
      "answer": "un comptable",
      "answer_stringIds": [
        "string_21",
        "string_22"
      ]
    },
    {
      "id_qa": "autog_0249-2563_1980_num_13_2_T1_0348_0000_qa2_v3",
      "id_block": "block_4",
      "question": "Qu'est ce qui n'a pas pu être appliqué ?",
      "answer": "toutes les décisions",
      "answer_stringIds": [
        "string_83",
        "string_84",
        "string_85"
      ]
    },
    {
      "id_qa": "autog_0249-2563_1980_num_13_2_T1_0348_0000_qa3_v3",
      "id_block": "block_4",
      "question": "Qui a pris les décisions qui ont été appliquées ?",
      "answer": "le groupe",
      "answer_stringIds": [
        "string_91",
        "string_92"
      ]
    },
    {
      "id_qa": "autog_0249-2563_1980_num_13_2_T1_0348_0000_qa6_v3",
      "id_block": "block_5",
      "question": "Qu'est ce qui est à considérer comme le seul moyen de faire entendre ma démission ?",
      "answer": "le désaccord",
      "answer_stringIds": [
        "string_197",
        "string_198"
      ]
    },
    {
      "id_qa": "autog_0249-2563_1980_num_13_2_T1_0348_0000_qa7_v3",
      "id_block": "block_8",
      "question": "Qui a toujours besoin de nous faire chier pour intervenir?",
      "answer": "des leaders",
      "answer_stringIds": [
        "string_232",
        "string_233"
      ]
    },
    {
      "id_qa": "autog_0249-2563_1980_num_13_2_T1_0348_0000_qa10_v3",
      "id_block": "block_8",
      "question": "Qu'est-ce qui nous permet de sortir de notre culpabilité de suiveurs passifs et invétérés ?",
      "answer": "grands projets",
      "answer_stringIds": [
        "string_251",
        "string_252"
      ]
    },
    {
      "id_qa": "autog_0249-2563_1980_num_13_2_T1_0348_0000_qa11_v3",
      "id_block": "block_8",
      "question": "Qu'est-ce que nous n'avons pas fait secrètement ?",
      "answer": "nos projets dont nous avons honte",
      "answer_stringIds": [
        "string_260",
        "string_261",
        "string_262",
        "string_263",
        "string_264",
        "string_265"
      ]
    }
  ]
}