{
  "num": "autog_0249-2563_1980_num_13_2",
  "article": "autog_0249-2563_1980_num_13_2_1380",
  "page_name": "autog_0249-2563_1980_num_13_2_T1_0350_0000",
  "questions": [
    {
      "id_qa": "autog_0249-2563_1980_num_13_2_T1_0350_0000_qa34_v3",
      "id_block": "block_0",
      "question": "Qu'est ce qui vient clore quoi que ce soit ?",
      "answer": "à une dynamique",
      "answer_stringIds": [
        "string_22",
        "string_23",
        "string_24"
      ]
    },
    {
      "id_qa": "autog_0249-2563_1980_num_13_2_T1_0350_0000_qa16_v3",
      "id_block": "block_2",
      "question": "A quoi correspond la commune que nous trouvons entre nous ?",
      "answer": "cette commune référence",
      "answer_stringIds": [
        "string_131",
        "string_132",
        "string_133"
      ]
    },
    {
      "id_qa": "autog_0249-2563_1980_num_13_2_T1_0350_0000_qa17_v3",
      "id_block": "block_2",
      "question": "Qu'est-ce qui correspond parfaitement à ce que nous cherchons ?",
      "answer": "cette commune référence",
      "answer_stringIds": [
        "string_131",
        "string_132",
        "string_133"
      ]
    },
    {
      "id_qa": "autog_0249-2563_1980_num_13_2_T1_0350_0000_qa24_v3",
      "id_block": "block_2",
      "question": "Qui a décidé de lancer une scop ?",
      "answer": "personne",
      "answer_stringIds": [
        "string_101"
      ]
    },
    {
      "id_qa": "autog_0249-2563_1980_num_13_2_T1_0350_0000_qa26_v3",
      "id_block": "block_2",
      "question": "Qu'est ce qui a été décidé ?",
      "answer": "une scop",
      "answer_stringIds": [
        "string_110",
        "string_111"
      ]
    },
    {
      "id_qa": "autog_0249-2563_1980_num_13_2_T1_0350_0000_qa37_v3",
      "id_block": "block_2",
      "question": "Qu'est-ce qui poussera les forces du réalisme à chercher ?",
      "answer": "un nom plus commercial",
      "answer_stringIds": [
        "string_177",
        "string_178",
        "string_179",
        "string_180"
      ]
    },
    {
      "id_qa": "autog_0249-2563_1980_num_13_2_T1_0350_0000_qa38_v3",
      "id_block": "block_2",
      "question": "Qui viendra dans votre restau ?",
      "answer": "les travailleurs",
      "answer_stringIds": [
        "string_201",
        "string_202"
      ]
    },
    {
      "id_qa": "autog_0249-2563_1980_num_13_2_T1_0350_0000_qa39_v3",
      "id_block": "block_2",
      "question": "Qu'est ce qui nous poussera rapidement à chercher un nom plus commercial ?",
      "answer": "les forces du réalisme",
      "answer_stringIds": [
        "string_168",
        "string_169",
        "string_170",
        "string_171"
      ]
    },
    {
      "id_qa": "autog_0249-2563_1980_num_13_2_T1_0350_0000_qa40_v3",
      "id_block": "block_2",
      "question": "Qu'est ce qui poussera les travailleurs à chercher un nom plus commercial ?",
      "answer": "les forces du réalisme nous",
      "answer_stringIds": [
        "string_168",
        "string_169",
        "string_170",
        "string_171",
        "string_172"
      ]
    },
    {
      "id_qa": "autog_0249-2563_1980_num_13_2_T1_0350_0000_qa45_v3",
      "id_block": "block_2",
      "question": "Qu'est-ce que nous décidons un temps ?",
      "answer": "de baptiser ainsi notre local",
      "answer_stringIds": [
        "string_155",
        "string_156",
        "string_157",
        "string_158",
        "string_159"
      ]
    },
    {
      "id_qa": "autog_0249-2563_1980_num_13_2_T1_0350_0000_qa9_v3",
      "id_block": "block_3",
      "question": "Qu'est ce que le cadavre exquis boira ?",
      "answer": "le vin nouveau",
      "answer_stringIds": [
        "string_249",
        "string_250",
        "string_251"
      ]
    },
    {
      "id_qa": "autog_0249-2563_1980_num_13_2_T1_0350_0000_qa10_v3",
      "id_block": "block_3",
      "question": "A quoi est lié le plaisir de la table ?",
      "answer": "au jeu surréaliste",
      "answer_stringIds": [
        "string_225",
        "string_226",
        "string_227"
      ]
    },
    {
      "id_qa": "autog_0249-2563_1980_num_13_2_T1_0350_0000_qa11_v3",
      "id_block": "block_3",
      "question": "A quoi est lié le jeu surréaliste ?",
      "answer": "au plaisir de la table",
      "answer_stringIds": [
        "string_237",
        "string_238",
        "string_239",
        "string_240",
        "string_241"
      ]
    },
    {
      "id_qa": "autog_0249-2563_1980_num_13_2_T1_0350_0000_qa19_v3",
      "id_block": "block_3",
      "question": "Qui répond à la question ?",
      "answer": "un autre répondrait",
      "answer_stringIds": [
        "string_375",
        "string_376",
        "string_377"
      ]
    },
    {
      "id_qa": "autog_0249-2563_1980_num_13_2_T1_0350_0000_qa20_v3",
      "id_block": "block_3",
      "question": "Qui répondrait avec sûreté ?",
      "answer": "un autre",
      "answer_stringIds": [
        "string_375",
        "string_376"
      ]
    },
    {
      "id_qa": "autog_0249-2563_1980_num_13_2_T1_0350_0000_qa21_v3",
      "id_block": "block_3",
      "question": "Qu'est-ce qu'un autre répondrait avec sûreté ?",
      "answer": "la question",
      "answer_stringIds": [
        "string_382",
        "string_383"
      ]
    },
    {
      "id_qa": "autog_0249-2563_1980_num_13_2_T1_0350_0000_qa36_v3",
      "id_block": "block_3",
      "question": "Avec quoi jouerions-nous ?",
      "answer": "avec les images",
      "answer_stringIds": [
        "string_332",
        "string_333",
        "string_334"
      ]
    },
    {
      "id_qa": "autog_0249-2563_1980_num_13_2_T1_0350_0000_qa41_v3",
      "id_block": "block_3",
      "question": "Qu'est ce qui n'avait rien d'une plaisanterie ?",
      "answer": "Notre trouvaille",
      "answer_stringIds": [
        "string_214",
        "string_215"
      ]
    },
    {
      "id_qa": "autog_0249-2563_1980_num_13_2_T1_0350_0000_qa42_v3",
      "id_block": "block_3",
      "question": "De quoi l'angoisse ou l'assurance ne viendraient-elles que lorsque l'un de nous poserait une question ?",
      "answer": "de la réponse",
      "answer_stringIds": [
        "string_356",
        "string_357",
        "string_358"
      ]
    },
    {
      "id_qa": "autog_0249-2563_1980_num_13_2_T1_0350_0000_qa44_v3",
      "id_block": "block_3",
      "question": "Qu'est ce que l'angoisse ou l'assurance ne lui viendraient que de la réponse obtenue ?",
      "answer": "une question",
      "answer_stringIds": [
        "string_347",
        "string_348"
      ]
    },
    {
      "id_qa": "autog_0249-2563_1980_num_13_2_T1_0350_0000_qa4_v3",
      "id_block": "block_4",
      "question": "Où est-ce que j'ai commencé à travailler en octobre 79 ?",
      "answer": "au Pied dans le Plat",
      "answer_stringIds": [
        "string_464",
        "string_465",
        "string_466",
        "string_467",
        "string_468"
      ]
    },
    {
      "id_qa": "autog_0249-2563_1980_num_13_2_T1_0350_0000_qa5_v3",
      "id_block": "block_4",
      "question": "Qu'est ce que les cadavres de Restoscop ?",
      "answer": "vos placards",
      "answer_stringIds": [
        "string_420",
        "string_421"
      ]
    }
  ]
}