{
  "num": "autog_0249-2563_1984_num_17_16",
  "article": "autog_0249-2563_1984_num_17_16_1594",
  "page_name": "autog_0249-2563_1984_num_17_16_T1_0062_0000",
  "questions": [
    "Quel était l'objectif principal de ce manifeste politique aux Etats généraux ?",
    "Quels types d'initiatives, résistances et luttes étaient-elles intéressées par ce manifeste ?",
    "Qu'impliquait-il pour les promoteurs de ce manifeste d'aider à l'affirmation et à la clarification d'un mouvement social de transformation ?",
    "Quels thèmes avaient été abordés dans les deux rencontres nationales organisées par le collectif de \"Campagne et Société\" ?",
    "Comment le collectif de \"Campagne et Société\" a-t-il contribué à renforcer un réseau de contacts et d'échanges sur des expériences et des initiatives de développement dans le milieu agricole et rural ?",
    "Comment le débat ouvert par les Etats généraux du développement était-il perçu à l'heure actuelle ?"
  ]
}