{
  "num": "autog_0249-2563_1984_num_17_16",
  "article": "autog_0249-2563_1984_num_17_16_1594",
  "page_name": "autog_0249-2563_1984_num_17_16_T1_0064_0000",
  "questions": [
    "Quels sont les deux sensibilités différentes des paysans mentionnées dans le texte ?",
    "Quel est le but de la deuxième convergence ?",
    "Quel est le but de la troisième convergence ?",
    "Quel est le rôle du réseau de \"Campagnes et Société\" dans ces convergences ?",
    "Comment ce réseau peut continuer à exister et apporter son soutien aux convergences ?",
    "Quels sont les milieux concernés par la construction de réelles issues dans ces temps de crise renforcée ?"
  ]
}