{
  "num": "autog_0338-7259_1973_num_22_1",
  "article": "autog_0338-7259_1973_num_22_1_1091",
  "page_name": "FMSH_PB188a_22-23_188",
  "questions": [
    "Quels députés ont demandé l'inculpation de J.P. Sartre pour sa direction de la publication et pour le maoïsme lui-même ?",
    "Quel est le sujet du numéro 12 de la publication, et pourquoi est-il l'objet de toutes les poursuites ?",
    "Quel est le statut de la librairie « Norman-Bethune » vis-à-vis de la nouvelle culture ?",
    "Comment les maoïstes sont-ils perçus par certains intellectuels, et réciproquement ?",
    "Quels sont les nouveaux groupes qui se cristallisent autour de nouvelles organisations ?",
    "Quel est le point de vue du journal sur la Chine et la position de la Chine sur le Pakistan ?",
    "Quels sont les livres intéressants sur le F.H.A.R. et le M.L.F. ?"
  ]
}