{
  "num": "autog_0338-7259_1970_num_13_1",
  "article": "autog_0338-7259_1970_num_13_1_974",
  "page_name": "FMSH_PB188a_13-14_037",
  "questions": [
    "Quels sont les éléments permettant la fonctionnement du module et de sa famille ?",
    "Comment est-il élu le directeur du module ?",
    "Comment est composé le conseil de module et comment est-il élu ?",
    "Comment sont élus les vice-doyens ?",
    "Comment est-il élu le doyen du premier cycle ?",
    "Quels sont les catégories de personnels non-enseignants à l'U.Q.A.M. ?",
    "Comment sont les personnels non-enseignants représentés dans les instances de décision ?",
    "Comment sont élus les délégués des personnels non-enseignants dans les conseils, comités et commissions ?",
    "Quels sont les éléments concernés par le règlement intérieur de l'U.Q.A.M. ?"
  ]
}