{
  "num": "autog_0338-7259_1970_num_13_1",
  "article": "autog_0338-7259_1970_num_13_1_974",
  "page_name": "FMSH_PB188a_13-14_017",
  "questions": [
    "Quels groupes sociaux sont impliqués dans les réunions de bilan institutionnel hebdomadaires ?",
    "Quels événements sont examinés critiquement lors de ces réunions ?",
    "Quel type de bilan est effectué lors de ces réunions ?",
    "Comment ce bilan institutionnel permet-il de réguler le système ?",
    "Quels sont les avantages pédagogiques de cette méthode ?",
    "Quels sont les avantages analytiques de cette méthode ?",
    "Quels sont les liens entre la méthode du bilan institutionnel et la pédagogie ?",
    "Quels sont les liens entre la méthode du bilan institutionnel et la méthode du bilan pédagogique ?",
    "Quels sont les rôles des différents groupes sociaux (enseignants, étudiants, cadres administratifs, personnel non-enseignant) dans ces réunions ?",
    "Quel est le rôle de la sphère matérielle dans l'éducation selon Makarenko ?"
  ]
}