{
  "num": "autog_0338-7259_1970_num_13_1",
  "article": "autog_0338-7259_1970_num_13_1_974",
  "page_name": "FMSH_PB188a_13-14_045",
  "questions": [
    "Quels décisions ont été prises par les participants du Bilan 70 ?",
    "Quel rôle deviendra le Comité quadripartite dans F'U.Q.A.M. ?",
    "Quel type de démocratie a été souhaitée par les étudiants ?",
    "Comment les membres de l'U.Q.A.M. souhaitent gérer l'université ?",
    "Quel est le consensus sur un organisme particulier de l'U.Q.A.M. ?",
    "Quel était l'importance publique de l'absentéisme et l'échec de la participation au Bilan ?",
    "Comment l'école était perçue avant le Bilan 70 ?",
    "Quels objectifs préparaient l'école aux « responsabilités de l'adulte » ?",
    "Quel était l'attente en matière de stabilité professionnelle à l'âge mûr ?"
  ]
}