{
  "num": "autog_0338-7259_1972_num_18_1",
  "article": "autog_0338-7259_1972_num_18_1_1037",
  "page_name": "FMSH_PB188a_18-19_151",
  "questions": [
    {
      "id_qa": "FMSH_PB188a_18-19_151_qa14_v3",
      "id_block": "block_1",
      "question": "Comment se mirent les bourgs de Moncada et Gandia ?",
      "answer": "en grève",
      "answer_stringIds": [
        "string_18",
        "string_19"
      ]
    },
    {
      "id_qa": "FMSH_PB188a_18-19_151_qa15_v3",
      "id_block": "block_1",
      "question": "Que se mirent en grève les bourgs de Moncada ?",
      "answer": "les routes",
      "answer_stringIds": [
        "string_22",
        "string_23"
      ]
    },
    {
      "id_qa": "FMSH_PB188a_18-19_151_qa23_v3",
      "id_block": "block_2",
      "question": "Qui a lancé l'offensive républicaine en Aragon ?",
      "answer": "de Lister",
      "answer_stringIds": [
        "string_69",
        "string_70"
      ]
    },
    {
      "id_qa": "FMSH_PB188a_18-19_151_qa29_v3",
      "id_block": "block_3",
      "question": "Qui a écrit : ?",
      "answer": "Gaston Leval",
      "answer_stringIds": [
        "string_177",
        "string_178"
      ]
    },
    {
      "id_qa": "FMSH_PB188a_18-19_151_qa17_v3",
      "id_block": "block_4",
      "question": "Dans quel ouvrage est décrite l'oeuvre des militants ?",
      "answer": "dans ce livre",
      "answer_stringIds": [
        "string_198",
        "string_199",
        "string_200"
      ]
    },
    {
      "id_qa": "FMSH_PB188a_18-19_151_qa19_v3",
      "id_block": "block_4",
      "question": "Qui a joué aucun rôle dans l'oeuvre que j'ai décrite dans ce livre ?",
      "answer": "Ces militants",
      "answer_stringIds": [
        "string_187",
        "string_188"
      ]
    },
    {
      "id_qa": "FMSH_PB188a_18-19_151_qa9_v3",
      "id_block": "block_5",
      "question": "Qui a étudié la propagande pour le communisme libertaire ?",
      "answer": "de nombreux militants",
      "answer_stringIds": [
        "string_244",
        "string_245",
        "string_246"
      ]
    },
    {
      "id_qa": "FMSH_PB188a_18-19_151_qa11_v3",
      "id_block": "block_5",
      "question": "Sur quelle idéologie étaient les militants qui avaient réfléchi ?",
      "answer": "sur la propagande pour le communisme libertaire",
      "answer_stringIds": [
        "string_252",
        "string_253",
        "string_254",
        "string_255",
        "string_256",
        "string_257",
        "string_258",
        "string_259"
      ]
    },
    {
      "id_qa": "FMSH_PB188a_18-19_151_qa12_v3",
      "id_block": "block_5",
      "question": "Sur quelle idéologie étaient les militants qui avaient u et réfléchi ?",
      "answer": "sur la propagande pour le communisme libertaire",
      "answer_stringIds": [
        "string_252",
        "string_253",
        "string_254",
        "string_255",
        "string_256",
        "string_257",
        "string_258",
        "string_259"
      ]
    },
    {
      "id_qa": "FMSH_PB188a_18-19_151_qa26_v3",
      "id_block": "block_8",
      "question": "Qui a écrit L'Autogestion, l'Etat et la Révolution ?",
      "answer": "Ne Franco ne Stalin",
      "answer_stringIds": [
        "string_283",
        "string_284",
        "string_285",
        "string_286"
      ]
    }
  ]
}