{
  "num": "autog_0338-7259_1972_num_18_1",
  "article": "autog_0338-7259_1972_num_18_1_1037",
  "page_name": "FMSH_PB188a_18-19_152",
  "questions": [
    {
      "id_qa": "FMSH_PB188a_18-19_152_qa20_v3",
      "id_block": "block_1",
      "question": "Qu'exige la lutte permanente ?",
      "answer": "des hommes",
      "answer_stringIds": [
        "string_14",
        "string_15"
      ]
    },
    {
      "id_qa": "FMSH_PB188a_18-19_152_qa21_v3",
      "id_block": "block_1",
      "question": "Qu'est ce qui a permis de réaliser l'oeuvre merveilleuse des collectivités agraires et des organisations industrielles ?",
      "answer": "cette capacité du peuple",
      "answer_stringIds": [
        "string_21",
        "string_22",
        "string_23",
        "string_24"
      ]
    },
    {
      "id_qa": "FMSH_PB188a_18-19_152_qa15_v3",
      "id_block": "block_2",
      "question": "Quelle est la différence entre le Parti et le Parti ?",
      "answer": "les élites pseudo-révolutionnaires futures exploiteuses",
      "answer_stringIds": [
        "string_96",
        "string_97",
        "string_98",
        "string_99",
        "string_100"
      ]
    },
    {
      "id_qa": "FMSH_PB188a_18-19_152_qa17_v3",
      "id_block": "block_2",
      "question": "Quelle est la différence entre le Parti et la base anarchiste ?",
      "answer": "les élites pseudo-révolutionnaires futures exploiteuses",
      "answer_stringIds": [
        "string_96",
        "string_97",
        "string_98",
        "string_99",
        "string_100"
      ]
    },
    {
      "id_qa": "FMSH_PB188a_18-19_152_qa23_v3",
      "id_block": "block_3",
      "question": "Quelle est la conséquence de l'autogestion ?",
      "answer": "une politique totalement opposée",
      "answer_stringIds": [
        "string_178",
        "string_179",
        "string_180",
        "string_181"
      ]
    },
    {
      "id_qa": "FMSH_PB188a_18-19_152_qa1_v3",
      "id_block": "block_4",
      "question": "Quel est le mérite de ce texte ?",
      "answer": "une opinion totalement opposée",
      "answer_stringIds": [
        "string_255",
        "string_256",
        "string_257",
        "string_258"
      ]
    },
    {
      "id_qa": "FMSH_PB188a_18-19_152_qa6_v3",
      "id_block": "block_4",
      "question": "Pourquoi des camarades se lançaient-ils à l'action en janvier 1932 ?",
      "answer": "pour établir le communisme libertaire",
      "answer_stringIds": [
        "string_244",
        "string_245",
        "string_246",
        "string_247",
        "string_248"
      ]
    }
  ]
}