{
  "num": "autog_0338-7259_1978_num_41_1",
  "article": "autog_0338-7259_1978_num_41_1_1336_t1_0284_0000_2",
  "page_name": "FMSH_PB188a_41-42_285",
  "questions": [
    {
      "id_qa": "FMSH_PB188a_41-42_285_qa79_v3",
      "id_block": "block_1",
      "question": "Qu'est-ce qui est à l'origine du groupe de recherches ?",
      "answer": "entreprises",
      "answer_stringIds": [
        "string_X"
      ]
    },
    {
      "id_qa": "FMSH_PB188a_41-42_285_qa50_v3",
      "id_block": "block_2",
      "question": "Quel est le bilan provisoire du bilan provisoire ?",
      "answer": "ouvert",
      "answer_stringIds": [
        "string_X"
      ]
    },
    {
      "id_qa": "FMSH_PB188a_41-42_285_qa51_v3",
      "id_block": "block_2",
      "question": "Qu'est ce qui reste ouvert ?",
      "answer": "un bilan provisoire",
      "answer_stringIds": [
        "string_X"
      ]
    },
    {
      "id_qa": "FMSH_PB188a_41-42_285_qa0_v3",
      "id_block": "block_6",
      "question": "Qu'est-ce que l'autogestion succursale ?",
      "answer": "qui l’",
      "answer_stringIds": [
        "string_X"
      ]
    },
    {
      "id_qa": "FMSH_PB188a_41-42_285_qa17_v3",
      "id_block": "block_6",
      "question": "Quel est le but de l'autogestion à court terme ?",
      "answer": "prendre le pouvoir avec la promesse de le rendre",
      "answer_stringIds": [
        "string_X"
      ]
    },
    {
      "id_qa": "FMSH_PB188a_41-42_285_qa19_v3",
      "id_block": "block_6",
      "question": "Quel est le but de l'autogestion ?",
      "answer": "le pouvoir",
      "answer_stringIds": [
        "string_X"
      ]
    },
    {
      "id_qa": "FMSH_PB188a_41-42_285_qa54_v3",
      "id_block": "block_6",
      "question": "Qui a peur de l'autogestion ?",
      "answer": "tout le monde au fond",
      "answer_stringIds": [
        "string_X"
      ]
    },
    {
      "id_qa": "FMSH_PB188a_41-42_285_qa60_v3",
      "id_block": "block_6",
      "question": "Que manipulent les trotskistes pour faire apparaître comme un succédané de bureaucratie ?",
      "answer": "les textes",
      "answer_stringIds": [
        "string_X"
      ]
    },
    {
      "id_qa": "FMSH_PB188a_41-42_285_qa61_v3",
      "id_block": "block_6",
      "question": "Qu'est-ce que l'autogestion ?",
      "answer": "comme un succédané de bureaucratie",
      "answer_stringIds": [
        "string_X"
      ]
    },
    {
      "id_qa": "FMSH_PB188a_41-42_285_qa63_v3",
      "id_block": "block_6",
      "question": "A quoi est destiné l'autogestion ?",
      "answer": "investir sournoisement le mouvement ouvrier et à le détourner de ses buts révolutionnaires",
      "answer_stringIds": [
        "string_X"
      ]
    },
    {
      "id_qa": "FMSH_PB188a_41-42_285_qa31_v3",
      "id_block": "block_7",
      "question": "Qui a étudié l'autogestion ?",
      "answer": "Yvon Bourdet",
      "answer_stringIds": [
        "string_X"
      ]
    }
  ]
}