{
  "num": "autog_0338-7259_1973_num_24_1",
  "article": "autog_0338-7259_1973_num_24_1_1822",
  "page_name": "FMSH_PB188a_24-25_004",
  "questions": [
    {
      "id_qa": "FMSH_PB188a_24-25_004_qa6_v3",
      "id_block": "block_2",
      "question": "Quand est mort Serge Mallet ?",
      "answer": "En Juillet dernier",
      "answer_stringIds": [
        "string_2",
        "string_3",
        "string_4"
      ]
    },
    {
      "id_qa": "FMSH_PB188a_24-25_004_qa0_v3",
      "id_block": "block_3",
      "question": "Quel est le nom de l'auteur de ses dernières interventions ?",
      "answer": "la mémoire de Serge Mallet",
      "answer_stringIds": [
        "string_70",
        "string_71",
        "string_72",
        "string_73",
        "string_74"
      ]
    },
    {
      "id_qa": "FMSH_PB188a_24-25_004_qa2_v3",
      "id_block": "block_3",
      "question": "Dans quel numéro sera publiée la mémoire de Serge Mallet ?",
      "answer": "dans le prochain numéro de la Revue",
      "answer_stringIds": [
        "string_78",
        "string_79",
        "string_80",
        "string_81",
        "string_82",
        "string_83",
        "string_84"
      ]
    },
    {
      "id_qa": "FMSH_PB188a_24-25_004_qa12_v3",
      "id_block": "block_5",
      "question": "Qu'est ce qui est exceptionnellement constitué par la traduction d'un texte anglais ?",
      "answer": "Le présent numéro",
      "answer_stringIds": [
        "string_101",
        "string_102",
        "string_103"
      ]
    }
  ]
}