{
  "num": "autog_0338-7259_1978_num_41_1",
  "article": "autog_0338-7259_1978_num_41_1_1322",
  "page_name": "FMSH_PB188a_41-42_177",
  "questions": [
    {
      "id_qa": "FMSH_PB188a_41-42_177_qa9_v3",
      "id_block": "block_1",
      "question": "Qu'est-ce qui est providing the routines of operation ?",
      "answer": "among them",
      "answer_stringIds": [
        "string_X"
      ]
    },
    {
      "id_qa": "FMSH_PB188a_41-42_177_qa10_v3",
      "id_block": "block_1",
      "question": "Qu'est-ce qui est providing them among them ?",
      "answer": "the routines of operation",
      "answer_stringIds": [
        "string_X"
      ]
    },
    {
      "id_qa": "FMSH_PB188a_41-42_177_qa11_v3",
      "id_block": "block_2",
      "question": "Qu'est-ce qui est rotated ?",
      "answer": "routine work and control work",
      "answer_stringIds": [
        "string_X"
      ]
    },
    {
      "id_qa": "FMSH_PB188a_41-42_177_qa8_v3",
      "id_block": "block_3",
      "question": "Qu'est-ce qui pourrait be found to be conductive to the attainment of social goals ?",
      "answer": "an increase in central planning",
      "answer_stringIds": [
        "string_X"
      ]
    },
    {
      "id_qa": "FMSH_PB188a_41-42_177_qa2_v3",
      "id_block": "block_4",
      "question": "Qu'est-ce qui est seulement realized within a framework of collective social endeavor?",
      "answer": "Freedom",
      "answer_stringIds": [
        "string_X"
      ]
    },
    {
      "id_qa": "FMSH_PB188a_41-42_177_qa4_v3",
      "id_block": "block_5",
      "question": "Qui dirige le labor process ?",
      "answer": "by the corporate rich",
      "answer_stringIds": [
        "string_X"
      ]
    },
    {
      "id_qa": "FMSH_PB188a_41-42_177_qa6_v3",
      "id_block": "block_5",
      "question": "Quel est le métier du corporate rich ?",
      "answer": "The labor process",
      "answer_stringIds": [
        "string_X"
      ]
    }
  ]
}