{
  "num": "autog_0338-7259_1972_num_18_1",
  "article": "autog_0338-7259_1972_num_18_1_1037",
  "page_name": "FMSH_PB188a_18-19_150",
  "questions": [
    "Quel rôle jouait Frank Mintz dans la guerre civile espagnole en représentant officiellement la petite-bourgeoisie communiste avec le soutien de Moscou ?",
    "Quels prétextes étaient utilisés pour militariser les milices et lancer des opérations suicides contre les unités anarchistes ?",
    "Quelles critiques internes provenaient de la participation de la CNT-FAL aux gouvernements et quels effets avaient ces critiques ?",
    "Quels événements violents se produisirent-ils de la part de la base anarchiste contre les ministres cenetistes ?",
    "Quel manifeste fut publié en novembre 1936 par les anarchistes et quels messages y étaient contenus ?",
    "Quel événement grave eut lieu en mars 1937 à Vilanesa et qui étaient les opposants au décret du ministre Juan Lépez ?",
    "Quels biographies recommande-t-on pour en savoir plus sur la révolution espagnole et la participation de la CNT-FAL ?"
  ]
}