{
  "num": "autog_0338-7259_1972_num_18_1",
  "article": "autog_0338-7259_1972_num_18_1_1037",
  "page_name": "FMSH_PB188a_18-19_151",
  "questions": [
    "Quels bourgs ont été le théâtre d'une insurrection embryonnaire durant les Enseignements de l'autogestion espagnole en 1939 ?",
    "Quels groupes ont été impliqués dans la grève et la défense de l'autogestion, entraînant des événements comme les Journées de mai à Barcelone et l'intervention de Lister en Aragon ?",
    "Quel rôle ont joué les militants réformistes de l'anarchisme dans l'œuvre décrite dans le livre, et quels principes ont dû être mis de côté pour l'unité antifasciste ?",
    "Quels militants ont réfléchi sur la propagande pour le communisme libertaire, et en quoi consistait cette réflexion ?",
    "Quels événements historiques sont liés à la présence et la défense de l'autogestion avant et pendant la guerre d'Espagne ?",
    "Quels courants disparates faisaient partie du groupe réformiste de l'anarchisme ?",
    "Quels auteurs ont écrit sur les événements décrits dans le paragraphe ?",
    "Quel rôle ont joué les principes dans l'attitude des militants réformistes de l'anarchisme ?",
    "Quel livre décrit l'œuvre des militants réformistes de l'anarchisme ?",
    "Quel rôle ont joué les charges officielles dans l'absorption des militants réformistes de l'anarchisme ?",
    "Quel titre a été donné à l'ouvrage de Gaston Leval ?",
    "Dans quelle langue a été traduit l'ouvrage de Gaston Leva ?",
    "Quel parti syndicaliste est mentionné dans le paragraphe ?",
    "Quel rôle a joué Pestaña dans le groupe réformiste de l'anarchisme ?",
    "Quel rôle a joué Federica Montseny dans le groupe réformiste de l'anarchisme ?",
    "Quel rôle a joué Horacio Prieto dans le groupe réformiste de l'anarchisme ?",
    "Quel rôle a joué Gar?"
  ]
}