{
  "num": "autog_0338-7259_1972_num_18_1",
  "article": "autog_0338-7259_1972_num_18_1_1037",
  "page_name": "FMSH_PB188a_18-19_156",
  "questions": [
    "Quels critiques s'élèvent contre la bureaucratie selon Frank Mintz ?",
    "Quel rôle important est-il attaché à la participation des masses ?",
    "Quels sont les éléments de l'éducation morale selon Mintz ?",
    "Comment est traitée la nécessité d'une stimulation morale supérieure à la stimulation matérielle ?",
    "Quels sont les critiques fondamentales vis-à-vis des dirigeants et des privilèges économiques ?",
    "Comment le texte de Linea de Fuego caractérise le réformisme ?",
    "Quel est le sens de la coupure dirigeants-dirigés dans les organisations de masse ?",
    "Est-ce que cette coupure est inévitable ?",
    "Quels sont les premiers résultats de l'autogestion ?",
    "Comment les groupes et individus agissaient-ils dans les premières semaines d'autogestion ?",
    "Quel est le refus de suivre les consignes du congrès économique de 1938 ?",
    "Quel témoignage apportent « Los amigos de Durruti » sur la vitalité continue de l'opposition ?"
  ]
}