{
  "num": "autog_0249-2563_1984_num_17_16",
  "article": "autog_0249-2563_1984_num_17_16_1587",
  "page_name": "autog_0249-2563_1984_num_17_16_T1_0006_0000",
  "questions": [
    {
      "id_qa": "autog_0249-2563_1984_num_17_16_T1_0006_0000_qa9_v3",
      "id_block": "block_1",
      "question": "Qu'est ce qui lie l'usager à la S.T ?",
      "answer": "le contrat",
      "answer_stringIds": [
        "string_302",
        "string_303"
      ]
    },
    {
      "id_qa": "autog_0249-2563_1984_num_17_16_T1_0006_0000_qa4_v3",
      "id_block": "block_2",
      "question": "Qu'est-ce qui t'est venu à tenter ?",
      "answer": "une expérience de S.I.",
      "answer_stringIds": [
        "string_335",
        "string_336",
        "string_337",
        "string_338"
      ]
    }
  ]
}