{
  "num": "autog_0249-2563_1984_num_17_16",
  "article": "autog_0249-2563_1984_num_17_16_1587",
  "page_name": "autog_0249-2563_1984_num_17_16_T1_0003_0000",
  "questions": [
    {
      "id_qa": "autog_0249-2563_1984_num_17_16_T1_0003_0000_qa0_v3",
      "id_block": "block_11",
      "question": "Qu'est ce qui s'emplissent de populations destructurantes ?",
      "answer": "lieues",
      "answer_stringIds": [
        "string_164"
      ]
    },
    {
      "id_qa": "autog_0249-2563_1984_num_17_16_T1_0003_0000_qa1_v3",
      "id_block": "block_11",
      "question": "Qu'est ce qui s'emplissent de populations ?",
      "answer": "lieues",
      "answer_stringIds": [
        "string_164"
      ]
    },
    {
      "id_qa": "autog_0249-2563_1984_num_17_16_T1_0003_0000_qa10_v3",
      "id_block": "block_12",
      "question": "Qu'est ce qui reste à parfaire l'histoire ?",
      "answer": "des comportements de la société",
      "answer_stringIds": [
        "string_175",
        "string_176",
        "string_177",
        "string_178",
        "string_179"
      ]
    },
    {
      "id_qa": "autog_0249-2563_1984_num_17_16_T1_0003_0000_qa7_v3",
      "id_block": "block_2",
      "question": "Qu'est ce qui se défait dans les sociétés modernes ?",
      "answer": "le tissu social",
      "answer_stringIds": [
        "string_15",
        "string_16",
        "string_17"
      ]
    },
    {
      "id_qa": "autog_0249-2563_1984_num_17_16_T1_0003_0000_qa11_v3",
      "id_block": "block_2",
      "question": "Qu'est-ce que les espaces de déviance ?",
      "answer": "un autre rapport au travail",
      "answer_stringIds": [
        "string_42",
        "string_43",
        "string_44",
        "string_45",
        "string_46"
      ]
    },
    {
      "id_qa": "autog_0249-2563_1984_num_17_16_T1_0003_0000_qa13_v3",
      "id_block": "block_7",
      "question": "Qu'est ce qui est important pour le dernier quart de siècle ?",
      "answer": "quelques repères",
      "answer_stringIds": [
        "string_126",
        "string_127"
      ]
    },
    {
      "id_qa": "autog_0249-2563_1984_num_17_16_T1_0003_0000_qa14_v3",
      "id_block": "block_7",
      "question": "Quand est-ce que les repères ont été pris ?",
      "answer": "pour le dernier quart de siècle",
      "answer_stringIds": [
        "string_128",
        "string_129",
        "string_130",
        "string_131",
        "string_132",
        "string_133"
      ]
    },
    {
      "id_qa": "autog_0249-2563_1984_num_17_16_T1_0003_0000_qa12_v3",
      "id_block": "block_9",
      "question": "Dans quel pays apparaissent les femmes avec de plus en plus de tatouages ?",
      "answer": "en France",
      "answer_stringIds": [
        "string_147",
        "string_148"
      ]
    }
  ]
}