{
  "num": "autog_0005-0970_1969_num_9_1",
  "article": "autog_0005-0970_1969_num_9_1_1805",
  "page_name": "FMSH_PB188a_09-10_126",
  "questions": [
    "Quel rôle joue le christianisme social dans la perspective de l'autogestion selon le texte ?",
    "Quels mots d'ordre empêchent le P.S.U. de comprendre le problème central de la lutte des classes pour le pouvoir d'Etat ?",
    "Quel est le rôle de l'appareil d'Etat bourgeois selon le texte ?",
    "Quel est le problème central de la lutte des classes selon le texte ?",
    "Quels distinctions entre les paysans sont méconnues par le mot d'ordre du pouvoir paysan ?",
    "Quel est le seul mot d'ordre juste selon le texte ?",
    "Quels sont les rêveries et erreurs encouragées par les mots d'ordre sur l'autogestion ?",
    "Quel est le rôle de la démocratie ouvrière dans l'entreprise selon le texte ?",
    "Quel est le condition nécessaire pour la lutte pour l'autogestion selon le texte ?"
  ]
}