{
  "num": "autog_0338-7259_1975_num_30_1",
  "article": "autog_0338-7259_1975_num_30_1_1120",
  "page_name": "FMSH_PB188a_30-31_013",
  "questions": [
    {
      "id_qa": "FMSH_PB188a_30-31_013_qa8_v3",
      "id_block": "block_1",
      "question": "Qu'achète la classe ouvrière en Yougoslavie ?",
      "answer": "sa force de travail",
      "answer_stringIds": [
        "string_117",
        "string_118",
        "string_119",
        "string_120"
      ]
    },
    {
      "id_qa": "FMSH_PB188a_30-31_013_qa11_v3",
      "id_block": "block_1",
      "question": "A qui est faite la situation en Yougoslavie ?",
      "answer": "à La classe ouvrière",
      "answer_stringIds": [
        "string_88",
        "string_89",
        "string_90",
        "string_91"
      ]
    },
    {
      "id_qa": "FMSH_PB188a_30-31_013_qa13_v3",
      "id_block": "block_1",
      "question": "A quoi la classe ouvrière n'a-t-elle pas accédé ?",
      "answer": "à la situation de classe dirigeante",
      "answer_stringIds": [
        "string_59",
        "string_60",
        "string_61",
        "string_62",
        "string_63",
        "string_64"
      ]
    },
    {
      "id_qa": "FMSH_PB188a_30-31_013_qa15_v3",
      "id_block": "block_1",
      "question": "Qui n'a pas pu accéder à la situation de classe dirigeante ?",
      "answer": "la classe ouvrière",
      "answer_stringIds": [
        "string_54",
        "string_55",
        "string_56"
      ]
    },
    {
      "id_qa": "FMSH_PB188a_30-31_013_qa16_v3",
      "id_block": "block_1",
      "question": "Par quoi est marquée la vie politique et sociale ?",
      "answer": "par la domination du bureaucrate",
      "answer_stringIds": [
        "string_145",
        "string_146",
        "string_147",
        "string_148",
        "string_149"
      ]
    },
    {
      "id_qa": "FMSH_PB188a_30-31_013_qa21_v3",
      "id_block": "block_1",
      "question": "A quoi contribue le bureaucrate ?",
      "answer": "à la libération de la classe ouvrière",
      "answer_stringIds": [
        "string_158",
        "string_159",
        "string_160",
        "string_161",
        "string_162",
        "string_163",
        "string_164",
        "string_165"
      ]
    },
    {
      "id_qa": "FMSH_PB188a_30-31_013_qa26_v3",
      "id_block": "block_2",
      "question": "Par qui sont avertis les hommes politiques ?",
      "answer": "les philosophes humanistes",
      "answer_stringIds": [
        "string_253",
        "string_254",
        "string_255"
      ]
    },
    {
      "id_qa": "FMSH_PB188a_30-31_013_qa27_v3",
      "id_block": "block_2",
      "question": "Par qui les philosophes humanistes sont-ils avertis ?",
      "answer": "les hommes politiques",
      "answer_stringIds": [
        "string_245",
        "string_246",
        "string_247"
      ]
    },
    {
      "id_qa": "FMSH_PB188a_30-31_013_qa22_v3",
      "id_block": "block_4",
      "question": "Qui n'a pas d'avenir politique ?",
      "answer": "la classe ouvrière",
      "answer_stringIds": [
        "string_54",
        "string_55",
        "string_56"
      ]
    },
    {
      "id_qa": "FMSH_PB188a_30-31_013_qa23_v3",
      "id_block": "block_4",
      "question": "Qui pense que la classe ouvrière n'a pas d'avenir politique ?",
      "answer": "Z. Pesic Golubovic",
      "answer_stringIds": [
        "string_327",
        "string_328",
        "string_329"
      ]
    }
  ]
}