{
  "num": "autog_0338-7259_1979_num_43_1",
  "article": "autog_0338-7259_1979_num_43_1_1295",
  "page_name": "FMSH_PB188a_00043_048",
  "questions": [
    "Quels niveaux de machinisme influencent le plus l'influence des travailleurs et leur indépendance ?",
    "Comment la décomposition des tâches et l'utilisation de machines automatiques affectent-elles l'influence et l'indépendance au travail ?",
    "Quel est le lien entre la complexité du machinisme et l'autonomie ouvrière ?",
    "En quelles mesures les facteurs techniques influencent-ils l'indépendance ouvrière au travail ?",
    "Quels sont les effets des modifications techniques sur l'influence et l'indépendance au travail dans les sept usines étudiées ?",
    "Quels sont les trois cas possibles dans l'impact des modifications techniques sur l'autonomie ouvrière ?",
    "Comment la division des travailleurs est-elle mesurée dans les ateliers ?"
  ]
}