{
  "num": "autog_0338-7259_1970_num_11_1",
  "article": "autog_0338-7259_1970_num_11_1_960",
  "page_name": "FMSH_PB188a_11-12_038",
  "questions": [
    "Quel est le rôle important dans la gestion professionnelle et la qualité professionnelle selon Antonin Pfeifer ?",
    "Comment Antonin Pfeifer parle de la transmission des fonctions et quels arguments avance-t-il pour cela ?",
    "Quels intérêts doivent être pris en compte lors de la transmission des tâches ?",
    "Quel principe doit guider la production économique selon Antonin Pfeifer ?",
    "Comment Antonin Pfeifer voit le rôle du parti et de la classe ouvrière dans le rapport entre la démocratie et la qualité professionnelle ?",
    "Dans quelle période historique ces idées ont-elles été exprimées ?"
  ]
}