{
  "num": "autog_0338-7259_1970_num_11_1",
  "article": "autog_0338-7259_1970_num_11_1_960",
  "page_name": "FMSH_PB188a_11-12_028",
  "questions": [
    "Quels sont les idées générales sur le rapport entre la gestion professionnelle et la démocratie dans le domaine de la production ?",
    "Comment est perçu ce rapport dans la littérature spécialisée ?",
    "Quels sont les opinions des spécialistes cités dans l'enquête de la revue « Pravnik » en 1965 ?",
    "Quels sont les titres et fonctions des auteurs cités dans l'enquête ?",
    "Dans quelle année a été organisée l'enquête de la revue « Pravnik » ?",
    "Quels sont les branches scientifiques représentées dans l'enquête ?",
    "Quels sont les praticiens cités dans l'enquête ?",
    "Quels sont les aspects du rapport entre la gestion professionnelle et la démocratie qui sont inséparables selon les spécialistes ?",
    "Comment sont présentées les opinions des spécialistes dans le texte ?",
    "Quels sont les principes qui doivent être appliqués simultanément selon les spécialistes ?",
    "Comment est décrit le conflit entre la gestion professionnelle et la démocratie dans le texte ?",
    "Quels sont les justifications fonctionnelles positives de ce conflit selon les spécialistes ?",
    "Comment est perçue la synthèse rationnelle entre la gestion professionnelle et la démocratie selon les spécialistes ?"
  ]
}