{
  "num": "autog_0338-7259_1970_num_11_1",
  "article": "autog_0338-7259_1970_num_11_1_960",
  "page_name": "FMSH_PB188a_11-12_029",
  "questions": [
    "Quel est le caractère actuellement nécessaire de la gestion selon le texte ?",
    "Quel est le trait permanent de notre évolution selon le texte ?",
    "Quand parle-t-on de la démocratie socialiste dans le texte ?",
    "Comment est-elle décrite la relation entre la démocratie et les principes aristocratiques (sophocratie, bureaucratie, technocratie, management) ?",
    "Dans quels domaines est-il impossible d'appliquer la démocratie selon le texte ?",
    "Quel est l'aspect politique de la gestion selon le texte ?",
    "Comment s'identifient-elles ou non le caractère politique et le caractère démocratique dans la pratique selon le texte ?",
    "Quels critères expriment les intérêts des classes et des couches sociales dans le texte ?",
    "Comment peuvent les notions professionnelles montrer la conscience politique et les besoins sociaux objectifs selon le texte ?",
    "Comment peuvent les critères professionnels corriger les critères politiques selon le texte ?"
  ]
}