{
  "num": "autog_0338-7259_1970_num_11_1",
  "article": "autog_0338-7259_1970_num_11_1_960",
  "page_name": "FMSH_PB188a_11-12_047",
  "questions": [
    "Quel est le caractère du pouvoir dans une entreprise industrielle en matière de démocratie ?",
    "Peut-on séparer les différents types de pouvoirs aux différents niveaux de gestion selon les trois types mentionnés ?",
    "Est-il possible et préférable que les organes de participation à la gestion soient indépendants ou liés les uns aux autres à chaque niveau ?",
    "Quel est le point de vue de la responsabilité juridique et morale des décisions erronnées prises dans le cadre de la participation à la gestion ?",
    "Quel facteur contribue au prestige de la participation dans l'organe de participation ?",
    "Comment peut-on réaliser une participation effective aux décisions dans l'entreprise industrielle ?",
    "Quel est la position occupée par les organes de participation à la gestion dans le système de gestion de l'entreprise industrielle ?"
  ]
}