{
  "num": "autog_0338-7259_1970_num_11_1",
  "article": "autog_0338-7259_1970_num_11_1_960",
  "page_name": "FMSH_PB188a_11-12_034",
  "questions": [
    "Quels sont les auteurs cités dans le texte et quels sont leurs titres ?",
    "Qu'est-ce que le professeur Veltruskÿ entend par \"gestion professionnelle\" et \"démocratie\" ?",
    "Comment le professeur Veltruskÿ voit-il la relation entre la connaissance professionnelle et la démocratie ?",
    "Qu'est-ce que le professeur Veltruskÿ pense de la spécialisation et de l'éducation dans le contexte de la démocratie ?",
    "Quel chemin le professeur Veltruskÿ pense suivre pour approfondir la démocratie ?",
    "Qu'est-ce que le professeur Veltruskÿ pense de la transmission des fonctions de l'État aux organisations sociales volontaires ?",
    "Quels sont les sciences humaines qui se sont occupées du problème de la démocratie et de la gestion dans les pays occidentaux depuis la fin de la Seconde Guerre mondiale ?",
    "Qu'est-ce que le professeur Fibich entend par \"avantages\" dans le contexte de l'analyse marxiste ?"
  ]
}