{
  "num": "autog_0338-7259_1970_num_11_1",
  "article": "autog_0338-7259_1970_num_11_1_960",
  "page_name": "FMSH_PB188a_11-12_031",
  "questions": [
    "Quels académiciens sont mentionnés dans ce passage ?",
    "Qu'est-ce que la synthèse de la connaissance professionnelle et de la démocratie signifie ?",
    "Quels moyens sont proposés pour réaliser cette synthèse ?",
    "En quoi consiste l'augmentation maximale de l'éducation et de la qualification ?",
    "Comment les organes démocratiques doivent-ils être dirigés ?",
    "Quels sont les objectifs de l'éducation des spécialistes hautement qualifiés ?",
    "Quel est le but de la meilleure rémunération matérielle du travail de gestion hautement qualifié et des activités professionnelles ?",
    "Comment les fonctions des organes étatiques peuvent-elles être conférées aux organisations sociales ?",
    "Quel est le rôle de la société socialiste dans l'extension notable de la démocratie socialiste ?"
  ]
}