{
  "num": "autog_0338-7259_1975_num_30_1",
  "article": "autog_0338-7259_1975_num_30_1_1134",
  "page_name": "FMSH_PB188a_30-31_182",
  "questions": [
    "Quels sont les lieux choisis par les communautés pour instaurer l'autogestion ?",
    "Quel est l'esprit nouveau associé à l'Ujamaa ?",
    "Comment les individus doivent-ils utiliser leurs ressources selon l'Ujamaa ?",
    "Pourquoi l'indépendance et la liberté données aux villageois sont-elles considérées comme le pouvoir ?",
    "Quel est le rôle du seul parti pour coordonner les efforts dans le cadre de l'autogestion ?",
    "Pourquoi les paysans ne parlent-ils pas de l'autogestion ?",
    "Quel est l'espoir pour l'Afrique selon l'auteur ?",
    "Quels sont les sources supplémentaires pour en savoir plus sur la Tanzanie et l'autogestion ?"
  ]
}