{
  "num": "autog_0249-2563_1982_num_15_8",
  "article": "autog_0249-2563_1982_num_15_8_1483",
  "page_name": "autog_0249-2563_1982_num_15_8_T1_0169_0000",
  "questions": [
    {
      "id_qa": "autog_0249-2563_1982_num_15_8_T1_0169_0000_qa2_v3",
      "id_block": "block_1",
      "question": "Qu'est ce qui se pérennise par corrections successives ?",
      "answer": "le centre",
      "answer_stringIds": [
        "string_109",
        "string_110"
      ]
    },
    {
      "id_qa": "autog_0249-2563_1982_num_15_8_T1_0169_0000_qa4_v3",
      "id_block": "block_1",
      "question": "Par quoi se pérennise le centre ?",
      "answer": "corrections successives",
      "answer_stringIds": [
        "string_114",
        "string_115"
      ]
    },
    {
      "id_qa": "autog_0249-2563_1982_num_15_8_T1_0169_0000_qa5_v3",
      "id_block": "block_2",
      "question": "Qu'est ce qui doit se dissoudre à l'intérieur de ce nuage planétaire qui annule les jeux de leurs interactions ?",
      "answer": "Périphéries et centres",
      "answer_stringIds": [
        "string_168",
        "string_169",
        "string_170"
      ]
    },
    {
      "id_qa": "autog_0249-2563_1982_num_15_8_T1_0169_0000_qa10_v3",
      "id_block": "block_2",
      "question": "Qu'est ce qui annule les jeux de leurs interactions ?",
      "answer": "ce nuage planétaire",
      "answer_stringIds": [
        "string_177",
        "string_178",
        "string_179"
      ]
    },
    {
      "id_qa": "autog_0249-2563_1982_num_15_8_T1_0169_0000_qa8_v3",
      "id_block": "block_2",
      "question": "Qu'est ce qui se dissout à l'intérieur de ce nuage planétaire qui annule les jeux de leurs interactions ?",
      "answer": "Périphéries et centres",
      "answer_stringIds": [
        "string_168",
        "string_169",
        "string_170"
      ]
    },
    {
      "id_qa": "autog_0249-2563_1982_num_15_8_T1_0169_0000_qa15_v3",
      "id_block": "block_4",
      "question": "Qui est le vent d'Ouest ?",
      "answer": "Zéphyr",
      "answer_stringIds": [
        "string_229"
      ]
    }
  ]
}