{
  "num": "autog_0249-2563_1982_num_15_8",
  "article": "autog_0249-2563_1982_num_15_8_1483",
  "page_name": "autog_0249-2563_1982_num_15_8_T1_0172_0000",
  "questions": [
    {
      "id_qa": "autog_0249-2563_1982_num_15_8_T1_0172_0000_qa2_v3",
      "id_block": "block_0",
      "question": "Qu'est-ce qui est à l'oeuvre au niveau des pratiques de ces nouveaux humanistes ?",
      "answer": "inversions",
      "answer_stringIds": [
        "string_16"
      ]
    },
    {
      "id_qa": "autog_0249-2563_1982_num_15_8_T1_0172_0000_qa3_v3",
      "id_block": "block_0",
      "question": "Qu'est ce qui reste en suspens ?",
      "answer": "bien des questions",
      "answer_stringIds": [
        "string_33",
        "string_34",
        "string_35",
        "string_36"
      ]
    },
    {
      "id_qa": "autog_0249-2563_1982_num_15_8_T1_0172_0000_qa0_v3",
      "id_block": "block_2",
      "question": "Quelle est la conséquence de l'utilisation des psycho-technologies ?",
      "answer": "leur panoplie",
      "answer_stringIds": [
        "string_161",
        "string_162"
      ]
    },
    {
      "id_qa": "autog_0249-2563_1982_num_15_8_T1_0172_0000_qa8_v3",
      "id_block": "block_2",
      "question": "Qui définit les nouvelles \"technologies\" ?",
      "answer": "Robert Castel",
      "answer_stringIds": [
        "string_80",
        "string_81"
      ]
    },
    {
      "id_qa": "autog_0249-2563_1982_num_15_8_T1_0172_0000_qa4_v3",
      "id_block": "block_3",
      "question": "Qu'est-ce qui peut se conquérir en interaction avec des processus d'autonomisation plus larges ?",
      "answer": "autonomie personnelle et autonomie de groupe",
      "answer_stringIds": [
        "string_210",
        "string_211",
        "string_212",
        "string_213",
        "string_214",
        "string_215",
        "string_216"
      ]
    },
    {
      "id_qa": "autog_0249-2563_1982_num_15_8_T1_0172_0000_qa5_v3",
      "id_block": "block_3",
      "question": "Quelle est la richesse des relations de réciprocité locales ?",
      "answer": "entités socio-économiques et culturelles",
      "answer_stringIds": [
        "string_243",
        "string_244",
        "string_245",
        "string_246"
      ]
    }
  ]
}