{
  "num": "autog_0338-7259_1973_num_22_1",
  "article": "autog_0338-7259_1973_num_22_1_1082",
  "page_name": "FMSH_PB188a_22-23_102",
  "questions": [
    {
      "id_qa": "FMSH_PB188a_22-23_102_qa9_v3",
      "id_block": "block_1",
      "question": "Qui exerce le pouvoir de l'Etat ?",
      "answer": "une minorité",
      "answer_stringIds": [
        "string_14",
        "string_15"
      ]
    },
    {
      "id_qa": "FMSH_PB188a_22-23_102_qa12_v3",
      "id_block": "block_1",
      "question": "Quel est le pouvoir de l'Etat ?",
      "answer": "un pouvoir centralisé",
      "answer_stringIds": [
        "string_9",
        "string_10",
        "string_11"
      ]
    },
    {
      "id_qa": "FMSH_PB188a_22-23_102_qa14_v3",
      "id_block": "block_1",
      "question": "Qu'est ce qui détruit l'autogestion ?",
      "answer": "ce type de pouvoir",
      "answer_stringIds": [
        "string_35",
        "string_36",
        "string_37",
        "string_38"
      ]
    },
    {
      "id_qa": "FMSH_PB188a_22-23_102_qa17_v3",
      "id_block": "block_3",
      "question": "Quel est le but de l'autogestion sociale ?",
      "answer": "de déterminer les organisations de classe des travailleurs",
      "answer_stringIds": [
        "string_61",
        "string_62",
        "string_63",
        "string_64",
        "string_65",
        "string_66",
        "string_67",
        "string_68"
      ]
    },
    {
      "id_qa": "FMSH_PB188a_22-23_102_qa20_v3",
      "id_block": "block_4",
      "question": "A quoi les classes se sont-elles succédées ?",
      "answer": "au pouvoir",
      "answer_stringIds": [
        "string_95",
        "string_96"
      ]
    },
    {
      "id_qa": "FMSH_PB188a_22-23_102_qa21_v3",
      "id_block": "block_4",
      "question": "Qu'est ce que la bourgeoisie a développé à l'intérieur de la féodalité ?",
      "answer": "les bases de son pouvoir",
      "answer_stringIds": [
        "string_104",
        "string_105",
        "string_106",
        "string_107",
        "string_108"
      ]
    },
    {
      "id_qa": "FMSH_PB188a_22-23_102_qa22_v3",
      "id_block": "block_4",
      "question": "Quelle était la classe dominante avant d'affirmer sa domination politique ?",
      "answer": "la bourgeoisie",
      "answer_stringIds": [
        "string_100",
        "string_101"
      ]
    },
    {
      "id_qa": "FMSH_PB188a_22-23_102_qa24_v3",
      "id_block": "block_4",
      "question": "Qu'est-ce que la bourgeoisie contrôlait avant de prendre le pouvoir d'Etat ?",
      "answer": "la vie économique",
      "answer_stringIds": [
        "string_148",
        "string_149",
        "string_150"
      ]
    },
    {
      "id_qa": "FMSH_PB188a_22-23_102_qa25_v3",
      "id_block": "block_4",
      "question": "Qui contrôle la vie économique avant d'affirmer sa domination politique ?",
      "answer": "la bourgeoisie",
      "answer_stringIds": [
        "string_100",
        "string_101"
      ]
    },
    {
      "id_qa": "FMSH_PB188a_22-23_102_qa30_v3",
      "id_block": "block_4",
      "question": "Qu'est ce que la bourgeoisie contrôlait avant de prendre le pouvoir d'Etat ?",
      "answer": "la vie économique",
      "answer_stringIds": [
        "string_148",
        "string_149",
        "string_150"
      ]
    },
    {
      "id_qa": "FMSH_PB188a_22-23_102_qa31_v3",
      "id_block": "block_4",
      "question": "Qu'est ce qui est appliqué au prolétariat ?",
      "answer": "le processus de la venue au pouvoir de la bourgeoisie",
      "answer_stringIds": [
        "string_228",
        "string_229",
        "string_230",
        "string_231",
        "string_232",
        "string_233",
        "string_234",
        "string_235",
        "string_236",
        "string_237"
      ]
    },
    {
      "id_qa": "FMSH_PB188a_22-23_102_qa32_v3",
      "id_block": "block_4",
      "question": "A qui est appliqué le processus de la venue au pouvoir de la bourgeoisie ?",
      "answer": "au prolétariat",
      "answer_stringIds": [
        "string_240",
        "string_241"
      ]
    },
    {
      "id_qa": "FMSH_PB188a_22-23_102_qa35_v3",
      "id_block": "block_4",
      "question": "Qui développe les bases de son pouvoir à l'intérieur du capitalisme ?",
      "answer": "le prolétariat",
      "answer_stringIds": [
        "string_116",
        "string_117"
      ]
    },
    {
      "id_qa": "FMSH_PB188a_22-23_102_qa36_v3",
      "id_block": "block_4",
      "question": "Qu'est ce que le prolétariat développe à l'intérieur du capitalisme ?",
      "answer": "les bases de son pouvoir",
      "answer_stringIds": [
        "string_104",
        "string_105",
        "string_106",
        "string_107",
        "string_108"
      ]
    },
    {
      "id_qa": "FMSH_PB188a_22-23_102_qa0_v3",
      "id_block": "block_5",
      "question": "Par quoi est organisé le pouvoir du prolétariat ?",
      "answer": "par le système industriel",
      "answer_stringIds": [
        "string_286",
        "string_287",
        "string_288",
        "string_289"
      ]
    },
    {
      "id_qa": "FMSH_PB188a_22-23_102_qa1_v3",
      "id_block": "block_5",
      "question": "Quelle est la base de son pouvoir ?",
      "answer": "trouver ce qui caractérise le prolétariat et le prolétariat seul dans le cadre de la société capitaliste",
      "answer_stringIds": [
        "string_244",
        "string_245",
        "string_246",
        "string_247",
        "string_248",
        "string_249",
        "string_250",
        "string_251",
        "string_252",
        "string_253",
        "string_254",
        "string_255",
        "string_256",
        "string_257",
        "string_258",
        "string_259",
        "string_260"
      ]
    },
    {
      "id_qa": "FMSH_PB188a_22-23_102_qa5_v3",
      "id_block": "block_5",
      "question": "Qu'est ce qui constitue la base de son pouvoir ?",
      "answer": "le prolétariat et le prolétariat",
      "answer_stringIds": [
        "string_248",
        "string_249",
        "string_250",
        "string_251",
        "string_252"
      ]
    }
  ]
}