{
  "num": "autog_0338-7259_1977_num_37_1",
  "article": "autog_0338-7259_1977_num_37_1_1213",
  "page_name": "FMSH_PB188a_37-38_021",
  "questions": [
    {
      "id_qa": "FMSH_PB188a_37-38_021_qa0_v3",
      "id_block": "block_1",
      "question": "A qui l'ignorance n'a-t-elle jamais servi ?",
      "answer": "personne",
      "answer_stringIds": [
        "string_X"
      ]
    },
    {
      "id_qa": "FMSH_PB188a_37-38_021_qa2_v3",
      "id_block": "block_1",
      "question": "Qui a essayé de faire accepter un tract à Georges Lapassade ?",
      "answer": "un étudiant",
      "answer_stringIds": [
        "string_X"
      ]
    },
    {
      "id_qa": "FMSH_PB188a_37-38_021_qa4_v3",
      "id_block": "block_1",
      "question": "Qui se plaint de ce qu'un étudiant cherchait à lui faire accepter un tract ?",
      "answer": "Georges Lapassade",
      "answer_stringIds": [
        "string_X"
      ]
    },
    {
      "id_qa": "FMSH_PB188a_37-38_021_qa5_v3",
      "id_block": "block_1",
      "question": "Qui a entendu Georges Lapassade lui-même se plaindre, à Vincennes ?",
      "answer": "J’",
      "answer_stringIds": [
        "string_X"
      ]
    },
    {
      "id_qa": "FMSH_PB188a_37-38_021_qa6_v3",
      "id_block": "block_1",
      "question": "Qu'est ce que cherchait Georges Lapassade à Vincennes ?",
      "answer": "à lui faire accepter un tract en tant que mémoire de maîtrise",
      "answer_stringIds": [
        "string_X"
      ]
    },
    {
      "id_qa": "FMSH_PB188a_37-38_021_qa8_v3",
      "id_block": "block_1",
      "question": "Où Georges Lapassade se plaint-il de ce qu'un étudiant cherchait à lui faire accepter un tract ?",
      "answer": "à Vincennes",
      "answer_stringIds": [
        "string_X"
      ]
    },
    {
      "id_qa": "FMSH_PB188a_37-38_021_qa16_v3",
      "id_block": "block_2",
      "question": "Que peut déployer \"le penseur\" dans un espace illimité ?",
      "answer": "ses arabesques intellectuelles",
      "answer_stringIds": [
        "string_X"
      ]
    },
    {
      "id_qa": "FMSH_PB188a_37-38_021_qa17_v3",
      "id_block": "block_2",
      "question": "Quelles sont les formes de l'autogestion ?",
      "answer": "des formes plus fines",
      "answer_stringIds": [
        "string_X"
      ]
    },
    {
      "id_qa": "FMSH_PB188a_37-38_021_qa31_v3",
      "id_block": "block_3",
      "question": "Comment étaient les théoriciens de la démocratie sous la royauté absolue ?",
      "answer": "comme des utopistes",
      "answer_stringIds": [
        "string_X"
      ]
    },
    {
      "id_qa": "FMSH_PB188a_37-38_021_qa32_v3",
      "id_block": "block_3",
      "question": "Qui apparaissaient comme des utopistes ?",
      "answer": "les théoriciens de la démocratie",
      "answer_stringIds": [
        "string_X"
      ]
    },
    {
      "id_qa": "FMSH_PB188a_37-38_021_qa33_v3",
      "id_block": "block_3",
      "question": "Par qui est-ce que la croyance est maintenue ?",
      "answer": "par les couches dominantes",
      "answer_stringIds": [
        "string_X"
      ]
    }
  ]
}