{
  "num": "autog_0338-7259_1977_num_39_1",
  "article": "autog_0338-7259_1977_num_39_1_1254",
  "page_name": "FMSH_PB188a_00039_082",
  "questions": [
    "Quel type de folklore est-il question ici et comment se distingue-t-il des autres?",
    "Quels intellectuels sont-ils désignés ici et comment sont-ils différents des intellectuels révolutionnaires?",
    "Quels sont les objectifs du Mouvement de Libération Nationale voltaïque (M.L.N) en matière de cohabitation physique entre citadins et paysans?",
    "Quels sont les groupes de cadres particulièrement privilégiés dans la révolution et pourquoi?",
    "Quels pays encouragent particulièrement ces cadres et quels sont les obligations imposées aux jeunes fonctionnaires et médecins?",
    "Comment est définie la médiation du travail dans ce contexte?",
    "Quel est le rôle du cadre tanzanien dans sa communauté et quels sont ses réticences à travailler avec les paysans?",
    "Comment est-il qualifié de péché originel de l'intelligentsia africaine et comment cela l'empêche-t-il de jouer son rôle historique?",
    "Quels sont les actions exemplaires des étudiants algériens volontaires et comment évite-t-elle à l'intellectuel africain de céder à la dérive onirique?"
  ]
}