{
  "num": "autog_0338-7259_1977_num_39_1",
  "article": "autog_0338-7259_1977_num_39_1_1254",
  "page_name": "FMSH_PB188a_00039_079",
  "questions": [
    "Quels orthodoxes du marxisme réaffirment la prééminence de la classe ouvrière ?",
    "Existe-t-il une classe ouvrière en l'absence de laquelle notre histoire ne serait pas conforme aux prévisions de Marx ?",
    "Quels peuples ont pu ou peuvent passer au socialisme sans transiter nécessairement par le capitalisme ?",
    "Qu'est le concept de bloc historique selon Gramsci ?",
    "Comment le bloc historique fonctionne-t-il pour maintenir une classe dominante en place ?",
    "Comment les classes d'avant-garde peuvent-elles s'assurer l'hégémonie culturelle avant de conquérir le pouvoir économique et politique ?",
    "Qu'est la « révolution culturelle » selon Gramsci ?",
    "Comment cette stratégie de Gramsci diffère-telle de la théorie dogmatique et mécanique de l'économisme stalinien ?",
    "Quel bloc historique organisationnel correspond au bloc historique doctrinal ?",
    "Comment cette capacité d'une ou plusieurs catégories ou classes sociales de susciter et structurer le consensus fonctionne-t-elle ?"
  ]
}