{
  "num": "autog_0338-7259_1977_num_39_1",
  "article": "autog_0338-7259_1977_num_39_1_1254",
  "page_name": "FMSH_PB188a_00039_073",
  "questions": [
    "Quel est le pourcentage approximatif de la population active qui est composée de travailleurs classés ouvriers en Afrique ?",
    "Quel est le niveau de formation de la classe ouvrière africaine ?",
    "Comment les chômeurs influencent l'esprit des travailleurs ouvriers africains ?",
    "Quel est le rapport entre le revenu monétaire d'un travailleur ouvrier et celui d'un paysan moyen ?",
    "Quel est le rôle du gouvernement dans le contexte syndical africain ?",
    "Quels sont les principales cibles des actions syndicales en Afrique ?",
    "Comment les influences extérieures affectent-elles l'intégration de la classe ouvrière sur une base africaine ?",
    "Pourquoi le pourcentage de travailleurs ouvriers dans la population active n'est-il pas le seul facteur décisif ?",
    "Quel est le pourcentage de la population active qui travaille dans l'industrie en Chine aujourd'hui ?",
    "Quand le pourcentage de travailleurs ouvriers dans la population active était plus faible en Chine, quelle était la situation ?",
    "Quel est le facteur clé qui compte dans le contexte du monde ouvrier africain ?",
    "Quel est le pourcentage de salariés sénégalais du secteur privé qui travaillent dans la région du Cap-Vert ?"
  ]
}