{
  "num": "autog_0249-2563_1980_num_13_1",
  "article": "autog_0249-2563_1980_num_13_1_1345",
  "page_name": "autog_0249-2563_1980_num_13_1_T1_0069_0000",
  "questions": [
    {
      "id_qa": "autog_0249-2563_1980_num_13_1_T1_0069_0000_qa2_v3",
      "id_block": "block_2",
      "question": "A quoi a conduit certains « leaders révolutionnaires » des années soixante ?",
      "answer": "à la révolution mystique intérieure",
      "answer_stringIds": [
        "string_71",
        "string_72",
        "string_73",
        "string_74",
        "string_75"
      ]
    },
    {
      "id_qa": "autog_0249-2563_1980_num_13_1_T1_0069_0000_qa3_v3",
      "id_block": "block_3",
      "question": "Qu'est-ce qui transforme les rapports sociaux et libidinaux internes et externes ?",
      "answer": "un collectif en lutte",
      "answer_stringIds": [
        "string_99",
        "string_100",
        "string_101",
        "string_102"
      ]
    },
    {
      "id_qa": "autog_0249-2563_1980_num_13_1_T1_0069_0000_qa5_v3",
      "id_block": "block_3",
      "question": "Qu'est-ce qui transforme un collectif en lutte ?",
      "answer": "ses rapports sociaux et libidinaux internes et externes",
      "answer_stringIds": [
        "string_108",
        "string_109",
        "string_110",
        "string_111",
        "string_112",
        "string_113",
        "string_114",
        "string_115"
      ]
    },
    {
      "id_qa": "autog_0249-2563_1980_num_13_1_T1_0069_0000_qa6_v3",
      "id_block": "block_3",
      "question": "Quelle est la conséquence de la division du travail et du savoir ?",
      "answer": "action anti-étatique et auto-analytique du collectif",
      "answer_stringIds": [
        "string_146",
        "string_147",
        "string_148",
        "string_149",
        "string_150",
        "string_151"
      ]
    },
    {
      "id_qa": "autog_0249-2563_1980_num_13_1_T1_0069_0000_qa7_v3",
      "id_block": "block_3",
      "question": "Qu'est ce qui transforme un collectif en lutte ?",
      "answer": "ses rapports sociaux et libidinaux internes et externes",
      "answer_stringIds": [
        "string_108",
        "string_109",
        "string_110",
        "string_111",
        "string_112",
        "string_113",
        "string_114",
        "string_115"
      ]
    },
    {
      "id_qa": "autog_0249-2563_1980_num_13_1_T1_0069_0000_qa8_v3",
      "id_block": "block_3",
      "question": "Qu'est ce qui ralentit l'action anti-étatique et auto-analytique du collectif ?",
      "answer": "une division du travail et du savoir",
      "answer_stringIds": [
        "string_134",
        "string_135",
        "string_136",
        "string_137",
        "string_138",
        "string_139",
        "string_140"
      ]
    },
    {
      "id_qa": "autog_0249-2563_1980_num_13_1_T1_0069_0000_qa9_v3",
      "id_block": "block_3",
      "question": "Qu'est ce qui transforme les rapports sociaux et libidinaux internes et externes ?",
      "answer": "un collectif en lutte",
      "answer_stringIds": [
        "string_99",
        "string_100",
        "string_101",
        "string_102"
      ]
    },
    {
      "id_qa": "autog_0249-2563_1980_num_13_1_T1_0069_0000_qa0_v3",
      "id_block": "block_6",
      "question": "De quand date l'Assemblée générale ?",
      "answer": "historiquement",
      "answer_stringIds": [
        "string_245"
      ]
    }
  ]
}