{
  "num": "autog_0005-0970_1967_num_4_1",
  "article": "autog_0005-0970_1967_num_4_1_1930",
  "page_name": "FMSH_PB188a_00004_003",
  "questions": [
    {
      "id_qa": "FMSH_PB188a_00004_003_qa0_v3",
      "id_block": "block_16",
      "question": "Qu'est ce qui ébranla Jean-Jacques MARIE ?",
      "answer": "le monde",
      "answer_stringIds": [
        "string_173",
        "string_174"
      ]
    },
    {
      "id_qa": "FMSH_PB188a_00004_003_qa1_v3",
      "id_block": "block_16",
      "question": "Qu'est ce qui ébranla le monde ?",
      "answer": "Les paroles qui",
      "answer_stringIds": [
        "string_169",
        "string_170",
        "string_171"
      ]
    }
  ]
}