{
  "num": "autog_0249-2563_1981_num_14_5",
  "article": "autog_0249-2563_1981_num_14_5_1417",
  "page_name": "autog_0249-2563_1981_num_14_5_T1_0104_0000",
  "questions": [
    "Quels facteurs expliquent l'ambiguïté de la réaction de la gauche occidentale ?",
    "En quelle situation est la gauche occidentale aujourd'hui en termes de mobilisation ?",
    "Comment la gauche occidentale s'est mobilisée jusqu'ici ?",
    "Quel est le rôle de l'Union soviétique dans la réaction de la gauche occidentale ?",
    "Comment les événements polonais affectent-ils les schémas de la gauche occidentale ?",
    "Quel est le lien entre la gauche occidentale et l'Union soviétique ?",
    "Pourquoi la situation polonaise est-elle la plus difficile pour mobiliser les gens ?",
    "Quel serait le pire scénario pour la gauche occidentale dans la situation polonaise ?",
    "Quel rôle pourrait intervenir l'Église et le monde syndical dans la situation polonaise ?",
    "Quel serait le rôle potentiel de l'intervention soviétique dans la situation polonaise ?",
    "Quel est le rôle de l'apathie dans la réaction de la gauche occidentale ?",
    "Comment la situation polonaise peut-elle agir sur les tendances actuelles ?",
    "Quel est le rôle de l'idéalisation des pays lointains dans la réaction de la gauche occidentale ?",
    "Comment la gauche occidentale s'est mobilisée dans le cas d'un pays lointain ?",
    "Comment la gauche occidentale s'est mobilisée après une intervention soviétique ?",
    "Quel est le rôle de la démission du militantisme dans la réaction de la gauche occidentale ?",
    "Comment la situation polonaise peut-elle simplifier la tâche de la gauche occidentale ?",
    "Comment la situation polonaise peut-elle forcer la gauche occidentale à sortir de ses demi-silences ?"
  ]
}