{
  "num": "autog_0249-2563_1981_num_14_5",
  "article": "autog_0249-2563_1981_num_14_5_1417",
  "page_name": "autog_0249-2563_1981_num_14_5_T1_0100_0000",
  "questions": [
    "Quels événements sont évoqués dans le paragraphe et quand se déroulent-ils ?",
    "Comment les personnes présentes à l'usine se comportaient-elles en 1970 et 1976 ?",
    "Quels moyens utilisaient les ouvriers pour assurer la démocratie dans leur mouvement ?",
    "Quel rôle jouait le mouvement dans la société polonaise à cette époque ?",
    "Quels sont les rôles joués par les « experts » et l'Église dans ces événements ?",
    "Les « experts » risquent-ils de prendre une place et un rôle important dans la société polonaise à long terme ?"
  ]
}