{
  "num": "autog_0249-2563_1981_num_14_6",
  "article": "autog_0249-2563_1981_num_14_6_1444",
  "page_name": "autog_0249-2563_1981_num_14_6_T1_0262_0000",
  "questions": [
    "Quels lieux communs sur l'anarchisme, le communisme et la fatalité des hiérarchies sociales réchauffe-t-il sans cesse dans son argumentation ?",
    "Qu'est ce que le Scribe décrit de la société à longueur de pages ?",
    "Qu'est ce qu'il vénère avec ferveur dans le socialisme réel et dans la bureaucratie du savoir et de la compétence ?",
    "Qu'est ce qui transparaît sous les parures dont il les affuble ?",
    "Pourquoi le Scribe ne réussirait-il pas mieux que d'autres ?",
    "Qu'est ce qu'il jette par-dessus bord dans l'approche matérialiste ?",
    "Qu'est ce qu'il qualifie de « matérialiste » ?",
    "Qu'est ce « besoin de cléricature » ?",
    "Comment ce besoin nous ramène-t-il plutôt ?",
    "Qu'est ce que le système mondial du socialisme échappe par définition à ?",
    "Comment peut-on perturber ce système ?",
    "Qu'est ce qui risque alors ?",
    "Quels ingénieurs des âmes socialistes veillent-ils ?",
    "Comment veillent-ils ?",
    "Quels événements historiques sont cités comme risquant « explosion, effraction ou rupture » ?",
    "Qu'entendent les masses soumises aux lois édictées par les clercs ?"
  ]
}