{
  "num": "autog_0249-2563_1981_num_14_6",
  "article": "autog_0249-2563_1981_num_14_6_1444",
  "page_name": "autog_0249-2563_1981_num_14_6_T1_0260_0000",
  "questions": [
    "Dans quelle société cette personne prétend que les hommes ne seront jamais des travailleurs associés ?",
    "Quels sont les hommes que cette personne considère comme des travailleurs institués ?",
    "Par qui sont ces hommes institués ?",
    "Quel est le rôle de ces hommes dans cette société ?",
    "Qu'est-ce que Régis Debray entend par « cette chose » qui dépasse ou surplombe une institution ?",
    "Qu'est le rôle de l'intellectuel dans la pensée de Régis Debray ?",
    "Quel est le coût social selon Debray ?",
    "Quel est le rôle de l'appareil bureaucratique dans la société selon Debray ?",
    "Comment Debray caractérise les travailleurs non intellectuels ?",
    "Comment Debray décrit le sort réservé aux travailleurs non intellectuels ?",
    "Quels sont les leaders politiques mentionnés dans le texte avec qui Régis Debray a été associé ?",
    "Pourquoi, selon Debray, l'intellectuel ne s'élève pas jusqu'à l'égalitarisme du petit-bourgeois révolutionnaire ?",
    "Quel est le sort réservé aux « basistes » selon Debray ?"
  ]
}