{
  "num": "autog_0249-2563_1981_num_14_6",
  "article": "autog_0249-2563_1981_num_14_6_1444",
  "page_name": "FMSH_PB188a_NS_00006_127",
  "questions": [
    "Quels groupes sont impliqués dans la lutte pour une société sans hiérarchie ?",
    "Pourquoi est-il impossible pour une organisation d'être à la fois pleinement elle-même et relative à elle-même selon le Scribe ?",
    "Quel est le rôle de l'intellectuel organique selon le Scribe ?",
    "Qu'est-ce que le clerc se sacrifie pour ?",
    "Qu'est l'ennemi pour le clerc ?",
    "Qu'est le rapport entre le clerc et la superstition selon le Scribe ?",
    "Pourquoi le Scribe veut-il ramener les processus sociaux à des lois et théorèmes ?",
    "Imaginerions-nous les disciples de Galilée se réclamer de lui alors qu'ils pensent que l'Église avait raison contre lui ?",
    "Qu'est le rôle du marxisme selon le Scribe ?",
    "Qu'est la fonction positive de l'œuvre de Marx selon le Scribe ?"
  ]
}