{
  "num": "autog_0249-2563_1981_num_14_5",
  "article": "autog_0249-2563_1981_num_14_5_1414",
  "page_name": "autog_0249-2563_1981_num_14_5_T1_0081_0000",
  "questions": [
    "Quel rôle joue la transformation en question dans la société polonaise de l'époque ?",
    "En quelle direction pourrait s'engager cette transformation ?",
    "Quels sont les difficultés actuelles dans le processus d'institutionalisation de la lutte contre la représentation ?",
    "Quel risque existe pour le mouvement qui s'institutionalise ?",
    "Quels sont les premiers pas pris par le premier syndicat indépendant et autogéré de Gdansk ?",
    "Quel rôle joue le crucifix dans le nouveau local du syndicat ?",
    "Quels sont les conditions de travail acceptées après la grève ?",
    "Quels sont les motivations des autorités gouvernementales et des leaders syndicaux et politiques d'opposition pour que les masses reprennent le travail au plus vite ?",
    "Quel rôle joue la discipline du travail dans la grande industrie dans le processus de normalisation ?"
  ]
}