{
  "num": "autog_0249-2563_1982_num_15_11",
  "article": "autog_0249-2563_1982_num_15_11_1519",
  "page_name": "autog_0249-2563_1982_num_15_11_T1_0131_0000",
  "questions": [
    {
      "id_qa": "autog_0249-2563_1982_num_15_11_T1_0131_0000_qa0_v3",
      "id_block": "block_16",
      "question": "Qu'est-ce qui grignote les consciences ?",
      "answer": "le féminisme",
      "answer_stringIds": [
        "string_275",
        "string_276"
      ]
    },
    {
      "id_qa": "autog_0249-2563_1982_num_15_11_T1_0131_0000_qa1_v3",
      "id_block": "block_16",
      "question": "Que grignote le féminisme ?",
      "answer": "les consciences",
      "answer_stringIds": [
        "string_278",
        "string_279"
      ]
    },
    {
      "id_qa": "autog_0249-2563_1982_num_15_11_T1_0131_0000_qa2_v3",
      "id_block": "block_2",
      "question": "Qui s'en mêle au Pérou ?",
      "answer": "les militaires",
      "answer_stringIds": [
        "string_11",
        "string_12"
      ]
    }
  ]
}