{
  "num": "autog_0338-7259_1972_num_18_1",
  "article": "autog_0338-7259_1972_num_18_1_1028",
  "page_name": "FMSH_PB188a_18-19_031",
  "questions": [
    {
      "id_qa": "FMSH_PB188a_18-19_031_qa0_v3",
      "id_block": "block_1",
      "question": "A quoi est appliqué son propre bien-être ?",
      "answer": "au travail",
      "answer_stringIds": [
        "string_38",
        "string_39"
      ]
    },
    {
      "id_qa": "FMSH_PB188a_18-19_031_qa15_v3",
      "id_block": "block_2",
      "question": "Quel parti politique s'est retiré de l'Alliance de la Démocratie socialiste ?",
      "answer": "de la Ligue de la Paix et de la Liberté",
      "answer_stringIds": [
        "string_102",
        "string_103",
        "string_104",
        "string_105",
        "string_106",
        "string_107",
        "string_108",
        "string_109",
        "string_110",
        "string_111"
      ]
    },
    {
      "id_qa": "FMSH_PB188a_18-19_031_qa16_v3",
      "id_block": "block_2",
      "question": "Quand l'Alliance de la Démocratie socialiste a-t-elle été fondée ?",
      "answer": "en 1868",
      "answer_stringIds": [
        "string_92",
        "string_93"
      ]
    },
    {
      "id_qa": "FMSH_PB188a_18-19_031_qa20_v3",
      "id_block": "block_2",
      "question": "Qui répète inlassablement l'énoncé de ces buts ?",
      "answer": "Bakounine",
      "answer_stringIds": [
        "string_71"
      ]
    },
    {
      "id_qa": "FMSH_PB188a_18-19_031_qa7_v3",
      "id_block": "block_3",
      "question": "Qu'est-ce que la terre ?",
      "answer": "les instruments de travail",
      "answer_stringIds": [
        "string_134",
        "string_135",
        "string_136",
        "string_137"
      ]
    },
    {
      "id_qa": "FMSH_PB188a_18-19_031_qa9_v3",
      "id_block": "block_4",
      "question": "Qu'est ce qui doit disparaître dans l'union universelle des libres associations tant agricoles qu'industrielles ?",
      "answer": "Etats politiques",
      "answer_stringIds": [
        "string_197",
        "string_198"
      ]
    },
    {
      "id_qa": "FMSH_PB188a_18-19_031_qa17_v3",
      "id_block": "block_5",
      "question": "Qui a adhéré à l'Internationale ?",
      "answer": "Bakounine",
      "answer_stringIds": [
        "string_71"
      ]
    },
    {
      "id_qa": "FMSH_PB188a_18-19_031_qa18_v3",
      "id_block": "block_5",
      "question": "Par qui est constituée l'Internationale ?",
      "answer": "par des associations ouvrières",
      "answer_stringIds": [
        "string_227",
        "string_228",
        "string_229",
        "string_230"
      ]
    },
    {
      "id_qa": "FMSH_PB188a_18-19_031_qa22_v3",
      "id_block": "block_5",
      "question": "Qu'est-ce que les « unions de métiers » ?",
      "answer": "des syndicats ouvriers",
      "answer_stringIds": [
        "string_256",
        "string_257",
        "string_258"
      ]
    },
    {
      "id_qa": "FMSH_PB188a_18-19_031_qa24_v3",
      "id_block": "block_5",
      "question": "Où est-ce que le socialisme est le fondement du socialisme ?",
      "answer": "dans les associations ouvrières",
      "answer_stringIds": [
        "string_289",
        "string_290",
        "string_291",
        "string_292"
      ]
    }
  ]
}