{
  "num": "autog_0338-7259_1972_num_18_1",
  "article": "autog_0338-7259_1972_num_18_1_1028",
  "page_name": "FMSH_PB188a_18-19_020",
  "questions": [
    {
      "id_qa": "FMSH_PB188a_18-19_020_qa33_v3",
      "id_block": "block_1",
      "question": "Quelle est la force collective des bras qu'elles animent ?",
      "answer": "une force collective plus grande que leur multitude même",
      "answer_stringIds": [
        "string_10",
        "string_11",
        "string_12",
        "string_13",
        "string_14",
        "string_15",
        "string_16",
        "string_17",
        "string_18"
      ]
    },
    {
      "id_qa": "FMSH_PB188a_18-19_020_qa0_v3",
      "id_block": "block_2",
      "question": "Qui a écrit des principes et des buts ?",
      "answer": "Proudhon",
      "answer_stringIds": [
        "string_24"
      ]
    },
    {
      "id_qa": "FMSH_PB188a_18-19_020_qa1_v3",
      "id_block": "block_2",
      "question": "Qu'est ce que Proudhon s'est-il contenté d'affirmer ?",
      "answer": "des principes et des buts",
      "answer_stringIds": [
        "string_30",
        "string_31",
        "string_32",
        "string_33",
        "string_34"
      ]
    },
    {
      "id_qa": "FMSH_PB188a_18-19_020_qa4_v3",
      "id_block": "block_2",
      "question": "Qui s'est appuyé sur des principes et des buts ?",
      "answer": "Proudhon",
      "answer_stringIds": [
        "string_24"
      ]
    },
    {
      "id_qa": "FMSH_PB188a_18-19_020_qa6_v3",
      "id_block": "block_2",
      "question": "Dans quelle période peut-on discuter la valeur d'une action ?",
      "answer": "dans le temps où elles furent lancées",
      "answer_stringIds": [
        "string_58",
        "string_59",
        "string_60",
        "string_61",
        "string_62",
        "string_63",
        "string_64"
      ]
    },
    {
      "id_qa": "FMSH_PB188a_18-19_020_qa7_v3",
      "id_block": "block_2",
      "question": "Qu'est-ce qui peut être discuté dans le temps où elles furent lancées ?",
      "answer": "la valeur",
      "answer_stringIds": [
        "string_51",
        "string_52"
      ]
    },
    {
      "id_qa": "FMSH_PB188a_18-19_020_qa8_v3",
      "id_block": "block_2",
      "question": "Qu'est-ce que les modalités ?",
      "answer": "la valeur",
      "answer_stringIds": [
        "string_51",
        "string_52"
      ]
    },
    {
      "id_qa": "FMSH_PB188a_18-19_020_qa16_v3",
      "id_block": "block_3",
      "question": "Qu'est-ce que l'escompte des valeurs ?",
      "answer": "à aucun intérêt",
      "answer_stringIds": [
        "string_153",
        "string_154",
        "string_155"
      ]
    },
    {
      "id_qa": "FMSH_PB188a_18-19_020_qa18_v3",
      "id_block": "block_3",
      "question": "Quelle était l'idée chère à Proudhon ?",
      "answer": "devait",
      "answer_stringIds": [
        "string_117"
      ]
    },
    {
      "id_qa": "FMSH_PB188a_18-19_020_qa20_v3",
      "id_block": "block_3",
      "question": "Qu'a réclamé Proudhon par voie législative ?",
      "answer": "Cette banque",
      "answer_stringIds": [
        "string_115",
        "string_116"
      ]
    },
    {
      "id_qa": "FMSH_PB188a_18-19_020_qa34_v3",
      "id_block": "block_4",
      "question": "Qui échoua dans sa tentative ?",
      "answer": "Proudhon",
      "answer_stringIds": [
        "string_24"
      ]
    },
    {
      "id_qa": "FMSH_PB188a_18-19_020_qa9_v3",
      "id_block": "block_5",
      "question": "Quand Marx a-t-il écrit Qu'est ce que la propriété ?",
      "answer": "en 1868",
      "answer_stringIds": [
        "string_297",
        "string_298"
      ]
    },
    {
      "id_qa": "FMSH_PB188a_18-19_020_qa10_v3",
      "id_block": "block_5",
      "question": "Qui a écrit le Capital ?",
      "answer": "Marx",
      "answer_stringIds": [
        "string_288"
      ]
    },
    {
      "id_qa": "FMSH_PB188a_18-19_020_qa11_v3",
      "id_block": "block_5",
      "question": "Qui a exposé la supériorité du travail collectif ?",
      "answer": "Proudhon",
      "answer_stringIds": [
        "string_24"
      ]
    },
    {
      "id_qa": "FMSH_PB188a_18-19_020_qa12_v3",
      "id_block": "block_5",
      "question": "Quand est paru le Capital ?",
      "answer": "en 1868",
      "answer_stringIds": [
        "string_297",
        "string_298"
      ]
    },
    {
      "id_qa": "FMSH_PB188a_18-19_020_qa13_v3",
      "id_block": "block_5",
      "question": "Quand Proudhon a-t-il exposé Qu'est ce que la propriété ?",
      "answer": "dès 1840",
      "answer_stringIds": [
        "string_276",
        "string_277"
      ]
    },
    {
      "id_qa": "FMSH_PB188a_18-19_020_qa14_v3",
      "id_block": "block_5",
      "question": "Qu'est ce que la propriété ?",
      "answer": "la supériorité du travail collectif",
      "answer_stringIds": [
        "string_265",
        "string_266",
        "string_267",
        "string_268",
        "string_269"
      ]
    }
  ]
}