{
  "num": "autog_0338-7259_1972_num_20_1",
  "article": "autog_0338-7259_1972_num_20_1_1066",
  "page_name": "FMSH_PB188a_20-21_106",
  "questions": [
    "Quel climat social permet la naissance des premières critiques contre l'organisation sociale et le capitalisme ?",
    "Quels sont les premiers détenteurs de la propriété ecclésiastique au Portugal après la réforme politique et l'industrialisation ?",
    "Quels impôts seigneuriaux sont maintenus en vigueur par le ministre Cabral ?",
    "Comment les salaires sont-ils affectés par les nouvelles politiques économiques ?",
    "Quels sont les principaux acteurs de la révolution Patuleia ?",
    "Quels groupes sociaux se joignent à la révolution Patuleia ?",
    "Quels sont les principaux bénéficiaires de la révolution Patuleia ?",
    "Comment la révolution Patuleia est-elle écrasée ?",
    "Quels sont les conséquences de l'écrasement de la révolution Patuleia pour la société portugaise ?"
  ]
}