{
  "num": "autog_0249-2563_1981_num_14_5",
  "article": "autog_0249-2563_1981_num_14_5_1415",
  "page_name": "autog_0249-2563_1981_num_14_5_T1_0088_0000",
  "questions": [
    {
      "id_qa": "autog_0249-2563_1981_num_14_5_T1_0088_0000_qa17_v3",
      "id_block": "block_0",
      "question": "Quel est le surnom du conseil ?",
      "answer": "Camarades",
      "answer_stringIds": [
        "string_68"
      ]
    },
    {
      "id_qa": "autog_0249-2563_1981_num_14_5_T1_0088_0000_qa18_v3",
      "id_block": "block_0",
      "question": "Qu'est ce qui pourrait être élu par la volonté de moins d'un quart du groupe ?",
      "answer": "un conseil",
      "answer_stringIds": [
        "string_101",
        "string_102"
      ]
    },
    {
      "id_qa": "autog_0249-2563_1981_num_14_5_T1_0088_0000_qa49_v3",
      "id_block": "block_1",
      "question": "Quelle est la particularité du scrutin secret ?",
      "answer": "de candidats imposés",
      "answer_stringIds": [
        "string_166",
        "string_167",
        "string_168"
      ]
    },
    {
      "id_qa": "autog_0249-2563_1981_num_14_5_T1_0088_0000_qa50_v3",
      "id_block": "block_1",
      "question": "Qu'est ce qui est imposé par en haut ?",
      "answer": "de candidats",
      "answer_stringIds": [
        "string_166",
        "string_167"
      ]
    },
    {
      "id_qa": "autog_0249-2563_1981_num_14_5_T1_0088_0000_qa13_v3",
      "id_block": "block_2",
      "question": "Combien de temps a duré la journée des travailleurs ?",
      "answer": "une après-midi",
      "answer_stringIds": [
        "string_251",
        "string_252"
      ]
    },
    {
      "id_qa": "autog_0249-2563_1981_num_14_5_T1_0088_0000_qa21_v3",
      "id_block": "block_2",
      "question": "Qu'est ce qui disparaissait lors de la grève ?",
      "answer": "ces gens",
      "answer_stringIds": [
        "string_238",
        "string_239"
      ]
    },
    {
      "id_qa": "autog_0249-2563_1981_num_14_5_T1_0088_0000_qa30_v3",
      "id_block": "block_2",
      "question": "A quoi sert sans doute à rien d'aller aux élections ?",
      "answer": "au syndicat",
      "answer_stringIds": [
        "string_233",
        "string_234"
      ]
    },
    {
      "id_qa": "autog_0249-2563_1981_num_14_5_T1_0088_0000_qa31_v3",
      "id_block": "block_2",
      "question": "Qu'est ce qui a lieu une fois tous les deux ans ?",
      "answer": "Les élections",
      "answer_stringIds": [
        "string_126",
        "string_127"
      ]
    },
    {
      "id_qa": "autog_0249-2563_1981_num_14_5_T1_0088_0000_qa23_v3",
      "id_block": "block_3",
      "question": "Qu'est ce qui oblige les Camarades à changer ?",
      "answer": "leur emploi du temps",
      "answer_stringIds": [
        "string_330",
        "string_331",
        "string_332",
        "string_333"
      ]
    }
  ]
}