{
  "num": "autog_0249-2563_1981_num_14_7",
  "article": "autog_0249-2563_1981_num_14_7_1462_t1_0397_0000_1",
  "page_name": "autog_0249-2563_1981_num_14_7_T1_0397_0000",
  "questions": [
    "Quand a été publié le livre de Jean-Noël Jeanneney intitulé \"Leçon d'histoire pour une gauche au pouvoir\" ?",
    "Dans quelle collection a été publié ce livre ?",
    "Quel était le contexte historique dans lequel ce livre a été écrit ?",
    "Quel était le projet annoncé dans ce livre ?",
    "Quels sont les trois enseignements principaux que Jeanneney adresse aux dirigeants de gauche ?",
    "Qu'est-ce qui a fait la particularité et l'intérêt de ce livre selon vous ?",
    "Quels sont les contradictions politiques et financières du Cartel que Jeanneney a mis en évidence ?",
    "Comment Jeanneney invite-t-il à penser les événements de 1981 en comparant le Cartel et un pouvoir de gauche aujourd'hui ?"
  ]
}