{
  "num": "autog_0249-2563_1982_num_15_8",
  "article": "autog_0249-2563_1982_num_15_8_1489_t1_0233_0000_2",
  "page_name": "autog_0249-2563_1982_num_15_8_T1_0233_0000",
  "questions": [
    {
      "id_qa": "autog_0249-2563_1982_num_15_8_T1_0233_0000_qa24_v3",
      "id_block": "block_5",
      "question": "Quand est publié le livretestament ?",
      "answer": "aujourd'hui",
      "answer_stringIds": [
        "string_163"
      ]
    },
    {
      "id_qa": "autog_0249-2563_1982_num_15_8_T1_0233_0000_qa25_v3",
      "id_block": "block_5",
      "question": "Qu'est ce qui est urgent de lire ?",
      "answer": "un livretestament",
      "answer_stringIds": [
        "string_167",
        "string_168",
        "string_169"
      ]
    },
    {
      "id_qa": "autog_0249-2563_1982_num_15_8_T1_0233_0000_qa8_v3",
      "id_block": "block_6",
      "question": "Pour qui l'ensemble est très stimulant ?",
      "answer": "tous ceux",
      "answer_stringIds": [
        "string_250",
        "string_251"
      ]
    },
    {
      "id_qa": "autog_0249-2563_1982_num_15_8_T1_0233_0000_qa14_v3",
      "id_block": "block_8",
      "question": "Dans quel pays la démocratie est-elle menacée ?",
      "answer": "en France",
      "answer_stringIds": [
        "string_297",
        "string_298"
      ]
    },
    {
      "id_qa": "autog_0249-2563_1982_num_15_8_T1_0233_0000_qa1_v3",
      "id_block": "block_9",
      "question": "Qu'est-ce qui peut être défini comme un mode de gouvernement ?",
      "answer": "Ce pouvoir",
      "answer_stringIds": [
        "string_328",
        "string_329",
        "string_330"
      ]
    },
    {
      "id_qa": "autog_0249-2563_1982_num_15_8_T1_0233_0000_qa22_v3",
      "id_block": "block_9",
      "question": "Quelle société est dominée par un nouveau type de pouvoir ?",
      "answer": "La société américaine",
      "answer_stringIds": [
        "string_306",
        "string_307",
        "string_308",
        "string_309"
      ]
    }
  ]
}