{
  "num": "autog_0249-2563_1982_num_15_8",
  "article": "autog_0249-2563_1982_num_15_8_1489_t1_0233_0000_2",
  "page_name": "autog_0249-2563_1982_num_15_8_T1_0234_0000",
  "questions": [
    {
      "id_qa": "autog_0249-2563_1982_num_15_8_T1_0234_0000_qa1_v3",
      "id_block": "block_0",
      "question": "Par quoi l'affirmation serait elle simpliste ?",
      "answer": "par une démonstration elle aussi implacable",
      "answer_stringIds": [
        "string_124",
        "string_125",
        "string_126",
        "string_127",
        "string_128",
        "string_129"
      ]
    },
    {
      "id_qa": "autog_0249-2563_1982_num_15_8_T1_0234_0000_qa9_v3",
      "id_block": "block_0",
      "question": "Depuis quand le taux de sous-emploi a-t-il triplé ?",
      "answer": "depuis les années quarante",
      "answer_stringIds": [
        "string_31",
        "string_32",
        "string_33",
        "string_34",
        "string_35"
      ]
    },
    {
      "id_qa": "autog_0249-2563_1982_num_15_8_T1_0234_0000_qa10_v3",
      "id_block": "block_0",
      "question": "Qui a triplé le taux de sous-emploi ?",
      "answer": "Bertram M. Gross",
      "answer_stringIds": [
        "string_24",
        "string_25",
        "string_26"
      ]
    },
    {
      "id_qa": "autog_0249-2563_1982_num_15_8_T1_0234_0000_qa22_v3",
      "id_block": "block_0",
      "question": "Quel est le système complet de surveillance et de contrôle ?",
      "answer": "Le fascisme de bonne compagnie",
      "answer_stringIds": [
        "string_130",
        "string_131",
        "string_132",
        "string_133",
        "string_134"
      ]
    },
    {
      "id_qa": "autog_0249-2563_1982_num_15_8_T1_0234_0000_qa5_v3",
      "id_block": "block_2",
      "question": "Qu'est-ce qui permet de moduler les dits développements ?",
      "answer": "une programmation arrêtée",
      "answer_stringIds": [
        "string_266",
        "string_267",
        "string_268"
      ]
    },
    {
      "id_qa": "autog_0249-2563_1982_num_15_8_T1_0234_0000_qa13_v3",
      "id_block": "block_3",
      "question": "Qu'est-ce qui est considéré comme dangereux ou \"explosives\" ?",
      "answer": "des manifestations",
      "answer_stringIds": [
        "string_285",
        "string_286"
      ]
    },
    {
      "id_qa": "autog_0249-2563_1982_num_15_8_T1_0234_0000_qa16_v3",
      "id_block": "block_4",
      "question": "A quoi est destiné l'écart entre le policier, le geôlier, le médecin et l'instituteur ?",
      "answer": "se réduire progressivement",
      "answer_stringIds": [
        "string_382",
        "string_383",
        "string_384"
      ]
    }
  ]
}