{
  "num": "autog_0338-7259_1971_num_16_1",
  "article": "autog_0338-7259_1971_num_16_1_1020",
  "page_name": "FMSH_PB188a_16-17_168",
  "questions": [
    {
      "id_qa": "FMSH_PB188a_16-17_168_qa1_v3",
      "id_block": "block_2",
      "question": "Qui a été invité à plusieurs reprises par les centrales syndicales de la F.G.T.B ?",
      "answer": "Un des rapporteurs",
      "answer_stringIds": [
        "string_85",
        "string_86",
        "string_87"
      ]
    },
    {
      "id_qa": "FMSH_PB188a_16-17_168_qa4_v3",
      "id_block": "block_2",
      "question": "Qu'est ce qui n'a pas cessé depuis ?",
      "answer": "Les échanges",
      "answer_stringIds": [
        "string_64",
        "string_65"
      ]
    },
    {
      "id_qa": "FMSH_PB188a_16-17_168_qa5_v3",
      "id_block": "block_2",
      "question": "Qu'est ce qui est régulièrement demandé lors de ces journées ?",
      "answer": "comptes",
      "answer_stringIds": [
        "string_80"
      ]
    }
  ]
}