{
  "num": "autog_0338-7259_1971_num_16_1",
  "article": "autog_0338-7259_1971_num_16_1_1020",
  "page_name": "FMSH_PB188a_16-17_167",
  "questions": [
    {
      "id_qa": "FMSH_PB188a_16-17_167_qa1_v3",
      "id_block": "block_1",
      "question": "Dans quel pays s'est développé le syndicat ?",
      "answer": "de la Yougoslavie",
      "answer_stringIds": [
        "string_5",
        "string_6",
        "string_7"
      ]
    },
    {
      "id_qa": "FMSH_PB188a_16-17_167_qa2_v3",
      "id_block": "block_1",
      "question": "De quelle nationalité est né le parti et le syndicat ?",
      "answer": "contraire de la Yougoslavie",
      "answer_stringIds": [
        "string_4",
        "string_5",
        "string_6",
        "string_7"
      ]
    },
    {
      "id_qa": "FMSH_PB188a_16-17_167_qa3_v3",
      "id_block": "block_1",
      "question": "De qui est né le mouvement ?",
      "answer": "de la base même du parti et du syndicat",
      "answer_stringIds": [
        "string_26",
        "string_27",
        "string_28",
        "string_29",
        "string_30",
        "string_31",
        "string_32",
        "string_33",
        "string_34"
      ]
    },
    {
      "id_qa": "FMSH_PB188a_16-17_167_qa6_v3",
      "id_block": "block_1",
      "question": "Qu'est ce qui a inspiré le parti et le syndicat ?",
      "answer": "de nombreuses réflexions",
      "answer_stringIds": [
        "string_39",
        "string_40",
        "string_41"
      ]
    },
    {
      "id_qa": "FMSH_PB188a_16-17_167_qa7_v3",
      "id_block": "block_1",
      "question": "D'où vient l'inspiration du syndicat ?",
      "answer": "de loin",
      "answer_stringIds": [
        "string_43",
        "string_44"
      ]
    },
    {
      "id_qa": "FMSH_PB188a_16-17_167_qa0_v3",
      "id_block": "block_2",
      "question": "Qu'est ce qui n'est pas indépendant les uns des autres ?",
      "answer": "les défauts",
      "answer_stringIds": [
        "string_96",
        "string_97"
      ]
    },
    {
      "id_qa": "FMSH_PB188a_16-17_167_qa8_v3",
      "id_block": "block_2",
      "question": "Qui a un peu trop tendance à « loucher » vers le confort occidental ?",
      "answer": "Les jeunes",
      "answer_stringIds": [
        "string_186",
        "string_187"
      ]
    },
    {
      "id_qa": "FMSH_PB188a_16-17_167_qa11_v3",
      "id_block": "block_2",
      "question": "Qui s'empare de certains postes à pourvoir ?",
      "answer": "les arrivistes de métier",
      "answer_stringIds": [
        "string_175",
        "string_176",
        "string_177",
        "string_178"
      ]
    },
    {
      "id_qa": "FMSH_PB188a_16-17_167_qa13_v3",
      "id_block": "block_2",
      "question": "Qu'est ce qui s'empare des arrivistes de métier ?",
      "answer": "certains postes à pourvoir",
      "answer_stringIds": [
        "string_182",
        "string_183",
        "string_184",
        "string_185"
      ]
    },
    {
      "id_qa": "FMSH_PB188a_16-17_167_qa29_v3",
      "id_block": "block_3",
      "question": "Où se situe l'organisation syndicale ?",
      "answer": "dans cette société",
      "answer_stringIds": [
        "string_210",
        "string_211",
        "string_212"
      ]
    },
    {
      "id_qa": "FMSH_PB188a_16-17_167_qa15_v3",
      "id_block": "block_4",
      "question": "Quel est le rôle de frein joué par le syndicat ?",
      "answer": "par le parti",
      "answer_stringIds": [
        "string_265",
        "string_266",
        "string_267"
      ]
    },
    {
      "id_qa": "FMSH_PB188a_16-17_167_qa18_v3",
      "id_block": "block_4",
      "question": "Qui a joué le rôle de frein dans l'autogestion yougoslave ?",
      "answer": "par le parti qui",
      "answer_stringIds": [
        "string_265",
        "string_266",
        "string_267",
        "string_268"
      ]
    },
    {
      "id_qa": "FMSH_PB188a_16-17_167_qa20_v3",
      "id_block": "block_4",
      "question": "Quel rôle joue le syndicat dans l'autogestion yougoslave ?",
      "answer": "le rôle de frein",
      "answer_stringIds": [
        "string_260",
        "string_261",
        "string_262",
        "string_263"
      ]
    },
    {
      "id_qa": "FMSH_PB188a_16-17_167_qa24_v3",
      "id_block": "block_6",
      "question": "Qu'est-ce que la libéralisation ?",
      "answer": "organisations écono",
      "answer_stringIds": [
        "string_405",
        "string_406"
      ]
    }
  ]
}