{
  "num": "autog_0338-7259_1971_num_16_1",
  "article": "autog_0338-7259_1971_num_16_1_1020",
  "page_name": "FMSH_PB188a_16-17_162",
  "questions": [
    {
      "id_qa": "FMSH_PB188a_16-17_162_qa6_v3",
      "id_block": "block_3",
      "question": "Qu'est ce qui a été repris par André Renard en 1958 ?",
      "answer": "cette revendication",
      "answer_stringIds": [
        "string_72",
        "string_73"
      ]
    },
    {
      "id_qa": "FMSH_PB188a_16-17_162_qa2_v3",
      "id_block": "block_3",
      "question": "Dans quelle brochure a été reprise la revendication de contrôle ouvrier ?",
      "answer": "dans la brochure « Vers le Socialisme",
      "answer_stringIds": [
        "string_91",
        "string_92",
        "string_93",
        "string_94",
        "string_95",
        "string_96",
        "string_97"
      ]
    },
    {
      "id_qa": "FMSH_PB188a_16-17_162_qa3_v3",
      "id_block": "block_3",
      "question": "En quelle année a été reprise la revendication de contrôle ouvrier ?",
      "answer": "en 1958",
      "answer_stringIds": [
        "string_89",
        "string_90"
      ]
    },
    {
      "id_qa": "FMSH_PB188a_16-17_162_qa4_v3",
      "id_block": "block_3",
      "question": "De quand date l'idée de contrôle ouvrier ?",
      "answer": "mai 1968",
      "answer_stringIds": [
        "string_62",
        "string_63"
      ]
    },
    {
      "id_qa": "FMSH_PB188a_16-17_162_qa9_v3",
      "id_block": "block_3",
      "question": "Qu'est ce qui devait être organisé par la F.G.T.B.",
      "answer": "un Congrès extraordinaire",
      "answer_stringIds": [
        "string_146",
        "string_147",
        "string_148"
      ]
    },
    {
      "id_qa": "FMSH_PB188a_16-17_162_qa12_v3",
      "id_block": "block_3",
      "question": "A quoi s'est consacré le Congrès extraordinaire ?",
      "answer": "à ce Contrôle ouvrier",
      "answer_stringIds": [
        "string_150",
        "string_151",
        "string_152",
        "string_153"
      ]
    },
    {
      "id_qa": "FMSH_PB188a_16-17_162_qa13_v3",
      "id_block": "block_3",
      "question": "Qui a présidé la commission du Contrôle ouvrier ?",
      "answer": "par Willy Schugens",
      "answer_stringIds": [
        "string_119",
        "string_120",
        "string_121"
      ]
    },
    {
      "id_qa": "FMSH_PB188a_16-17_162_qa14_v3",
      "id_block": "block_3",
      "question": "Quel syndicat réclamait la réalisation du Contrôle ouvrier ?",
      "answer": "la F.G.T.B.",
      "answer_stringIds": [
        "string_18",
        "string_19"
      ]
    },
    {
      "id_qa": "FMSH_PB188a_16-17_162_qa37_v3",
      "id_block": "block_3",
      "question": "Qui a confié la commission spéciale à une commission spéciale ?",
      "answer": "le Congrès",
      "answer_stringIds": [
        "string_14",
        "string_15"
      ]
    },
    {
      "id_qa": "FMSH_PB188a_16-17_162_qa17_v3",
      "id_block": "block_4",
      "question": "Qu'est ce qui permet de limiter l'arbitraire patronal ?",
      "answer": "des mesures",
      "answer_stringIds": [
        "string_199",
        "string_200"
      ]
    },
    {
      "id_qa": "FMSH_PB188a_16-17_162_qa20_v3",
      "id_block": "block_4",
      "question": "Dans quel type d'organisation s'inscrit le contrôle ouvrier ?",
      "answer": "des organisations syndicales",
      "answer_stringIds": [
        "string_221",
        "string_222",
        "string_223"
      ]
    },
    {
      "id_qa": "FMSH_PB188a_16-17_162_qa26_v3",
      "id_block": "block_4",
      "question": "Qu'est-ce qui renforce le pouvoir des travailleurs ?",
      "answer": "le Contrôle ouvrier",
      "answer_stringIds": [
        "string_185",
        "string_186",
        "string_187"
      ]
    },
    {
      "id_qa": "FMSH_PB188a_16-17_162_qa28_v3",
      "id_block": "block_4",
      "question": "Qui pense que le contrôle ouvrier doit déboucher nécessairement sur l'autogestion ?",
      "answer": "André Genot",
      "answer_stringIds": [
        "string_24",
        "string_25"
      ]
    },
    {
      "id_qa": "FMSH_PB188a_16-17_162_qa29_v3",
      "id_block": "block_4",
      "question": "Qu'est ce qui doit déboucher sur l'autogestion ?",
      "answer": "une telle conception du contrôle ouvrier",
      "answer_stringIds": [
        "string_292",
        "string_293",
        "string_294",
        "string_295",
        "string_296",
        "string_297"
      ]
    },
    {
      "id_qa": "FMSH_PB188a_16-17_162_qa31_v3",
      "id_block": "block_4",
      "question": "Pour que le contrôle ouvrier renforce le pouvoir des travailleurs ?",
      "answer": "que les travailleurs le prennent en charge",
      "answer_stringIds": [
        "string_281",
        "string_282",
        "string_283",
        "string_284",
        "string_285",
        "string_286",
        "string_287"
      ]
    },
    {
      "id_qa": "FMSH_PB188a_16-17_162_qa33_v3",
      "id_block": "block_5",
      "question": "Qu'a montré le Secrétaire national de la F.G.T.B.",
      "answer": "le chemin",
      "answer_stringIds": [
        "string_333",
        "string_334"
      ]
    },
    {
      "id_qa": "FMSH_PB188a_16-17_162_qa36_v3",
      "id_block": "block_5",
      "question": "A quel mouvement s'est-il intéressé en 1921 ?",
      "answer": "au mouvement syndical",
      "answer_stringIds": [
        "string_345",
        "string_346",
        "string_347"
      ]
    }
  ]
}