{
  "num": "autog_0005-0970_1968_num_5_1",
  "article": "autog_0005-0970_1968_num_5_1_919",
  "page_name": "FMSH_PB188a_05-06_054",
  "questions": [
    {
      "id_qa": "FMSH_PB188a_05-06_054_qa11_v3",
      "id_block": "block_1",
      "question": "Quelle est la forme de la délégation des pouvoirs ?",
      "answer": "à une démocratie formelle de type parlementaire",
      "answer_stringIds": [
        "string_33",
        "string_34",
        "string_35",
        "string_36",
        "string_37",
        "string_38",
        "string_39"
      ]
    },
    {
      "id_qa": "FMSH_PB188a_05-06_054_qa15_v3",
      "id_block": "block_1",
      "question": "Qu'est ce qui risque d'aboutir à une démocratie formelle de type parlementaire ?",
      "answer": "un cloisonnement excessif des centres de décision",
      "answer_stringIds": [
        "string_46",
        "string_47",
        "string_48",
        "string_49",
        "string_50",
        "string_51",
        "string_52"
      ]
    },
    {
      "id_qa": "FMSH_PB188a_05-06_054_qa16_v3",
      "id_block": "block_1",
      "question": "Qui défend les intérêts de l'ensemble de la société ?",
      "answer": "chacun",
      "answer_stringIds": [
        "string_53"
      ]
    },
    {
      "id_qa": "FMSH_PB188a_05-06_054_qa42_v3",
      "id_block": "block_2",
      "question": "Qu'est-ce qui risque d'amener la création d'une bureaucratie ?",
      "answer": "sa non solution",
      "answer_stringIds": [
        "string_88",
        "string_89",
        "string_90"
      ]
    },
    {
      "id_qa": "FMSH_PB188a_05-06_054_qa31_v3",
      "id_block": "block_3",
      "question": "Qu'est-ce qui suscite les réactions des syndicats vis-àvis de l'autogestion ?",
      "answer": "expériences",
      "answer_stringIds": [
        "string_120"
      ]
    },
    {
      "id_qa": "FMSH_PB188a_05-06_054_qa6_v3",
      "id_block": "block_4",
      "question": "Qui est à l'origine des revendications ?",
      "answer": "les individus",
      "answer_stringIds": [
        "string_423",
        "string_424"
      ]
    },
    {
      "id_qa": "FMSH_PB188a_05-06_054_qa28_v3",
      "id_block": "block_4",
      "question": "Qui s'oppose au comité d'entreprise ?",
      "answer": "les syndicats",
      "answer_stringIds": [
        "string_350",
        "string_351"
      ]
    },
    {
      "id_qa": "FMSH_PB188a_05-06_054_qa34_v3",
      "id_block": "block_4",
      "question": "Par qui les comités se sont-ils formés ?",
      "answer": "les syndicats",
      "answer_stringIds": [
        "string_350",
        "string_351"
      ]
    },
    {
      "id_qa": "FMSH_PB188a_05-06_054_qa35_v3",
      "id_block": "block_4",
      "question": "Qu'est ce qui a été animé ou favorisés par les syndicats ?",
      "answer": "des comités",
      "answer_stringIds": [
        "string_337",
        "string_338"
      ]
    },
    {
      "id_qa": "FMSH_PB188a_05-06_054_qa36_v3",
      "id_block": "block_4",
      "question": "Qu'est ce qui s'est passé à la C.S.F ?",
      "answer": "des comités",
      "answer_stringIds": [
        "string_337",
        "string_338"
      ]
    },
    {
      "id_qa": "FMSH_PB188a_05-06_054_qa40_v3",
      "id_block": "block_4",
      "question": "Par qui ont été animés les comités ?",
      "answer": "les syndicats",
      "answer_stringIds": [
        "string_350",
        "string_351"
      ]
    },
    {
      "id_qa": "FMSH_PB188a_05-06_054_qa7_v3",
      "id_block": "block_6",
      "question": "Qu'est ce qui est apparu dans l'entreprise ?",
      "answer": "cette situation",
      "answer_stringIds": [
        "string_461",
        "string_462"
      ]
    },
    {
      "id_qa": "FMSH_PB188a_05-06_054_qa41_v3",
      "id_block": "block_6",
      "question": "Comment s'appelle l'assemblée générale ?",
      "answer": "une assemblée générale",
      "answer_stringIds": [
        "string_489",
        "string_490",
        "string_491"
      ]
    }
  ]
}